:20000000045200400464004001650040010101400107014050080140320901405A0A0140B6
:20002000390B01403C0C01403C0D0140580E0140360F014032140140181501400540014080
:20004000014101400342014005430140024401400645014002460140034701400C49014051
:20006000055001400151014010441C3C61016420892F8A0F8C728F38840DE208E60305083E
:2000800011181302171E19021B0C1E0225012D022E032F14310E3202331C340135013B0A50
:2000A0004020410649FF4AFF4BFF4DA04F0450185280580459045A045B045C215D115F0183
:2000C000604062C06440654066C068C06AC06CC06EC080089402A20CA603B004B201B402B1
:2000E000B608C020C106C5D5C601C702C817C9FFCAFFCBFFCDAFCE0FCF04D018D427D6044E
:20010000D804DA04DB04DC01DD11DF01E040E2C0E440E540E6C0E8C0EAC0ECC0EEC001023B
:200120000A100D4010A0174019521A101D201F082501260127182D802F20360137183F0803
:2001400041204520482049014A084E0C50805140520859515A086004610263407740830808
:2001600087408902900499809F18A324A501C008C284C48CCA50CCE0CE40D024D224D60F5B
:20018000D8050403060407010C030E0C14031604170119011C1020092301260E2D013410BE
:2001A000360F37013A803E103F404051410245EB470C481349FF4AFF4BFF4EF04F44500C81
:2001C0005401580459045A045B045C025D225F0166C06A406B0281018414850889088C1006
:2001E0008E0C91089203970299039A10A409A504A610A80CAA11AC1CAD03AE02B01FB10431
:20020000B303B708B908BB20BF05C002C610C705C818C9FFCA07CBFFCC40CD20CEF0CF05D7
:20022000D008D804D904DA04DC22DD02DF01E040E1A8E240E32001800310058809080A2068
:200240000B020D010E400F08110213081602171819801A081E4022402610276229802A029A
:200260002D802F20300433103404371938083D023E164350472049894B025004510857246F
:2002800059015AA89004921495029B019F02A610AB80B212C0A5C255C4ECCA59CCE6CEE29E
:2002A000D02CD208D60FEC04050209060D0E0F0110011301150E1701190F1D04200221095D
:2002C0002306330834013602370738023B803E503F0456025711580459045B045C215D2077
:2002E0005F018001810282028301841C880889018B068C10920494029601980399049B0114
:200300009C049E18A018A204A41CA507A803A907AC18B203B307B41CD804D904DC22DF01C8
:2003200000020180022408010A250E80111012821308150219101A201C041E801F80231074
:200340002540268027202B282E013210341135803638370A3A023B103D803E283F805F20F6
:200360006D106E146F297580763C9201962097109A029C119D909E149F02A001A208A54056
:20038000A740B021B202B504B620C00FC21FC41FCA86CCF4CE75D6200005028004300508BE
:2003A000081009180D070F18120F1303140A151C168017021830191F1A0F1C0F1E301F044F
:2003C0002020211C2301243F25042720280F2A402C3C2D102E033003331F34C0363C3720F0
:2003E0003A803B083E10580459045C225F018701920198019B01A302AA01AB02AC01B3026C
:20040000B601B701B880BF44C014C103C202C406C50CC70EC811C9FFCAFFCBFFCC62CDA097
:20042000CEF0CF41D00CD418D604D804D904DA04DB04DC02DD22DF01E640E702E910EA30F7
:20044000EB10ED10EE10EF120002021408010A290C100F80101011801240131017601902EE
:200460001A011B101F80224C232025042640282029802A402B402F88301132483550364024
:20048000371039803A143F04414042014340441047524F2457085D0265406620678087408D
:2004A000C00EC25FC4CFCAABCC2FCE4ED0F0D220D680D8B002011E0136013E40405149FFEE
:2004C0004AFF4BFF4F015018540158045A045B045D225F016040624064406540668068802B
:2004E0006A806C806E80C041C5ECC602C807C9FFCAFFCBFFCD83CE03CF01D018D280DA048B
:20050000DB04DD22DF01E040E240E440E540E680E880EA80EC80EE800002098019404180DB
:200520004580464048014D0A5580594A5C085D205E8174017640812086418808C008C201EA
:20054000D098D208D6FBE080322035808580CC30E210A6205308A620D42083088620A6205C
:20056000A708E6C01440C40454205D02B040D402D601EA01A420A9028820A420E4040208E2
:20058000054008020F408002860887408940C0C0C230E010E4C000060C060E0610041A04B9
:2005A000000F0000010020111000010000000000400000C787004400000000003C00003C9F
:2005C00000000000000000000000000000000000000000000000000000000000000000001B
:00000001FF
