--------------- Build Started: 03/09/2014 04:02:54 Project: servo check, Configuration: ARM GCC 4.7.3 Debug ---------------
The code generation step is up to date.
.\main.c: In function 'main':
arm-none-eabi-gcc.exe -I. -I./Generated_Source/PSoC5 -Wno-main -mcpu=cortex-m3 -mthumb -Wall -g -D DEBUG -Wa,-alh=.\CortexM3\ARM_GCC_473\Debug\main.lst -ffunction-sections -c .\main.c -o .\CortexM3\ARM_GCC_473\Debug\main.o
.\main.c:19:9: warning: unused variable 'i' [-Wunused-variable]
The command 'arm-none-eabi-gcc.exe' failed with exit code '1'.
.\main.c: At top level:
.\main.c:78:27: error: macro "CheckStatus" passed 1 arguments, but takes just 0
.\main.c:79:1: error: expected '=', ',', ';', 'asm' or '__attribute__' before '{' token
--------------- Build Failed: 03/09/2014 04:02:56 ---------------
