:20000000045200400464004001650040020701404708014027090140550A01403E0B014087
:20002000100C01403E0D01404B0E01402C0F0140311401401415014001170140011901401D
:2000400003400140024101400442014006430140024401400945014001460140034701405E
:200060000248014005500140015101401004114061016420892F8A388D728F0F850DE602F0
:20008000EA011F0123012E01340135014020410649FF4AFF4BFF4DA04F045018528058043F
:2000A00059045A045B045F01604062C06440654066C068C06AC06CC06EC09B049C029F010C
:2000C000A102A202A601A904B101B302B401B504B602B802BF04C020C106C5D5C601C702AA
:2000E000C817C9FFCAFFCBFFCDAFCE0FCF04D018D427D604D804D904DA04DB04DF01E04067
:20010000E2C0E440E540E6C0E8C0EAC0ECC0EEC00A0210A0174019521D2022112310270852
:2001200029122C8030A037403A103B1041204520482049014A084E0C5080520859415A2892
:20014000610262106340774087408902AA02C201C48CCA85CC1CD024D224D60FD805020278
:20016000040E070409080A010D040E01100C113C120213421402151C160C17611804197FBF
:200180001C0C1D101E0220082323256726102718280C29182E103001311F320E3338341058
:2001A000354039203A083B023E1154185604580459045B045C115D105F0185048C019003E2
:2001C00091049301970799019B02A602A803AD01AF06B203B707B808BB80BE04C003C501B2
:2001E000C705C811C9FFCA07CBFFCC40CD20CEF0CF05D008D804D904DA04DC10DD01DF0153
:20020000E040E1A8E240E32000A201020310070109020A160E4010841221172818041B0991
:200220001D082020210322282701280429062A202E403080312233183729382039083B80AE
:200240003E0845084F04560859016004620263028A018B0890209108925493809502970441
:2002600099059A219B289E089F01A0C1A120A608A708C08FC21FC46FCA17CCEFCE4ED04072
:20028000D601D80D050108020C061203180826072A053007320835013A023E045804590411
:2002A0005C115F010040012906080701080409200A800E400F0410A2131017281801190D7E
:2002C0001A101D081E402002212022442610270828042B08312439573F04400141204210C8
:2002E00048414A0852015A0869546B1470B072247310904091089380964099209B209E088D
:200300009F15A002A508A610B082B350B401C0CFC25EC46FCA04CC06CE4FD00ED20CD60207
:2003200008070C040D010E010F0610021102120113011503180119031A061C082407310330
:200340003304340736083E40580459045C115F018101862089068A108B08902C9112921103
:200360009409963099069B189E03A01CA222A830AA0CAB1CAC14AD06AF08B31EB420B501CD
:20038000B61FBB08BE10BF10C023C105C5E0C6C0C7B0C82AC9FFCAFFCBFFCEF0CF44D00CE3
:2003A000D401D804D904DA04DB04DC11DD11DF01E6C0EA40EB020040030406180A050B807B
:2003C0000E710F40101016011721180219201A041E011F1020402106240427202E5030106D
:2003E0003102331437213B803C103D013E20450847204D014F4056315C945D01C063C2BB82
:20040000C4D4CA30CCA7CEA8D060D210D6F0405149FF4AFF4BFF4F0150185A045D015F0149
:200420006040624064406540668068806A806C806E8082019E01B001BE01C041C5ECC60293
:20044000C807C9FFCAFFCBFFCD83CE03CF01D018D280D401D804DA04DB04DD11DF01E040EB
:20046000E240E440E540E680E880EA80EC80EE8006400D801E8041804580464048014D04E8
:200480004F0155805D045E805F0174017640C010C280D098D208D6D0EA08AF0832203780C1
:2004A000CC309F80A62053409F80A620D42086209780A620AB80E640EA801501C40454205F
:2004C00060089808B101B408D402D802E802EE01A4208820A420E404AF40EA1000030C030A
:2004E0000E0210021A02000F0C01C300C3020C00C3021000820220000000C3000F01C00002
:20050000CF0100000000000008000000040000000C01000041002000C0000F01000030028F
:2005200000000820000040043502060001C000E022FFFFFF62A0F0410C00000000000212FF
:200540000404040411110001000000000000400200103010001010120000000000000000A4
:200560000000000000000000010020111000010000000000400000C7870044000000000066
:00000001FF
