ARM GAS  C:\Users\RIEKOH~1\AppData\Local\Temp\ccZn7k8y.s 			page 1


   1              		.syntax unified
   2              		.cpu cortex-m3
   3              		.fpu softvfp
   4              		.eabi_attribute 20, 1
   5              		.eabi_attribute 21, 1
   6              		.eabi_attribute 23, 3
   7              		.eabi_attribute 24, 1
   8              		.eabi_attribute 25, 1
   9              		.eabi_attribute 26, 1
  10              		.eabi_attribute 30, 6
  11              		.eabi_attribute 34, 1
  12              		.eabi_attribute 18, 4
  13              		.thumb
  14              		.file	"Cm3Start.c"
  15              		.text
  16              	.Ltext0:
  17              		.cfi_sections	.debug_frame
  18              		.section	.noinit,"aw",%progbits
  19              		.align	2
  20              		.type	cySysNoInitDataValid, %object
  21              		.size	cySysNoInitDataValid, 4
  22              	cySysNoInitDataValid:
  23 0000 00000000 		.space	4
  24              		.global	CyRamVectors
  25              		.section	.ramvectors,"aw",%progbits
  26              		.align	8
  27              		.type	CyRamVectors, %object
  28              		.size	CyRamVectors, 192
  29              	CyRamVectors:
  30 0000 00000000 		.space	192
  30      00000000 
  30      00000000 
  30      00000000 
  30      00000000 
  31 00c0 00000000 		.section	.text.IntDefaultHandler,"ax",%progbits
  31      00000000 
  31      00000000 
  31      00000000 
  31      00000000 
  32              		.align	2
  33              		.global	IntDefaultHandler
  34              		.thumb
  35              		.thumb_func
  36              		.type	IntDefaultHandler, %function
  37              	IntDefaultHandler:
  38              	.LFB0:
  39              		.file 1 ".\\Generated_Source\\PSoC5\\Cm3Start.c"
   1:.\Generated_Source\PSoC5/Cm3Start.c **** /*******************************************************************************
   2:.\Generated_Source\PSoC5/Cm3Start.c **** * File Name: Cm3Start.c
   3:.\Generated_Source\PSoC5/Cm3Start.c **** * Version 4.0
   4:.\Generated_Source\PSoC5/Cm3Start.c **** *
   5:.\Generated_Source\PSoC5/Cm3Start.c **** *  Description:
   6:.\Generated_Source\PSoC5/Cm3Start.c **** *  Startup code for the ARM CM3.
   7:.\Generated_Source\PSoC5/Cm3Start.c **** *
   8:.\Generated_Source\PSoC5/Cm3Start.c **** ********************************************************************************
   9:.\Generated_Source\PSoC5/Cm3Start.c **** * Copyright 2008-2013, Cypress Semiconductor Corporation. All rights reserved.
  10:.\Generated_Source\PSoC5/Cm3Start.c **** * You may use this file only in accordance with the license, terms, conditions,
ARM GAS  C:\Users\RIEKOH~1\AppData\Local\Temp\ccZn7k8y.s 			page 2


  11:.\Generated_Source\PSoC5/Cm3Start.c **** * disclaimers, and limitations in the end user license agreement accompanying
  12:.\Generated_Source\PSoC5/Cm3Start.c **** * the software package with which this file was provided.
  13:.\Generated_Source\PSoC5/Cm3Start.c **** *******************************************************************************/
  14:.\Generated_Source\PSoC5/Cm3Start.c **** 
  15:.\Generated_Source\PSoC5/Cm3Start.c **** #include <limits.h>
  16:.\Generated_Source\PSoC5/Cm3Start.c **** #include "cydevice_trm.h"
  17:.\Generated_Source\PSoC5/Cm3Start.c **** #include "cytypes.h"
  18:.\Generated_Source\PSoC5/Cm3Start.c **** #include "cyfitter_cfg.h"
  19:.\Generated_Source\PSoC5/Cm3Start.c **** #include "CyLib.h"
  20:.\Generated_Source\PSoC5/Cm3Start.c **** #include "CyDmac.h"
  21:.\Generated_Source\PSoC5/Cm3Start.c **** #include "cyfitter.h"
  22:.\Generated_Source\PSoC5/Cm3Start.c **** 
  23:.\Generated_Source\PSoC5/Cm3Start.c **** #define CY_NUM_INTERRUPTS           (32u)
  24:.\Generated_Source\PSoC5/Cm3Start.c **** #define CY_NUM_VECTORS              (CYINT_IRQ_BASE + CY_NUM_INTERRUPTS)
  25:.\Generated_Source\PSoC5/Cm3Start.c **** #define CY_NUM_ROM_VECTORS          (4u)
  26:.\Generated_Source\PSoC5/Cm3Start.c **** #define CY_NVIC_APINT_PTR           ((reg32 *) CYREG_NVIC_APPLN_INTR)
  27:.\Generated_Source\PSoC5/Cm3Start.c **** #define CY_NVIC_CFG_CTRL_PTR        ((reg32 *) CYREG_NVIC_CFG_CONTROL)
  28:.\Generated_Source\PSoC5/Cm3Start.c **** #define CY_NVIC_APINT_PRIGROUP_3_5  (0x00000400u)  /* Priority group 3.5 split */
  29:.\Generated_Source\PSoC5/Cm3Start.c **** #define CY_NVIC_APINT_VECTKEY       (0x05FA0000u)  /* This key is required in order to write the NV
  30:.\Generated_Source\PSoC5/Cm3Start.c **** #define CY_NVIC_CFG_STACKALIGN      (0x00000200u)  /* This specifies that the exception stack must 
  31:.\Generated_Source\PSoC5/Cm3Start.c **** 
  32:.\Generated_Source\PSoC5/Cm3Start.c **** 
  33:.\Generated_Source\PSoC5/Cm3Start.c **** /* Extern functions */
  34:.\Generated_Source\PSoC5/Cm3Start.c **** extern void CyBtldr_CheckLaunch(void);
  35:.\Generated_Source\PSoC5/Cm3Start.c **** 
  36:.\Generated_Source\PSoC5/Cm3Start.c **** /* Function prototypes */
  37:.\Generated_Source\PSoC5/Cm3Start.c **** void initialize_psoc(void);
  38:.\Generated_Source\PSoC5/Cm3Start.c **** CY_ISR(IntDefaultHandler);
  39:.\Generated_Source\PSoC5/Cm3Start.c **** void Reset(void);
  40:.\Generated_Source\PSoC5/Cm3Start.c **** CY_ISR(IntDefaultHandler);
  41:.\Generated_Source\PSoC5/Cm3Start.c **** 
  42:.\Generated_Source\PSoC5/Cm3Start.c **** #if defined(__ARMCC_VERSION)
  43:.\Generated_Source\PSoC5/Cm3Start.c ****     #define INITIAL_STACK_POINTER ((cyisraddress)(uint32)&Image$$ARM_LIB_STACK$$ZI$$Limit)
  44:.\Generated_Source\PSoC5/Cm3Start.c **** #elif defined (__GNUC__)
  45:.\Generated_Source\PSoC5/Cm3Start.c ****     #define INITIAL_STACK_POINTER (&__cy_stack)
  46:.\Generated_Source\PSoC5/Cm3Start.c **** #elif defined (__ICCARM__)
  47:.\Generated_Source\PSoC5/Cm3Start.c ****     #pragma language=extended
  48:.\Generated_Source\PSoC5/Cm3Start.c ****     #pragma segment="CSTACK"
  49:.\Generated_Source\PSoC5/Cm3Start.c ****     #define INITIAL_STACK_POINTER  { .__ptr = __sfe( "CSTACK" ) }
  50:.\Generated_Source\PSoC5/Cm3Start.c **** 
  51:.\Generated_Source\PSoC5/Cm3Start.c ****     extern void __iar_program_start( void );
  52:.\Generated_Source\PSoC5/Cm3Start.c ****     extern void __iar_data_init3 (void);
  53:.\Generated_Source\PSoC5/Cm3Start.c **** #endif  /* (__ARMCC_VERSION) */
  54:.\Generated_Source\PSoC5/Cm3Start.c **** 
  55:.\Generated_Source\PSoC5/Cm3Start.c **** /* Global variables */
  56:.\Generated_Source\PSoC5/Cm3Start.c **** #if !defined (__ICCARM__)
  57:.\Generated_Source\PSoC5/Cm3Start.c ****     CY_NOINIT static uint32 cySysNoInitDataValid;
  58:.\Generated_Source\PSoC5/Cm3Start.c **** #endif  /* !defined (__ICCARM__) */
  59:.\Generated_Source\PSoC5/Cm3Start.c **** 
  60:.\Generated_Source\PSoC5/Cm3Start.c **** 
  61:.\Generated_Source\PSoC5/Cm3Start.c **** /*******************************************************************************
  62:.\Generated_Source\PSoC5/Cm3Start.c **** * Default Ram Interrupt Vector table storage area. Must be 256-byte aligned.
  63:.\Generated_Source\PSoC5/Cm3Start.c **** *******************************************************************************/
  64:.\Generated_Source\PSoC5/Cm3Start.c **** #if defined (__ICCARM__)
  65:.\Generated_Source\PSoC5/Cm3Start.c ****     #pragma location=".ramvectors"
  66:.\Generated_Source\PSoC5/Cm3Start.c ****     #pragma data_alignment=256
  67:.\Generated_Source\PSoC5/Cm3Start.c **** #else
ARM GAS  C:\Users\RIEKOH~1\AppData\Local\Temp\ccZn7k8y.s 			page 3


  68:.\Generated_Source\PSoC5/Cm3Start.c ****     CY_SECTION(".ramvectors")
  69:.\Generated_Source\PSoC5/Cm3Start.c ****     CY_ALIGN(256)
  70:.\Generated_Source\PSoC5/Cm3Start.c **** #endif  /* defined (__ICCARM__) */
  71:.\Generated_Source\PSoC5/Cm3Start.c **** cyisraddress CyRamVectors[CY_NUM_VECTORS];
  72:.\Generated_Source\PSoC5/Cm3Start.c **** 
  73:.\Generated_Source\PSoC5/Cm3Start.c **** 
  74:.\Generated_Source\PSoC5/Cm3Start.c **** /*******************************************************************************
  75:.\Generated_Source\PSoC5/Cm3Start.c **** * Function Name: IntDefaultHandler
  76:.\Generated_Source\PSoC5/Cm3Start.c **** ********************************************************************************
  77:.\Generated_Source\PSoC5/Cm3Start.c **** *
  78:.\Generated_Source\PSoC5/Cm3Start.c **** * Summary:
  79:.\Generated_Source\PSoC5/Cm3Start.c **** *  This function is called for all interrupts, other than reset, that get
  80:.\Generated_Source\PSoC5/Cm3Start.c **** *  called before the system is setup.
  81:.\Generated_Source\PSoC5/Cm3Start.c **** *
  82:.\Generated_Source\PSoC5/Cm3Start.c **** * Parameters:
  83:.\Generated_Source\PSoC5/Cm3Start.c **** *  None
  84:.\Generated_Source\PSoC5/Cm3Start.c **** *
  85:.\Generated_Source\PSoC5/Cm3Start.c **** * Return:
  86:.\Generated_Source\PSoC5/Cm3Start.c **** *  None
  87:.\Generated_Source\PSoC5/Cm3Start.c **** *
  88:.\Generated_Source\PSoC5/Cm3Start.c **** * Theory:
  89:.\Generated_Source\PSoC5/Cm3Start.c **** *  Any value other than zero is acceptable.
  90:.\Generated_Source\PSoC5/Cm3Start.c **** *
  91:.\Generated_Source\PSoC5/Cm3Start.c **** *******************************************************************************/
  92:.\Generated_Source\PSoC5/Cm3Start.c **** CY_ISR(IntDefaultHandler)
  93:.\Generated_Source\PSoC5/Cm3Start.c **** {
  40              		.loc 1 93 0
  41              		.cfi_startproc
  42              		@ args = 0, pretend = 0, frame = 0
  43              		@ frame_needed = 1, uses_anonymous_args = 0
  44              		@ link register save eliminated.
  45 0000 80B4     		push	{r7}
  46              	.LCFI0:
  47              		.cfi_def_cfa_offset 4
  48              		.cfi_offset 7, -4
  49 0002 00AF     		add	r7, sp, #0
  50              	.LCFI1:
  51              		.cfi_def_cfa_register 7
  52              	.L2:
  94:.\Generated_Source\PSoC5/Cm3Start.c **** 
  95:.\Generated_Source\PSoC5/Cm3Start.c ****     while(1)
  96:.\Generated_Source\PSoC5/Cm3Start.c ****     {
  97:.\Generated_Source\PSoC5/Cm3Start.c ****         /***********************************************************************
  98:.\Generated_Source\PSoC5/Cm3Start.c ****         * We should never get here. If we do, a serious problem occured, so go
  99:.\Generated_Source\PSoC5/Cm3Start.c ****         * into an infinite loop.
 100:.\Generated_Source\PSoC5/Cm3Start.c ****         ***********************************************************************/
 101:.\Generated_Source\PSoC5/Cm3Start.c ****     }
  53              		.loc 1 101 0 discriminator 1
  54 0004 FEE7     		b	.L2
  55              		.cfi_endproc
  56              	.LFE0:
  57              		.size	IntDefaultHandler, .-IntDefaultHandler
  58 0006 00BF     		.section	.text.Reset,"ax",%progbits
  59              		.align	2
  60              		.global	Reset
  61              		.thumb
  62              		.thumb_func
ARM GAS  C:\Users\RIEKOH~1\AppData\Local\Temp\ccZn7k8y.s 			page 4


  63              		.type	Reset, %function
  64              	Reset:
  65              	.LFB1:
 102:.\Generated_Source\PSoC5/Cm3Start.c **** }
 103:.\Generated_Source\PSoC5/Cm3Start.c **** 
 104:.\Generated_Source\PSoC5/Cm3Start.c **** 
 105:.\Generated_Source\PSoC5/Cm3Start.c **** #if defined(__ARMCC_VERSION)
 106:.\Generated_Source\PSoC5/Cm3Start.c **** 
 107:.\Generated_Source\PSoC5/Cm3Start.c **** /* Local function for the device reset. */
 108:.\Generated_Source\PSoC5/Cm3Start.c **** extern void Reset(void);
 109:.\Generated_Source\PSoC5/Cm3Start.c **** 
 110:.\Generated_Source\PSoC5/Cm3Start.c **** /* Application entry point. */
 111:.\Generated_Source\PSoC5/Cm3Start.c **** extern void $Super$$main(void);
 112:.\Generated_Source\PSoC5/Cm3Start.c **** 
 113:.\Generated_Source\PSoC5/Cm3Start.c **** /* Linker-generated Stack Base addresses, Two Region and One Region */
 114:.\Generated_Source\PSoC5/Cm3Start.c **** extern uint32 Image$$ARM_LIB_STACK$$ZI$$Limit;
 115:.\Generated_Source\PSoC5/Cm3Start.c **** 
 116:.\Generated_Source\PSoC5/Cm3Start.c **** /* RealView C Library initialization. */
 117:.\Generated_Source\PSoC5/Cm3Start.c **** extern int __main(void);
 118:.\Generated_Source\PSoC5/Cm3Start.c **** 
 119:.\Generated_Source\PSoC5/Cm3Start.c **** 
 120:.\Generated_Source\PSoC5/Cm3Start.c **** /*******************************************************************************
 121:.\Generated_Source\PSoC5/Cm3Start.c **** * Function Name: Reset
 122:.\Generated_Source\PSoC5/Cm3Start.c **** ********************************************************************************
 123:.\Generated_Source\PSoC5/Cm3Start.c **** *
 124:.\Generated_Source\PSoC5/Cm3Start.c **** * Summary:
 125:.\Generated_Source\PSoC5/Cm3Start.c **** *  This function handles the reset interrupt for the RVDS/MDK toolchains.
 126:.\Generated_Source\PSoC5/Cm3Start.c **** *  This is the first bit of code that is executed at startup.
 127:.\Generated_Source\PSoC5/Cm3Start.c **** *
 128:.\Generated_Source\PSoC5/Cm3Start.c **** * Parameters:
 129:.\Generated_Source\PSoC5/Cm3Start.c **** *  None
 130:.\Generated_Source\PSoC5/Cm3Start.c **** *
 131:.\Generated_Source\PSoC5/Cm3Start.c **** * Return:
 132:.\Generated_Source\PSoC5/Cm3Start.c **** *  None
 133:.\Generated_Source\PSoC5/Cm3Start.c **** *
 134:.\Generated_Source\PSoC5/Cm3Start.c **** *******************************************************************************/
 135:.\Generated_Source\PSoC5/Cm3Start.c **** void Reset(void)
 136:.\Generated_Source\PSoC5/Cm3Start.c **** {
 137:.\Generated_Source\PSoC5/Cm3Start.c ****     #if(CYDEV_PROJ_TYPE != CYDEV_PROJ_TYPE_LOADABLE)
 138:.\Generated_Source\PSoC5/Cm3Start.c **** 
 139:.\Generated_Source\PSoC5/Cm3Start.c ****         /* For PSoC 5LP, debugging is enabled by default */
 140:.\Generated_Source\PSoC5/Cm3Start.c ****         #if(CYDEV_DEBUGGING_ENABLE == 0)
 141:.\Generated_Source\PSoC5/Cm3Start.c ****             *(reg32 *)(CYDEV_DEBUG_ENABLE_REGISTER) |= CYDEV_DEBUG_ENABLE_MASK;
 142:.\Generated_Source\PSoC5/Cm3Start.c ****         #endif /* (CYDEV_DEBUGGING_ENABLE) */
 143:.\Generated_Source\PSoC5/Cm3Start.c **** 
 144:.\Generated_Source\PSoC5/Cm3Start.c ****         /* Reset Status Register has Read-to-clear SW access mode.
 145:.\Generated_Source\PSoC5/Cm3Start.c ****         * Preserve current RESET_SR0 state to make it available for next reading.
 146:.\Generated_Source\PSoC5/Cm3Start.c ****         */
 147:.\Generated_Source\PSoC5/Cm3Start.c ****         *(reg32 *)(CYREG_PHUB_CFGMEM23_CFG1) = *(reg32 *)(CYREG_RESET_SR0);
 148:.\Generated_Source\PSoC5/Cm3Start.c **** 
 149:.\Generated_Source\PSoC5/Cm3Start.c ****     #endif  /* (CYDEV_PROJ_TYPE != CYDEV_PROJ_TYPE_LOADABLE) */
 150:.\Generated_Source\PSoC5/Cm3Start.c **** 
 151:.\Generated_Source\PSoC5/Cm3Start.c ****     #if(CYDEV_BOOTLOADER_ENABLE)
 152:.\Generated_Source\PSoC5/Cm3Start.c ****         CyBtldr_CheckLaunch();
 153:.\Generated_Source\PSoC5/Cm3Start.c ****     #endif /* (CYDEV_BOOTLOADER_ENABLE) */
 154:.\Generated_Source\PSoC5/Cm3Start.c **** 
 155:.\Generated_Source\PSoC5/Cm3Start.c ****     __main();
ARM GAS  C:\Users\RIEKOH~1\AppData\Local\Temp\ccZn7k8y.s 			page 5


 156:.\Generated_Source\PSoC5/Cm3Start.c **** }
 157:.\Generated_Source\PSoC5/Cm3Start.c **** 
 158:.\Generated_Source\PSoC5/Cm3Start.c **** 
 159:.\Generated_Source\PSoC5/Cm3Start.c **** /*******************************************************************************
 160:.\Generated_Source\PSoC5/Cm3Start.c **** * Function Name: $Sub$$main
 161:.\Generated_Source\PSoC5/Cm3Start.c **** ********************************************************************************
 162:.\Generated_Source\PSoC5/Cm3Start.c **** *
 163:.\Generated_Source\PSoC5/Cm3Start.c **** * Summary:
 164:.\Generated_Source\PSoC5/Cm3Start.c **** *  This function is called imediatly before the users main
 165:.\Generated_Source\PSoC5/Cm3Start.c **** *
 166:.\Generated_Source\PSoC5/Cm3Start.c **** * Parameters:
 167:.\Generated_Source\PSoC5/Cm3Start.c **** *  None
 168:.\Generated_Source\PSoC5/Cm3Start.c **** *
 169:.\Generated_Source\PSoC5/Cm3Start.c **** * Return:
 170:.\Generated_Source\PSoC5/Cm3Start.c **** *  None
 171:.\Generated_Source\PSoC5/Cm3Start.c **** *
 172:.\Generated_Source\PSoC5/Cm3Start.c **** *******************************************************************************/
 173:.\Generated_Source\PSoC5/Cm3Start.c **** void $Sub$$main(void)
 174:.\Generated_Source\PSoC5/Cm3Start.c **** {
 175:.\Generated_Source\PSoC5/Cm3Start.c ****     initialize_psoc();
 176:.\Generated_Source\PSoC5/Cm3Start.c **** 
 177:.\Generated_Source\PSoC5/Cm3Start.c ****     /* Call original main */
 178:.\Generated_Source\PSoC5/Cm3Start.c ****     $Super$$main();
 179:.\Generated_Source\PSoC5/Cm3Start.c **** 
 180:.\Generated_Source\PSoC5/Cm3Start.c ****     while (1)
 181:.\Generated_Source\PSoC5/Cm3Start.c ****     {
 182:.\Generated_Source\PSoC5/Cm3Start.c ****         /* If main returns it is undefined what we should do. */
 183:.\Generated_Source\PSoC5/Cm3Start.c ****     }
 184:.\Generated_Source\PSoC5/Cm3Start.c **** }
 185:.\Generated_Source\PSoC5/Cm3Start.c **** 
 186:.\Generated_Source\PSoC5/Cm3Start.c **** #elif defined(__GNUC__)
 187:.\Generated_Source\PSoC5/Cm3Start.c **** 
 188:.\Generated_Source\PSoC5/Cm3Start.c **** void Start_c(void);
 189:.\Generated_Source\PSoC5/Cm3Start.c **** 
 190:.\Generated_Source\PSoC5/Cm3Start.c **** /* Stack Base address */
 191:.\Generated_Source\PSoC5/Cm3Start.c **** extern void __cy_stack(void);
 192:.\Generated_Source\PSoC5/Cm3Start.c **** 
 193:.\Generated_Source\PSoC5/Cm3Start.c **** /* Application entry point. */
 194:.\Generated_Source\PSoC5/Cm3Start.c **** extern int main(void);
 195:.\Generated_Source\PSoC5/Cm3Start.c **** 
 196:.\Generated_Source\PSoC5/Cm3Start.c **** /* The static objects constructors initializer */
 197:.\Generated_Source\PSoC5/Cm3Start.c **** extern void __libc_init_array(void);
 198:.\Generated_Source\PSoC5/Cm3Start.c **** 
 199:.\Generated_Source\PSoC5/Cm3Start.c **** typedef unsigned char __cy_byte_align8 __attribute ((aligned (8)));
 200:.\Generated_Source\PSoC5/Cm3Start.c **** 
 201:.\Generated_Source\PSoC5/Cm3Start.c **** struct __cy_region
 202:.\Generated_Source\PSoC5/Cm3Start.c **** {
 203:.\Generated_Source\PSoC5/Cm3Start.c ****     __cy_byte_align8 *init; /* Initial contents of this region.  */
 204:.\Generated_Source\PSoC5/Cm3Start.c ****     __cy_byte_align8 *data; /* Start address of region.  */
 205:.\Generated_Source\PSoC5/Cm3Start.c ****     size_t init_size;       /* Size of initial data.  */
 206:.\Generated_Source\PSoC5/Cm3Start.c ****     size_t zero_size;       /* Additional size to be zeroed.  */
 207:.\Generated_Source\PSoC5/Cm3Start.c **** };
 208:.\Generated_Source\PSoC5/Cm3Start.c **** 
 209:.\Generated_Source\PSoC5/Cm3Start.c **** extern const struct __cy_region __cy_regions[];
 210:.\Generated_Source\PSoC5/Cm3Start.c **** extern const char __cy_region_num __attribute__((weak));
 211:.\Generated_Source\PSoC5/Cm3Start.c **** #define __cy_region_num ((size_t)&__cy_region_num)
 212:.\Generated_Source\PSoC5/Cm3Start.c **** 
ARM GAS  C:\Users\RIEKOH~1\AppData\Local\Temp\ccZn7k8y.s 			page 6


 213:.\Generated_Source\PSoC5/Cm3Start.c **** 
 214:.\Generated_Source\PSoC5/Cm3Start.c **** /*******************************************************************************
 215:.\Generated_Source\PSoC5/Cm3Start.c **** * Function Name: Reset
 216:.\Generated_Source\PSoC5/Cm3Start.c **** ********************************************************************************
 217:.\Generated_Source\PSoC5/Cm3Start.c **** *
 218:.\Generated_Source\PSoC5/Cm3Start.c **** * Summary:
 219:.\Generated_Source\PSoC5/Cm3Start.c **** *  This function handles the reset interrupt for the GCC toolchain. This is the
 220:.\Generated_Source\PSoC5/Cm3Start.c **** *  first bit of code that is executed at startup.
 221:.\Generated_Source\PSoC5/Cm3Start.c **** *
 222:.\Generated_Source\PSoC5/Cm3Start.c **** * Parameters:
 223:.\Generated_Source\PSoC5/Cm3Start.c **** *  None
 224:.\Generated_Source\PSoC5/Cm3Start.c **** *
 225:.\Generated_Source\PSoC5/Cm3Start.c **** * Return:
 226:.\Generated_Source\PSoC5/Cm3Start.c **** *  None
 227:.\Generated_Source\PSoC5/Cm3Start.c **** *
 228:.\Generated_Source\PSoC5/Cm3Start.c **** *******************************************************************************/
 229:.\Generated_Source\PSoC5/Cm3Start.c **** void Reset(void)
 230:.\Generated_Source\PSoC5/Cm3Start.c **** {
  66              		.loc 1 230 0
  67              		.cfi_startproc
  68              		@ args = 0, pretend = 0, frame = 0
  69              		@ frame_needed = 1, uses_anonymous_args = 0
  70 0000 80B5     		push	{r7, lr}
  71              	.LCFI2:
  72              		.cfi_def_cfa_offset 8
  73              		.cfi_offset 7, -8
  74              		.cfi_offset 14, -4
  75 0002 00AF     		add	r7, sp, #0
  76              	.LCFI3:
  77              		.cfi_def_cfa_register 7
 231:.\Generated_Source\PSoC5/Cm3Start.c ****     #if(CYDEV_PROJ_TYPE != CYDEV_PROJ_TYPE_LOADABLE)
 232:.\Generated_Source\PSoC5/Cm3Start.c **** 
 233:.\Generated_Source\PSoC5/Cm3Start.c ****         /* For PSoC 5LP, debugging is enabled by default */
 234:.\Generated_Source\PSoC5/Cm3Start.c ****         #if(CYDEV_DEBUGGING_ENABLE == 0)
 235:.\Generated_Source\PSoC5/Cm3Start.c ****             *(reg32 *)(CYDEV_DEBUG_ENABLE_REGISTER) |= CYDEV_DEBUG_ENABLE_MASK;
 236:.\Generated_Source\PSoC5/Cm3Start.c ****         #endif /* (CYDEV_DEBUGGING_ENABLE) */
 237:.\Generated_Source\PSoC5/Cm3Start.c **** 
 238:.\Generated_Source\PSoC5/Cm3Start.c ****         /* Reset Status Register has Read-to-clear SW access mode.
 239:.\Generated_Source\PSoC5/Cm3Start.c ****         * Preserve current RESET_SR0 state to make it available for next reading.
 240:.\Generated_Source\PSoC5/Cm3Start.c ****         */
 241:.\Generated_Source\PSoC5/Cm3Start.c ****         *(reg32 *)(CYREG_PHUB_CFGMEM23_CFG1) = *(reg32 *)(CYREG_RESET_SR0);
  78              		.loc 1 241 0
  79 0004 47F2BC63 		movw	r3, #30396
  80 0008 C4F20003 		movt	r3, 16384
  81 000c 44F2FA62 		movw	r2, #18170
  82 0010 C4F20002 		movt	r2, 16384
  83 0014 1268     		ldr	r2, [r2, #0]
  84 0016 1A60     		str	r2, [r3, #0]
 242:.\Generated_Source\PSoC5/Cm3Start.c **** 
 243:.\Generated_Source\PSoC5/Cm3Start.c ****     #endif  /* (CYDEV_PROJ_TYPE != CYDEV_PROJ_TYPE_LOADABLE) */
 244:.\Generated_Source\PSoC5/Cm3Start.c **** 
 245:.\Generated_Source\PSoC5/Cm3Start.c ****     #if(CYDEV_BOOTLOADER_ENABLE)
 246:.\Generated_Source\PSoC5/Cm3Start.c ****         CyBtldr_CheckLaunch();
 247:.\Generated_Source\PSoC5/Cm3Start.c ****     #endif /* (CYDEV_BOOTLOADER_ENABLE) */
 248:.\Generated_Source\PSoC5/Cm3Start.c **** 
 249:.\Generated_Source\PSoC5/Cm3Start.c ****     Start_c();
  85              		.loc 1 249 0
ARM GAS  C:\Users\RIEKOH~1\AppData\Local\Temp\ccZn7k8y.s 			page 7


  86 0018 FFF7FEFF 		bl	Start_c
  87              		.cfi_endproc
  88              	.LFE1:
  89              		.size	Reset, .-Reset
  90              		.section	.text._exit,"ax",%progbits
  91              		.align	2
  92              		.weak	_exit
  93              		.thumb
  94              		.thumb_func
  95              		.type	_exit, %function
  96              	_exit:
  97              	.LFB2:
 250:.\Generated_Source\PSoC5/Cm3Start.c **** }
 251:.\Generated_Source\PSoC5/Cm3Start.c **** 
 252:.\Generated_Source\PSoC5/Cm3Start.c **** __attribute__((weak))
 253:.\Generated_Source\PSoC5/Cm3Start.c **** void _exit(int status)
 254:.\Generated_Source\PSoC5/Cm3Start.c **** {
  98              		.loc 1 254 0
  99              		.cfi_startproc
 100              		@ args = 0, pretend = 0, frame = 16
 101              		@ frame_needed = 1, uses_anonymous_args = 0
 102              		@ link register save eliminated.
 103 0000 80B4     		push	{r7}
 104              	.LCFI4:
 105              		.cfi_def_cfa_offset 4
 106              		.cfi_offset 7, -4
 107 0002 85B0     		sub	sp, sp, #20
 108              	.LCFI5:
 109              		.cfi_def_cfa_offset 24
 110 0004 00AF     		add	r7, sp, #0
 111              	.LCFI6:
 112              		.cfi_def_cfa_register 7
 113 0006 7860     		str	r0, [r7, #4]
 255:.\Generated_Source\PSoC5/Cm3Start.c ****     /* Cause a divide by 0 exception */
 256:.\Generated_Source\PSoC5/Cm3Start.c ****     int x = status / INT_MAX;
 114              		.loc 1 256 0
 115 0008 7A68     		ldr	r2, [r7, #4]
 116 000a 4FF00103 		mov	r3, #1
 117 000e C4F20003 		movt	r3, 16384
 118 0012 83FB0213 		smull	r1, r3, r3, r2
 119 0016 4FEA6371 		asr	r1, r3, #29
 120 001a 4FEAE273 		asr	r3, r2, #31
 121 001e CB1A     		subs	r3, r1, r3
 122 0020 FB60     		str	r3, [r7, #12]
 257:.\Generated_Source\PSoC5/Cm3Start.c ****     x = 4 / x;
 123              		.loc 1 257 0
 124 0022 4FF00402 		mov	r2, #4
 125 0026 FB68     		ldr	r3, [r7, #12]
 126 0028 92FBF3F3 		sdiv	r3, r2, r3
 127 002c FB60     		str	r3, [r7, #12]
 128              	.L5:
 258:.\Generated_Source\PSoC5/Cm3Start.c **** 
 259:.\Generated_Source\PSoC5/Cm3Start.c ****     while(1)
 260:.\Generated_Source\PSoC5/Cm3Start.c ****     {
 261:.\Generated_Source\PSoC5/Cm3Start.c ****     }
 129              		.loc 1 261 0 discriminator 1
 130 002e FEE7     		b	.L5
ARM GAS  C:\Users\RIEKOH~1\AppData\Local\Temp\ccZn7k8y.s 			page 8


 131              		.cfi_endproc
 132              	.LFE2:
 133              		.size	_exit, .-_exit
 134              		.section	.text.Start_c,"ax",%progbits
 135              		.align	2
 136              		.global	Start_c
 137              		.thumb
 138              		.thumb_func
 139              		.type	Start_c, %function
 140              	Start_c:
 141              	.LFB3:
 262:.\Generated_Source\PSoC5/Cm3Start.c **** }
 263:.\Generated_Source\PSoC5/Cm3Start.c **** 
 264:.\Generated_Source\PSoC5/Cm3Start.c **** /*******************************************************************************
 265:.\Generated_Source\PSoC5/Cm3Start.c **** * Function Name: Start_c
 266:.\Generated_Source\PSoC5/Cm3Start.c **** ********************************************************************************
 267:.\Generated_Source\PSoC5/Cm3Start.c **** *
 268:.\Generated_Source\PSoC5/Cm3Start.c **** * Summary:
 269:.\Generated_Source\PSoC5/Cm3Start.c **** *  This function handles initializing the .data and .bss sections in
 270:.\Generated_Source\PSoC5/Cm3Start.c **** *  preperation for running standard C code.  Once initialization is complete
 271:.\Generated_Source\PSoC5/Cm3Start.c **** *  it will call main(). This function will never return.
 272:.\Generated_Source\PSoC5/Cm3Start.c **** *
 273:.\Generated_Source\PSoC5/Cm3Start.c **** * Parameters:
 274:.\Generated_Source\PSoC5/Cm3Start.c **** *  None
 275:.\Generated_Source\PSoC5/Cm3Start.c **** *
 276:.\Generated_Source\PSoC5/Cm3Start.c **** * Return:
 277:.\Generated_Source\PSoC5/Cm3Start.c **** *  None
 278:.\Generated_Source\PSoC5/Cm3Start.c **** *
 279:.\Generated_Source\PSoC5/Cm3Start.c **** *******************************************************************************/
 280:.\Generated_Source\PSoC5/Cm3Start.c **** void Start_c(void)  __attribute__ ((noreturn));
 281:.\Generated_Source\PSoC5/Cm3Start.c **** void Start_c(void)
 282:.\Generated_Source\PSoC5/Cm3Start.c **** {
 142              		.loc 1 282 0
 143              		.cfi_startproc
 144              		@ args = 0, pretend = 0, frame = 24
 145              		@ frame_needed = 1, uses_anonymous_args = 0
 146 0000 80B5     		push	{r7, lr}
 147              	.LCFI7:
 148              		.cfi_def_cfa_offset 8
 149              		.cfi_offset 7, -8
 150              		.cfi_offset 14, -4
 151 0002 86B0     		sub	sp, sp, #24
 152              	.LCFI8:
 153              		.cfi_def_cfa_offset 32
 154 0004 00AF     		add	r7, sp, #0
 155              	.LCFI9:
 156              		.cfi_def_cfa_register 7
 283:.\Generated_Source\PSoC5/Cm3Start.c ****     unsigned regions = __cy_region_num;
 157              		.loc 1 283 0
 158 0006 40F20003 		movw	r3, #:lower16:__cy_region_num
 159 000a C0F20003 		movt	r3, #:upper16:__cy_region_num
 160 000e 7B61     		str	r3, [r7, #20]
 284:.\Generated_Source\PSoC5/Cm3Start.c ****     const struct __cy_region *rptr = __cy_regions;
 161              		.loc 1 284 0
 162 0010 40F20003 		movw	r3, #:lower16:__cy_regions
 163 0014 C0F20003 		movt	r3, #:upper16:__cy_regions
 164 0018 3B61     		str	r3, [r7, #16]
ARM GAS  C:\Users\RIEKOH~1\AppData\Local\Temp\ccZn7k8y.s 			page 9


 285:.\Generated_Source\PSoC5/Cm3Start.c **** 
 286:.\Generated_Source\PSoC5/Cm3Start.c ****     /* Initialize memory */
 287:.\Generated_Source\PSoC5/Cm3Start.c ****     for (regions = __cy_region_num, rptr = __cy_regions; regions--; rptr++)
 165              		.loc 1 287 0
 166 001a 40F20003 		movw	r3, #:lower16:__cy_region_num
 167 001e C0F20003 		movt	r3, #:upper16:__cy_region_num
 168 0022 7B61     		str	r3, [r7, #20]
 169 0024 40F20003 		movw	r3, #:lower16:__cy_regions
 170 0028 C0F20003 		movt	r3, #:upper16:__cy_regions
 171 002c 3B61     		str	r3, [r7, #16]
 172 002e 3BE0     		b	.L7
 173              	.L12:
 174              	.LBB2:
 288:.\Generated_Source\PSoC5/Cm3Start.c ****     {
 289:.\Generated_Source\PSoC5/Cm3Start.c ****         uint32 *src = (uint32 *)rptr->init;
 175              		.loc 1 289 0
 176 0030 3B69     		ldr	r3, [r7, #16]
 177 0032 1B68     		ldr	r3, [r3, #0]
 178 0034 FB60     		str	r3, [r7, #12]
 290:.\Generated_Source\PSoC5/Cm3Start.c ****         uint32 *dst = (uint32 *)rptr->data;
 179              		.loc 1 290 0
 180 0036 3B69     		ldr	r3, [r7, #16]
 181 0038 5B68     		ldr	r3, [r3, #4]
 182 003a BB60     		str	r3, [r7, #8]
 291:.\Generated_Source\PSoC5/Cm3Start.c ****         unsigned limit = rptr->init_size;
 183              		.loc 1 291 0
 184 003c 3B69     		ldr	r3, [r7, #16]
 185 003e 9B68     		ldr	r3, [r3, #8]
 186 0040 3B60     		str	r3, [r7, #0]
 292:.\Generated_Source\PSoC5/Cm3Start.c ****         unsigned count;
 293:.\Generated_Source\PSoC5/Cm3Start.c **** 
 294:.\Generated_Source\PSoC5/Cm3Start.c ****         for (count = 0u; count != limit; count += sizeof (uint32))
 187              		.loc 1 294 0
 188 0042 4FF00003 		mov	r3, #0
 189 0046 7B60     		str	r3, [r7, #4]
 190 0048 0FE0     		b	.L8
 191              	.L9:
 295:.\Generated_Source\PSoC5/Cm3Start.c ****         {
 296:.\Generated_Source\PSoC5/Cm3Start.c ****             *dst++ = *src++;
 192              		.loc 1 296 0 discriminator 2
 193 004a FB68     		ldr	r3, [r7, #12]
 194 004c 1A68     		ldr	r2, [r3, #0]
 195 004e BB68     		ldr	r3, [r7, #8]
 196 0050 1A60     		str	r2, [r3, #0]
 197 0052 BB68     		ldr	r3, [r7, #8]
 198 0054 03F10403 		add	r3, r3, #4
 199 0058 BB60     		str	r3, [r7, #8]
 200 005a FB68     		ldr	r3, [r7, #12]
 201 005c 03F10403 		add	r3, r3, #4
 202 0060 FB60     		str	r3, [r7, #12]
 294:.\Generated_Source\PSoC5/Cm3Start.c ****         for (count = 0u; count != limit; count += sizeof (uint32))
 203              		.loc 1 294 0 discriminator 2
 204 0062 7B68     		ldr	r3, [r7, #4]
 205 0064 03F10403 		add	r3, r3, #4
 206 0068 7B60     		str	r3, [r7, #4]
 207              	.L8:
 294:.\Generated_Source\PSoC5/Cm3Start.c ****         for (count = 0u; count != limit; count += sizeof (uint32))
ARM GAS  C:\Users\RIEKOH~1\AppData\Local\Temp\ccZn7k8y.s 			page 10


 208              		.loc 1 294 0 is_stmt 0 discriminator 1
 209 006a 7A68     		ldr	r2, [r7, #4]
 210 006c 3B68     		ldr	r3, [r7, #0]
 211 006e 9A42     		cmp	r2, r3
 212 0070 EBD1     		bne	.L9
 297:.\Generated_Source\PSoC5/Cm3Start.c ****         }
 298:.\Generated_Source\PSoC5/Cm3Start.c ****         limit = rptr->zero_size;
 213              		.loc 1 298 0 is_stmt 1
 214 0072 3B69     		ldr	r3, [r7, #16]
 215 0074 DB68     		ldr	r3, [r3, #12]
 216 0076 3B60     		str	r3, [r7, #0]
 299:.\Generated_Source\PSoC5/Cm3Start.c ****         for (count = 0u; count != limit; count += sizeof (uint32))
 217              		.loc 1 299 0
 218 0078 4FF00003 		mov	r3, #0
 219 007c 7B60     		str	r3, [r7, #4]
 220 007e 0BE0     		b	.L10
 221              	.L11:
 300:.\Generated_Source\PSoC5/Cm3Start.c ****         {
 301:.\Generated_Source\PSoC5/Cm3Start.c ****             *dst++ = 0u;
 222              		.loc 1 301 0 discriminator 2
 223 0080 BB68     		ldr	r3, [r7, #8]
 224 0082 4FF00002 		mov	r2, #0
 225 0086 1A60     		str	r2, [r3, #0]
 226 0088 BB68     		ldr	r3, [r7, #8]
 227 008a 03F10403 		add	r3, r3, #4
 228 008e BB60     		str	r3, [r7, #8]
 299:.\Generated_Source\PSoC5/Cm3Start.c ****         for (count = 0u; count != limit; count += sizeof (uint32))
 229              		.loc 1 299 0 discriminator 2
 230 0090 7B68     		ldr	r3, [r7, #4]
 231 0092 03F10403 		add	r3, r3, #4
 232 0096 7B60     		str	r3, [r7, #4]
 233              	.L10:
 299:.\Generated_Source\PSoC5/Cm3Start.c ****         for (count = 0u; count != limit; count += sizeof (uint32))
 234              		.loc 1 299 0 is_stmt 0 discriminator 1
 235 0098 7A68     		ldr	r2, [r7, #4]
 236 009a 3B68     		ldr	r3, [r7, #0]
 237 009c 9A42     		cmp	r2, r3
 238 009e EFD1     		bne	.L11
 239              	.LBE2:
 287:.\Generated_Source\PSoC5/Cm3Start.c ****     for (regions = __cy_region_num, rptr = __cy_regions; regions--; rptr++)
 240              		.loc 1 287 0 is_stmt 1
 241 00a0 3B69     		ldr	r3, [r7, #16]
 242 00a2 03F11003 		add	r3, r3, #16
 243 00a6 3B61     		str	r3, [r7, #16]
 244              	.L7:
 287:.\Generated_Source\PSoC5/Cm3Start.c ****     for (regions = __cy_region_num, rptr = __cy_regions; regions--; rptr++)
 245              		.loc 1 287 0 is_stmt 0 discriminator 1
 246 00a8 7B69     		ldr	r3, [r7, #20]
 247 00aa 002B     		cmp	r3, #0
 248 00ac 0CBF     		ite	eq
 249 00ae 0023     		moveq	r3, #0
 250 00b0 0123     		movne	r3, #1
 251 00b2 DBB2     		uxtb	r3, r3
 252 00b4 7A69     		ldr	r2, [r7, #20]
 253 00b6 02F1FF32 		add	r2, r2, #-1
 254 00ba 7A61     		str	r2, [r7, #20]
 255 00bc 002B     		cmp	r3, #0
ARM GAS  C:\Users\RIEKOH~1\AppData\Local\Temp\ccZn7k8y.s 			page 11


 256 00be B7D1     		bne	.L12
 302:.\Generated_Source\PSoC5/Cm3Start.c ****         }
 303:.\Generated_Source\PSoC5/Cm3Start.c ****     }
 304:.\Generated_Source\PSoC5/Cm3Start.c **** 
 305:.\Generated_Source\PSoC5/Cm3Start.c ****     /* Invoke static objects constructors */
 306:.\Generated_Source\PSoC5/Cm3Start.c ****     __libc_init_array();
 257              		.loc 1 306 0 is_stmt 1
 258 00c0 FFF7FEFF 		bl	__libc_init_array
 307:.\Generated_Source\PSoC5/Cm3Start.c ****     (void) main();
 259              		.loc 1 307 0
 260 00c4 FFF7FEFF 		bl	main
 261              	.L13:
 308:.\Generated_Source\PSoC5/Cm3Start.c **** 
 309:.\Generated_Source\PSoC5/Cm3Start.c ****     while (1)
 310:.\Generated_Source\PSoC5/Cm3Start.c ****     {
 311:.\Generated_Source\PSoC5/Cm3Start.c ****         /* If main returns, make sure we don't return. */
 312:.\Generated_Source\PSoC5/Cm3Start.c ****     }
 262              		.loc 1 312 0 discriminator 1
 263 00c8 FEE7     		b	.L13
 264              		.cfi_endproc
 265              	.LFE3:
 266              		.size	Start_c, .-Start_c
 267              		.global	RomVectors
 268 00ca 00BF     		.section	.romvectors,"a",%progbits
 269              		.align	2
 270              		.type	RomVectors, %object
 271              		.size	RomVectors, 16
 272              	RomVectors:
 273 0000 00000000 		.word	__cy_stack
 274 0004 00000000 		.word	Reset
 275 0008 00000000 		.word	IntDefaultHandler
 276 000c 00000000 		.word	IntDefaultHandler
 277              		.section	.text.initialize_psoc,"ax",%progbits
 278              		.align	2
 279              		.global	initialize_psoc
 280              		.thumb
 281              		.thumb_func
 282              		.type	initialize_psoc, %function
 283              	initialize_psoc:
 284              	.LFB4:
 313:.\Generated_Source\PSoC5/Cm3Start.c **** }
 314:.\Generated_Source\PSoC5/Cm3Start.c **** 
 315:.\Generated_Source\PSoC5/Cm3Start.c **** 
 316:.\Generated_Source\PSoC5/Cm3Start.c **** #elif defined (__ICCARM__)
 317:.\Generated_Source\PSoC5/Cm3Start.c **** 
 318:.\Generated_Source\PSoC5/Cm3Start.c **** /*******************************************************************************
 319:.\Generated_Source\PSoC5/Cm3Start.c **** * Function Name: __low_level_init
 320:.\Generated_Source\PSoC5/Cm3Start.c **** ********************************************************************************
 321:.\Generated_Source\PSoC5/Cm3Start.c **** *
 322:.\Generated_Source\PSoC5/Cm3Start.c **** * Summary:
 323:.\Generated_Source\PSoC5/Cm3Start.c **** *  This function perform early initializations for the IAR Embedded
 324:.\Generated_Source\PSoC5/Cm3Start.c **** *  Workbench IDE. It is executed in the context of reset interrupt handler
 325:.\Generated_Source\PSoC5/Cm3Start.c **** *  before the data sections are initialized.
 326:.\Generated_Source\PSoC5/Cm3Start.c **** *
 327:.\Generated_Source\PSoC5/Cm3Start.c **** * Parameters:
 328:.\Generated_Source\PSoC5/Cm3Start.c **** *  None
 329:.\Generated_Source\PSoC5/Cm3Start.c **** *
ARM GAS  C:\Users\RIEKOH~1\AppData\Local\Temp\ccZn7k8y.s 			page 12


 330:.\Generated_Source\PSoC5/Cm3Start.c **** * Return:
 331:.\Generated_Source\PSoC5/Cm3Start.c **** *  The value that determines whether or not data sections should be initialized
 332:.\Generated_Source\PSoC5/Cm3Start.c **** *  by the system startup code:
 333:.\Generated_Source\PSoC5/Cm3Start.c **** *    0 - skip data sections initialization;
 334:.\Generated_Source\PSoC5/Cm3Start.c **** *    1 - initialize data sections;
 335:.\Generated_Source\PSoC5/Cm3Start.c **** *
 336:.\Generated_Source\PSoC5/Cm3Start.c **** *******************************************************************************/
 337:.\Generated_Source\PSoC5/Cm3Start.c **** int __low_level_init(void)
 338:.\Generated_Source\PSoC5/Cm3Start.c **** {
 339:.\Generated_Source\PSoC5/Cm3Start.c ****     #if(CYDEV_PROJ_TYPE != CYDEV_PROJ_TYPE_LOADABLE)
 340:.\Generated_Source\PSoC5/Cm3Start.c **** 
 341:.\Generated_Source\PSoC5/Cm3Start.c ****         /* For PSoC 5LP, debugging is enabled by default */
 342:.\Generated_Source\PSoC5/Cm3Start.c ****         #if(CYDEV_DEBUGGING_ENABLE == 0)
 343:.\Generated_Source\PSoC5/Cm3Start.c ****             *(reg32 *)(CYDEV_DEBUG_ENABLE_REGISTER) |= CYDEV_DEBUG_ENABLE_MASK;
 344:.\Generated_Source\PSoC5/Cm3Start.c ****         #endif /* (CYDEV_DEBUGGING_ENABLE) */
 345:.\Generated_Source\PSoC5/Cm3Start.c **** 
 346:.\Generated_Source\PSoC5/Cm3Start.c ****         /* Reset Status Register has Read-to-clear SW access mode.
 347:.\Generated_Source\PSoC5/Cm3Start.c ****         * Preserve current RESET_SR0 state to make it available for next reading.
 348:.\Generated_Source\PSoC5/Cm3Start.c ****         */
 349:.\Generated_Source\PSoC5/Cm3Start.c ****         *(reg32 *)(CYREG_PHUB_CFGMEM23_CFG1) = *(reg32 *)(CYREG_RESET_SR0);
 350:.\Generated_Source\PSoC5/Cm3Start.c **** 
 351:.\Generated_Source\PSoC5/Cm3Start.c ****     #endif  /* (CYDEV_PROJ_TYPE != CYDEV_PROJ_TYPE_LOADABLE) */
 352:.\Generated_Source\PSoC5/Cm3Start.c **** 
 353:.\Generated_Source\PSoC5/Cm3Start.c ****     #if (CYDEV_BOOTLOADER_ENABLE)
 354:.\Generated_Source\PSoC5/Cm3Start.c ****         CyBtldr_CheckLaunch();
 355:.\Generated_Source\PSoC5/Cm3Start.c ****     #endif /* CYDEV_BOOTLOADER_ENABLE */
 356:.\Generated_Source\PSoC5/Cm3Start.c **** 
 357:.\Generated_Source\PSoC5/Cm3Start.c ****     /* Initialize data sections */
 358:.\Generated_Source\PSoC5/Cm3Start.c ****     __iar_data_init3();
 359:.\Generated_Source\PSoC5/Cm3Start.c **** 
 360:.\Generated_Source\PSoC5/Cm3Start.c ****     initialize_psoc();
 361:.\Generated_Source\PSoC5/Cm3Start.c **** 
 362:.\Generated_Source\PSoC5/Cm3Start.c ****     return 0;
 363:.\Generated_Source\PSoC5/Cm3Start.c **** }
 364:.\Generated_Source\PSoC5/Cm3Start.c **** 
 365:.\Generated_Source\PSoC5/Cm3Start.c **** #endif /* __GNUC__ */
 366:.\Generated_Source\PSoC5/Cm3Start.c **** 
 367:.\Generated_Source\PSoC5/Cm3Start.c **** 
 368:.\Generated_Source\PSoC5/Cm3Start.c **** /*******************************************************************************
 369:.\Generated_Source\PSoC5/Cm3Start.c **** *
 370:.\Generated_Source\PSoC5/Cm3Start.c **** * Default Rom Interrupt Vector table.
 371:.\Generated_Source\PSoC5/Cm3Start.c **** *
 372:.\Generated_Source\PSoC5/Cm3Start.c **** *******************************************************************************/
 373:.\Generated_Source\PSoC5/Cm3Start.c **** #if defined(__ARMCC_VERSION)
 374:.\Generated_Source\PSoC5/Cm3Start.c ****     /* Suppress diagnostic message 1296-D: extended constant initialiser used */
 375:.\Generated_Source\PSoC5/Cm3Start.c ****     #pragma diag_suppress 1296
 376:.\Generated_Source\PSoC5/Cm3Start.c **** #endif  /* defined(__ARMCC_VERSION) */
 377:.\Generated_Source\PSoC5/Cm3Start.c **** 
 378:.\Generated_Source\PSoC5/Cm3Start.c **** #if defined (__ICCARM__)
 379:.\Generated_Source\PSoC5/Cm3Start.c ****     #pragma location=".romvectors"
 380:.\Generated_Source\PSoC5/Cm3Start.c ****     const intvec_elem __vector_table[CY_NUM_ROM_VECTORS] =
 381:.\Generated_Source\PSoC5/Cm3Start.c **** #else
 382:.\Generated_Source\PSoC5/Cm3Start.c ****     CY_SECTION(".romvectors")
 383:.\Generated_Source\PSoC5/Cm3Start.c ****     const cyisraddress RomVectors[CY_NUM_ROM_VECTORS] =
 384:.\Generated_Source\PSoC5/Cm3Start.c **** #endif  /* defined (__ICCARM__) */
 385:.\Generated_Source\PSoC5/Cm3Start.c **** {
 386:.\Generated_Source\PSoC5/Cm3Start.c ****     INITIAL_STACK_POINTER,   /* The initial stack pointer  0 */
ARM GAS  C:\Users\RIEKOH~1\AppData\Local\Temp\ccZn7k8y.s 			page 13


 387:.\Generated_Source\PSoC5/Cm3Start.c ****     #if defined (__ICCARM__) /* The reset handler          1 */
 388:.\Generated_Source\PSoC5/Cm3Start.c ****         __iar_program_start,
 389:.\Generated_Source\PSoC5/Cm3Start.c ****     #else
 390:.\Generated_Source\PSoC5/Cm3Start.c ****         (cyisraddress)&Reset,
 391:.\Generated_Source\PSoC5/Cm3Start.c ****     #endif  /* defined (__ICCARM__) */
 392:.\Generated_Source\PSoC5/Cm3Start.c ****     &IntDefaultHandler,      /* The NMI handler            2 */
 393:.\Generated_Source\PSoC5/Cm3Start.c ****     &IntDefaultHandler,      /* The hard fault handler     3 */
 394:.\Generated_Source\PSoC5/Cm3Start.c **** };
 395:.\Generated_Source\PSoC5/Cm3Start.c **** 
 396:.\Generated_Source\PSoC5/Cm3Start.c **** #if defined(__ARMCC_VERSION)
 397:.\Generated_Source\PSoC5/Cm3Start.c ****     #pragma diag_default 1296
 398:.\Generated_Source\PSoC5/Cm3Start.c **** #endif  /* defined(__ARMCC_VERSION) */
 399:.\Generated_Source\PSoC5/Cm3Start.c **** 
 400:.\Generated_Source\PSoC5/Cm3Start.c **** 
 401:.\Generated_Source\PSoC5/Cm3Start.c **** /*******************************************************************************
 402:.\Generated_Source\PSoC5/Cm3Start.c **** * Function Name: initialize_psoc
 403:.\Generated_Source\PSoC5/Cm3Start.c **** ********************************************************************************
 404:.\Generated_Source\PSoC5/Cm3Start.c **** *
 405:.\Generated_Source\PSoC5/Cm3Start.c **** * Summary:
 406:.\Generated_Source\PSoC5/Cm3Start.c **** *  This function used to initialize the PSoC chip before calling main.
 407:.\Generated_Source\PSoC5/Cm3Start.c **** *
 408:.\Generated_Source\PSoC5/Cm3Start.c **** * Parameters:
 409:.\Generated_Source\PSoC5/Cm3Start.c **** *  None
 410:.\Generated_Source\PSoC5/Cm3Start.c **** *
 411:.\Generated_Source\PSoC5/Cm3Start.c **** * Return:
 412:.\Generated_Source\PSoC5/Cm3Start.c **** *  None
 413:.\Generated_Source\PSoC5/Cm3Start.c **** *
 414:.\Generated_Source\PSoC5/Cm3Start.c **** *******************************************************************************/
 415:.\Generated_Source\PSoC5/Cm3Start.c **** #if (defined(__GNUC__) && !defined(__ARMCC_VERSION))
 416:.\Generated_Source\PSoC5/Cm3Start.c **** __attribute__ ((constructor(101)))
 417:.\Generated_Source\PSoC5/Cm3Start.c **** #endif
 418:.\Generated_Source\PSoC5/Cm3Start.c **** void initialize_psoc(void)
 419:.\Generated_Source\PSoC5/Cm3Start.c **** {
 285              		.loc 1 419 0
 286              		.cfi_startproc
 287              		@ args = 0, pretend = 0, frame = 8
 288              		@ frame_needed = 1, uses_anonymous_args = 0
 289 0000 80B5     		push	{r7, lr}
 290              	.LCFI10:
 291              		.cfi_def_cfa_offset 8
 292              		.cfi_offset 7, -8
 293              		.cfi_offset 14, -4
 294 0002 82B0     		sub	sp, sp, #8
 295              	.LCFI11:
 296              		.cfi_def_cfa_offset 16
 297 0004 00AF     		add	r7, sp, #0
 298              	.LCFI12:
 299              		.cfi_def_cfa_register 7
 420:.\Generated_Source\PSoC5/Cm3Start.c ****     uint32 i;
 421:.\Generated_Source\PSoC5/Cm3Start.c **** 
 422:.\Generated_Source\PSoC5/Cm3Start.c ****     /* Set Priority group 5. */
 423:.\Generated_Source\PSoC5/Cm3Start.c **** 
 424:.\Generated_Source\PSoC5/Cm3Start.c ****     /* Writes to NVIC_APINT register require the VECTKEY in the upper half */
 425:.\Generated_Source\PSoC5/Cm3Start.c ****     *CY_NVIC_APINT_PTR = CY_NVIC_APINT_VECTKEY | CY_NVIC_APINT_PRIGROUP_3_5;
 300              		.loc 1 425 0
 301 0006 4EF60C53 		movw	r3, #60684
 302 000a CEF20003 		movt	r3, 57344
ARM GAS  C:\Users\RIEKOH~1\AppData\Local\Temp\ccZn7k8y.s 			page 14


 303 000e 4FF48062 		mov	r2, #1024
 304 0012 C0F2FA52 		movt	r2, 1530
 305 0016 1A60     		str	r2, [r3, #0]
 426:.\Generated_Source\PSoC5/Cm3Start.c ****     *CY_NVIC_CFG_CTRL_PTR |= CY_NVIC_CFG_STACKALIGN;
 306              		.loc 1 426 0
 307 0018 4EF61453 		movw	r3, #60692
 308 001c CEF20003 		movt	r3, 57344
 309 0020 4EF61452 		movw	r2, #60692
 310 0024 CEF20002 		movt	r2, 57344
 311 0028 1268     		ldr	r2, [r2, #0]
 312 002a 42F40072 		orr	r2, r2, #512
 313 002e 1A60     		str	r2, [r3, #0]
 427:.\Generated_Source\PSoC5/Cm3Start.c **** 
 428:.\Generated_Source\PSoC5/Cm3Start.c ****     /* Set Ram interrupt vectors to default functions. */
 429:.\Generated_Source\PSoC5/Cm3Start.c ****     for (i = 0u; i < CY_NUM_VECTORS; i++)
 314              		.loc 1 429 0
 315 0030 4FF00003 		mov	r3, #0
 316 0034 7B60     		str	r3, [r7, #4]
 317 0036 19E0     		b	.L15
 318              	.L18:
 430:.\Generated_Source\PSoC5/Cm3Start.c ****     {
 431:.\Generated_Source\PSoC5/Cm3Start.c ****         #if defined (__ICCARM__)
 432:.\Generated_Source\PSoC5/Cm3Start.c ****             CyRamVectors[i] = (i < CY_NUM_ROM_VECTORS) ? __vector_table[i].__fun : &IntDefaultHandl
 433:.\Generated_Source\PSoC5/Cm3Start.c ****         #else
 434:.\Generated_Source\PSoC5/Cm3Start.c ****             CyRamVectors[i] = (i < CY_NUM_ROM_VECTORS) ? RomVectors[i] : &IntDefaultHandler;
 319              		.loc 1 434 0
 320 0038 7B68     		ldr	r3, [r7, #4]
 321 003a 032B     		cmp	r3, #3
 322 003c 07D8     		bhi	.L16
 323              		.loc 1 434 0 is_stmt 0 discriminator 1
 324 003e 40F20003 		movw	r3, #:lower16:RomVectors
 325 0042 C0F20003 		movt	r3, #:upper16:RomVectors
 326 0046 7A68     		ldr	r2, [r7, #4]
 327 0048 53F82230 		ldr	r3, [r3, r2, lsl #2]
 328 004c 03E0     		b	.L17
 329              	.L16:
 330              		.loc 1 434 0 discriminator 2
 331 004e 40F20003 		movw	r3, #:lower16:IntDefaultHandler
 332 0052 C0F20003 		movt	r3, #:upper16:IntDefaultHandler
 333              	.L17:
 334              		.loc 1 434 0 discriminator 3
 335 0056 40F20002 		movw	r2, #:lower16:CyRamVectors
 336 005a C0F20002 		movt	r2, #:upper16:CyRamVectors
 337 005e 7968     		ldr	r1, [r7, #4]
 338 0060 42F82130 		str	r3, [r2, r1, lsl #2]
 429:.\Generated_Source\PSoC5/Cm3Start.c ****     for (i = 0u; i < CY_NUM_VECTORS; i++)
 339              		.loc 1 429 0 is_stmt 1 discriminator 3
 340 0064 7B68     		ldr	r3, [r7, #4]
 341 0066 03F10103 		add	r3, r3, #1
 342 006a 7B60     		str	r3, [r7, #4]
 343              	.L15:
 429:.\Generated_Source\PSoC5/Cm3Start.c ****     for (i = 0u; i < CY_NUM_VECTORS; i++)
 344              		.loc 1 429 0 is_stmt 0 discriminator 1
 345 006c 7B68     		ldr	r3, [r7, #4]
 346 006e 2F2B     		cmp	r3, #47
 347 0070 E2D9     		bls	.L18
 435:.\Generated_Source\PSoC5/Cm3Start.c ****         #endif  /* defined (__ICCARM__) */
ARM GAS  C:\Users\RIEKOH~1\AppData\Local\Temp\ccZn7k8y.s 			page 15


 436:.\Generated_Source\PSoC5/Cm3Start.c ****     }
 437:.\Generated_Source\PSoC5/Cm3Start.c **** 
 438:.\Generated_Source\PSoC5/Cm3Start.c ****     /* Was stored in CFGMEM to avoid being cleared while SRAM gets cleared */
 439:.\Generated_Source\PSoC5/Cm3Start.c ****     CyResetStatus = CY_GET_REG8(CYREG_PHUB_CFGMEM23_CFG1);
 348              		.loc 1 439 0 is_stmt 1
 349 0072 47F2BC63 		movw	r3, #30396
 350 0076 C4F20003 		movt	r3, 16384
 351 007a 1B78     		ldrb	r3, [r3, #0]
 352 007c DAB2     		uxtb	r2, r3
 353 007e 40F20003 		movw	r3, #:lower16:CyResetStatus
 354 0082 C0F20003 		movt	r3, #:upper16:CyResetStatus
 355 0086 1A70     		strb	r2, [r3, #0]
 440:.\Generated_Source\PSoC5/Cm3Start.c **** 
 441:.\Generated_Source\PSoC5/Cm3Start.c ****     /* Point NVIC at the RAM vector table. */
 442:.\Generated_Source\PSoC5/Cm3Start.c ****     *CYINT_VECT_TABLE = CyRamVectors;
 356              		.loc 1 442 0
 357 0088 4EF60853 		movw	r3, #60680
 358 008c CEF20003 		movt	r3, 57344
 359 0090 40F20002 		movw	r2, #:lower16:CyRamVectors
 360 0094 C0F20002 		movt	r2, #:upper16:CyRamVectors
 361 0098 1A60     		str	r2, [r3, #0]
 443:.\Generated_Source\PSoC5/Cm3Start.c **** 
 444:.\Generated_Source\PSoC5/Cm3Start.c ****     /* Initialize the configuration registers. */
 445:.\Generated_Source\PSoC5/Cm3Start.c ****     cyfitter_cfg();
 362              		.loc 1 445 0
 363 009a FFF7FEFF 		bl	cyfitter_cfg
 446:.\Generated_Source\PSoC5/Cm3Start.c **** 
 447:.\Generated_Source\PSoC5/Cm3Start.c ****     #if(0u != DMA_CHANNELS_USED__MASK0)
 448:.\Generated_Source\PSoC5/Cm3Start.c **** 
 449:.\Generated_Source\PSoC5/Cm3Start.c ****         /* Setup DMA - only necessary if the design contains a DMA component. */
 450:.\Generated_Source\PSoC5/Cm3Start.c ****         CyDmacConfigure();
 451:.\Generated_Source\PSoC5/Cm3Start.c **** 
 452:.\Generated_Source\PSoC5/Cm3Start.c ****     #endif  /* (0u != DMA_CHANNELS_USED__MASK0) */
 453:.\Generated_Source\PSoC5/Cm3Start.c **** 
 454:.\Generated_Source\PSoC5/Cm3Start.c ****     #if !defined (__ICCARM__)
 455:.\Generated_Source\PSoC5/Cm3Start.c ****         /* Actually, no need to clean this variable, just to make compiler happy. */
 456:.\Generated_Source\PSoC5/Cm3Start.c ****         cySysNoInitDataValid = 0u;
 364              		.loc 1 456 0
 365 009e 40F20003 		movw	r3, #:lower16:cySysNoInitDataValid
 366 00a2 C0F20003 		movt	r3, #:upper16:cySysNoInitDataValid
 367 00a6 4FF00002 		mov	r2, #0
 368 00aa 1A60     		str	r2, [r3, #0]
 457:.\Generated_Source\PSoC5/Cm3Start.c ****     #endif  /* !defined (__ICCARM__) */
 458:.\Generated_Source\PSoC5/Cm3Start.c **** }
 369              		.loc 1 458 0
 370 00ac 07F10807 		add	r7, r7, #8
 371 00b0 BD46     		mov	sp, r7
 372 00b2 80BD     		pop	{r7, pc}
 373              		.cfi_endproc
 374              	.LFE4:
 375              		.size	initialize_psoc, .-initialize_psoc
 376              		.section	.init_array,"aw",%init_array
 377              		.align	2
 378 0000 00000000 		.word	initialize_psoc(target1)
 379              		.weak	__cy_region_num
 380              		.text
 381              	.Letext0:
ARM GAS  C:\Users\RIEKOH~1\AppData\Local\Temp\ccZn7k8y.s 			page 16


 382              		.file 2 ".\\Generated_Source\\PSoC5\\cytypes.h"
 383              		.file 3 "c:\\program files\\cypress\\psoc creator\\3.0\\psoc creator\\import\\gnu_cs\\arm\\4.7.3\\
 384              		.file 4 ".\\Generated_Source\\PSoC5\\CyLib.h"
 385              		.section	.debug_info,"",%progbits
 386              	.Ldebug_info0:
 387 0000 E6020000 		.4byte	0x2e6
 388 0004 0200     		.2byte	0x2
 389 0006 00000000 		.4byte	.Ldebug_abbrev0
 390 000a 04       		.byte	0x4
 391 000b 01       		.uleb128 0x1
 392 000c DC010000 		.4byte	.LASF39
 393 0010 01       		.byte	0x1
 394 0011 00000000 		.4byte	.LASF40
 395 0015 85000000 		.4byte	.LASF41
 396 0019 00000000 		.4byte	.Ldebug_ranges0+0
 397 001d 00000000 		.4byte	0
 398 0021 00000000 		.4byte	0
 399 0025 00000000 		.4byte	.Ldebug_line0
 400 0029 02       		.uleb128 0x2
 401 002a 01       		.byte	0x1
 402 002b 06       		.byte	0x6
 403 002c 3C020000 		.4byte	.LASF0
 404 0030 02       		.uleb128 0x2
 405 0031 01       		.byte	0x1
 406 0032 08       		.byte	0x8
 407 0033 DD000000 		.4byte	.LASF1
 408 0037 02       		.uleb128 0x2
 409 0038 02       		.byte	0x2
 410 0039 05       		.byte	0x5
 411 003a D2010000 		.4byte	.LASF2
 412 003e 02       		.uleb128 0x2
 413 003f 02       		.byte	0x2
 414 0040 07       		.byte	0x7
 415 0041 4C000000 		.4byte	.LASF3
 416 0045 02       		.uleb128 0x2
 417 0046 04       		.byte	0x4
 418 0047 05       		.byte	0x5
 419 0048 25020000 		.4byte	.LASF4
 420 004c 02       		.uleb128 0x2
 421 004d 04       		.byte	0x4
 422 004e 07       		.byte	0x7
 423 004f F6000000 		.4byte	.LASF5
 424 0053 02       		.uleb128 0x2
 425 0054 08       		.byte	0x8
 426 0055 05       		.byte	0x5
 427 0056 BF010000 		.4byte	.LASF6
 428 005a 02       		.uleb128 0x2
 429 005b 08       		.byte	0x8
 430 005c 07       		.byte	0x7
 431 005d 6C010000 		.4byte	.LASF7
 432 0061 03       		.uleb128 0x3
 433 0062 04       		.byte	0x4
 434 0063 05       		.byte	0x5
 435 0064 696E7400 		.ascii	"int\000"
 436 0068 02       		.uleb128 0x2
 437 0069 04       		.byte	0x4
 438 006a 07       		.byte	0x7
ARM GAS  C:\Users\RIEKOH~1\AppData\Local\Temp\ccZn7k8y.s 			page 17


 439 006b 5F010000 		.4byte	.LASF8
 440 006f 04       		.uleb128 0x4
 441 0070 1D010000 		.4byte	.LASF9
 442 0074 02       		.byte	0x2
 443 0075 5B       		.byte	0x5b
 444 0076 30000000 		.4byte	0x30
 445 007a 04       		.uleb128 0x4
 446 007b 58010000 		.4byte	.LASF10
 447 007f 02       		.byte	0x2
 448 0080 5D       		.byte	0x5d
 449 0081 4C000000 		.4byte	0x4c
 450 0085 02       		.uleb128 0x2
 451 0086 04       		.byte	0x4
 452 0087 04       		.byte	0x4
 453 0088 D2000000 		.4byte	.LASF11
 454 008c 02       		.uleb128 0x2
 455 008d 08       		.byte	0x8
 456 008e 04       		.byte	0x4
 457 008f 41010000 		.4byte	.LASF12
 458 0093 02       		.uleb128 0x2
 459 0094 01       		.byte	0x1
 460 0095 08       		.byte	0x8
 461 0096 CD010000 		.4byte	.LASF13
 462 009a 04       		.uleb128 0x4
 463 009b B1010000 		.4byte	.LASF14
 464 009f 02       		.byte	0x2
 465 00a0 F0       		.byte	0xf0
 466 00a1 A5000000 		.4byte	0xa5
 467 00a5 05       		.uleb128 0x5
 468 00a6 6F000000 		.4byte	0x6f
 469 00aa 04       		.uleb128 0x4
 470 00ab 24000000 		.4byte	.LASF15
 471 00af 02       		.byte	0x2
 472 00b0 F2       		.byte	0xf2
 473 00b1 B5000000 		.4byte	0xb5
 474 00b5 05       		.uleb128 0x5
 475 00b6 7A000000 		.4byte	0x7a
 476 00ba 06       		.uleb128 0x6
 477 00bb 89010000 		.4byte	.LASF16
 478 00bf 02       		.byte	0x2
 479 00c0 0201     		.2byte	0x102
 480 00c2 C6000000 		.4byte	0xc6
 481 00c6 07       		.uleb128 0x7
 482 00c7 04       		.byte	0x4
 483 00c8 CC000000 		.4byte	0xcc
 484 00cc 08       		.uleb128 0x8
 485 00cd 01       		.byte	0x1
 486 00ce 02       		.uleb128 0x2
 487 00cf 04       		.byte	0x4
 488 00d0 07       		.byte	0x7
 489 00d1 B6010000 		.4byte	.LASF17
 490 00d5 09       		.uleb128 0x9
 491 00d6 93000000 		.4byte	0x93
 492 00da 04       		.uleb128 0x4
 493 00db 2A000000 		.4byte	.LASF18
 494 00df 03       		.byte	0x3
 495 00e0 D5       		.byte	0xd5
ARM GAS  C:\Users\RIEKOH~1\AppData\Local\Temp\ccZn7k8y.s 			page 18


 496 00e1 68000000 		.4byte	0x68
 497 00e5 04       		.uleb128 0x4
 498 00e6 A0010000 		.4byte	.LASF19
 499 00ea 01       		.byte	0x1
 500 00eb C7       		.byte	0xc7
 501 00ec 30000000 		.4byte	0x30
 502 00f0 0A       		.uleb128 0xa
 503 00f1 5D020000 		.4byte	.LASF42
 504 00f5 10       		.byte	0x10
 505 00f6 01       		.byte	0x1
 506 00f7 C9       		.byte	0xc9
 507 00f8 35010000 		.4byte	0x135
 508 00fc 0B       		.uleb128 0xb
 509 00fd 6F000000 		.4byte	.LASF20
 510 0101 01       		.byte	0x1
 511 0102 CB       		.byte	0xcb
 512 0103 35010000 		.4byte	0x135
 513 0107 02       		.byte	0x2
 514 0108 23       		.byte	0x23
 515 0109 00       		.uleb128 0
 516 010a 0B       		.uleb128 0xb
 517 010b D8000000 		.4byte	.LASF21
 518 010f 01       		.byte	0x1
 519 0110 CC       		.byte	0xcc
 520 0111 35010000 		.4byte	0x135
 521 0115 02       		.byte	0x2
 522 0116 23       		.byte	0x23
 523 0117 04       		.uleb128 0x4
 524 0118 0B       		.uleb128 0xb
 525 0119 96010000 		.4byte	.LASF22
 526 011d 01       		.byte	0x1
 527 011e CD       		.byte	0xcd
 528 011f DA000000 		.4byte	0xda
 529 0123 02       		.byte	0x2
 530 0124 23       		.byte	0x23
 531 0125 08       		.uleb128 0x8
 532 0126 0B       		.uleb128 0xb
 533 0127 7B000000 		.4byte	.LASF23
 534 012b 01       		.byte	0x1
 535 012c CE       		.byte	0xce
 536 012d DA000000 		.4byte	0xda
 537 0131 02       		.byte	0x2
 538 0132 23       		.byte	0x23
 539 0133 0C       		.uleb128 0xc
 540 0134 00       		.byte	0
 541 0135 07       		.uleb128 0x7
 542 0136 04       		.byte	0x4
 543 0137 E5000000 		.4byte	0xe5
 544 013b 0C       		.uleb128 0xc
 545 013c 01       		.byte	0x1
 546 013d 2F010000 		.4byte	.LASF24
 547 0141 01       		.byte	0x1
 548 0142 5C       		.byte	0x5c
 549 0143 01       		.byte	0x1
 550 0144 00000000 		.4byte	.LFB0
 551 0148 06000000 		.4byte	.LFE0
 552 014c 00000000 		.4byte	.LLST0
ARM GAS  C:\Users\RIEKOH~1\AppData\Local\Temp\ccZn7k8y.s 			page 19


 553 0150 01       		.byte	0x1
 554 0151 0D       		.uleb128 0xd
 555 0152 01       		.byte	0x1
 556 0153 23010000 		.4byte	.LASF25
 557 0157 01       		.byte	0x1
 558 0158 E5       		.byte	0xe5
 559 0159 01       		.byte	0x1
 560 015a 00000000 		.4byte	.LFB1
 561 015e 1C000000 		.4byte	.LFE1
 562 0162 2C000000 		.4byte	.LLST1
 563 0166 01       		.byte	0x1
 564 0167 0E       		.uleb128 0xe
 565 0168 01       		.byte	0x1
 566 0169 29010000 		.4byte	.LASF26
 567 016d 01       		.byte	0x1
 568 016e FD       		.byte	0xfd
 569 016f 01       		.byte	0x1
 570 0170 00000000 		.4byte	.LFB2
 571 0174 30000000 		.4byte	.LFE2
 572 0178 58000000 		.4byte	.LLST2
 573 017c 01       		.byte	0x1
 574 017d 9D010000 		.4byte	0x19d
 575 0181 0F       		.uleb128 0xf
 576 0182 74000000 		.4byte	.LASF43
 577 0186 01       		.byte	0x1
 578 0187 FD       		.byte	0xfd
 579 0188 61000000 		.4byte	0x61
 580 018c 02       		.byte	0x2
 581 018d 91       		.byte	0x91
 582 018e 6C       		.sleb128 -20
 583 018f 10       		.uleb128 0x10
 584 0190 7800     		.ascii	"x\000"
 585 0192 01       		.byte	0x1
 586 0193 0001     		.2byte	0x100
 587 0195 61000000 		.4byte	0x61
 588 0199 02       		.byte	0x2
 589 019a 91       		.byte	0x91
 590 019b 74       		.sleb128 -12
 591 019c 00       		.byte	0
 592 019d 11       		.uleb128 0x11
 593 019e 01       		.byte	0x1
 594 019f 3E000000 		.4byte	.LASF27
 595 01a3 01       		.byte	0x1
 596 01a4 1901     		.2byte	0x119
 597 01a6 01       		.byte	0x1
 598 01a7 00000000 		.4byte	.LFB3
 599 01ab CA000000 		.4byte	.LFE3
 600 01af 90000000 		.4byte	.LLST3
 601 01b3 01       		.byte	0x1
 602 01b4 1D020000 		.4byte	0x21d
 603 01b8 12       		.uleb128 0x12
 604 01b9 55020000 		.4byte	.LASF28
 605 01bd 01       		.byte	0x1
 606 01be 1B01     		.2byte	0x11b
 607 01c0 68000000 		.4byte	0x68
 608 01c4 02       		.byte	0x2
 609 01c5 91       		.byte	0x91
ARM GAS  C:\Users\RIEKOH~1\AppData\Local\Temp\ccZn7k8y.s 			page 20


 610 01c6 74       		.sleb128 -12
 611 01c7 12       		.uleb128 0x12
 612 01c8 CD000000 		.4byte	.LASF29
 613 01cc 01       		.byte	0x1
 614 01cd 1C01     		.2byte	0x11c
 615 01cf 1D020000 		.4byte	0x21d
 616 01d3 02       		.byte	0x2
 617 01d4 91       		.byte	0x91
 618 01d5 70       		.sleb128 -16
 619 01d6 13       		.uleb128 0x13
 620 01d7 30000000 		.4byte	.LBB2
 621 01db A0000000 		.4byte	.LBE2
 622 01df 10       		.uleb128 0x10
 623 01e0 73726300 		.ascii	"src\000"
 624 01e4 01       		.byte	0x1
 625 01e5 2101     		.2byte	0x121
 626 01e7 28020000 		.4byte	0x228
 627 01eb 02       		.byte	0x2
 628 01ec 91       		.byte	0x91
 629 01ed 6C       		.sleb128 -20
 630 01ee 10       		.uleb128 0x10
 631 01ef 64737400 		.ascii	"dst\000"
 632 01f3 01       		.byte	0x1
 633 01f4 2201     		.2byte	0x122
 634 01f6 28020000 		.4byte	0x228
 635 01fa 02       		.byte	0x2
 636 01fb 91       		.byte	0x91
 637 01fc 68       		.sleb128 -24
 638 01fd 12       		.uleb128 0x12
 639 01fe 83010000 		.4byte	.LASF30
 640 0202 01       		.byte	0x1
 641 0203 2301     		.2byte	0x123
 642 0205 68000000 		.4byte	0x68
 643 0209 02       		.byte	0x2
 644 020a 91       		.byte	0x91
 645 020b 60       		.sleb128 -32
 646 020c 12       		.uleb128 0x12
 647 020d 46000000 		.4byte	.LASF31
 648 0211 01       		.byte	0x1
 649 0212 2401     		.2byte	0x124
 650 0214 68000000 		.4byte	0x68
 651 0218 02       		.byte	0x2
 652 0219 91       		.byte	0x91
 653 021a 64       		.sleb128 -28
 654 021b 00       		.byte	0
 655 021c 00       		.byte	0
 656 021d 07       		.uleb128 0x7
 657 021e 04       		.byte	0x4
 658 021f 23020000 		.4byte	0x223
 659 0223 09       		.uleb128 0x9
 660 0224 F0000000 		.4byte	0xf0
 661 0228 07       		.uleb128 0x7
 662 0229 04       		.byte	0x4
 663 022a 7A000000 		.4byte	0x7a
 664 022e 11       		.uleb128 0x11
 665 022f 01       		.byte	0x1
 666 0230 48010000 		.4byte	.LASF32
ARM GAS  C:\Users\RIEKOH~1\AppData\Local\Temp\ccZn7k8y.s 			page 21


 667 0234 01       		.byte	0x1
 668 0235 A201     		.2byte	0x1a2
 669 0237 01       		.byte	0x1
 670 0238 00000000 		.4byte	.LFB4
 671 023c B4000000 		.4byte	.LFE4
 672 0240 C8000000 		.4byte	.LLST4
 673 0244 01       		.byte	0x1
 674 0245 57020000 		.4byte	0x257
 675 0249 10       		.uleb128 0x10
 676 024a 6900     		.ascii	"i\000"
 677 024c 01       		.byte	0x1
 678 024d A401     		.2byte	0x1a4
 679 024f 7A000000 		.4byte	0x7a
 680 0253 02       		.byte	0x2
 681 0254 91       		.byte	0x91
 682 0255 74       		.sleb128 -12
 683 0256 00       		.byte	0
 684 0257 14       		.uleb128 0x14
 685 0258 08010000 		.4byte	.LASF33
 686 025c 01       		.byte	0x1
 687 025d 39       		.byte	0x39
 688 025e 7A000000 		.4byte	0x7a
 689 0262 05       		.byte	0x5
 690 0263 03       		.byte	0x3
 691 0264 00000000 		.4byte	cySysNoInitDataValid
 692 0268 15       		.uleb128 0x15
 693 0269 2E020000 		.4byte	.LASF34
 694 026d 04       		.byte	0x4
 695 026e 2D       		.byte	0x2d
 696 026f 6F000000 		.4byte	0x6f
 697 0273 01       		.byte	0x1
 698 0274 01       		.byte	0x1
 699 0275 16       		.uleb128 0x16
 700 0276 BA000000 		.4byte	0xba
 701 027a 85020000 		.4byte	0x285
 702 027e 17       		.uleb128 0x17
 703 027f CE000000 		.4byte	0xce
 704 0283 2F       		.byte	0x2f
 705 0284 00       		.byte	0
 706 0285 18       		.uleb128 0x18
 707 0286 31000000 		.4byte	.LASF35
 708 028a 01       		.byte	0x1
 709 028b 47       		.byte	0x47
 710 028c 75020000 		.4byte	0x275
 711 0290 01       		.byte	0x1
 712 0291 05       		.byte	0x5
 713 0292 03       		.byte	0x3
 714 0293 00000000 		.4byte	CyRamVectors
 715 0297 16       		.uleb128 0x16
 716 0298 F0000000 		.4byte	0xf0
 717 029c A2020000 		.4byte	0x2a2
 718 02a0 19       		.uleb128 0x19
 719 02a1 00       		.byte	0
 720 02a2 15       		.uleb128 0x15
 721 02a3 48020000 		.4byte	.LASF36
 722 02a7 01       		.byte	0x1
 723 02a8 D1       		.byte	0xd1
ARM GAS  C:\Users\RIEKOH~1\AppData\Local\Temp\ccZn7k8y.s 			page 22


 724 02a9 AF020000 		.4byte	0x2af
 725 02ad 01       		.byte	0x1
 726 02ae 01       		.byte	0x1
 727 02af 09       		.uleb128 0x9
 728 02b0 97020000 		.4byte	0x297
 729 02b4 15       		.uleb128 0x15
 730 02b5 5F000000 		.4byte	.LASF37
 731 02b9 01       		.byte	0x1
 732 02ba D2       		.byte	0xd2
 733 02bb D5000000 		.4byte	0xd5
 734 02bf 01       		.byte	0x1
 735 02c0 01       		.byte	0x1
 736 02c1 16       		.uleb128 0x16
 737 02c2 BA000000 		.4byte	0xba
 738 02c6 D1020000 		.4byte	0x2d1
 739 02ca 17       		.uleb128 0x17
 740 02cb CE000000 		.4byte	0xce
 741 02cf 03       		.byte	0x3
 742 02d0 00       		.byte	0
 743 02d1 1A       		.uleb128 0x1a
 744 02d2 EB000000 		.4byte	.LASF38
 745 02d6 01       		.byte	0x1
 746 02d7 7F01     		.2byte	0x17f
 747 02d9 E4020000 		.4byte	0x2e4
 748 02dd 01       		.byte	0x1
 749 02de 05       		.byte	0x5
 750 02df 03       		.byte	0x3
 751 02e0 00000000 		.4byte	RomVectors
 752 02e4 09       		.uleb128 0x9
 753 02e5 C1020000 		.4byte	0x2c1
 754 02e9 00       		.byte	0
 755              		.section	.debug_abbrev,"",%progbits
 756              	.Ldebug_abbrev0:
 757 0000 01       		.uleb128 0x1
 758 0001 11       		.uleb128 0x11
 759 0002 01       		.byte	0x1
 760 0003 25       		.uleb128 0x25
 761 0004 0E       		.uleb128 0xe
 762 0005 13       		.uleb128 0x13
 763 0006 0B       		.uleb128 0xb
 764 0007 03       		.uleb128 0x3
 765 0008 0E       		.uleb128 0xe
 766 0009 1B       		.uleb128 0x1b
 767 000a 0E       		.uleb128 0xe
 768 000b 55       		.uleb128 0x55
 769 000c 06       		.uleb128 0x6
 770 000d 11       		.uleb128 0x11
 771 000e 01       		.uleb128 0x1
 772 000f 52       		.uleb128 0x52
 773 0010 01       		.uleb128 0x1
 774 0011 10       		.uleb128 0x10
 775 0012 06       		.uleb128 0x6
 776 0013 00       		.byte	0
 777 0014 00       		.byte	0
 778 0015 02       		.uleb128 0x2
 779 0016 24       		.uleb128 0x24
 780 0017 00       		.byte	0
ARM GAS  C:\Users\RIEKOH~1\AppData\Local\Temp\ccZn7k8y.s 			page 23


 781 0018 0B       		.uleb128 0xb
 782 0019 0B       		.uleb128 0xb
 783 001a 3E       		.uleb128 0x3e
 784 001b 0B       		.uleb128 0xb
 785 001c 03       		.uleb128 0x3
 786 001d 0E       		.uleb128 0xe
 787 001e 00       		.byte	0
 788 001f 00       		.byte	0
 789 0020 03       		.uleb128 0x3
 790 0021 24       		.uleb128 0x24
 791 0022 00       		.byte	0
 792 0023 0B       		.uleb128 0xb
 793 0024 0B       		.uleb128 0xb
 794 0025 3E       		.uleb128 0x3e
 795 0026 0B       		.uleb128 0xb
 796 0027 03       		.uleb128 0x3
 797 0028 08       		.uleb128 0x8
 798 0029 00       		.byte	0
 799 002a 00       		.byte	0
 800 002b 04       		.uleb128 0x4
 801 002c 16       		.uleb128 0x16
 802 002d 00       		.byte	0
 803 002e 03       		.uleb128 0x3
 804 002f 0E       		.uleb128 0xe
 805 0030 3A       		.uleb128 0x3a
 806 0031 0B       		.uleb128 0xb
 807 0032 3B       		.uleb128 0x3b
 808 0033 0B       		.uleb128 0xb
 809 0034 49       		.uleb128 0x49
 810 0035 13       		.uleb128 0x13
 811 0036 00       		.byte	0
 812 0037 00       		.byte	0
 813 0038 05       		.uleb128 0x5
 814 0039 35       		.uleb128 0x35
 815 003a 00       		.byte	0
 816 003b 49       		.uleb128 0x49
 817 003c 13       		.uleb128 0x13
 818 003d 00       		.byte	0
 819 003e 00       		.byte	0
 820 003f 06       		.uleb128 0x6
 821 0040 16       		.uleb128 0x16
 822 0041 00       		.byte	0
 823 0042 03       		.uleb128 0x3
 824 0043 0E       		.uleb128 0xe
 825 0044 3A       		.uleb128 0x3a
 826 0045 0B       		.uleb128 0xb
 827 0046 3B       		.uleb128 0x3b
 828 0047 05       		.uleb128 0x5
 829 0048 49       		.uleb128 0x49
 830 0049 13       		.uleb128 0x13
 831 004a 00       		.byte	0
 832 004b 00       		.byte	0
 833 004c 07       		.uleb128 0x7
 834 004d 0F       		.uleb128 0xf
 835 004e 00       		.byte	0
 836 004f 0B       		.uleb128 0xb
 837 0050 0B       		.uleb128 0xb
ARM GAS  C:\Users\RIEKOH~1\AppData\Local\Temp\ccZn7k8y.s 			page 24


 838 0051 49       		.uleb128 0x49
 839 0052 13       		.uleb128 0x13
 840 0053 00       		.byte	0
 841 0054 00       		.byte	0
 842 0055 08       		.uleb128 0x8
 843 0056 15       		.uleb128 0x15
 844 0057 00       		.byte	0
 845 0058 27       		.uleb128 0x27
 846 0059 0C       		.uleb128 0xc
 847 005a 00       		.byte	0
 848 005b 00       		.byte	0
 849 005c 09       		.uleb128 0x9
 850 005d 26       		.uleb128 0x26
 851 005e 00       		.byte	0
 852 005f 49       		.uleb128 0x49
 853 0060 13       		.uleb128 0x13
 854 0061 00       		.byte	0
 855 0062 00       		.byte	0
 856 0063 0A       		.uleb128 0xa
 857 0064 13       		.uleb128 0x13
 858 0065 01       		.byte	0x1
 859 0066 03       		.uleb128 0x3
 860 0067 0E       		.uleb128 0xe
 861 0068 0B       		.uleb128 0xb
 862 0069 0B       		.uleb128 0xb
 863 006a 3A       		.uleb128 0x3a
 864 006b 0B       		.uleb128 0xb
 865 006c 3B       		.uleb128 0x3b
 866 006d 0B       		.uleb128 0xb
 867 006e 01       		.uleb128 0x1
 868 006f 13       		.uleb128 0x13
 869 0070 00       		.byte	0
 870 0071 00       		.byte	0
 871 0072 0B       		.uleb128 0xb
 872 0073 0D       		.uleb128 0xd
 873 0074 00       		.byte	0
 874 0075 03       		.uleb128 0x3
 875 0076 0E       		.uleb128 0xe
 876 0077 3A       		.uleb128 0x3a
 877 0078 0B       		.uleb128 0xb
 878 0079 3B       		.uleb128 0x3b
 879 007a 0B       		.uleb128 0xb
 880 007b 49       		.uleb128 0x49
 881 007c 13       		.uleb128 0x13
 882 007d 38       		.uleb128 0x38
 883 007e 0A       		.uleb128 0xa
 884 007f 00       		.byte	0
 885 0080 00       		.byte	0
 886 0081 0C       		.uleb128 0xc
 887 0082 2E       		.uleb128 0x2e
 888 0083 00       		.byte	0
 889 0084 3F       		.uleb128 0x3f
 890 0085 0C       		.uleb128 0xc
 891 0086 03       		.uleb128 0x3
 892 0087 0E       		.uleb128 0xe
 893 0088 3A       		.uleb128 0x3a
 894 0089 0B       		.uleb128 0xb
ARM GAS  C:\Users\RIEKOH~1\AppData\Local\Temp\ccZn7k8y.s 			page 25


 895 008a 3B       		.uleb128 0x3b
 896 008b 0B       		.uleb128 0xb
 897 008c 27       		.uleb128 0x27
 898 008d 0C       		.uleb128 0xc
 899 008e 11       		.uleb128 0x11
 900 008f 01       		.uleb128 0x1
 901 0090 12       		.uleb128 0x12
 902 0091 01       		.uleb128 0x1
 903 0092 40       		.uleb128 0x40
 904 0093 06       		.uleb128 0x6
 905 0094 9742     		.uleb128 0x2117
 906 0096 0C       		.uleb128 0xc
 907 0097 00       		.byte	0
 908 0098 00       		.byte	0
 909 0099 0D       		.uleb128 0xd
 910 009a 2E       		.uleb128 0x2e
 911 009b 00       		.byte	0
 912 009c 3F       		.uleb128 0x3f
 913 009d 0C       		.uleb128 0xc
 914 009e 03       		.uleb128 0x3
 915 009f 0E       		.uleb128 0xe
 916 00a0 3A       		.uleb128 0x3a
 917 00a1 0B       		.uleb128 0xb
 918 00a2 3B       		.uleb128 0x3b
 919 00a3 0B       		.uleb128 0xb
 920 00a4 27       		.uleb128 0x27
 921 00a5 0C       		.uleb128 0xc
 922 00a6 11       		.uleb128 0x11
 923 00a7 01       		.uleb128 0x1
 924 00a8 12       		.uleb128 0x12
 925 00a9 01       		.uleb128 0x1
 926 00aa 40       		.uleb128 0x40
 927 00ab 06       		.uleb128 0x6
 928 00ac 9642     		.uleb128 0x2116
 929 00ae 0C       		.uleb128 0xc
 930 00af 00       		.byte	0
 931 00b0 00       		.byte	0
 932 00b1 0E       		.uleb128 0xe
 933 00b2 2E       		.uleb128 0x2e
 934 00b3 01       		.byte	0x1
 935 00b4 3F       		.uleb128 0x3f
 936 00b5 0C       		.uleb128 0xc
 937 00b6 03       		.uleb128 0x3
 938 00b7 0E       		.uleb128 0xe
 939 00b8 3A       		.uleb128 0x3a
 940 00b9 0B       		.uleb128 0xb
 941 00ba 3B       		.uleb128 0x3b
 942 00bb 0B       		.uleb128 0xb
 943 00bc 27       		.uleb128 0x27
 944 00bd 0C       		.uleb128 0xc
 945 00be 11       		.uleb128 0x11
 946 00bf 01       		.uleb128 0x1
 947 00c0 12       		.uleb128 0x12
 948 00c1 01       		.uleb128 0x1
 949 00c2 40       		.uleb128 0x40
 950 00c3 06       		.uleb128 0x6
 951 00c4 9742     		.uleb128 0x2117
ARM GAS  C:\Users\RIEKOH~1\AppData\Local\Temp\ccZn7k8y.s 			page 26


 952 00c6 0C       		.uleb128 0xc
 953 00c7 01       		.uleb128 0x1
 954 00c8 13       		.uleb128 0x13
 955 00c9 00       		.byte	0
 956 00ca 00       		.byte	0
 957 00cb 0F       		.uleb128 0xf
 958 00cc 05       		.uleb128 0x5
 959 00cd 00       		.byte	0
 960 00ce 03       		.uleb128 0x3
 961 00cf 0E       		.uleb128 0xe
 962 00d0 3A       		.uleb128 0x3a
 963 00d1 0B       		.uleb128 0xb
 964 00d2 3B       		.uleb128 0x3b
 965 00d3 0B       		.uleb128 0xb
 966 00d4 49       		.uleb128 0x49
 967 00d5 13       		.uleb128 0x13
 968 00d6 02       		.uleb128 0x2
 969 00d7 0A       		.uleb128 0xa
 970 00d8 00       		.byte	0
 971 00d9 00       		.byte	0
 972 00da 10       		.uleb128 0x10
 973 00db 34       		.uleb128 0x34
 974 00dc 00       		.byte	0
 975 00dd 03       		.uleb128 0x3
 976 00de 08       		.uleb128 0x8
 977 00df 3A       		.uleb128 0x3a
 978 00e0 0B       		.uleb128 0xb
 979 00e1 3B       		.uleb128 0x3b
 980 00e2 05       		.uleb128 0x5
 981 00e3 49       		.uleb128 0x49
 982 00e4 13       		.uleb128 0x13
 983 00e5 02       		.uleb128 0x2
 984 00e6 0A       		.uleb128 0xa
 985 00e7 00       		.byte	0
 986 00e8 00       		.byte	0
 987 00e9 11       		.uleb128 0x11
 988 00ea 2E       		.uleb128 0x2e
 989 00eb 01       		.byte	0x1
 990 00ec 3F       		.uleb128 0x3f
 991 00ed 0C       		.uleb128 0xc
 992 00ee 03       		.uleb128 0x3
 993 00ef 0E       		.uleb128 0xe
 994 00f0 3A       		.uleb128 0x3a
 995 00f1 0B       		.uleb128 0xb
 996 00f2 3B       		.uleb128 0x3b
 997 00f3 05       		.uleb128 0x5
 998 00f4 27       		.uleb128 0x27
 999 00f5 0C       		.uleb128 0xc
 1000 00f6 11       		.uleb128 0x11
 1001 00f7 01       		.uleb128 0x1
 1002 00f8 12       		.uleb128 0x12
 1003 00f9 01       		.uleb128 0x1
 1004 00fa 40       		.uleb128 0x40
 1005 00fb 06       		.uleb128 0x6
 1006 00fc 9642     		.uleb128 0x2116
 1007 00fe 0C       		.uleb128 0xc
 1008 00ff 01       		.uleb128 0x1
ARM GAS  C:\Users\RIEKOH~1\AppData\Local\Temp\ccZn7k8y.s 			page 27


 1009 0100 13       		.uleb128 0x13
 1010 0101 00       		.byte	0
 1011 0102 00       		.byte	0
 1012 0103 12       		.uleb128 0x12
 1013 0104 34       		.uleb128 0x34
 1014 0105 00       		.byte	0
 1015 0106 03       		.uleb128 0x3
 1016 0107 0E       		.uleb128 0xe
 1017 0108 3A       		.uleb128 0x3a
 1018 0109 0B       		.uleb128 0xb
 1019 010a 3B       		.uleb128 0x3b
 1020 010b 05       		.uleb128 0x5
 1021 010c 49       		.uleb128 0x49
 1022 010d 13       		.uleb128 0x13
 1023 010e 02       		.uleb128 0x2
 1024 010f 0A       		.uleb128 0xa
 1025 0110 00       		.byte	0
 1026 0111 00       		.byte	0
 1027 0112 13       		.uleb128 0x13
 1028 0113 0B       		.uleb128 0xb
 1029 0114 01       		.byte	0x1
 1030 0115 11       		.uleb128 0x11
 1031 0116 01       		.uleb128 0x1
 1032 0117 12       		.uleb128 0x12
 1033 0118 01       		.uleb128 0x1
 1034 0119 00       		.byte	0
 1035 011a 00       		.byte	0
 1036 011b 14       		.uleb128 0x14
 1037 011c 34       		.uleb128 0x34
 1038 011d 00       		.byte	0
 1039 011e 03       		.uleb128 0x3
 1040 011f 0E       		.uleb128 0xe
 1041 0120 3A       		.uleb128 0x3a
 1042 0121 0B       		.uleb128 0xb
 1043 0122 3B       		.uleb128 0x3b
 1044 0123 0B       		.uleb128 0xb
 1045 0124 49       		.uleb128 0x49
 1046 0125 13       		.uleb128 0x13
 1047 0126 02       		.uleb128 0x2
 1048 0127 0A       		.uleb128 0xa
 1049 0128 00       		.byte	0
 1050 0129 00       		.byte	0
 1051 012a 15       		.uleb128 0x15
 1052 012b 34       		.uleb128 0x34
 1053 012c 00       		.byte	0
 1054 012d 03       		.uleb128 0x3
 1055 012e 0E       		.uleb128 0xe
 1056 012f 3A       		.uleb128 0x3a
 1057 0130 0B       		.uleb128 0xb
 1058 0131 3B       		.uleb128 0x3b
 1059 0132 0B       		.uleb128 0xb
 1060 0133 49       		.uleb128 0x49
 1061 0134 13       		.uleb128 0x13
 1062 0135 3F       		.uleb128 0x3f
 1063 0136 0C       		.uleb128 0xc
 1064 0137 3C       		.uleb128 0x3c
 1065 0138 0C       		.uleb128 0xc
ARM GAS  C:\Users\RIEKOH~1\AppData\Local\Temp\ccZn7k8y.s 			page 28


 1066 0139 00       		.byte	0
 1067 013a 00       		.byte	0
 1068 013b 16       		.uleb128 0x16
 1069 013c 01       		.uleb128 0x1
 1070 013d 01       		.byte	0x1
 1071 013e 49       		.uleb128 0x49
 1072 013f 13       		.uleb128 0x13
 1073 0140 01       		.uleb128 0x1
 1074 0141 13       		.uleb128 0x13
 1075 0142 00       		.byte	0
 1076 0143 00       		.byte	0
 1077 0144 17       		.uleb128 0x17
 1078 0145 21       		.uleb128 0x21
 1079 0146 00       		.byte	0
 1080 0147 49       		.uleb128 0x49
 1081 0148 13       		.uleb128 0x13
 1082 0149 2F       		.uleb128 0x2f
 1083 014a 0B       		.uleb128 0xb
 1084 014b 00       		.byte	0
 1085 014c 00       		.byte	0
 1086 014d 18       		.uleb128 0x18
 1087 014e 34       		.uleb128 0x34
 1088 014f 00       		.byte	0
 1089 0150 03       		.uleb128 0x3
 1090 0151 0E       		.uleb128 0xe
 1091 0152 3A       		.uleb128 0x3a
 1092 0153 0B       		.uleb128 0xb
 1093 0154 3B       		.uleb128 0x3b
 1094 0155 0B       		.uleb128 0xb
 1095 0156 49       		.uleb128 0x49
 1096 0157 13       		.uleb128 0x13
 1097 0158 3F       		.uleb128 0x3f
 1098 0159 0C       		.uleb128 0xc
 1099 015a 02       		.uleb128 0x2
 1100 015b 0A       		.uleb128 0xa
 1101 015c 00       		.byte	0
 1102 015d 00       		.byte	0
 1103 015e 19       		.uleb128 0x19
 1104 015f 21       		.uleb128 0x21
 1105 0160 00       		.byte	0
 1106 0161 00       		.byte	0
 1107 0162 00       		.byte	0
 1108 0163 1A       		.uleb128 0x1a
 1109 0164 34       		.uleb128 0x34
 1110 0165 00       		.byte	0
 1111 0166 03       		.uleb128 0x3
 1112 0167 0E       		.uleb128 0xe
 1113 0168 3A       		.uleb128 0x3a
 1114 0169 0B       		.uleb128 0xb
 1115 016a 3B       		.uleb128 0x3b
 1116 016b 05       		.uleb128 0x5
 1117 016c 49       		.uleb128 0x49
 1118 016d 13       		.uleb128 0x13
 1119 016e 3F       		.uleb128 0x3f
 1120 016f 0C       		.uleb128 0xc
 1121 0170 02       		.uleb128 0x2
 1122 0171 0A       		.uleb128 0xa
ARM GAS  C:\Users\RIEKOH~1\AppData\Local\Temp\ccZn7k8y.s 			page 29


 1123 0172 00       		.byte	0
 1124 0173 00       		.byte	0
 1125 0174 00       		.byte	0
 1126              		.section	.debug_loc,"",%progbits
 1127              	.Ldebug_loc0:
 1128              	.LLST0:
 1129 0000 00000000 		.4byte	.LFB0
 1130 0004 02000000 		.4byte	.LCFI0
 1131 0008 0200     		.2byte	0x2
 1132 000a 7D       		.byte	0x7d
 1133 000b 00       		.sleb128 0
 1134 000c 02000000 		.4byte	.LCFI0
 1135 0010 04000000 		.4byte	.LCFI1
 1136 0014 0200     		.2byte	0x2
 1137 0016 7D       		.byte	0x7d
 1138 0017 04       		.sleb128 4
 1139 0018 04000000 		.4byte	.LCFI1
 1140 001c 06000000 		.4byte	.LFE0
 1141 0020 0200     		.2byte	0x2
 1142 0022 77       		.byte	0x77
 1143 0023 04       		.sleb128 4
 1144 0024 00000000 		.4byte	0
 1145 0028 00000000 		.4byte	0
 1146              	.LLST1:
 1147 002c 00000000 		.4byte	.LFB1
 1148 0030 02000000 		.4byte	.LCFI2
 1149 0034 0200     		.2byte	0x2
 1150 0036 7D       		.byte	0x7d
 1151 0037 00       		.sleb128 0
 1152 0038 02000000 		.4byte	.LCFI2
 1153 003c 04000000 		.4byte	.LCFI3
 1154 0040 0200     		.2byte	0x2
 1155 0042 7D       		.byte	0x7d
 1156 0043 08       		.sleb128 8
 1157 0044 04000000 		.4byte	.LCFI3
 1158 0048 1C000000 		.4byte	.LFE1
 1159 004c 0200     		.2byte	0x2
 1160 004e 77       		.byte	0x77
 1161 004f 08       		.sleb128 8
 1162 0050 00000000 		.4byte	0
 1163 0054 00000000 		.4byte	0
 1164              	.LLST2:
 1165 0058 00000000 		.4byte	.LFB2
 1166 005c 02000000 		.4byte	.LCFI4
 1167 0060 0200     		.2byte	0x2
 1168 0062 7D       		.byte	0x7d
 1169 0063 00       		.sleb128 0
 1170 0064 02000000 		.4byte	.LCFI4
 1171 0068 04000000 		.4byte	.LCFI5
 1172 006c 0200     		.2byte	0x2
 1173 006e 7D       		.byte	0x7d
 1174 006f 04       		.sleb128 4
 1175 0070 04000000 		.4byte	.LCFI5
 1176 0074 06000000 		.4byte	.LCFI6
 1177 0078 0200     		.2byte	0x2
 1178 007a 7D       		.byte	0x7d
 1179 007b 18       		.sleb128 24
ARM GAS  C:\Users\RIEKOH~1\AppData\Local\Temp\ccZn7k8y.s 			page 30


 1180 007c 06000000 		.4byte	.LCFI6
 1181 0080 30000000 		.4byte	.LFE2
 1182 0084 0200     		.2byte	0x2
 1183 0086 77       		.byte	0x77
 1184 0087 18       		.sleb128 24
 1185 0088 00000000 		.4byte	0
 1186 008c 00000000 		.4byte	0
 1187              	.LLST3:
 1188 0090 00000000 		.4byte	.LFB3
 1189 0094 02000000 		.4byte	.LCFI7
 1190 0098 0200     		.2byte	0x2
 1191 009a 7D       		.byte	0x7d
 1192 009b 00       		.sleb128 0
 1193 009c 02000000 		.4byte	.LCFI7
 1194 00a0 04000000 		.4byte	.LCFI8
 1195 00a4 0200     		.2byte	0x2
 1196 00a6 7D       		.byte	0x7d
 1197 00a7 08       		.sleb128 8
 1198 00a8 04000000 		.4byte	.LCFI8
 1199 00ac 06000000 		.4byte	.LCFI9
 1200 00b0 0200     		.2byte	0x2
 1201 00b2 7D       		.byte	0x7d
 1202 00b3 20       		.sleb128 32
 1203 00b4 06000000 		.4byte	.LCFI9
 1204 00b8 CA000000 		.4byte	.LFE3
 1205 00bc 0200     		.2byte	0x2
 1206 00be 77       		.byte	0x77
 1207 00bf 20       		.sleb128 32
 1208 00c0 00000000 		.4byte	0
 1209 00c4 00000000 		.4byte	0
 1210              	.LLST4:
 1211 00c8 00000000 		.4byte	.LFB4
 1212 00cc 02000000 		.4byte	.LCFI10
 1213 00d0 0200     		.2byte	0x2
 1214 00d2 7D       		.byte	0x7d
 1215 00d3 00       		.sleb128 0
 1216 00d4 02000000 		.4byte	.LCFI10
 1217 00d8 04000000 		.4byte	.LCFI11
 1218 00dc 0200     		.2byte	0x2
 1219 00de 7D       		.byte	0x7d
 1220 00df 08       		.sleb128 8
 1221 00e0 04000000 		.4byte	.LCFI11
 1222 00e4 06000000 		.4byte	.LCFI12
 1223 00e8 0200     		.2byte	0x2
 1224 00ea 7D       		.byte	0x7d
 1225 00eb 10       		.sleb128 16
 1226 00ec 06000000 		.4byte	.LCFI12
 1227 00f0 B4000000 		.4byte	.LFE4
 1228 00f4 0200     		.2byte	0x2
 1229 00f6 77       		.byte	0x77
 1230 00f7 10       		.sleb128 16
 1231 00f8 00000000 		.4byte	0
 1232 00fc 00000000 		.4byte	0
 1233              		.section	.debug_aranges,"",%progbits
 1234 0000 3C000000 		.4byte	0x3c
 1235 0004 0200     		.2byte	0x2
 1236 0006 00000000 		.4byte	.Ldebug_info0
ARM GAS  C:\Users\RIEKOH~1\AppData\Local\Temp\ccZn7k8y.s 			page 31


 1237 000a 04       		.byte	0x4
 1238 000b 00       		.byte	0
 1239 000c 0000     		.2byte	0
 1240 000e 0000     		.2byte	0
 1241 0010 00000000 		.4byte	.LFB0
 1242 0014 06000000 		.4byte	.LFE0-.LFB0
 1243 0018 00000000 		.4byte	.LFB1
 1244 001c 1C000000 		.4byte	.LFE1-.LFB1
 1245 0020 00000000 		.4byte	.LFB2
 1246 0024 30000000 		.4byte	.LFE2-.LFB2
 1247 0028 00000000 		.4byte	.LFB3
 1248 002c CA000000 		.4byte	.LFE3-.LFB3
 1249 0030 00000000 		.4byte	.LFB4
 1250 0034 B4000000 		.4byte	.LFE4-.LFB4
 1251 0038 00000000 		.4byte	0
 1252 003c 00000000 		.4byte	0
 1253              		.section	.debug_ranges,"",%progbits
 1254              	.Ldebug_ranges0:
 1255 0000 00000000 		.4byte	.LFB0
 1256 0004 06000000 		.4byte	.LFE0
 1257 0008 00000000 		.4byte	.LFB1
 1258 000c 1C000000 		.4byte	.LFE1
 1259 0010 00000000 		.4byte	.LFB2
 1260 0014 30000000 		.4byte	.LFE2
 1261 0018 00000000 		.4byte	.LFB3
 1262 001c CA000000 		.4byte	.LFE3
 1263 0020 00000000 		.4byte	.LFB4
 1264 0024 B4000000 		.4byte	.LFE4
 1265 0028 00000000 		.4byte	0
 1266 002c 00000000 		.4byte	0
 1267              		.section	.debug_line,"",%progbits
 1268              	.Ldebug_line0:
 1269 0000 A6010000 		.section	.debug_str,"MS",%progbits,1
 1269      0200D800 
 1269      00000201 
 1269      FB0E0D00 
 1269      01010101 
 1270              	.LASF40:
 1271 0000 2E5C4765 		.ascii	".\\Generated_Source\\PSoC5\\Cm3Start.c\000"
 1271      6E657261 
 1271      7465645F 
 1271      536F7572 
 1271      63655C50 
 1272              	.LASF15:
 1273 0024 72656733 		.ascii	"reg32\000"
 1273      3200
 1274              	.LASF18:
 1275 002a 73697A65 		.ascii	"size_t\000"
 1275      5F7400
 1276              	.LASF35:
 1277 0031 43795261 		.ascii	"CyRamVectors\000"
 1277      6D566563 
 1277      746F7273 
 1277      00
 1278              	.LASF27:
 1279 003e 53746172 		.ascii	"Start_c\000"
 1279      745F6300 
ARM GAS  C:\Users\RIEKOH~1\AppData\Local\Temp\ccZn7k8y.s 			page 32


 1280              	.LASF31:
 1281 0046 636F756E 		.ascii	"count\000"
 1281      7400
 1282              	.LASF3:
 1283 004c 73686F72 		.ascii	"short unsigned int\000"
 1283      7420756E 
 1283      7369676E 
 1283      65642069 
 1283      6E7400
 1284              	.LASF37:
 1285 005f 5F5F6379 		.ascii	"__cy_region_num\000"
 1285      5F726567 
 1285      696F6E5F 
 1285      6E756D00 
 1286              	.LASF20:
 1287 006f 696E6974 		.ascii	"init\000"
 1287      00
 1288              	.LASF43:
 1289 0074 73746174 		.ascii	"status\000"
 1289      757300
 1290              	.LASF23:
 1291 007b 7A65726F 		.ascii	"zero_size\000"
 1291      5F73697A 
 1291      6500
 1292              	.LASF41:
 1293 0085 433A5C55 		.ascii	"C:\\Users\\Rieko Hirota\\Documents\\F-tec\\servo_4_"
 1293      73657273 
 1293      5C526965 
 1293      6B6F2048 
 1293      69726F74 
 1294 00b3 32385C74 		.ascii	"28\\tail_true_double.cydsn\000"
 1294      61696C5F 
 1294      74727565 
 1294      5F646F75 
 1294      626C652E 
 1295              	.LASF29:
 1296 00cd 72707472 		.ascii	"rptr\000"
 1296      00
 1297              	.LASF11:
 1298 00d2 666C6F61 		.ascii	"float\000"
 1298      7400
 1299              	.LASF21:
 1300 00d8 64617461 		.ascii	"data\000"
 1300      00
 1301              	.LASF1:
 1302 00dd 756E7369 		.ascii	"unsigned char\000"
 1302      676E6564 
 1302      20636861 
 1302      7200
 1303              	.LASF38:
 1304 00eb 526F6D56 		.ascii	"RomVectors\000"
 1304      6563746F 
 1304      727300
 1305              	.LASF5:
 1306 00f6 6C6F6E67 		.ascii	"long unsigned int\000"
 1306      20756E73 
 1306      69676E65 
ARM GAS  C:\Users\RIEKOH~1\AppData\Local\Temp\ccZn7k8y.s 			page 33


 1306      6420696E 
 1306      7400
 1307              	.LASF33:
 1308 0108 63795379 		.ascii	"cySysNoInitDataValid\000"
 1308      734E6F49 
 1308      6E697444 
 1308      61746156 
 1308      616C6964 
 1309              	.LASF9:
 1310 011d 75696E74 		.ascii	"uint8\000"
 1310      3800
 1311              	.LASF25:
 1312 0123 52657365 		.ascii	"Reset\000"
 1312      7400
 1313              	.LASF26:
 1314 0129 5F657869 		.ascii	"_exit\000"
 1314      7400
 1315              	.LASF24:
 1316 012f 496E7444 		.ascii	"IntDefaultHandler\000"
 1316      65666175 
 1316      6C744861 
 1316      6E646C65 
 1316      7200
 1317              	.LASF12:
 1318 0141 646F7562 		.ascii	"double\000"
 1318      6C6500
 1319              	.LASF32:
 1320 0148 696E6974 		.ascii	"initialize_psoc\000"
 1320      69616C69 
 1320      7A655F70 
 1320      736F6300 
 1321              	.LASF10:
 1322 0158 75696E74 		.ascii	"uint32\000"
 1322      333200
 1323              	.LASF8:
 1324 015f 756E7369 		.ascii	"unsigned int\000"
 1324      676E6564 
 1324      20696E74 
 1324      00
 1325              	.LASF7:
 1326 016c 6C6F6E67 		.ascii	"long long unsigned int\000"
 1326      206C6F6E 
 1326      6720756E 
 1326      7369676E 
 1326      65642069 
 1327              	.LASF30:
 1328 0183 6C696D69 		.ascii	"limit\000"
 1328      7400
 1329              	.LASF16:
 1330 0189 63796973 		.ascii	"cyisraddress\000"
 1330      72616464 
 1330      72657373 
 1330      00
 1331              	.LASF22:
 1332 0196 696E6974 		.ascii	"init_size\000"
 1332      5F73697A 
 1332      6500
ARM GAS  C:\Users\RIEKOH~1\AppData\Local\Temp\ccZn7k8y.s 			page 34


 1333              	.LASF19:
 1334 01a0 5F5F6379 		.ascii	"__cy_byte_align8\000"
 1334      5F627974 
 1334      655F616C 
 1334      69676E38 
 1334      00
 1335              	.LASF14:
 1336 01b1 72656738 		.ascii	"reg8\000"
 1336      00
 1337              	.LASF17:
 1338 01b6 73697A65 		.ascii	"sizetype\000"
 1338      74797065 
 1338      00
 1339              	.LASF6:
 1340 01bf 6C6F6E67 		.ascii	"long long int\000"
 1340      206C6F6E 
 1340      6720696E 
 1340      7400
 1341              	.LASF13:
 1342 01cd 63686172 		.ascii	"char\000"
 1342      00
 1343              	.LASF2:
 1344 01d2 73686F72 		.ascii	"short int\000"
 1344      7420696E 
 1344      7400
 1345              	.LASF39:
 1346 01dc 474E5520 		.ascii	"GNU C 4.7.3 20130312 (release) [ARM/embedded-4_7-br"
 1346      4320342E 
 1346      372E3320 
 1346      32303133 
 1346      30333132 
 1347 020f 616E6368 		.ascii	"anch revision 196615]\000"
 1347      20726576 
 1347      6973696F 
 1347      6E203139 
 1347      36363135 
 1348              	.LASF4:
 1349 0225 6C6F6E67 		.ascii	"long int\000"
 1349      20696E74 
 1349      00
 1350              	.LASF34:
 1351 022e 43795265 		.ascii	"CyResetStatus\000"
 1351      73657453 
 1351      74617475 
 1351      7300
 1352              	.LASF0:
 1353 023c 7369676E 		.ascii	"signed char\000"
 1353      65642063 
 1353      68617200 
 1354              	.LASF36:
 1355 0248 5F5F6379 		.ascii	"__cy_regions\000"
 1355      5F726567 
 1355      696F6E73 
 1355      00
 1356              	.LASF28:
 1357 0255 72656769 		.ascii	"regions\000"
 1357      6F6E7300 
ARM GAS  C:\Users\RIEKOH~1\AppData\Local\Temp\ccZn7k8y.s 			page 35


 1358              	.LASF42:
 1359 025d 5F5F6379 		.ascii	"__cy_region\000"
 1359      5F726567 
 1359      696F6E00 
 1360              		.ident	"GCC: (GNU Tools for ARM Embedded Processors) 4.7.3 20130312 (release) [ARM/embedded-4_7-br
