ARM GAS  C:\Users\RIEKOH~1\AppData\Local\Temp\ccdVhqFi.s 			page 1


   1              		.syntax unified
   2              		.cpu cortex-m3
   3              		.fpu softvfp
   4              		.eabi_attribute 20, 1
   5              		.eabi_attribute 21, 1
   6              		.eabi_attribute 23, 3
   7              		.eabi_attribute 24, 1
   8              		.eabi_attribute 25, 1
   9              		.eabi_attribute 26, 1
  10              		.eabi_attribute 30, 6
  11              		.eabi_attribute 34, 1
  12              		.eabi_attribute 18, 4
  13              		.thumb
  14              		.file	"isr_tc.c"
  15              		.text
  16              	.Ltext0:
  17              		.cfi_sections	.debug_frame
  18              		.section	.text.isr_tc_Start,"ax",%progbits
  19              		.align	2
  20              		.global	isr_tc_Start
  21              		.thumb
  22              		.thumb_func
  23              		.type	isr_tc_Start, %function
  24              	isr_tc_Start:
  25              	.LFB0:
  26              		.file 1 ".\\Generated_Source\\PSoC5\\isr_tc.c"
   1:.\Generated_Source\PSoC5/isr_tc.c **** /*******************************************************************************
   2:.\Generated_Source\PSoC5/isr_tc.c **** * File Name: isr_tc.c  
   3:.\Generated_Source\PSoC5/isr_tc.c **** * Version 1.70
   4:.\Generated_Source\PSoC5/isr_tc.c **** *
   5:.\Generated_Source\PSoC5/isr_tc.c **** *  Description:
   6:.\Generated_Source\PSoC5/isr_tc.c **** *   API for controlling the state of an interrupt.
   7:.\Generated_Source\PSoC5/isr_tc.c **** *
   8:.\Generated_Source\PSoC5/isr_tc.c **** *
   9:.\Generated_Source\PSoC5/isr_tc.c **** *  Note:
  10:.\Generated_Source\PSoC5/isr_tc.c **** *
  11:.\Generated_Source\PSoC5/isr_tc.c **** ********************************************************************************
  12:.\Generated_Source\PSoC5/isr_tc.c **** * Copyright 2008-2012, Cypress Semiconductor Corporation.  All rights reserved.
  13:.\Generated_Source\PSoC5/isr_tc.c **** * You may use this file only in accordance with the license, terms, conditions, 
  14:.\Generated_Source\PSoC5/isr_tc.c **** * disclaimers, and limitations in the end user license agreement accompanying 
  15:.\Generated_Source\PSoC5/isr_tc.c **** * the software package with which this file was provided.
  16:.\Generated_Source\PSoC5/isr_tc.c **** *******************************************************************************/
  17:.\Generated_Source\PSoC5/isr_tc.c **** 
  18:.\Generated_Source\PSoC5/isr_tc.c **** 
  19:.\Generated_Source\PSoC5/isr_tc.c **** #include <cydevice_trm.h>
  20:.\Generated_Source\PSoC5/isr_tc.c **** #include <CyLib.h>
  21:.\Generated_Source\PSoC5/isr_tc.c **** #include <isr_tc.h>
  22:.\Generated_Source\PSoC5/isr_tc.c **** 
  23:.\Generated_Source\PSoC5/isr_tc.c **** #if !defined(isr_tc__REMOVED) /* Check for removal by optimization */
  24:.\Generated_Source\PSoC5/isr_tc.c **** 
  25:.\Generated_Source\PSoC5/isr_tc.c **** /*******************************************************************************
  26:.\Generated_Source\PSoC5/isr_tc.c **** *  Place your includes, defines and code here 
  27:.\Generated_Source\PSoC5/isr_tc.c **** ********************************************************************************/
  28:.\Generated_Source\PSoC5/isr_tc.c **** /* `#START isr_tc_intc` */
  29:.\Generated_Source\PSoC5/isr_tc.c **** 
  30:.\Generated_Source\PSoC5/isr_tc.c **** /* `#END` */
  31:.\Generated_Source\PSoC5/isr_tc.c **** 
ARM GAS  C:\Users\RIEKOH~1\AppData\Local\Temp\ccdVhqFi.s 			page 2


  32:.\Generated_Source\PSoC5/isr_tc.c **** #ifndef CYINT_IRQ_BASE
  33:.\Generated_Source\PSoC5/isr_tc.c **** #define CYINT_IRQ_BASE      16
  34:.\Generated_Source\PSoC5/isr_tc.c **** #endif /* CYINT_IRQ_BASE */
  35:.\Generated_Source\PSoC5/isr_tc.c **** #ifndef CYINT_VECT_TABLE
  36:.\Generated_Source\PSoC5/isr_tc.c **** #define CYINT_VECT_TABLE    ((cyisraddress **) CYREG_NVIC_VECT_OFFSET)
  37:.\Generated_Source\PSoC5/isr_tc.c **** #endif /* CYINT_VECT_TABLE */
  38:.\Generated_Source\PSoC5/isr_tc.c **** 
  39:.\Generated_Source\PSoC5/isr_tc.c **** /* Declared in startup, used to set unused interrupts to. */
  40:.\Generated_Source\PSoC5/isr_tc.c **** CY_ISR_PROTO(IntDefaultHandler);
  41:.\Generated_Source\PSoC5/isr_tc.c **** 
  42:.\Generated_Source\PSoC5/isr_tc.c **** 
  43:.\Generated_Source\PSoC5/isr_tc.c **** /*******************************************************************************
  44:.\Generated_Source\PSoC5/isr_tc.c **** * Function Name: isr_tc_Start
  45:.\Generated_Source\PSoC5/isr_tc.c **** ********************************************************************************
  46:.\Generated_Source\PSoC5/isr_tc.c **** *
  47:.\Generated_Source\PSoC5/isr_tc.c **** * Summary:
  48:.\Generated_Source\PSoC5/isr_tc.c **** *  Set up the interrupt and enable it.
  49:.\Generated_Source\PSoC5/isr_tc.c **** *
  50:.\Generated_Source\PSoC5/isr_tc.c **** * Parameters:  
  51:.\Generated_Source\PSoC5/isr_tc.c **** *   None
  52:.\Generated_Source\PSoC5/isr_tc.c **** *
  53:.\Generated_Source\PSoC5/isr_tc.c **** * Return:
  54:.\Generated_Source\PSoC5/isr_tc.c **** *   None
  55:.\Generated_Source\PSoC5/isr_tc.c **** *
  56:.\Generated_Source\PSoC5/isr_tc.c **** *******************************************************************************/
  57:.\Generated_Source\PSoC5/isr_tc.c **** void isr_tc_Start(void)
  58:.\Generated_Source\PSoC5/isr_tc.c **** {
  27              		.loc 1 58 0
  28              		.cfi_startproc
  29              		@ args = 0, pretend = 0, frame = 0
  30              		@ frame_needed = 1, uses_anonymous_args = 0
  31 0000 80B5     		push	{r7, lr}
  32              	.LCFI0:
  33              		.cfi_def_cfa_offset 8
  34              		.cfi_offset 7, -8
  35              		.cfi_offset 14, -4
  36 0002 00AF     		add	r7, sp, #0
  37              	.LCFI1:
  38              		.cfi_def_cfa_register 7
  59:.\Generated_Source\PSoC5/isr_tc.c ****     /* For all we know the interrupt is active. */
  60:.\Generated_Source\PSoC5/isr_tc.c ****     isr_tc_Disable();
  39              		.loc 1 60 0
  40 0004 FFF7FEFF 		bl	isr_tc_Disable
  61:.\Generated_Source\PSoC5/isr_tc.c **** 
  62:.\Generated_Source\PSoC5/isr_tc.c ****     /* Set the ISR to point to the isr_tc Interrupt. */
  63:.\Generated_Source\PSoC5/isr_tc.c ****     isr_tc_SetVector(&isr_tc_Interrupt);
  41              		.loc 1 63 0
  42 0008 40F20000 		movw	r0, #:lower16:isr_tc_Interrupt
  43 000c C0F20000 		movt	r0, #:upper16:isr_tc_Interrupt
  44 0010 FFF7FEFF 		bl	isr_tc_SetVector
  64:.\Generated_Source\PSoC5/isr_tc.c **** 
  65:.\Generated_Source\PSoC5/isr_tc.c ****     /* Set the priority. */
  66:.\Generated_Source\PSoC5/isr_tc.c ****     isr_tc_SetPriority((uint8)isr_tc_INTC_PRIOR_NUMBER);
  45              		.loc 1 66 0
  46 0014 4FF00700 		mov	r0, #7
  47 0018 FFF7FEFF 		bl	isr_tc_SetPriority
  67:.\Generated_Source\PSoC5/isr_tc.c **** 
ARM GAS  C:\Users\RIEKOH~1\AppData\Local\Temp\ccdVhqFi.s 			page 3


  68:.\Generated_Source\PSoC5/isr_tc.c ****     /* Enable it. */
  69:.\Generated_Source\PSoC5/isr_tc.c ****     isr_tc_Enable();
  48              		.loc 1 69 0
  49 001c FFF7FEFF 		bl	isr_tc_Enable
  70:.\Generated_Source\PSoC5/isr_tc.c **** }
  50              		.loc 1 70 0
  51 0020 80BD     		pop	{r7, pc}
  52              		.cfi_endproc
  53              	.LFE0:
  54              		.size	isr_tc_Start, .-isr_tc_Start
  55 0022 00BF     		.section	.text.isr_tc_StartEx,"ax",%progbits
  56              		.align	2
  57              		.global	isr_tc_StartEx
  58              		.thumb
  59              		.thumb_func
  60              		.type	isr_tc_StartEx, %function
  61              	isr_tc_StartEx:
  62              	.LFB1:
  71:.\Generated_Source\PSoC5/isr_tc.c **** 
  72:.\Generated_Source\PSoC5/isr_tc.c **** 
  73:.\Generated_Source\PSoC5/isr_tc.c **** /*******************************************************************************
  74:.\Generated_Source\PSoC5/isr_tc.c **** * Function Name: isr_tc_StartEx
  75:.\Generated_Source\PSoC5/isr_tc.c **** ********************************************************************************
  76:.\Generated_Source\PSoC5/isr_tc.c **** *
  77:.\Generated_Source\PSoC5/isr_tc.c **** * Summary:
  78:.\Generated_Source\PSoC5/isr_tc.c **** *  Set up the interrupt and enable it.
  79:.\Generated_Source\PSoC5/isr_tc.c **** *
  80:.\Generated_Source\PSoC5/isr_tc.c **** * Parameters:  
  81:.\Generated_Source\PSoC5/isr_tc.c **** *   address: Address of the ISR to set in the interrupt vector table.
  82:.\Generated_Source\PSoC5/isr_tc.c **** *
  83:.\Generated_Source\PSoC5/isr_tc.c **** * Return:
  84:.\Generated_Source\PSoC5/isr_tc.c **** *   None
  85:.\Generated_Source\PSoC5/isr_tc.c **** *
  86:.\Generated_Source\PSoC5/isr_tc.c **** *******************************************************************************/
  87:.\Generated_Source\PSoC5/isr_tc.c **** void isr_tc_StartEx(cyisraddress address)
  88:.\Generated_Source\PSoC5/isr_tc.c **** {
  63              		.loc 1 88 0
  64              		.cfi_startproc
  65              		@ args = 0, pretend = 0, frame = 8
  66              		@ frame_needed = 1, uses_anonymous_args = 0
  67 0000 80B5     		push	{r7, lr}
  68              	.LCFI2:
  69              		.cfi_def_cfa_offset 8
  70              		.cfi_offset 7, -8
  71              		.cfi_offset 14, -4
  72 0002 82B0     		sub	sp, sp, #8
  73              	.LCFI3:
  74              		.cfi_def_cfa_offset 16
  75 0004 00AF     		add	r7, sp, #0
  76              	.LCFI4:
  77              		.cfi_def_cfa_register 7
  78 0006 7860     		str	r0, [r7, #4]
  89:.\Generated_Source\PSoC5/isr_tc.c ****     /* For all we know the interrupt is active. */
  90:.\Generated_Source\PSoC5/isr_tc.c ****     isr_tc_Disable();
  79              		.loc 1 90 0
  80 0008 FFF7FEFF 		bl	isr_tc_Disable
  91:.\Generated_Source\PSoC5/isr_tc.c **** 
ARM GAS  C:\Users\RIEKOH~1\AppData\Local\Temp\ccdVhqFi.s 			page 4


  92:.\Generated_Source\PSoC5/isr_tc.c ****     /* Set the ISR to point to the isr_tc Interrupt. */
  93:.\Generated_Source\PSoC5/isr_tc.c ****     isr_tc_SetVector(address);
  81              		.loc 1 93 0
  82 000c 7868     		ldr	r0, [r7, #4]
  83 000e FFF7FEFF 		bl	isr_tc_SetVector
  94:.\Generated_Source\PSoC5/isr_tc.c **** 
  95:.\Generated_Source\PSoC5/isr_tc.c ****     /* Set the priority. */
  96:.\Generated_Source\PSoC5/isr_tc.c ****     isr_tc_SetPriority((uint8)isr_tc_INTC_PRIOR_NUMBER);
  84              		.loc 1 96 0
  85 0012 4FF00700 		mov	r0, #7
  86 0016 FFF7FEFF 		bl	isr_tc_SetPriority
  97:.\Generated_Source\PSoC5/isr_tc.c **** 
  98:.\Generated_Source\PSoC5/isr_tc.c ****     /* Enable it. */
  99:.\Generated_Source\PSoC5/isr_tc.c ****     isr_tc_Enable();
  87              		.loc 1 99 0
  88 001a FFF7FEFF 		bl	isr_tc_Enable
 100:.\Generated_Source\PSoC5/isr_tc.c **** }
  89              		.loc 1 100 0
  90 001e 07F10807 		add	r7, r7, #8
  91 0022 BD46     		mov	sp, r7
  92 0024 80BD     		pop	{r7, pc}
  93              		.cfi_endproc
  94              	.LFE1:
  95              		.size	isr_tc_StartEx, .-isr_tc_StartEx
  96 0026 00BF     		.section	.text.isr_tc_Stop,"ax",%progbits
  97              		.align	2
  98              		.global	isr_tc_Stop
  99              		.thumb
 100              		.thumb_func
 101              		.type	isr_tc_Stop, %function
 102              	isr_tc_Stop:
 103              	.LFB2:
 101:.\Generated_Source\PSoC5/isr_tc.c **** 
 102:.\Generated_Source\PSoC5/isr_tc.c **** 
 103:.\Generated_Source\PSoC5/isr_tc.c **** /*******************************************************************************
 104:.\Generated_Source\PSoC5/isr_tc.c **** * Function Name: isr_tc_Stop
 105:.\Generated_Source\PSoC5/isr_tc.c **** ********************************************************************************
 106:.\Generated_Source\PSoC5/isr_tc.c **** *
 107:.\Generated_Source\PSoC5/isr_tc.c **** * Summary:
 108:.\Generated_Source\PSoC5/isr_tc.c **** *   Disables and removes the interrupt.
 109:.\Generated_Source\PSoC5/isr_tc.c **** *
 110:.\Generated_Source\PSoC5/isr_tc.c **** * Parameters:  
 111:.\Generated_Source\PSoC5/isr_tc.c **** *
 112:.\Generated_Source\PSoC5/isr_tc.c **** * Return:
 113:.\Generated_Source\PSoC5/isr_tc.c **** *   None
 114:.\Generated_Source\PSoC5/isr_tc.c **** *
 115:.\Generated_Source\PSoC5/isr_tc.c **** *******************************************************************************/
 116:.\Generated_Source\PSoC5/isr_tc.c **** void isr_tc_Stop(void)
 117:.\Generated_Source\PSoC5/isr_tc.c **** {
 104              		.loc 1 117 0
 105              		.cfi_startproc
 106              		@ args = 0, pretend = 0, frame = 0
 107              		@ frame_needed = 1, uses_anonymous_args = 0
 108 0000 80B5     		push	{r7, lr}
 109              	.LCFI5:
 110              		.cfi_def_cfa_offset 8
 111              		.cfi_offset 7, -8
ARM GAS  C:\Users\RIEKOH~1\AppData\Local\Temp\ccdVhqFi.s 			page 5


 112              		.cfi_offset 14, -4
 113 0002 00AF     		add	r7, sp, #0
 114              	.LCFI6:
 115              		.cfi_def_cfa_register 7
 118:.\Generated_Source\PSoC5/isr_tc.c ****     /* Disable this interrupt. */
 119:.\Generated_Source\PSoC5/isr_tc.c ****     isr_tc_Disable();
 116              		.loc 1 119 0
 117 0004 FFF7FEFF 		bl	isr_tc_Disable
 120:.\Generated_Source\PSoC5/isr_tc.c **** 
 121:.\Generated_Source\PSoC5/isr_tc.c ****     /* Set the ISR to point to the passive one. */
 122:.\Generated_Source\PSoC5/isr_tc.c ****     isr_tc_SetVector(&IntDefaultHandler);
 118              		.loc 1 122 0
 119 0008 40F20000 		movw	r0, #:lower16:IntDefaultHandler
 120 000c C0F20000 		movt	r0, #:upper16:IntDefaultHandler
 121 0010 FFF7FEFF 		bl	isr_tc_SetVector
 123:.\Generated_Source\PSoC5/isr_tc.c **** }
 122              		.loc 1 123 0
 123 0014 80BD     		pop	{r7, pc}
 124              		.cfi_endproc
 125              	.LFE2:
 126              		.size	isr_tc_Stop, .-isr_tc_Stop
 127 0016 00BF     		.section	.text.isr_tc_Interrupt,"ax",%progbits
 128              		.align	2
 129              		.global	isr_tc_Interrupt
 130              		.thumb
 131              		.thumb_func
 132              		.type	isr_tc_Interrupt, %function
 133              	isr_tc_Interrupt:
 134              	.LFB3:
 124:.\Generated_Source\PSoC5/isr_tc.c **** 
 125:.\Generated_Source\PSoC5/isr_tc.c **** 
 126:.\Generated_Source\PSoC5/isr_tc.c **** /*******************************************************************************
 127:.\Generated_Source\PSoC5/isr_tc.c **** * Function Name: isr_tc_Interrupt
 128:.\Generated_Source\PSoC5/isr_tc.c **** ********************************************************************************
 129:.\Generated_Source\PSoC5/isr_tc.c **** *
 130:.\Generated_Source\PSoC5/isr_tc.c **** * Summary:
 131:.\Generated_Source\PSoC5/isr_tc.c **** *   The default Interrupt Service Routine for isr_tc.
 132:.\Generated_Source\PSoC5/isr_tc.c **** *
 133:.\Generated_Source\PSoC5/isr_tc.c **** *   Add custom code between the coments to keep the next version of this file
 134:.\Generated_Source\PSoC5/isr_tc.c **** *   from over writting your code.
 135:.\Generated_Source\PSoC5/isr_tc.c **** *
 136:.\Generated_Source\PSoC5/isr_tc.c **** * Parameters:  
 137:.\Generated_Source\PSoC5/isr_tc.c **** *
 138:.\Generated_Source\PSoC5/isr_tc.c **** * Return:
 139:.\Generated_Source\PSoC5/isr_tc.c **** *   None
 140:.\Generated_Source\PSoC5/isr_tc.c **** *
 141:.\Generated_Source\PSoC5/isr_tc.c **** *******************************************************************************/
 142:.\Generated_Source\PSoC5/isr_tc.c **** CY_ISR(isr_tc_Interrupt)
 143:.\Generated_Source\PSoC5/isr_tc.c **** {
 135              		.loc 1 143 0
 136              		.cfi_startproc
 137              		@ args = 0, pretend = 0, frame = 0
 138              		@ frame_needed = 1, uses_anonymous_args = 0
 139              		@ link register save eliminated.
 140 0000 80B4     		push	{r7}
 141              	.LCFI7:
 142              		.cfi_def_cfa_offset 4
ARM GAS  C:\Users\RIEKOH~1\AppData\Local\Temp\ccdVhqFi.s 			page 6


 143              		.cfi_offset 7, -4
 144 0002 00AF     		add	r7, sp, #0
 145              	.LCFI8:
 146              		.cfi_def_cfa_register 7
 144:.\Generated_Source\PSoC5/isr_tc.c ****     /*  Place your Interrupt code here. */
 145:.\Generated_Source\PSoC5/isr_tc.c ****     /* `#START isr_tc_Interrupt` */
 146:.\Generated_Source\PSoC5/isr_tc.c **** 
 147:.\Generated_Source\PSoC5/isr_tc.c ****     /* `#END` */
 148:.\Generated_Source\PSoC5/isr_tc.c **** }
 147              		.loc 1 148 0
 148 0004 BD46     		mov	sp, r7
 149 0006 80BC     		pop	{r7}
 150 0008 7047     		bx	lr
 151              		.cfi_endproc
 152              	.LFE3:
 153              		.size	isr_tc_Interrupt, .-isr_tc_Interrupt
 154 000a 00BF     		.section	.text.isr_tc_SetVector,"ax",%progbits
 155              		.align	2
 156              		.global	isr_tc_SetVector
 157              		.thumb
 158              		.thumb_func
 159              		.type	isr_tc_SetVector, %function
 160              	isr_tc_SetVector:
 161              	.LFB4:
 149:.\Generated_Source\PSoC5/isr_tc.c **** 
 150:.\Generated_Source\PSoC5/isr_tc.c **** 
 151:.\Generated_Source\PSoC5/isr_tc.c **** /*******************************************************************************
 152:.\Generated_Source\PSoC5/isr_tc.c **** * Function Name: isr_tc_SetVector
 153:.\Generated_Source\PSoC5/isr_tc.c **** ********************************************************************************
 154:.\Generated_Source\PSoC5/isr_tc.c **** *
 155:.\Generated_Source\PSoC5/isr_tc.c **** * Summary:
 156:.\Generated_Source\PSoC5/isr_tc.c **** *   Change the ISR vector for the Interrupt. Note calling isr_tc_Start
 157:.\Generated_Source\PSoC5/isr_tc.c **** *   will override any effect this method would have had. To set the vector 
 158:.\Generated_Source\PSoC5/isr_tc.c **** *   before the component has been started use isr_tc_StartEx instead.
 159:.\Generated_Source\PSoC5/isr_tc.c **** *
 160:.\Generated_Source\PSoC5/isr_tc.c **** * Parameters:
 161:.\Generated_Source\PSoC5/isr_tc.c **** *   address: Address of the ISR to set in the interrupt vector table.
 162:.\Generated_Source\PSoC5/isr_tc.c **** *
 163:.\Generated_Source\PSoC5/isr_tc.c **** * Return:
 164:.\Generated_Source\PSoC5/isr_tc.c **** *   None
 165:.\Generated_Source\PSoC5/isr_tc.c **** *
 166:.\Generated_Source\PSoC5/isr_tc.c **** *******************************************************************************/
 167:.\Generated_Source\PSoC5/isr_tc.c **** void isr_tc_SetVector(cyisraddress address)
 168:.\Generated_Source\PSoC5/isr_tc.c **** {
 162              		.loc 1 168 0
 163              		.cfi_startproc
 164              		@ args = 0, pretend = 0, frame = 16
 165              		@ frame_needed = 1, uses_anonymous_args = 0
 166              		@ link register save eliminated.
 167 0000 80B4     		push	{r7}
 168              	.LCFI9:
 169              		.cfi_def_cfa_offset 4
 170              		.cfi_offset 7, -4
 171 0002 85B0     		sub	sp, sp, #20
 172              	.LCFI10:
 173              		.cfi_def_cfa_offset 24
 174 0004 00AF     		add	r7, sp, #0
ARM GAS  C:\Users\RIEKOH~1\AppData\Local\Temp\ccdVhqFi.s 			page 7


 175              	.LCFI11:
 176              		.cfi_def_cfa_register 7
 177 0006 7860     		str	r0, [r7, #4]
 169:.\Generated_Source\PSoC5/isr_tc.c ****     cyisraddress * ramVectorTable;
 170:.\Generated_Source\PSoC5/isr_tc.c **** 
 171:.\Generated_Source\PSoC5/isr_tc.c ****     ramVectorTable = (cyisraddress *) *CYINT_VECT_TABLE;
 178              		.loc 1 171 0
 179 0008 4EF60853 		movw	r3, #60680
 180 000c CEF20003 		movt	r3, 57344
 181 0010 1B68     		ldr	r3, [r3, #0]
 182 0012 FB60     		str	r3, [r7, #12]
 172:.\Generated_Source\PSoC5/isr_tc.c **** 
 173:.\Generated_Source\PSoC5/isr_tc.c ****     ramVectorTable[CYINT_IRQ_BASE + (uint32)isr_tc__INTC_NUMBER] = address;
 183              		.loc 1 173 0
 184 0014 FB68     		ldr	r3, [r7, #12]
 185 0016 03F14003 		add	r3, r3, #64
 186 001a 7A68     		ldr	r2, [r7, #4]
 187 001c 1A60     		str	r2, [r3, #0]
 174:.\Generated_Source\PSoC5/isr_tc.c **** }
 188              		.loc 1 174 0
 189 001e 07F11407 		add	r7, r7, #20
 190 0022 BD46     		mov	sp, r7
 191 0024 80BC     		pop	{r7}
 192 0026 7047     		bx	lr
 193              		.cfi_endproc
 194              	.LFE4:
 195              		.size	isr_tc_SetVector, .-isr_tc_SetVector
 196              		.section	.text.isr_tc_GetVector,"ax",%progbits
 197              		.align	2
 198              		.global	isr_tc_GetVector
 199              		.thumb
 200              		.thumb_func
 201              		.type	isr_tc_GetVector, %function
 202              	isr_tc_GetVector:
 203              	.LFB5:
 175:.\Generated_Source\PSoC5/isr_tc.c **** 
 176:.\Generated_Source\PSoC5/isr_tc.c **** 
 177:.\Generated_Source\PSoC5/isr_tc.c **** /*******************************************************************************
 178:.\Generated_Source\PSoC5/isr_tc.c **** * Function Name: isr_tc_GetVector
 179:.\Generated_Source\PSoC5/isr_tc.c **** ********************************************************************************
 180:.\Generated_Source\PSoC5/isr_tc.c **** *
 181:.\Generated_Source\PSoC5/isr_tc.c **** * Summary:
 182:.\Generated_Source\PSoC5/isr_tc.c **** *   Gets the "address" of the current ISR vector for the Interrupt.
 183:.\Generated_Source\PSoC5/isr_tc.c **** *
 184:.\Generated_Source\PSoC5/isr_tc.c **** * Parameters:
 185:.\Generated_Source\PSoC5/isr_tc.c **** *   None
 186:.\Generated_Source\PSoC5/isr_tc.c **** *
 187:.\Generated_Source\PSoC5/isr_tc.c **** * Return:
 188:.\Generated_Source\PSoC5/isr_tc.c **** *   Address of the ISR in the interrupt vector table.
 189:.\Generated_Source\PSoC5/isr_tc.c **** *
 190:.\Generated_Source\PSoC5/isr_tc.c **** *******************************************************************************/
 191:.\Generated_Source\PSoC5/isr_tc.c **** cyisraddress isr_tc_GetVector(void)
 192:.\Generated_Source\PSoC5/isr_tc.c **** {
 204              		.loc 1 192 0
 205              		.cfi_startproc
 206              		@ args = 0, pretend = 0, frame = 8
 207              		@ frame_needed = 1, uses_anonymous_args = 0
ARM GAS  C:\Users\RIEKOH~1\AppData\Local\Temp\ccdVhqFi.s 			page 8


 208              		@ link register save eliminated.
 209 0000 80B4     		push	{r7}
 210              	.LCFI12:
 211              		.cfi_def_cfa_offset 4
 212              		.cfi_offset 7, -4
 213 0002 83B0     		sub	sp, sp, #12
 214              	.LCFI13:
 215              		.cfi_def_cfa_offset 16
 216 0004 00AF     		add	r7, sp, #0
 217              	.LCFI14:
 218              		.cfi_def_cfa_register 7
 193:.\Generated_Source\PSoC5/isr_tc.c ****     cyisraddress * ramVectorTable;
 194:.\Generated_Source\PSoC5/isr_tc.c **** 
 195:.\Generated_Source\PSoC5/isr_tc.c ****     ramVectorTable = (cyisraddress *) *CYINT_VECT_TABLE;
 219              		.loc 1 195 0
 220 0006 4EF60853 		movw	r3, #60680
 221 000a CEF20003 		movt	r3, 57344
 222 000e 1B68     		ldr	r3, [r3, #0]
 223 0010 7B60     		str	r3, [r7, #4]
 196:.\Generated_Source\PSoC5/isr_tc.c **** 
 197:.\Generated_Source\PSoC5/isr_tc.c ****     return ramVectorTable[CYINT_IRQ_BASE + (uint32)isr_tc__INTC_NUMBER];
 224              		.loc 1 197 0
 225 0012 7B68     		ldr	r3, [r7, #4]
 226 0014 1B6C     		ldr	r3, [r3, #64]
 198:.\Generated_Source\PSoC5/isr_tc.c **** }
 227              		.loc 1 198 0
 228 0016 1846     		mov	r0, r3
 229 0018 07F10C07 		add	r7, r7, #12
 230 001c BD46     		mov	sp, r7
 231 001e 80BC     		pop	{r7}
 232 0020 7047     		bx	lr
 233              		.cfi_endproc
 234              	.LFE5:
 235              		.size	isr_tc_GetVector, .-isr_tc_GetVector
 236 0022 00BF     		.section	.text.isr_tc_SetPriority,"ax",%progbits
 237              		.align	2
 238              		.global	isr_tc_SetPriority
 239              		.thumb
 240              		.thumb_func
 241              		.type	isr_tc_SetPriority, %function
 242              	isr_tc_SetPriority:
 243              	.LFB6:
 199:.\Generated_Source\PSoC5/isr_tc.c **** 
 200:.\Generated_Source\PSoC5/isr_tc.c **** 
 201:.\Generated_Source\PSoC5/isr_tc.c **** /*******************************************************************************
 202:.\Generated_Source\PSoC5/isr_tc.c **** * Function Name: isr_tc_SetPriority
 203:.\Generated_Source\PSoC5/isr_tc.c **** ********************************************************************************
 204:.\Generated_Source\PSoC5/isr_tc.c **** *
 205:.\Generated_Source\PSoC5/isr_tc.c **** * Summary:
 206:.\Generated_Source\PSoC5/isr_tc.c **** *   Sets the Priority of the Interrupt. Note calling isr_tc_Start
 207:.\Generated_Source\PSoC5/isr_tc.c **** *   or isr_tc_StartEx will override any effect this method 
 208:.\Generated_Source\PSoC5/isr_tc.c **** *   would have had. This method should only be called after 
 209:.\Generated_Source\PSoC5/isr_tc.c **** *   isr_tc_Start or isr_tc_StartEx has been called. To set 
 210:.\Generated_Source\PSoC5/isr_tc.c **** *   the initial priority for the component use the cydwr file in the tool.
 211:.\Generated_Source\PSoC5/isr_tc.c **** *
 212:.\Generated_Source\PSoC5/isr_tc.c **** * Parameters:
 213:.\Generated_Source\PSoC5/isr_tc.c **** *   priority: Priority of the interrupt. 0 - 7, 0 being the highest.
ARM GAS  C:\Users\RIEKOH~1\AppData\Local\Temp\ccdVhqFi.s 			page 9


 214:.\Generated_Source\PSoC5/isr_tc.c **** *
 215:.\Generated_Source\PSoC5/isr_tc.c **** * Return:
 216:.\Generated_Source\PSoC5/isr_tc.c **** *   None
 217:.\Generated_Source\PSoC5/isr_tc.c **** *
 218:.\Generated_Source\PSoC5/isr_tc.c **** *******************************************************************************/
 219:.\Generated_Source\PSoC5/isr_tc.c **** void isr_tc_SetPriority(uint8 priority)
 220:.\Generated_Source\PSoC5/isr_tc.c **** {
 244              		.loc 1 220 0
 245              		.cfi_startproc
 246              		@ args = 0, pretend = 0, frame = 8
 247              		@ frame_needed = 1, uses_anonymous_args = 0
 248              		@ link register save eliminated.
 249 0000 80B4     		push	{r7}
 250              	.LCFI15:
 251              		.cfi_def_cfa_offset 4
 252              		.cfi_offset 7, -4
 253 0002 83B0     		sub	sp, sp, #12
 254              	.LCFI16:
 255              		.cfi_def_cfa_offset 16
 256 0004 00AF     		add	r7, sp, #0
 257              	.LCFI17:
 258              		.cfi_def_cfa_register 7
 259 0006 0346     		mov	r3, r0
 260 0008 FB71     		strb	r3, [r7, #7]
 221:.\Generated_Source\PSoC5/isr_tc.c ****     *isr_tc_INTC_PRIOR = priority << 5;
 261              		.loc 1 221 0
 262 000a 4FF46443 		mov	r3, #58368
 263 000e CEF20003 		movt	r3, 57344
 264 0012 FA79     		ldrb	r2, [r7, #7]
 265 0014 4FEA4212 		lsl	r2, r2, #5
 266 0018 D2B2     		uxtb	r2, r2
 267 001a 1A70     		strb	r2, [r3, #0]
 222:.\Generated_Source\PSoC5/isr_tc.c **** }
 268              		.loc 1 222 0
 269 001c 07F10C07 		add	r7, r7, #12
 270 0020 BD46     		mov	sp, r7
 271 0022 80BC     		pop	{r7}
 272 0024 7047     		bx	lr
 273              		.cfi_endproc
 274              	.LFE6:
 275              		.size	isr_tc_SetPriority, .-isr_tc_SetPriority
 276 0026 00BF     		.section	.text.isr_tc_GetPriority,"ax",%progbits
 277              		.align	2
 278              		.global	isr_tc_GetPriority
 279              		.thumb
 280              		.thumb_func
 281              		.type	isr_tc_GetPriority, %function
 282              	isr_tc_GetPriority:
 283              	.LFB7:
 223:.\Generated_Source\PSoC5/isr_tc.c **** 
 224:.\Generated_Source\PSoC5/isr_tc.c **** 
 225:.\Generated_Source\PSoC5/isr_tc.c **** /*******************************************************************************
 226:.\Generated_Source\PSoC5/isr_tc.c **** * Function Name: isr_tc_GetPriority
 227:.\Generated_Source\PSoC5/isr_tc.c **** ********************************************************************************
 228:.\Generated_Source\PSoC5/isr_tc.c **** *
 229:.\Generated_Source\PSoC5/isr_tc.c **** * Summary:
 230:.\Generated_Source\PSoC5/isr_tc.c **** *   Gets the Priority of the Interrupt.
ARM GAS  C:\Users\RIEKOH~1\AppData\Local\Temp\ccdVhqFi.s 			page 10


 231:.\Generated_Source\PSoC5/isr_tc.c **** *
 232:.\Generated_Source\PSoC5/isr_tc.c **** * Parameters:
 233:.\Generated_Source\PSoC5/isr_tc.c **** *   None
 234:.\Generated_Source\PSoC5/isr_tc.c **** *
 235:.\Generated_Source\PSoC5/isr_tc.c **** * Return:
 236:.\Generated_Source\PSoC5/isr_tc.c **** *   Priority of the interrupt. 0 - 7, 0 being the highest.
 237:.\Generated_Source\PSoC5/isr_tc.c **** *
 238:.\Generated_Source\PSoC5/isr_tc.c **** *******************************************************************************/
 239:.\Generated_Source\PSoC5/isr_tc.c **** uint8 isr_tc_GetPriority(void)
 240:.\Generated_Source\PSoC5/isr_tc.c **** {
 284              		.loc 1 240 0
 285              		.cfi_startproc
 286              		@ args = 0, pretend = 0, frame = 8
 287              		@ frame_needed = 1, uses_anonymous_args = 0
 288              		@ link register save eliminated.
 289 0000 80B4     		push	{r7}
 290              	.LCFI18:
 291              		.cfi_def_cfa_offset 4
 292              		.cfi_offset 7, -4
 293 0002 83B0     		sub	sp, sp, #12
 294              	.LCFI19:
 295              		.cfi_def_cfa_offset 16
 296 0004 00AF     		add	r7, sp, #0
 297              	.LCFI20:
 298              		.cfi_def_cfa_register 7
 241:.\Generated_Source\PSoC5/isr_tc.c ****     uint8 priority;
 242:.\Generated_Source\PSoC5/isr_tc.c **** 
 243:.\Generated_Source\PSoC5/isr_tc.c **** 
 244:.\Generated_Source\PSoC5/isr_tc.c ****     priority = *isr_tc_INTC_PRIOR >> 5;
 299              		.loc 1 244 0
 300 0006 4FF46443 		mov	r3, #58368
 301 000a CEF20003 		movt	r3, 57344
 302 000e 1B78     		ldrb	r3, [r3, #0]
 303 0010 DBB2     		uxtb	r3, r3
 304 0012 4FEA5313 		lsr	r3, r3, #5
 305 0016 FB71     		strb	r3, [r7, #7]
 245:.\Generated_Source\PSoC5/isr_tc.c **** 
 246:.\Generated_Source\PSoC5/isr_tc.c ****     return priority;
 306              		.loc 1 246 0
 307 0018 FB79     		ldrb	r3, [r7, #7]	@ zero_extendqisi2
 247:.\Generated_Source\PSoC5/isr_tc.c **** }
 308              		.loc 1 247 0
 309 001a 1846     		mov	r0, r3
 310 001c 07F10C07 		add	r7, r7, #12
 311 0020 BD46     		mov	sp, r7
 312 0022 80BC     		pop	{r7}
 313 0024 7047     		bx	lr
 314              		.cfi_endproc
 315              	.LFE7:
 316              		.size	isr_tc_GetPriority, .-isr_tc_GetPriority
 317 0026 00BF     		.section	.text.isr_tc_Enable,"ax",%progbits
 318              		.align	2
 319              		.global	isr_tc_Enable
 320              		.thumb
 321              		.thumb_func
 322              		.type	isr_tc_Enable, %function
 323              	isr_tc_Enable:
ARM GAS  C:\Users\RIEKOH~1\AppData\Local\Temp\ccdVhqFi.s 			page 11


 324              	.LFB8:
 248:.\Generated_Source\PSoC5/isr_tc.c **** 
 249:.\Generated_Source\PSoC5/isr_tc.c **** 
 250:.\Generated_Source\PSoC5/isr_tc.c **** /*******************************************************************************
 251:.\Generated_Source\PSoC5/isr_tc.c **** * Function Name: isr_tc_Enable
 252:.\Generated_Source\PSoC5/isr_tc.c **** ********************************************************************************
 253:.\Generated_Source\PSoC5/isr_tc.c **** *
 254:.\Generated_Source\PSoC5/isr_tc.c **** * Summary:
 255:.\Generated_Source\PSoC5/isr_tc.c **** *   Enables the interrupt.
 256:.\Generated_Source\PSoC5/isr_tc.c **** *
 257:.\Generated_Source\PSoC5/isr_tc.c **** * Parameters:
 258:.\Generated_Source\PSoC5/isr_tc.c **** *   None
 259:.\Generated_Source\PSoC5/isr_tc.c **** *
 260:.\Generated_Source\PSoC5/isr_tc.c **** * Return:
 261:.\Generated_Source\PSoC5/isr_tc.c **** *   None
 262:.\Generated_Source\PSoC5/isr_tc.c **** *
 263:.\Generated_Source\PSoC5/isr_tc.c **** *******************************************************************************/
 264:.\Generated_Source\PSoC5/isr_tc.c **** void isr_tc_Enable(void)
 265:.\Generated_Source\PSoC5/isr_tc.c **** {
 325              		.loc 1 265 0
 326              		.cfi_startproc
 327              		@ args = 0, pretend = 0, frame = 0
 328              		@ frame_needed = 1, uses_anonymous_args = 0
 329              		@ link register save eliminated.
 330 0000 80B4     		push	{r7}
 331              	.LCFI21:
 332              		.cfi_def_cfa_offset 4
 333              		.cfi_offset 7, -4
 334 0002 00AF     		add	r7, sp, #0
 335              	.LCFI22:
 336              		.cfi_def_cfa_register 7
 266:.\Generated_Source\PSoC5/isr_tc.c ****     /* Enable the general interrupt. */
 267:.\Generated_Source\PSoC5/isr_tc.c ****     *isr_tc_INTC_SET_EN = isr_tc__INTC_MASK;
 337              		.loc 1 267 0
 338 0004 4FF46143 		mov	r3, #57600
 339 0008 CEF20003 		movt	r3, 57344
 340 000c 4FF00102 		mov	r2, #1
 341 0010 1A60     		str	r2, [r3, #0]
 268:.\Generated_Source\PSoC5/isr_tc.c **** }
 342              		.loc 1 268 0
 343 0012 BD46     		mov	sp, r7
 344 0014 80BC     		pop	{r7}
 345 0016 7047     		bx	lr
 346              		.cfi_endproc
 347              	.LFE8:
 348              		.size	isr_tc_Enable, .-isr_tc_Enable
 349              		.section	.text.isr_tc_GetState,"ax",%progbits
 350              		.align	2
 351              		.global	isr_tc_GetState
 352              		.thumb
 353              		.thumb_func
 354              		.type	isr_tc_GetState, %function
 355              	isr_tc_GetState:
 356              	.LFB9:
 269:.\Generated_Source\PSoC5/isr_tc.c **** 
 270:.\Generated_Source\PSoC5/isr_tc.c **** 
 271:.\Generated_Source\PSoC5/isr_tc.c **** /*******************************************************************************
ARM GAS  C:\Users\RIEKOH~1\AppData\Local\Temp\ccdVhqFi.s 			page 12


 272:.\Generated_Source\PSoC5/isr_tc.c **** * Function Name: isr_tc_GetState
 273:.\Generated_Source\PSoC5/isr_tc.c **** ********************************************************************************
 274:.\Generated_Source\PSoC5/isr_tc.c **** *
 275:.\Generated_Source\PSoC5/isr_tc.c **** * Summary:
 276:.\Generated_Source\PSoC5/isr_tc.c **** *   Gets the state (enabled, disabled) of the Interrupt.
 277:.\Generated_Source\PSoC5/isr_tc.c **** *
 278:.\Generated_Source\PSoC5/isr_tc.c **** * Parameters:
 279:.\Generated_Source\PSoC5/isr_tc.c **** *   None
 280:.\Generated_Source\PSoC5/isr_tc.c **** *
 281:.\Generated_Source\PSoC5/isr_tc.c **** * Return:
 282:.\Generated_Source\PSoC5/isr_tc.c **** *   1 if enabled, 0 if disabled.
 283:.\Generated_Source\PSoC5/isr_tc.c **** *
 284:.\Generated_Source\PSoC5/isr_tc.c **** *******************************************************************************/
 285:.\Generated_Source\PSoC5/isr_tc.c **** uint8 isr_tc_GetState(void)
 286:.\Generated_Source\PSoC5/isr_tc.c **** {
 357              		.loc 1 286 0
 358              		.cfi_startproc
 359              		@ args = 0, pretend = 0, frame = 0
 360              		@ frame_needed = 1, uses_anonymous_args = 0
 361              		@ link register save eliminated.
 362 0000 80B4     		push	{r7}
 363              	.LCFI23:
 364              		.cfi_def_cfa_offset 4
 365              		.cfi_offset 7, -4
 366 0002 00AF     		add	r7, sp, #0
 367              	.LCFI24:
 368              		.cfi_def_cfa_register 7
 287:.\Generated_Source\PSoC5/isr_tc.c ****     /* Get the state of the general interrupt. */
 288:.\Generated_Source\PSoC5/isr_tc.c ****     return ((*isr_tc_INTC_SET_EN & (uint32)isr_tc__INTC_MASK) != 0u) ? 1u:0u;
 369              		.loc 1 288 0
 370 0004 4FF46143 		mov	r3, #57600
 371 0008 CEF20003 		movt	r3, 57344
 372 000c 1B68     		ldr	r3, [r3, #0]
 373 000e DBB2     		uxtb	r3, r3
 374 0010 03F00103 		and	r3, r3, #1
 375 0014 DBB2     		uxtb	r3, r3
 289:.\Generated_Source\PSoC5/isr_tc.c **** }
 376              		.loc 1 289 0
 377 0016 1846     		mov	r0, r3
 378 0018 BD46     		mov	sp, r7
 379 001a 80BC     		pop	{r7}
 380 001c 7047     		bx	lr
 381              		.cfi_endproc
 382              	.LFE9:
 383              		.size	isr_tc_GetState, .-isr_tc_GetState
 384 001e 00BF     		.section	.text.isr_tc_Disable,"ax",%progbits
 385              		.align	2
 386              		.global	isr_tc_Disable
 387              		.thumb
 388              		.thumb_func
 389              		.type	isr_tc_Disable, %function
 390              	isr_tc_Disable:
 391              	.LFB10:
 290:.\Generated_Source\PSoC5/isr_tc.c **** 
 291:.\Generated_Source\PSoC5/isr_tc.c **** 
 292:.\Generated_Source\PSoC5/isr_tc.c **** /*******************************************************************************
 293:.\Generated_Source\PSoC5/isr_tc.c **** * Function Name: isr_tc_Disable
ARM GAS  C:\Users\RIEKOH~1\AppData\Local\Temp\ccdVhqFi.s 			page 13


 294:.\Generated_Source\PSoC5/isr_tc.c **** ********************************************************************************
 295:.\Generated_Source\PSoC5/isr_tc.c **** *
 296:.\Generated_Source\PSoC5/isr_tc.c **** * Summary:
 297:.\Generated_Source\PSoC5/isr_tc.c **** *   Disables the Interrupt.
 298:.\Generated_Source\PSoC5/isr_tc.c **** *
 299:.\Generated_Source\PSoC5/isr_tc.c **** * Parameters:
 300:.\Generated_Source\PSoC5/isr_tc.c **** *   None
 301:.\Generated_Source\PSoC5/isr_tc.c **** *
 302:.\Generated_Source\PSoC5/isr_tc.c **** * Return:
 303:.\Generated_Source\PSoC5/isr_tc.c **** *   None
 304:.\Generated_Source\PSoC5/isr_tc.c **** *
 305:.\Generated_Source\PSoC5/isr_tc.c **** *******************************************************************************/
 306:.\Generated_Source\PSoC5/isr_tc.c **** void isr_tc_Disable(void)
 307:.\Generated_Source\PSoC5/isr_tc.c **** {
 392              		.loc 1 307 0
 393              		.cfi_startproc
 394              		@ args = 0, pretend = 0, frame = 0
 395              		@ frame_needed = 1, uses_anonymous_args = 0
 396              		@ link register save eliminated.
 397 0000 80B4     		push	{r7}
 398              	.LCFI25:
 399              		.cfi_def_cfa_offset 4
 400              		.cfi_offset 7, -4
 401 0002 00AF     		add	r7, sp, #0
 402              	.LCFI26:
 403              		.cfi_def_cfa_register 7
 308:.\Generated_Source\PSoC5/isr_tc.c ****     /* Disable the general interrupt. */
 309:.\Generated_Source\PSoC5/isr_tc.c ****     *isr_tc_INTC_CLR_EN = isr_tc__INTC_MASK;
 404              		.loc 1 309 0
 405 0004 4EF28013 		movw	r3, #57728
 406 0008 CEF20003 		movt	r3, 57344
 407 000c 4FF00102 		mov	r2, #1
 408 0010 1A60     		str	r2, [r3, #0]
 310:.\Generated_Source\PSoC5/isr_tc.c **** }
 409              		.loc 1 310 0
 410 0012 BD46     		mov	sp, r7
 411 0014 80BC     		pop	{r7}
 412 0016 7047     		bx	lr
 413              		.cfi_endproc
 414              	.LFE10:
 415              		.size	isr_tc_Disable, .-isr_tc_Disable
 416              		.section	.text.isr_tc_SetPending,"ax",%progbits
 417              		.align	2
 418              		.global	isr_tc_SetPending
 419              		.thumb
 420              		.thumb_func
 421              		.type	isr_tc_SetPending, %function
 422              	isr_tc_SetPending:
 423              	.LFB11:
 311:.\Generated_Source\PSoC5/isr_tc.c **** 
 312:.\Generated_Source\PSoC5/isr_tc.c **** 
 313:.\Generated_Source\PSoC5/isr_tc.c **** /*******************************************************************************
 314:.\Generated_Source\PSoC5/isr_tc.c **** * Function Name: isr_tc_SetPending
 315:.\Generated_Source\PSoC5/isr_tc.c **** ********************************************************************************
 316:.\Generated_Source\PSoC5/isr_tc.c **** *
 317:.\Generated_Source\PSoC5/isr_tc.c **** * Summary:
 318:.\Generated_Source\PSoC5/isr_tc.c **** *   Causes the Interrupt to enter the pending state, a software method of
ARM GAS  C:\Users\RIEKOH~1\AppData\Local\Temp\ccdVhqFi.s 			page 14


 319:.\Generated_Source\PSoC5/isr_tc.c **** *   generating the interrupt.
 320:.\Generated_Source\PSoC5/isr_tc.c **** *
 321:.\Generated_Source\PSoC5/isr_tc.c **** * Parameters:
 322:.\Generated_Source\PSoC5/isr_tc.c **** *   None
 323:.\Generated_Source\PSoC5/isr_tc.c **** *
 324:.\Generated_Source\PSoC5/isr_tc.c **** * Return:
 325:.\Generated_Source\PSoC5/isr_tc.c **** *   None
 326:.\Generated_Source\PSoC5/isr_tc.c **** *
 327:.\Generated_Source\PSoC5/isr_tc.c **** *******************************************************************************/
 328:.\Generated_Source\PSoC5/isr_tc.c **** void isr_tc_SetPending(void)
 329:.\Generated_Source\PSoC5/isr_tc.c **** {
 424              		.loc 1 329 0
 425              		.cfi_startproc
 426              		@ args = 0, pretend = 0, frame = 0
 427              		@ frame_needed = 1, uses_anonymous_args = 0
 428              		@ link register save eliminated.
 429 0000 80B4     		push	{r7}
 430              	.LCFI27:
 431              		.cfi_def_cfa_offset 4
 432              		.cfi_offset 7, -4
 433 0002 00AF     		add	r7, sp, #0
 434              	.LCFI28:
 435              		.cfi_def_cfa_register 7
 330:.\Generated_Source\PSoC5/isr_tc.c ****     *isr_tc_INTC_SET_PD = isr_tc__INTC_MASK;
 436              		.loc 1 330 0
 437 0004 4FF46243 		mov	r3, #57856
 438 0008 CEF20003 		movt	r3, 57344
 439 000c 4FF00102 		mov	r2, #1
 440 0010 1A60     		str	r2, [r3, #0]
 331:.\Generated_Source\PSoC5/isr_tc.c **** }
 441              		.loc 1 331 0
 442 0012 BD46     		mov	sp, r7
 443 0014 80BC     		pop	{r7}
 444 0016 7047     		bx	lr
 445              		.cfi_endproc
 446              	.LFE11:
 447              		.size	isr_tc_SetPending, .-isr_tc_SetPending
 448              		.section	.text.isr_tc_ClearPending,"ax",%progbits
 449              		.align	2
 450              		.global	isr_tc_ClearPending
 451              		.thumb
 452              		.thumb_func
 453              		.type	isr_tc_ClearPending, %function
 454              	isr_tc_ClearPending:
 455              	.LFB12:
 332:.\Generated_Source\PSoC5/isr_tc.c **** 
 333:.\Generated_Source\PSoC5/isr_tc.c **** 
 334:.\Generated_Source\PSoC5/isr_tc.c **** /*******************************************************************************
 335:.\Generated_Source\PSoC5/isr_tc.c **** * Function Name: isr_tc_ClearPending
 336:.\Generated_Source\PSoC5/isr_tc.c **** ********************************************************************************
 337:.\Generated_Source\PSoC5/isr_tc.c **** *
 338:.\Generated_Source\PSoC5/isr_tc.c **** * Summary:
 339:.\Generated_Source\PSoC5/isr_tc.c **** *   Clears a pending interrupt.
 340:.\Generated_Source\PSoC5/isr_tc.c **** *
 341:.\Generated_Source\PSoC5/isr_tc.c **** * Parameters:
 342:.\Generated_Source\PSoC5/isr_tc.c **** *   None
 343:.\Generated_Source\PSoC5/isr_tc.c **** *
ARM GAS  C:\Users\RIEKOH~1\AppData\Local\Temp\ccdVhqFi.s 			page 15


 344:.\Generated_Source\PSoC5/isr_tc.c **** * Return:
 345:.\Generated_Source\PSoC5/isr_tc.c **** *   None
 346:.\Generated_Source\PSoC5/isr_tc.c **** *
 347:.\Generated_Source\PSoC5/isr_tc.c **** *******************************************************************************/
 348:.\Generated_Source\PSoC5/isr_tc.c **** void isr_tc_ClearPending(void)
 349:.\Generated_Source\PSoC5/isr_tc.c **** {
 456              		.loc 1 349 0
 457              		.cfi_startproc
 458              		@ args = 0, pretend = 0, frame = 0
 459              		@ frame_needed = 1, uses_anonymous_args = 0
 460              		@ link register save eliminated.
 461 0000 80B4     		push	{r7}
 462              	.LCFI29:
 463              		.cfi_def_cfa_offset 4
 464              		.cfi_offset 7, -4
 465 0002 00AF     		add	r7, sp, #0
 466              	.LCFI30:
 467              		.cfi_def_cfa_register 7
 350:.\Generated_Source\PSoC5/isr_tc.c ****     *isr_tc_INTC_CLR_PD = isr_tc__INTC_MASK;
 468              		.loc 1 350 0
 469 0004 4EF28023 		movw	r3, #57984
 470 0008 CEF20003 		movt	r3, 57344
 471 000c 4FF00102 		mov	r2, #1
 472 0010 1A60     		str	r2, [r3, #0]
 351:.\Generated_Source\PSoC5/isr_tc.c **** }
 473              		.loc 1 351 0
 474 0012 BD46     		mov	sp, r7
 475 0014 80BC     		pop	{r7}
 476 0016 7047     		bx	lr
 477              		.cfi_endproc
 478              	.LFE12:
 479              		.size	isr_tc_ClearPending, .-isr_tc_ClearPending
 480              		.text
 481              	.Letext0:
 482              		.file 2 "./Generated_Source/PSoC5/cytypes.h"
 483              		.section	.debug_info,"",%progbits
 484              	.Ldebug_info0:
 485 0000 74020000 		.4byte	0x274
 486 0004 0200     		.2byte	0x2
 487 0006 00000000 		.4byte	.Ldebug_abbrev0
 488 000a 04       		.byte	0x4
 489 000b 01       		.uleb128 0x1
 490 000c D7010000 		.4byte	.LASF33
 491 0010 01       		.byte	0x1
 492 0011 B5010000 		.4byte	.LASF34
 493 0015 53000000 		.4byte	.LASF35
 494 0019 00000000 		.4byte	.Ldebug_ranges0+0
 495 001d 00000000 		.4byte	0
 496 0021 00000000 		.4byte	0
 497 0025 00000000 		.4byte	.Ldebug_line0
 498 0029 02       		.uleb128 0x2
 499 002a 01       		.byte	0x1
 500 002b 06       		.byte	0x6
 501 002c 29020000 		.4byte	.LASF0
 502 0030 02       		.uleb128 0x2
 503 0031 01       		.byte	0x1
 504 0032 08       		.byte	0x8
ARM GAS  C:\Users\RIEKOH~1\AppData\Local\Temp\ccdVhqFi.s 			page 16


 505 0033 A1000000 		.4byte	.LASF1
 506 0037 02       		.uleb128 0x2
 507 0038 02       		.byte	0x2
 508 0039 05       		.byte	0x5
 509 003a AB010000 		.4byte	.LASF2
 510 003e 02       		.uleb128 0x2
 511 003f 02       		.byte	0x2
 512 0040 07       		.byte	0x7
 513 0041 35020000 		.4byte	.LASF3
 514 0045 03       		.uleb128 0x3
 515 0046 04       		.byte	0x4
 516 0047 05       		.byte	0x5
 517 0048 696E7400 		.ascii	"int\000"
 518 004c 02       		.uleb128 0x2
 519 004d 04       		.byte	0x4
 520 004e 07       		.byte	0x7
 521 004f 26010000 		.4byte	.LASF4
 522 0053 02       		.uleb128 0x2
 523 0054 08       		.byte	0x8
 524 0055 05       		.byte	0x5
 525 0056 68010000 		.4byte	.LASF5
 526 005a 02       		.uleb128 0x2
 527 005b 08       		.byte	0x8
 528 005c 07       		.byte	0x7
 529 005d 3B010000 		.4byte	.LASF6
 530 0061 02       		.uleb128 0x2
 531 0062 04       		.byte	0x4
 532 0063 05       		.byte	0x5
 533 0064 20020000 		.4byte	.LASF7
 534 0068 02       		.uleb128 0x2
 535 0069 04       		.byte	0x4
 536 006a 07       		.byte	0x7
 537 006b 5F010000 		.4byte	.LASF8
 538 006f 02       		.uleb128 0x2
 539 0070 04       		.byte	0x4
 540 0071 07       		.byte	0x7
 541 0072 C6000000 		.4byte	.LASF9
 542 0076 04       		.uleb128 0x4
 543 0077 01       		.byte	0x1
 544 0078 05       		.uleb128 0x5
 545 0079 04       		.byte	0x4
 546 007a 76000000 		.4byte	0x76
 547 007e 02       		.uleb128 0x2
 548 007f 01       		.byte	0x1
 549 0080 08       		.byte	0x8
 550 0081 8A010000 		.4byte	.LASF10
 551 0085 06       		.uleb128 0x6
 552 0086 D8000000 		.4byte	.LASF11
 553 008a 02       		.byte	0x2
 554 008b 5B       		.byte	0x5b
 555 008c 30000000 		.4byte	0x30
 556 0090 06       		.uleb128 0x6
 557 0091 0E010000 		.4byte	.LASF12
 558 0095 02       		.byte	0x2
 559 0096 5D       		.byte	0x5d
 560 0097 6F000000 		.4byte	0x6f
 561 009b 02       		.uleb128 0x2
ARM GAS  C:\Users\RIEKOH~1\AppData\Local\Temp\ccdVhqFi.s 			page 17


 562 009c 04       		.byte	0x4
 563 009d 04       		.byte	0x4
 564 009e 9B000000 		.4byte	.LASF13
 565 00a2 02       		.uleb128 0x2
 566 00a3 08       		.byte	0x8
 567 00a4 04       		.byte	0x4
 568 00a5 F6000000 		.4byte	.LASF14
 569 00a9 06       		.uleb128 0x6
 570 00aa C1000000 		.4byte	.LASF15
 571 00ae 02       		.byte	0x2
 572 00af F0       		.byte	0xf0
 573 00b0 B4000000 		.4byte	0xb4
 574 00b4 07       		.uleb128 0x7
 575 00b5 85000000 		.4byte	0x85
 576 00b9 06       		.uleb128 0x6
 577 00ba 00000000 		.4byte	.LASF16
 578 00be 02       		.byte	0x2
 579 00bf F2       		.byte	0xf2
 580 00c0 C4000000 		.4byte	0xc4
 581 00c4 07       		.uleb128 0x7
 582 00c5 90000000 		.4byte	0x90
 583 00c9 08       		.uleb128 0x8
 584 00ca 52010000 		.4byte	.LASF17
 585 00ce 02       		.byte	0x2
 586 00cf 0201     		.2byte	0x102
 587 00d1 78000000 		.4byte	0x78
 588 00d5 09       		.uleb128 0x9
 589 00d6 01       		.byte	0x1
 590 00d7 9E010000 		.4byte	.LASF18
 591 00db 01       		.byte	0x1
 592 00dc 39       		.byte	0x39
 593 00dd 01       		.byte	0x1
 594 00de 00000000 		.4byte	.LFB0
 595 00e2 22000000 		.4byte	.LFE0
 596 00e6 00000000 		.4byte	.LLST0
 597 00ea 01       		.byte	0x1
 598 00eb 0A       		.uleb128 0xa
 599 00ec 01       		.byte	0x1
 600 00ed 31000000 		.4byte	.LASF21
 601 00f1 01       		.byte	0x1
 602 00f2 57       		.byte	0x57
 603 00f3 01       		.byte	0x1
 604 00f4 00000000 		.4byte	.LFB1
 605 00f8 26000000 		.4byte	.LFE1
 606 00fc 2C000000 		.4byte	.LLST1
 607 0100 01       		.byte	0x1
 608 0101 14010000 		.4byte	0x114
 609 0105 0B       		.uleb128 0xb
 610 0106 33010000 		.4byte	.LASF23
 611 010a 01       		.byte	0x1
 612 010b 57       		.byte	0x57
 613 010c C9000000 		.4byte	0xc9
 614 0110 02       		.byte	0x2
 615 0111 91       		.byte	0x91
 616 0112 74       		.sleb128 -12
 617 0113 00       		.byte	0
 618 0114 09       		.uleb128 0x9
ARM GAS  C:\Users\RIEKOH~1\AppData\Local\Temp\ccdVhqFi.s 			page 18


 619 0115 01       		.byte	0x1
 620 0116 14000000 		.4byte	.LASF19
 621 011a 01       		.byte	0x1
 622 011b 74       		.byte	0x74
 623 011c 01       		.byte	0x1
 624 011d 00000000 		.4byte	.LFB2
 625 0121 16000000 		.4byte	.LFE2
 626 0125 64000000 		.4byte	.LLST2
 627 0129 01       		.byte	0x1
 628 012a 0C       		.uleb128 0xc
 629 012b 01       		.byte	0x1
 630 012c 15010000 		.4byte	.LASF20
 631 0130 01       		.byte	0x1
 632 0131 8E       		.byte	0x8e
 633 0132 01       		.byte	0x1
 634 0133 00000000 		.4byte	.LFB3
 635 0137 0A000000 		.4byte	.LFE3
 636 013b 90000000 		.4byte	.LLST3
 637 013f 01       		.byte	0x1
 638 0140 0D       		.uleb128 0xd
 639 0141 01       		.byte	0x1
 640 0142 20000000 		.4byte	.LASF22
 641 0146 01       		.byte	0x1
 642 0147 A7       		.byte	0xa7
 643 0148 01       		.byte	0x1
 644 0149 00000000 		.4byte	.LFB4
 645 014d 28000000 		.4byte	.LFE4
 646 0151 BC000000 		.4byte	.LLST4
 647 0155 01       		.byte	0x1
 648 0156 77010000 		.4byte	0x177
 649 015a 0B       		.uleb128 0xb
 650 015b 33010000 		.4byte	.LASF23
 651 015f 01       		.byte	0x1
 652 0160 A7       		.byte	0xa7
 653 0161 C9000000 		.4byte	0xc9
 654 0165 02       		.byte	0x2
 655 0166 91       		.byte	0x91
 656 0167 6C       		.sleb128 -20
 657 0168 0E       		.uleb128 0xe
 658 0169 8F010000 		.4byte	.LASF24
 659 016d 01       		.byte	0x1
 660 016e A9       		.byte	0xa9
 661 016f 77010000 		.4byte	0x177
 662 0173 02       		.byte	0x2
 663 0174 91       		.byte	0x91
 664 0175 74       		.sleb128 -12
 665 0176 00       		.byte	0
 666 0177 05       		.uleb128 0x5
 667 0178 04       		.byte	0x4
 668 0179 C9000000 		.4byte	0xc9
 669 017d 0F       		.uleb128 0xf
 670 017e 01       		.byte	0x1
 671 017f FD000000 		.4byte	.LASF27
 672 0183 01       		.byte	0x1
 673 0184 BF       		.byte	0xbf
 674 0185 01       		.byte	0x1
 675 0186 C9000000 		.4byte	0xc9
ARM GAS  C:\Users\RIEKOH~1\AppData\Local\Temp\ccdVhqFi.s 			page 19


 676 018a 00000000 		.4byte	.LFB5
 677 018e 22000000 		.4byte	.LFE5
 678 0192 F4000000 		.4byte	.LLST5
 679 0196 01       		.byte	0x1
 680 0197 AA010000 		.4byte	0x1aa
 681 019b 0E       		.uleb128 0xe
 682 019c 8F010000 		.4byte	.LASF24
 683 01a0 01       		.byte	0x1
 684 01a1 C1       		.byte	0xc1
 685 01a2 77010000 		.4byte	0x177
 686 01a6 02       		.byte	0x2
 687 01a7 91       		.byte	0x91
 688 01a8 74       		.sleb128 -12
 689 01a9 00       		.byte	0
 690 01aa 0D       		.uleb128 0xd
 691 01ab 01       		.byte	0x1
 692 01ac 40000000 		.4byte	.LASF25
 693 01b0 01       		.byte	0x1
 694 01b1 DB       		.byte	0xdb
 695 01b2 01       		.byte	0x1
 696 01b3 00000000 		.4byte	.LFB6
 697 01b7 26000000 		.4byte	.LFE6
 698 01bb 2C010000 		.4byte	.LLST6
 699 01bf 01       		.byte	0x1
 700 01c0 D3010000 		.4byte	0x1d3
 701 01c4 0B       		.uleb128 0xb
 702 01c5 DE000000 		.4byte	.LASF26
 703 01c9 01       		.byte	0x1
 704 01ca DB       		.byte	0xdb
 705 01cb 85000000 		.4byte	0x85
 706 01cf 02       		.byte	0x2
 707 01d0 91       		.byte	0x91
 708 01d1 77       		.sleb128 -9
 709 01d2 00       		.byte	0
 710 01d3 0F       		.uleb128 0xf
 711 01d4 01       		.byte	0x1
 712 01d5 48020000 		.4byte	.LASF28
 713 01d9 01       		.byte	0x1
 714 01da EF       		.byte	0xef
 715 01db 01       		.byte	0x1
 716 01dc 85000000 		.4byte	0x85
 717 01e0 00000000 		.4byte	.LFB7
 718 01e4 26000000 		.4byte	.LFE7
 719 01e8 64010000 		.4byte	.LLST7
 720 01ec 01       		.byte	0x1
 721 01ed 00020000 		.4byte	0x200
 722 01f1 0E       		.uleb128 0xe
 723 01f2 DE000000 		.4byte	.LASF26
 724 01f6 01       		.byte	0x1
 725 01f7 F1       		.byte	0xf1
 726 01f8 85000000 		.4byte	0x85
 727 01fc 02       		.byte	0x2
 728 01fd 91       		.byte	0x91
 729 01fe 77       		.sleb128 -9
 730 01ff 00       		.byte	0
 731 0200 10       		.uleb128 0x10
 732 0201 01       		.byte	0x1
ARM GAS  C:\Users\RIEKOH~1\AppData\Local\Temp\ccdVhqFi.s 			page 20


 733 0202 06000000 		.4byte	.LASF29
 734 0206 01       		.byte	0x1
 735 0207 0801     		.2byte	0x108
 736 0209 01       		.byte	0x1
 737 020a 00000000 		.4byte	.LFB8
 738 020e 18000000 		.4byte	.LFE8
 739 0212 9C010000 		.4byte	.LLST8
 740 0216 01       		.byte	0x1
 741 0217 11       		.uleb128 0x11
 742 0218 01       		.byte	0x1
 743 0219 5B020000 		.4byte	.LASF36
 744 021d 01       		.byte	0x1
 745 021e 1D01     		.2byte	0x11d
 746 0220 01       		.byte	0x1
 747 0221 85000000 		.4byte	0x85
 748 0225 00000000 		.4byte	.LFB9
 749 0229 1E000000 		.4byte	.LFE9
 750 022d C8010000 		.4byte	.LLST9
 751 0231 01       		.byte	0x1
 752 0232 10       		.uleb128 0x10
 753 0233 01       		.byte	0x1
 754 0234 E7000000 		.4byte	.LASF30
 755 0238 01       		.byte	0x1
 756 0239 3201     		.2byte	0x132
 757 023b 01       		.byte	0x1
 758 023c 00000000 		.4byte	.LFB10
 759 0240 18000000 		.4byte	.LFE10
 760 0244 F4010000 		.4byte	.LLST10
 761 0248 01       		.byte	0x1
 762 0249 10       		.uleb128 0x10
 763 024a 01       		.byte	0x1
 764 024b AF000000 		.4byte	.LASF31
 765 024f 01       		.byte	0x1
 766 0250 4801     		.2byte	0x148
 767 0252 01       		.byte	0x1
 768 0253 00000000 		.4byte	.LFB11
 769 0257 18000000 		.4byte	.LFE11
 770 025b 20020000 		.4byte	.LLST11
 771 025f 01       		.byte	0x1
 772 0260 10       		.uleb128 0x10
 773 0261 01       		.byte	0x1
 774 0262 76010000 		.4byte	.LASF32
 775 0266 01       		.byte	0x1
 776 0267 5C01     		.2byte	0x15c
 777 0269 01       		.byte	0x1
 778 026a 00000000 		.4byte	.LFB12
 779 026e 18000000 		.4byte	.LFE12
 780 0272 4C020000 		.4byte	.LLST12
 781 0276 01       		.byte	0x1
 782 0277 00       		.byte	0
 783              		.section	.debug_abbrev,"",%progbits
 784              	.Ldebug_abbrev0:
 785 0000 01       		.uleb128 0x1
 786 0001 11       		.uleb128 0x11
 787 0002 01       		.byte	0x1
 788 0003 25       		.uleb128 0x25
 789 0004 0E       		.uleb128 0xe
ARM GAS  C:\Users\RIEKOH~1\AppData\Local\Temp\ccdVhqFi.s 			page 21


 790 0005 13       		.uleb128 0x13
 791 0006 0B       		.uleb128 0xb
 792 0007 03       		.uleb128 0x3
 793 0008 0E       		.uleb128 0xe
 794 0009 1B       		.uleb128 0x1b
 795 000a 0E       		.uleb128 0xe
 796 000b 55       		.uleb128 0x55
 797 000c 06       		.uleb128 0x6
 798 000d 11       		.uleb128 0x11
 799 000e 01       		.uleb128 0x1
 800 000f 52       		.uleb128 0x52
 801 0010 01       		.uleb128 0x1
 802 0011 10       		.uleb128 0x10
 803 0012 06       		.uleb128 0x6
 804 0013 00       		.byte	0
 805 0014 00       		.byte	0
 806 0015 02       		.uleb128 0x2
 807 0016 24       		.uleb128 0x24
 808 0017 00       		.byte	0
 809 0018 0B       		.uleb128 0xb
 810 0019 0B       		.uleb128 0xb
 811 001a 3E       		.uleb128 0x3e
 812 001b 0B       		.uleb128 0xb
 813 001c 03       		.uleb128 0x3
 814 001d 0E       		.uleb128 0xe
 815 001e 00       		.byte	0
 816 001f 00       		.byte	0
 817 0020 03       		.uleb128 0x3
 818 0021 24       		.uleb128 0x24
 819 0022 00       		.byte	0
 820 0023 0B       		.uleb128 0xb
 821 0024 0B       		.uleb128 0xb
 822 0025 3E       		.uleb128 0x3e
 823 0026 0B       		.uleb128 0xb
 824 0027 03       		.uleb128 0x3
 825 0028 08       		.uleb128 0x8
 826 0029 00       		.byte	0
 827 002a 00       		.byte	0
 828 002b 04       		.uleb128 0x4
 829 002c 15       		.uleb128 0x15
 830 002d 00       		.byte	0
 831 002e 27       		.uleb128 0x27
 832 002f 0C       		.uleb128 0xc
 833 0030 00       		.byte	0
 834 0031 00       		.byte	0
 835 0032 05       		.uleb128 0x5
 836 0033 0F       		.uleb128 0xf
 837 0034 00       		.byte	0
 838 0035 0B       		.uleb128 0xb
 839 0036 0B       		.uleb128 0xb
 840 0037 49       		.uleb128 0x49
 841 0038 13       		.uleb128 0x13
 842 0039 00       		.byte	0
 843 003a 00       		.byte	0
 844 003b 06       		.uleb128 0x6
 845 003c 16       		.uleb128 0x16
 846 003d 00       		.byte	0
ARM GAS  C:\Users\RIEKOH~1\AppData\Local\Temp\ccdVhqFi.s 			page 22


 847 003e 03       		.uleb128 0x3
 848 003f 0E       		.uleb128 0xe
 849 0040 3A       		.uleb128 0x3a
 850 0041 0B       		.uleb128 0xb
 851 0042 3B       		.uleb128 0x3b
 852 0043 0B       		.uleb128 0xb
 853 0044 49       		.uleb128 0x49
 854 0045 13       		.uleb128 0x13
 855 0046 00       		.byte	0
 856 0047 00       		.byte	0
 857 0048 07       		.uleb128 0x7
 858 0049 35       		.uleb128 0x35
 859 004a 00       		.byte	0
 860 004b 49       		.uleb128 0x49
 861 004c 13       		.uleb128 0x13
 862 004d 00       		.byte	0
 863 004e 00       		.byte	0
 864 004f 08       		.uleb128 0x8
 865 0050 16       		.uleb128 0x16
 866 0051 00       		.byte	0
 867 0052 03       		.uleb128 0x3
 868 0053 0E       		.uleb128 0xe
 869 0054 3A       		.uleb128 0x3a
 870 0055 0B       		.uleb128 0xb
 871 0056 3B       		.uleb128 0x3b
 872 0057 05       		.uleb128 0x5
 873 0058 49       		.uleb128 0x49
 874 0059 13       		.uleb128 0x13
 875 005a 00       		.byte	0
 876 005b 00       		.byte	0
 877 005c 09       		.uleb128 0x9
 878 005d 2E       		.uleb128 0x2e
 879 005e 00       		.byte	0
 880 005f 3F       		.uleb128 0x3f
 881 0060 0C       		.uleb128 0xc
 882 0061 03       		.uleb128 0x3
 883 0062 0E       		.uleb128 0xe
 884 0063 3A       		.uleb128 0x3a
 885 0064 0B       		.uleb128 0xb
 886 0065 3B       		.uleb128 0x3b
 887 0066 0B       		.uleb128 0xb
 888 0067 27       		.uleb128 0x27
 889 0068 0C       		.uleb128 0xc
 890 0069 11       		.uleb128 0x11
 891 006a 01       		.uleb128 0x1
 892 006b 12       		.uleb128 0x12
 893 006c 01       		.uleb128 0x1
 894 006d 40       		.uleb128 0x40
 895 006e 06       		.uleb128 0x6
 896 006f 9642     		.uleb128 0x2116
 897 0071 0C       		.uleb128 0xc
 898 0072 00       		.byte	0
 899 0073 00       		.byte	0
 900 0074 0A       		.uleb128 0xa
 901 0075 2E       		.uleb128 0x2e
 902 0076 01       		.byte	0x1
 903 0077 3F       		.uleb128 0x3f
ARM GAS  C:\Users\RIEKOH~1\AppData\Local\Temp\ccdVhqFi.s 			page 23


 904 0078 0C       		.uleb128 0xc
 905 0079 03       		.uleb128 0x3
 906 007a 0E       		.uleb128 0xe
 907 007b 3A       		.uleb128 0x3a
 908 007c 0B       		.uleb128 0xb
 909 007d 3B       		.uleb128 0x3b
 910 007e 0B       		.uleb128 0xb
 911 007f 27       		.uleb128 0x27
 912 0080 0C       		.uleb128 0xc
 913 0081 11       		.uleb128 0x11
 914 0082 01       		.uleb128 0x1
 915 0083 12       		.uleb128 0x12
 916 0084 01       		.uleb128 0x1
 917 0085 40       		.uleb128 0x40
 918 0086 06       		.uleb128 0x6
 919 0087 9642     		.uleb128 0x2116
 920 0089 0C       		.uleb128 0xc
 921 008a 01       		.uleb128 0x1
 922 008b 13       		.uleb128 0x13
 923 008c 00       		.byte	0
 924 008d 00       		.byte	0
 925 008e 0B       		.uleb128 0xb
 926 008f 05       		.uleb128 0x5
 927 0090 00       		.byte	0
 928 0091 03       		.uleb128 0x3
 929 0092 0E       		.uleb128 0xe
 930 0093 3A       		.uleb128 0x3a
 931 0094 0B       		.uleb128 0xb
 932 0095 3B       		.uleb128 0x3b
 933 0096 0B       		.uleb128 0xb
 934 0097 49       		.uleb128 0x49
 935 0098 13       		.uleb128 0x13
 936 0099 02       		.uleb128 0x2
 937 009a 0A       		.uleb128 0xa
 938 009b 00       		.byte	0
 939 009c 00       		.byte	0
 940 009d 0C       		.uleb128 0xc
 941 009e 2E       		.uleb128 0x2e
 942 009f 00       		.byte	0
 943 00a0 3F       		.uleb128 0x3f
 944 00a1 0C       		.uleb128 0xc
 945 00a2 03       		.uleb128 0x3
 946 00a3 0E       		.uleb128 0xe
 947 00a4 3A       		.uleb128 0x3a
 948 00a5 0B       		.uleb128 0xb
 949 00a6 3B       		.uleb128 0x3b
 950 00a7 0B       		.uleb128 0xb
 951 00a8 27       		.uleb128 0x27
 952 00a9 0C       		.uleb128 0xc
 953 00aa 11       		.uleb128 0x11
 954 00ab 01       		.uleb128 0x1
 955 00ac 12       		.uleb128 0x12
 956 00ad 01       		.uleb128 0x1
 957 00ae 40       		.uleb128 0x40
 958 00af 06       		.uleb128 0x6
 959 00b0 9742     		.uleb128 0x2117
 960 00b2 0C       		.uleb128 0xc
ARM GAS  C:\Users\RIEKOH~1\AppData\Local\Temp\ccdVhqFi.s 			page 24


 961 00b3 00       		.byte	0
 962 00b4 00       		.byte	0
 963 00b5 0D       		.uleb128 0xd
 964 00b6 2E       		.uleb128 0x2e
 965 00b7 01       		.byte	0x1
 966 00b8 3F       		.uleb128 0x3f
 967 00b9 0C       		.uleb128 0xc
 968 00ba 03       		.uleb128 0x3
 969 00bb 0E       		.uleb128 0xe
 970 00bc 3A       		.uleb128 0x3a
 971 00bd 0B       		.uleb128 0xb
 972 00be 3B       		.uleb128 0x3b
 973 00bf 0B       		.uleb128 0xb
 974 00c0 27       		.uleb128 0x27
 975 00c1 0C       		.uleb128 0xc
 976 00c2 11       		.uleb128 0x11
 977 00c3 01       		.uleb128 0x1
 978 00c4 12       		.uleb128 0x12
 979 00c5 01       		.uleb128 0x1
 980 00c6 40       		.uleb128 0x40
 981 00c7 06       		.uleb128 0x6
 982 00c8 9742     		.uleb128 0x2117
 983 00ca 0C       		.uleb128 0xc
 984 00cb 01       		.uleb128 0x1
 985 00cc 13       		.uleb128 0x13
 986 00cd 00       		.byte	0
 987 00ce 00       		.byte	0
 988 00cf 0E       		.uleb128 0xe
 989 00d0 34       		.uleb128 0x34
 990 00d1 00       		.byte	0
 991 00d2 03       		.uleb128 0x3
 992 00d3 0E       		.uleb128 0xe
 993 00d4 3A       		.uleb128 0x3a
 994 00d5 0B       		.uleb128 0xb
 995 00d6 3B       		.uleb128 0x3b
 996 00d7 0B       		.uleb128 0xb
 997 00d8 49       		.uleb128 0x49
 998 00d9 13       		.uleb128 0x13
 999 00da 02       		.uleb128 0x2
 1000 00db 0A       		.uleb128 0xa
 1001 00dc 00       		.byte	0
 1002 00dd 00       		.byte	0
 1003 00de 0F       		.uleb128 0xf
 1004 00df 2E       		.uleb128 0x2e
 1005 00e0 01       		.byte	0x1
 1006 00e1 3F       		.uleb128 0x3f
 1007 00e2 0C       		.uleb128 0xc
 1008 00e3 03       		.uleb128 0x3
 1009 00e4 0E       		.uleb128 0xe
 1010 00e5 3A       		.uleb128 0x3a
 1011 00e6 0B       		.uleb128 0xb
 1012 00e7 3B       		.uleb128 0x3b
 1013 00e8 0B       		.uleb128 0xb
 1014 00e9 27       		.uleb128 0x27
 1015 00ea 0C       		.uleb128 0xc
 1016 00eb 49       		.uleb128 0x49
 1017 00ec 13       		.uleb128 0x13
ARM GAS  C:\Users\RIEKOH~1\AppData\Local\Temp\ccdVhqFi.s 			page 25


 1018 00ed 11       		.uleb128 0x11
 1019 00ee 01       		.uleb128 0x1
 1020 00ef 12       		.uleb128 0x12
 1021 00f0 01       		.uleb128 0x1
 1022 00f1 40       		.uleb128 0x40
 1023 00f2 06       		.uleb128 0x6
 1024 00f3 9742     		.uleb128 0x2117
 1025 00f5 0C       		.uleb128 0xc
 1026 00f6 01       		.uleb128 0x1
 1027 00f7 13       		.uleb128 0x13
 1028 00f8 00       		.byte	0
 1029 00f9 00       		.byte	0
 1030 00fa 10       		.uleb128 0x10
 1031 00fb 2E       		.uleb128 0x2e
 1032 00fc 00       		.byte	0
 1033 00fd 3F       		.uleb128 0x3f
 1034 00fe 0C       		.uleb128 0xc
 1035 00ff 03       		.uleb128 0x3
 1036 0100 0E       		.uleb128 0xe
 1037 0101 3A       		.uleb128 0x3a
 1038 0102 0B       		.uleb128 0xb
 1039 0103 3B       		.uleb128 0x3b
 1040 0104 05       		.uleb128 0x5
 1041 0105 27       		.uleb128 0x27
 1042 0106 0C       		.uleb128 0xc
 1043 0107 11       		.uleb128 0x11
 1044 0108 01       		.uleb128 0x1
 1045 0109 12       		.uleb128 0x12
 1046 010a 01       		.uleb128 0x1
 1047 010b 40       		.uleb128 0x40
 1048 010c 06       		.uleb128 0x6
 1049 010d 9742     		.uleb128 0x2117
 1050 010f 0C       		.uleb128 0xc
 1051 0110 00       		.byte	0
 1052 0111 00       		.byte	0
 1053 0112 11       		.uleb128 0x11
 1054 0113 2E       		.uleb128 0x2e
 1055 0114 00       		.byte	0
 1056 0115 3F       		.uleb128 0x3f
 1057 0116 0C       		.uleb128 0xc
 1058 0117 03       		.uleb128 0x3
 1059 0118 0E       		.uleb128 0xe
 1060 0119 3A       		.uleb128 0x3a
 1061 011a 0B       		.uleb128 0xb
 1062 011b 3B       		.uleb128 0x3b
 1063 011c 05       		.uleb128 0x5
 1064 011d 27       		.uleb128 0x27
 1065 011e 0C       		.uleb128 0xc
 1066 011f 49       		.uleb128 0x49
 1067 0120 13       		.uleb128 0x13
 1068 0121 11       		.uleb128 0x11
 1069 0122 01       		.uleb128 0x1
 1070 0123 12       		.uleb128 0x12
 1071 0124 01       		.uleb128 0x1
 1072 0125 40       		.uleb128 0x40
 1073 0126 06       		.uleb128 0x6
 1074 0127 9742     		.uleb128 0x2117
ARM GAS  C:\Users\RIEKOH~1\AppData\Local\Temp\ccdVhqFi.s 			page 26


 1075 0129 0C       		.uleb128 0xc
 1076 012a 00       		.byte	0
 1077 012b 00       		.byte	0
 1078 012c 00       		.byte	0
 1079              		.section	.debug_loc,"",%progbits
 1080              	.Ldebug_loc0:
 1081              	.LLST0:
 1082 0000 00000000 		.4byte	.LFB0
 1083 0004 02000000 		.4byte	.LCFI0
 1084 0008 0200     		.2byte	0x2
 1085 000a 7D       		.byte	0x7d
 1086 000b 00       		.sleb128 0
 1087 000c 02000000 		.4byte	.LCFI0
 1088 0010 04000000 		.4byte	.LCFI1
 1089 0014 0200     		.2byte	0x2
 1090 0016 7D       		.byte	0x7d
 1091 0017 08       		.sleb128 8
 1092 0018 04000000 		.4byte	.LCFI1
 1093 001c 22000000 		.4byte	.LFE0
 1094 0020 0200     		.2byte	0x2
 1095 0022 77       		.byte	0x77
 1096 0023 08       		.sleb128 8
 1097 0024 00000000 		.4byte	0
 1098 0028 00000000 		.4byte	0
 1099              	.LLST1:
 1100 002c 00000000 		.4byte	.LFB1
 1101 0030 02000000 		.4byte	.LCFI2
 1102 0034 0200     		.2byte	0x2
 1103 0036 7D       		.byte	0x7d
 1104 0037 00       		.sleb128 0
 1105 0038 02000000 		.4byte	.LCFI2
 1106 003c 04000000 		.4byte	.LCFI3
 1107 0040 0200     		.2byte	0x2
 1108 0042 7D       		.byte	0x7d
 1109 0043 08       		.sleb128 8
 1110 0044 04000000 		.4byte	.LCFI3
 1111 0048 06000000 		.4byte	.LCFI4
 1112 004c 0200     		.2byte	0x2
 1113 004e 7D       		.byte	0x7d
 1114 004f 10       		.sleb128 16
 1115 0050 06000000 		.4byte	.LCFI4
 1116 0054 26000000 		.4byte	.LFE1
 1117 0058 0200     		.2byte	0x2
 1118 005a 77       		.byte	0x77
 1119 005b 10       		.sleb128 16
 1120 005c 00000000 		.4byte	0
 1121 0060 00000000 		.4byte	0
 1122              	.LLST2:
 1123 0064 00000000 		.4byte	.LFB2
 1124 0068 02000000 		.4byte	.LCFI5
 1125 006c 0200     		.2byte	0x2
 1126 006e 7D       		.byte	0x7d
 1127 006f 00       		.sleb128 0
 1128 0070 02000000 		.4byte	.LCFI5
 1129 0074 04000000 		.4byte	.LCFI6
 1130 0078 0200     		.2byte	0x2
 1131 007a 7D       		.byte	0x7d
ARM GAS  C:\Users\RIEKOH~1\AppData\Local\Temp\ccdVhqFi.s 			page 27


 1132 007b 08       		.sleb128 8
 1133 007c 04000000 		.4byte	.LCFI6
 1134 0080 16000000 		.4byte	.LFE2
 1135 0084 0200     		.2byte	0x2
 1136 0086 77       		.byte	0x77
 1137 0087 08       		.sleb128 8
 1138 0088 00000000 		.4byte	0
 1139 008c 00000000 		.4byte	0
 1140              	.LLST3:
 1141 0090 00000000 		.4byte	.LFB3
 1142 0094 02000000 		.4byte	.LCFI7
 1143 0098 0200     		.2byte	0x2
 1144 009a 7D       		.byte	0x7d
 1145 009b 00       		.sleb128 0
 1146 009c 02000000 		.4byte	.LCFI7
 1147 00a0 04000000 		.4byte	.LCFI8
 1148 00a4 0200     		.2byte	0x2
 1149 00a6 7D       		.byte	0x7d
 1150 00a7 04       		.sleb128 4
 1151 00a8 04000000 		.4byte	.LCFI8
 1152 00ac 0A000000 		.4byte	.LFE3
 1153 00b0 0200     		.2byte	0x2
 1154 00b2 77       		.byte	0x77
 1155 00b3 04       		.sleb128 4
 1156 00b4 00000000 		.4byte	0
 1157 00b8 00000000 		.4byte	0
 1158              	.LLST4:
 1159 00bc 00000000 		.4byte	.LFB4
 1160 00c0 02000000 		.4byte	.LCFI9
 1161 00c4 0200     		.2byte	0x2
 1162 00c6 7D       		.byte	0x7d
 1163 00c7 00       		.sleb128 0
 1164 00c8 02000000 		.4byte	.LCFI9
 1165 00cc 04000000 		.4byte	.LCFI10
 1166 00d0 0200     		.2byte	0x2
 1167 00d2 7D       		.byte	0x7d
 1168 00d3 04       		.sleb128 4
 1169 00d4 04000000 		.4byte	.LCFI10
 1170 00d8 06000000 		.4byte	.LCFI11
 1171 00dc 0200     		.2byte	0x2
 1172 00de 7D       		.byte	0x7d
 1173 00df 18       		.sleb128 24
 1174 00e0 06000000 		.4byte	.LCFI11
 1175 00e4 28000000 		.4byte	.LFE4
 1176 00e8 0200     		.2byte	0x2
 1177 00ea 77       		.byte	0x77
 1178 00eb 18       		.sleb128 24
 1179 00ec 00000000 		.4byte	0
 1180 00f0 00000000 		.4byte	0
 1181              	.LLST5:
 1182 00f4 00000000 		.4byte	.LFB5
 1183 00f8 02000000 		.4byte	.LCFI12
 1184 00fc 0200     		.2byte	0x2
 1185 00fe 7D       		.byte	0x7d
 1186 00ff 00       		.sleb128 0
 1187 0100 02000000 		.4byte	.LCFI12
 1188 0104 04000000 		.4byte	.LCFI13
ARM GAS  C:\Users\RIEKOH~1\AppData\Local\Temp\ccdVhqFi.s 			page 28


 1189 0108 0200     		.2byte	0x2
 1190 010a 7D       		.byte	0x7d
 1191 010b 04       		.sleb128 4
 1192 010c 04000000 		.4byte	.LCFI13
 1193 0110 06000000 		.4byte	.LCFI14
 1194 0114 0200     		.2byte	0x2
 1195 0116 7D       		.byte	0x7d
 1196 0117 10       		.sleb128 16
 1197 0118 06000000 		.4byte	.LCFI14
 1198 011c 22000000 		.4byte	.LFE5
 1199 0120 0200     		.2byte	0x2
 1200 0122 77       		.byte	0x77
 1201 0123 10       		.sleb128 16
 1202 0124 00000000 		.4byte	0
 1203 0128 00000000 		.4byte	0
 1204              	.LLST6:
 1205 012c 00000000 		.4byte	.LFB6
 1206 0130 02000000 		.4byte	.LCFI15
 1207 0134 0200     		.2byte	0x2
 1208 0136 7D       		.byte	0x7d
 1209 0137 00       		.sleb128 0
 1210 0138 02000000 		.4byte	.LCFI15
 1211 013c 04000000 		.4byte	.LCFI16
 1212 0140 0200     		.2byte	0x2
 1213 0142 7D       		.byte	0x7d
 1214 0143 04       		.sleb128 4
 1215 0144 04000000 		.4byte	.LCFI16
 1216 0148 06000000 		.4byte	.LCFI17
 1217 014c 0200     		.2byte	0x2
 1218 014e 7D       		.byte	0x7d
 1219 014f 10       		.sleb128 16
 1220 0150 06000000 		.4byte	.LCFI17
 1221 0154 26000000 		.4byte	.LFE6
 1222 0158 0200     		.2byte	0x2
 1223 015a 77       		.byte	0x77
 1224 015b 10       		.sleb128 16
 1225 015c 00000000 		.4byte	0
 1226 0160 00000000 		.4byte	0
 1227              	.LLST7:
 1228 0164 00000000 		.4byte	.LFB7
 1229 0168 02000000 		.4byte	.LCFI18
 1230 016c 0200     		.2byte	0x2
 1231 016e 7D       		.byte	0x7d
 1232 016f 00       		.sleb128 0
 1233 0170 02000000 		.4byte	.LCFI18
 1234 0174 04000000 		.4byte	.LCFI19
 1235 0178 0200     		.2byte	0x2
 1236 017a 7D       		.byte	0x7d
 1237 017b 04       		.sleb128 4
 1238 017c 04000000 		.4byte	.LCFI19
 1239 0180 06000000 		.4byte	.LCFI20
 1240 0184 0200     		.2byte	0x2
 1241 0186 7D       		.byte	0x7d
 1242 0187 10       		.sleb128 16
 1243 0188 06000000 		.4byte	.LCFI20
 1244 018c 26000000 		.4byte	.LFE7
 1245 0190 0200     		.2byte	0x2
ARM GAS  C:\Users\RIEKOH~1\AppData\Local\Temp\ccdVhqFi.s 			page 29


 1246 0192 77       		.byte	0x77
 1247 0193 10       		.sleb128 16
 1248 0194 00000000 		.4byte	0
 1249 0198 00000000 		.4byte	0
 1250              	.LLST8:
 1251 019c 00000000 		.4byte	.LFB8
 1252 01a0 02000000 		.4byte	.LCFI21
 1253 01a4 0200     		.2byte	0x2
 1254 01a6 7D       		.byte	0x7d
 1255 01a7 00       		.sleb128 0
 1256 01a8 02000000 		.4byte	.LCFI21
 1257 01ac 04000000 		.4byte	.LCFI22
 1258 01b0 0200     		.2byte	0x2
 1259 01b2 7D       		.byte	0x7d
 1260 01b3 04       		.sleb128 4
 1261 01b4 04000000 		.4byte	.LCFI22
 1262 01b8 18000000 		.4byte	.LFE8
 1263 01bc 0200     		.2byte	0x2
 1264 01be 77       		.byte	0x77
 1265 01bf 04       		.sleb128 4
 1266 01c0 00000000 		.4byte	0
 1267 01c4 00000000 		.4byte	0
 1268              	.LLST9:
 1269 01c8 00000000 		.4byte	.LFB9
 1270 01cc 02000000 		.4byte	.LCFI23
 1271 01d0 0200     		.2byte	0x2
 1272 01d2 7D       		.byte	0x7d
 1273 01d3 00       		.sleb128 0
 1274 01d4 02000000 		.4byte	.LCFI23
 1275 01d8 04000000 		.4byte	.LCFI24
 1276 01dc 0200     		.2byte	0x2
 1277 01de 7D       		.byte	0x7d
 1278 01df 04       		.sleb128 4
 1279 01e0 04000000 		.4byte	.LCFI24
 1280 01e4 1E000000 		.4byte	.LFE9
 1281 01e8 0200     		.2byte	0x2
 1282 01ea 77       		.byte	0x77
 1283 01eb 04       		.sleb128 4
 1284 01ec 00000000 		.4byte	0
 1285 01f0 00000000 		.4byte	0
 1286              	.LLST10:
 1287 01f4 00000000 		.4byte	.LFB10
 1288 01f8 02000000 		.4byte	.LCFI25
 1289 01fc 0200     		.2byte	0x2
 1290 01fe 7D       		.byte	0x7d
 1291 01ff 00       		.sleb128 0
 1292 0200 02000000 		.4byte	.LCFI25
 1293 0204 04000000 		.4byte	.LCFI26
 1294 0208 0200     		.2byte	0x2
 1295 020a 7D       		.byte	0x7d
 1296 020b 04       		.sleb128 4
 1297 020c 04000000 		.4byte	.LCFI26
 1298 0210 18000000 		.4byte	.LFE10
 1299 0214 0200     		.2byte	0x2
 1300 0216 77       		.byte	0x77
 1301 0217 04       		.sleb128 4
 1302 0218 00000000 		.4byte	0
ARM GAS  C:\Users\RIEKOH~1\AppData\Local\Temp\ccdVhqFi.s 			page 30


 1303 021c 00000000 		.4byte	0
 1304              	.LLST11:
 1305 0220 00000000 		.4byte	.LFB11
 1306 0224 02000000 		.4byte	.LCFI27
 1307 0228 0200     		.2byte	0x2
 1308 022a 7D       		.byte	0x7d
 1309 022b 00       		.sleb128 0
 1310 022c 02000000 		.4byte	.LCFI27
 1311 0230 04000000 		.4byte	.LCFI28
 1312 0234 0200     		.2byte	0x2
 1313 0236 7D       		.byte	0x7d
 1314 0237 04       		.sleb128 4
 1315 0238 04000000 		.4byte	.LCFI28
 1316 023c 18000000 		.4byte	.LFE11
 1317 0240 0200     		.2byte	0x2
 1318 0242 77       		.byte	0x77
 1319 0243 04       		.sleb128 4
 1320 0244 00000000 		.4byte	0
 1321 0248 00000000 		.4byte	0
 1322              	.LLST12:
 1323 024c 00000000 		.4byte	.LFB12
 1324 0250 02000000 		.4byte	.LCFI29
 1325 0254 0200     		.2byte	0x2
 1326 0256 7D       		.byte	0x7d
 1327 0257 00       		.sleb128 0
 1328 0258 02000000 		.4byte	.LCFI29
 1329 025c 04000000 		.4byte	.LCFI30
 1330 0260 0200     		.2byte	0x2
 1331 0262 7D       		.byte	0x7d
 1332 0263 04       		.sleb128 4
 1333 0264 04000000 		.4byte	.LCFI30
 1334 0268 18000000 		.4byte	.LFE12
 1335 026c 0200     		.2byte	0x2
 1336 026e 77       		.byte	0x77
 1337 026f 04       		.sleb128 4
 1338 0270 00000000 		.4byte	0
 1339 0274 00000000 		.4byte	0
 1340              		.section	.debug_aranges,"",%progbits
 1341 0000 7C000000 		.4byte	0x7c
 1342 0004 0200     		.2byte	0x2
 1343 0006 00000000 		.4byte	.Ldebug_info0
 1344 000a 04       		.byte	0x4
 1345 000b 00       		.byte	0
 1346 000c 0000     		.2byte	0
 1347 000e 0000     		.2byte	0
 1348 0010 00000000 		.4byte	.LFB0
 1349 0014 22000000 		.4byte	.LFE0-.LFB0
 1350 0018 00000000 		.4byte	.LFB1
 1351 001c 26000000 		.4byte	.LFE1-.LFB1
 1352 0020 00000000 		.4byte	.LFB2
 1353 0024 16000000 		.4byte	.LFE2-.LFB2
 1354 0028 00000000 		.4byte	.LFB3
 1355 002c 0A000000 		.4byte	.LFE3-.LFB3
 1356 0030 00000000 		.4byte	.LFB4
 1357 0034 28000000 		.4byte	.LFE4-.LFB4
 1358 0038 00000000 		.4byte	.LFB5
 1359 003c 22000000 		.4byte	.LFE5-.LFB5
ARM GAS  C:\Users\RIEKOH~1\AppData\Local\Temp\ccdVhqFi.s 			page 31


 1360 0040 00000000 		.4byte	.LFB6
 1361 0044 26000000 		.4byte	.LFE6-.LFB6
 1362 0048 00000000 		.4byte	.LFB7
 1363 004c 26000000 		.4byte	.LFE7-.LFB7
 1364 0050 00000000 		.4byte	.LFB8
 1365 0054 18000000 		.4byte	.LFE8-.LFB8
 1366 0058 00000000 		.4byte	.LFB9
 1367 005c 1E000000 		.4byte	.LFE9-.LFB9
 1368 0060 00000000 		.4byte	.LFB10
 1369 0064 18000000 		.4byte	.LFE10-.LFB10
 1370 0068 00000000 		.4byte	.LFB11
 1371 006c 18000000 		.4byte	.LFE11-.LFB11
 1372 0070 00000000 		.4byte	.LFB12
 1373 0074 18000000 		.4byte	.LFE12-.LFB12
 1374 0078 00000000 		.4byte	0
 1375 007c 00000000 		.4byte	0
 1376              		.section	.debug_ranges,"",%progbits
 1377              	.Ldebug_ranges0:
 1378 0000 00000000 		.4byte	.LFB0
 1379 0004 22000000 		.4byte	.LFE0
 1380 0008 00000000 		.4byte	.LFB1
 1381 000c 26000000 		.4byte	.LFE1
 1382 0010 00000000 		.4byte	.LFB2
 1383 0014 16000000 		.4byte	.LFE2
 1384 0018 00000000 		.4byte	.LFB3
 1385 001c 0A000000 		.4byte	.LFE3
 1386 0020 00000000 		.4byte	.LFB4
 1387 0024 28000000 		.4byte	.LFE4
 1388 0028 00000000 		.4byte	.LFB5
 1389 002c 22000000 		.4byte	.LFE5
 1390 0030 00000000 		.4byte	.LFB6
 1391 0034 26000000 		.4byte	.LFE6
 1392 0038 00000000 		.4byte	.LFB7
 1393 003c 26000000 		.4byte	.LFE7
 1394 0040 00000000 		.4byte	.LFB8
 1395 0044 18000000 		.4byte	.LFE8
 1396 0048 00000000 		.4byte	.LFB9
 1397 004c 1E000000 		.4byte	.LFE9
 1398 0050 00000000 		.4byte	.LFB10
 1399 0054 18000000 		.4byte	.LFE10
 1400 0058 00000000 		.4byte	.LFB11
 1401 005c 18000000 		.4byte	.LFE11
 1402 0060 00000000 		.4byte	.LFB12
 1403 0064 18000000 		.4byte	.LFE12
 1404 0068 00000000 		.4byte	0
 1405 006c 00000000 		.4byte	0
 1406              		.section	.debug_line,"",%progbits
 1407              	.Ldebug_line0:
 1408 0000 3D010000 		.section	.debug_str,"MS",%progbits,1
 1408      02004500 
 1408      00000201 
 1408      FB0E0D00 
 1408      01010101 
 1409              	.LASF16:
 1410 0000 72656733 		.ascii	"reg32\000"
 1410      3200
 1411              	.LASF29:
ARM GAS  C:\Users\RIEKOH~1\AppData\Local\Temp\ccdVhqFi.s 			page 32


 1412 0006 6973725F 		.ascii	"isr_tc_Enable\000"
 1412      74635F45 
 1412      6E61626C 
 1412      6500
 1413              	.LASF19:
 1414 0014 6973725F 		.ascii	"isr_tc_Stop\000"
 1414      74635F53 
 1414      746F7000 
 1415              	.LASF22:
 1416 0020 6973725F 		.ascii	"isr_tc_SetVector\000"
 1416      74635F53 
 1416      65745665 
 1416      63746F72 
 1416      00
 1417              	.LASF21:
 1418 0031 6973725F 		.ascii	"isr_tc_StartEx\000"
 1418      74635F53 
 1418      74617274 
 1418      457800
 1419              	.LASF25:
 1420 0040 6973725F 		.ascii	"isr_tc_SetPriority\000"
 1420      74635F53 
 1420      65745072 
 1420      696F7269 
 1420      747900
 1421              	.LASF35:
 1422 0053 433A5C55 		.ascii	"C:\\Users\\Rieko Hirota\\Documents\\F-tec\\servo_4_"
 1422      73657273 
 1422      5C526965 
 1422      6B6F2048 
 1422      69726F74 
 1423 0081 32385C74 		.ascii	"28\\tail_true_double.cydsn\000"
 1423      61696C5F 
 1423      74727565 
 1423      5F646F75 
 1423      626C652E 
 1424              	.LASF13:
 1425 009b 666C6F61 		.ascii	"float\000"
 1425      7400
 1426              	.LASF1:
 1427 00a1 756E7369 		.ascii	"unsigned char\000"
 1427      676E6564 
 1427      20636861 
 1427      7200
 1428              	.LASF31:
 1429 00af 6973725F 		.ascii	"isr_tc_SetPending\000"
 1429      74635F53 
 1429      65745065 
 1429      6E64696E 
 1429      6700
 1430              	.LASF15:
 1431 00c1 72656738 		.ascii	"reg8\000"
 1431      00
 1432              	.LASF9:
 1433 00c6 6C6F6E67 		.ascii	"long unsigned int\000"
 1433      20756E73 
 1433      69676E65 
ARM GAS  C:\Users\RIEKOH~1\AppData\Local\Temp\ccdVhqFi.s 			page 33


 1433      6420696E 
 1433      7400
 1434              	.LASF11:
 1435 00d8 75696E74 		.ascii	"uint8\000"
 1435      3800
 1436              	.LASF26:
 1437 00de 7072696F 		.ascii	"priority\000"
 1437      72697479 
 1437      00
 1438              	.LASF30:
 1439 00e7 6973725F 		.ascii	"isr_tc_Disable\000"
 1439      74635F44 
 1439      69736162 
 1439      6C6500
 1440              	.LASF14:
 1441 00f6 646F7562 		.ascii	"double\000"
 1441      6C6500
 1442              	.LASF27:
 1443 00fd 6973725F 		.ascii	"isr_tc_GetVector\000"
 1443      74635F47 
 1443      65745665 
 1443      63746F72 
 1443      00
 1444              	.LASF12:
 1445 010e 75696E74 		.ascii	"uint32\000"
 1445      333200
 1446              	.LASF20:
 1447 0115 6973725F 		.ascii	"isr_tc_Interrupt\000"
 1447      74635F49 
 1447      6E746572 
 1447      72757074 
 1447      00
 1448              	.LASF4:
 1449 0126 756E7369 		.ascii	"unsigned int\000"
 1449      676E6564 
 1449      20696E74 
 1449      00
 1450              	.LASF23:
 1451 0133 61646472 		.ascii	"address\000"
 1451      65737300 
 1452              	.LASF6:
 1453 013b 6C6F6E67 		.ascii	"long long unsigned int\000"
 1453      206C6F6E 
 1453      6720756E 
 1453      7369676E 
 1453      65642069 
 1454              	.LASF17:
 1455 0152 63796973 		.ascii	"cyisraddress\000"
 1455      72616464 
 1455      72657373 
 1455      00
 1456              	.LASF8:
 1457 015f 73697A65 		.ascii	"sizetype\000"
 1457      74797065 
 1457      00
 1458              	.LASF5:
 1459 0168 6C6F6E67 		.ascii	"long long int\000"
ARM GAS  C:\Users\RIEKOH~1\AppData\Local\Temp\ccdVhqFi.s 			page 34


 1459      206C6F6E 
 1459      6720696E 
 1459      7400
 1460              	.LASF32:
 1461 0176 6973725F 		.ascii	"isr_tc_ClearPending\000"
 1461      74635F43 
 1461      6C656172 
 1461      50656E64 
 1461      696E6700 
 1462              	.LASF10:
 1463 018a 63686172 		.ascii	"char\000"
 1463      00
 1464              	.LASF24:
 1465 018f 72616D56 		.ascii	"ramVectorTable\000"
 1465      6563746F 
 1465      72546162 
 1465      6C6500
 1466              	.LASF18:
 1467 019e 6973725F 		.ascii	"isr_tc_Start\000"
 1467      74635F53 
 1467      74617274 
 1467      00
 1468              	.LASF2:
 1469 01ab 73686F72 		.ascii	"short int\000"
 1469      7420696E 
 1469      7400
 1470              	.LASF34:
 1471 01b5 2E5C4765 		.ascii	".\\Generated_Source\\PSoC5\\isr_tc.c\000"
 1471      6E657261 
 1471      7465645F 
 1471      536F7572 
 1471      63655C50 
 1472              	.LASF33:
 1473 01d7 474E5520 		.ascii	"GNU C 4.7.3 20130312 (release) [ARM/embedded-4_7-br"
 1473      4320342E 
 1473      372E3320 
 1473      32303133 
 1473      30333132 
 1474 020a 616E6368 		.ascii	"anch revision 196615]\000"
 1474      20726576 
 1474      6973696F 
 1474      6E203139 
 1474      36363135 
 1475              	.LASF7:
 1476 0220 6C6F6E67 		.ascii	"long int\000"
 1476      20696E74 
 1476      00
 1477              	.LASF0:
 1478 0229 7369676E 		.ascii	"signed char\000"
 1478      65642063 
 1478      68617200 
 1479              	.LASF3:
 1480 0235 73686F72 		.ascii	"short unsigned int\000"
 1480      7420756E 
 1480      7369676E 
 1480      65642069 
 1480      6E7400
ARM GAS  C:\Users\RIEKOH~1\AppData\Local\Temp\ccdVhqFi.s 			page 35


 1481              	.LASF28:
 1482 0248 6973725F 		.ascii	"isr_tc_GetPriority\000"
 1482      74635F47 
 1482      65745072 
 1482      696F7269 
 1482      747900
 1483              	.LASF36:
 1484 025b 6973725F 		.ascii	"isr_tc_GetState\000"
 1484      74635F47 
 1484      65745374 
 1484      61746500 
 1485              		.ident	"GCC: (GNU Tools for ARM Embedded Processors) 4.7.3 20130312 (release) [ARM/embedded-4_7-br
