===========Generating Bitstream===========
# IDMUX (count=6)
00000000: 00 00 00 00 00 00
# IOPORT_0 (count=7)
00000006: 08 00 00 00 f1 00 00
# IOPINS0_0 (count=10)
0000000d: f8 00 01 fe 06 00 08 00 00 00
# IOPINS1_0 + 0x0000000B (count=5)
00000017: 00 00 00 00 00
# IOPORT_1 (count=7)
0000001c: 00 00 00 00 00 00 00
# IOPINS0_1 (count=16)
00000023: 00 00 00 00 00 00 00 00 00 00 00 00 00 00 00 00

# IOPORT_2 (count=7)
00000033: 00 00 00 00 0f 00 00
# IOPINS0_2 (count=10)
0000003a: 0f 00 00 0f 00 00 00 00 00 00
# IOPINS1_2 + 0x0000000B (count=5)
00000044: 00 00 00 00 00
# IOPORT_3 (count=7)
00000049: 0c 48 00 00 10 00 00
# IOPINS0_3 (count=10)
00000050: 44 00 10 ec a8 00 4c 00 00 00
# IOPINS1_3 + 0x0000000B (count=5)
0000005a: 00 00 00 00 00
# IOPORT_4 (count=7)
0000005f: 00 00 00 00 00 00 00
# IOPINS0_4 (count=16)
00000066: 00 00 00 00 00 00 00 00 00 00 00 00 00 00 00 00

# IOPORT_5 (count=7)
00000076: 00 00 00 00 00 00 00
# IOPINS0_5 (count=16)
0000007d: 00 00 00 00 00 00 00 00 00 00 00 00 00 00 00 00

# IOPORT_6 (count=7)
0000008d: 00 00 00 00 00 00 00
# IOPINS0_6 (count=16)
00000094: 00 00 00 00 00 00 00 00 00 00 00 00 00 00 00 00

# IOPORT_7 (count=6)
000000a4: 00 00 00 00 00 00
# IOPINS0_7 (count=8)
000000aa: 00 0f 0f 00 04 00 00 00
# IOPINS1_7 + 0x00000009 (count=5)
000000b2: 00 00 00 00 00
# IOPORT_8 (count=7)
000000b7: 00 00 00 00 00 00 00
# IOPINS0_8 (count=8)
000000be: 00 0c 0c 00 00 00 00 00
# IOPINS1_8 + 0x00000009 (count=5)
000000c6: 00 00 00 00 00
# IDMUX_IRQ (count=8)
000000cb: 0f 00 00 00 00 00 00 00
# CYDEV_CLKDIST_DCFG0_CFG0 (count=3)
000000d3: 01 00 18
# CYDEV_CLKDIST_DCFG1_CFG0 (count=3)
000000d6: 17 00 18
# CYDEV_CLKDIST_DCFG2_CFG0 (count=3)
000000d9: 17 00 18
# CYDEV_SLOWCLK_ILO_CR0 (count=1)
000000dc: 02
# CYDEV_CLKDIST_CR (count=1)
000000dd: 08
# CYDEV_FASTCLK_IMO_CR (count=1)
000000de: 03
# CYDEV_FASTCLK_PLL_P (count=2)
000000df: 08 00
# CYDEV_FASTCLK_PLL_CFG0 (count=2)
000000e1: 51 12
# CYDEV_CLKDIST_MSTR0 (count=2)
000000e3: 00 01
# CYDEV_CLKDIST_MSTR0 (count=1)
000000e5: 07
# CYDEV_CLKDIST_BCFG0 (count=1)
000000e6: 00
# CYDEV_CLKDIST_BCFG2 (count=1)
000000e7: 48
# CYDEV_CLKDIST_MSTR0 (count=1)
000000e8: 00
# CYDEV_CLKDIST_LD (count=1)
000000e9: 02
# CYDEV_PM_ACT_CFG2 (count=1)
000000ea: 07
# UDB_1_5_0_CONFIG (count=128)
000000eb: 00 00 00 00 00 00 00 00 00 00 00 00 00 00 00 00
000000fb: 00 00 00 00 00 00 00 00 00 00 00 00 00 00 00 00
0000010b: 00 00 00 00 00 00 00 00 00 00 00 00 00 00 00 00
0000011b: 00 00 00 00 00 00 00 00 00 00 00 00 00 00 00 00
0000012b: 00 00 00 00 00 00 00 00 00 00 00 00 00 00 00 00
0000013b: 00 00 00 00 00 00 00 00 00 00 00 00 00 00 00 00
0000014b: 00 00 00 00 00 00 00 00 00 00 00 00 00 00 00 00
0000015b: 00 00 00 00 00 00 00 00 00 00 00 00 00 00 00 00

# UDB_1_5_1_CONFIG (count=128)
0000016b: 00 00 00 00 00 00 00 00 00 00 00 00 00 00 00 00
0000017b: 00 00 00 00 00 00 00 00 00 00 00 00 00 00 00 00
0000018b: 00 00 00 00 00 00 00 00 00 00 00 00 00 00 00 00
0000019b: 00 00 00 00 00 00 00 00 00 00 00 00 00 00 00 00
000001ab: 00 00 00 00 00 00 00 00 00 00 00 00 00 00 00 00
000001bb: 00 00 00 00 00 00 00 00 00 00 00 00 00 00 00 00
000001cb: 00 00 00 00 00 00 00 00 00 00 00 00 00 00 00 00
000001db: 00 00 00 00 00 00 00 00 00 00 00 00 00 00 00 00

# UDB_1_4_1_CONFIG (count=128)
000001eb: 00 00 0c 00 30 00 00 01 10 00 00 00 0f 01 30 00
000001fb: 08 00 80 00 3c 00 02 00 3c 00 01 01 20 00 00 00
0000020b: 44 00 88 00 00 01 03 00 04 00 40 00 3f 00 00 00
0000021b: 00 00 3f 01 00 00 c0 00 00 08 08 00 00 00 00 00
0000022b: 45 00 00 00 00 00 00 00 00 ff ff ff 00 00 00 01
0000023b: 18 00 00 00 00 00 00 00 04 04 04 04 22 02 00 01
0000024b: 40 00 40 00 40 40 80 00 80 00 80 00 80 00 80 00
0000025b: 00 00 00 00 00 00 00 00 00 00 00 00 00 00 00 00

# UDB_1_4_0_CONFIG (count=128)
0000026b: 00 00 00 00 00 06 00 01 00 00 00 01 00 01 00 06
0000027b: 00 00 00 00 00 07 00 00 00 07 00 00 00 04 00 00
0000028b: 00 00 01 00 00 06 00 00 00 02 00 00 00 00 01 00
0000029b: 01 07 00 00 00 00 00 00 00 00 20 00 00 00 01 00
000002ab: 45 00 00 00 00 ec 00 20 23 ff ff ff 00 83 03 01
000002bb: 18 00 00 00 01 00 00 00 04 04 04 04 22 22 00 01
000002cb: 40 00 40 00 40 40 80 00 80 00 80 00 80 00 80 00
000002db: 00 00 00 00 00 00 00 00 00 00 00 00 00 00 00 00

# UDB_1_3_0_CONFIG (count=128)
000002eb: 00 00 00 00 00 00 00 00 00 00 00 00 00 00 00 00
000002fb: 00 00 00 00 00 00 00 00 00 00 00 00 00 00 00 00
0000030b: 00 00 00 00 00 00 00 00 00 00 00 00 00 00 00 00
0000031b: 00 00 00 00 00 00 00 00 00 00 00 00 00 00 00 00
0000032b: 00 00 00 00 00 00 00 00 00 00 00 00 00 00 00 00
0000033b: 00 00 00 00 00 00 00 00 00 00 00 00 00 00 00 00
0000034b: 00 00 00 00 00 00 00 00 00 00 00 00 00 00 00 00
0000035b: 00 00 00 00 00 00 00 00 00 00 00 00 00 00 00 00

# UDB_1_3_1_CONFIG (count=128)
0000036b: 00 00 00 00 00 00 00 00 00 00 00 00 00 00 00 00
0000037b: 00 00 00 00 00 00 00 00 00 00 00 00 00 00 00 00
0000038b: 00 00 00 00 00 00 00 00 00 00 00 00 00 00 00 00
0000039b: 00 00 00 00 00 00 00 00 00 00 00 00 00 00 00 00
000003ab: 00 00 00 00 00 00 00 00 00 00 00 00 00 00 00 00
000003bb: 00 00 00 00 00 00 00 00 00 00 00 00 00 00 00 00
000003cb: 00 00 00 00 00 00 00 00 00 00 00 00 00 00 00 00
000003db: 00 00 00 00 00 00 00 00 00 00 00 00 00 00 00 00

# UDB_1_2_1_CONFIG (count=128)
000003eb: 00 00 01 00 00 00 06 00 00 02 08 00 00 00 00 05
000003fb: 00 06 04 00 00 00 00 03 00 00 08 00 00 00 00 00
0000040b: 02 00 04 00 00 00 00 07 00 00 02 00 00 00 00 00
0000041b: 00 00 08 00 07 00 07 07 02 00 00 80 00 00 54 00
0000042b: 53 06 04 00 02 00 c0 0e 18 ff ff ff 62 a0 f0 41
0000043b: 0c 00 00 00 00 00 00 00 04 04 04 04 21 02 00 01
0000044b: 00 00 00 00 00 00 40 02 00 10 30 10 00 10 10 12
0000045b: 00 00 00 00 00 00 00 00 00 00 00 00 00 00 00 00

# UDB_1_2_0_CONFIG (count=128)
0000046b: 00 00 00 00 00 03 00 04 00 00 03 0e 1c 00 02 00
0000047b: 20 09 00 00 09 00 10 00 00 00 10 00 40 00 00 00
0000048b: 0c 00 11 00 14 00 00 00 00 03 00 04 10 03 0c 0c
0000049b: 20 0f 1f 00 40 00 00 00 00 00 00 02 00 00 11 00
000004ab: 54 02 00 00 00 eb 00 0c 13 ff ff ff 00 00 f0 44
000004bb: 0c 00 80 00 00 00 00 00 04 04 04 04 22 22 00 01
000004cb: 00 00 00 00 00 00 c0 00 00 00 40 02 00 00 00 00
000004db: 00 00 00 00 00 00 00 00 00 00 00 00 00 00 00 00

# UDB_0_2_1_CONFIG (count=128)
000004eb: 04 00 00 00 00 00 00 02 00 00 00 00 00 00 00 00
000004fb: 00 00 01 00 00 00 00 00 00 00 02 01 00 00 00 00
0000050b: 02 00 00 00 00 00 04 00 00 00 00 00 00 00 00 02
0000051b: 02 01 04 00 01 02 00 00 00 00 00 00 00 00 00 00
0000052b: 20 06 00 00 00 00 00 00 00 ff ff ff 00 a0 00 04
0000053b: 18 00 00 00 27 00 04 00 04 04 04 04 11 11 00 01
0000054b: 40 00 c0 00 40 40 c0 00 c0 00 c0 00 c0 00 c0 00
0000055b: 00 00 00 00 00 00 00 00 00 00 00 00 00 00 00 00

# UDB_0_2_0_CONFIG (count=128)
0000056b: 00 00 00 00 00 00 00 01 00 00 00 00 00 00 00 00
0000057b: 00 00 01 00 00 00 00 00 00 00 00 00 00 00 00 00
0000058b: 00 00 00 00 00 00 01 00 00 00 00 00 00 00 00 00
0000059b: 01 01 00 00 00 00 00 00 00 00 00 00 00 00 00 00
000005ab: 20 06 00 00 00 d1 50 02 1b ff ff ff 00 af 0f 04
000005bb: 18 00 80 00 00 00 00 00 04 04 04 04 11 11 00 01
000005cb: 40 00 c0 00 40 40 c0 00 c0 00 c0 00 c0 00 c0 00
000005db: 00 00 00 00 00 00 00 00 00 00 00 00 00 00 00 00

# UDB_0_3_0_CONFIG (count=128)
000005eb: 00 00 00 00 00 00 00 00 00 00 00 00 00 00 00 00
000005fb: 00 00 00 00 00 00 00 00 00 00 00 00 00 00 00 00
0000060b: 00 00 00 00 00 00 00 00 00 00 00 00 00 00 00 00
0000061b: 00 00 00 00 00 00 00 00 00 00 00 00 00 00 00 00
0000062b: 00 00 00 00 00 00 00 00 00 00 00 00 00 00 00 00
0000063b: 00 00 00 00 00 00 00 00 00 00 00 00 00 00 00 00
0000064b: 00 00 00 00 00 00 00 00 00 00 00 00 00 00 00 00
0000065b: 00 00 00 00 00 00 00 00 00 00 00 00 00 00 00 00

# UDB_0_3_1_CONFIG (count=128)
0000066b: 00 00 00 00 00 00 00 00 00 00 00 00 00 00 00 00
0000067b: 00 00 00 00 00 00 00 00 00 00 00 00 00 00 00 00
0000068b: 00 00 00 00 00 00 00 00 00 00 00 00 00 00 00 00
0000069b: 00 00 00 00 00 00 00 00 00 00 00 00 00 00 00 00
000006ab: 00 00 00 00 00 00 00 00 00 00 00 00 00 00 00 00
000006bb: 00 00 00 00 00 00 00 00 00 00 00 00 00 00 00 00
000006cb: 00 00 00 00 00 00 00 00 00 00 00 00 00 00 00 00
000006db: 00 00 00 00 00 00 00 00 00 00 00 00 00 00 00 00

# UDB_0_4_1_CONFIG (count=128)
000006eb: 00 00 00 00 00 00 00 00 00 00 00 00 00 00 00 00
000006fb: 00 00 00 00 00 00 00 00 00 00 00 00 00 00 00 00
0000070b: 00 00 00 00 00 00 00 00 00 00 00 00 00 00 00 00
0000071b: 00 00 00 00 00 00 00 00 00 00 00 00 00 00 00 00
0000072b: 00 00 00 00 00 00 00 00 00 00 00 00 00 00 00 00
0000073b: 00 00 00 00 00 00 00 00 00 00 00 00 00 00 00 00
0000074b: 00 00 00 00 00 00 00 00 00 00 00 00 00 00 00 00
0000075b: 00 00 00 00 00 00 00 00 00 00 00 00 00 00 00 00

# UDB_0_4_0_CONFIG (count=128)
0000076b: 00 00 00 00 00 00 00 00 00 00 00 00 00 00 00 00
0000077b: 00 00 00 00 00 00 00 00 00 00 00 00 00 00 00 00
0000078b: 00 00 00 00 00 00 00 00 00 00 00 00 00 00 00 00
0000079b: 00 00 00 00 00 00 00 00 00 00 00 00 00 00 00 00
000007ab: 00 00 00 00 00 00 00 00 00 00 00 00 00 00 00 00
000007bb: 00 00 00 00 00 00 00 00 00 00 00 00 00 00 00 00
000007cb: 00 00 00 00 00 00 00 00 00 00 00 00 00 00 00 00
000007db: 00 00 00 00 00 00 00 00 00 00 00 00 00 00 00 00

# UDB_0_5_0_CONFIG (count=128)
000007eb: 00 00 00 00 00 00 00 00 00 00 00 00 00 00 00 00
000007fb: 00 00 00 00 00 00 00 00 00 00 00 00 00 00 00 00
0000080b: 00 00 00 00 00 00 00 00 00 00 00 00 00 00 00 00
0000081b: 00 00 00 00 00 00 00 00 00 00 00 00 00 00 00 00
0000082b: 00 00 00 00 00 00 00 00 00 00 00 00 00 00 00 00
0000083b: 00 00 00 00 00 00 00 00 00 00 00 00 00 00 00 00
0000084b: 00 00 00 00 00 00 00 00 00 00 00 00 00 00 00 00
0000085b: 00 00 00 00 00 00 00 00 00 00 00 00 00 00 00 00

# UDB_0_5_1_CONFIG (count=128)
0000086b: 00 00 00 00 00 00 00 00 00 00 00 00 00 00 00 00
0000087b: 00 00 00 00 00 00 00 00 00 00 00 00 00 00 00 00
0000088b: 00 00 00 00 00 00 00 00 00 00 00 00 00 00 00 00
0000089b: 00 00 00 00 00 00 00 00 00 00 00 00 00 00 00 00
000008ab: 00 00 00 00 00 00 00 00 00 00 00 00 00 00 00 00
000008bb: 00 00 00 00 00 00 00 00 00 00 00 00 00 00 00 00
000008cb: 00 00 00 00 00 00 00 00 00 00 00 00 00 00 00 00
000008db: 00 00 00 00 00 00 00 00 00 00 00 00 00 00 00 00

# UDB_1_0_0_CONFIG (count=128)
000008eb: 00 00 00 00 06 04 00 00 00 0e 01 00 01 02 06 0c
000008fb: 00 00 00 00 06 0c 01 00 07 0c 00 02 01 08 00 00
0000090b: 04 00 00 00 02 0c 00 02 07 00 00 02 00 01 00 00
0000091b: 07 00 00 01 00 0e 00 00 00 00 02 20 00 00 00 00
0000092b: 06 00 00 00 00 05 01 00 05 ff 07 ff 40 20 f0 05
0000093b: 08 00 00 00 00 00 00 00 04 04 04 00 22 02 00 01
0000094b: 40 a8 40 20 00 00 00 00 00 00 00 00 00 00 00 00
0000095b: 00 00 00 00 00 00 00 00 00 00 00 00 00 00 00 00

# UDB_1_0_1_CONFIG (count=128)
0000096b: 00 00 00 00 02 03 00 04 00 03 00 08 02 00 00 02
0000097b: 00 01 00 02 02 00 00 03 02 00 00 00 00 00 00 0c
0000098b: 00 00 00 00 01 00 00 00 01 00 00 01 01 00 00 00
0000099b: 00 0f 01 00 02 00 00 00 00 00 00 02 00 00 10 00
000009ab: 00 00 00 00 00 00 00 00 00 00 00 00 00 00 00 00
000009bb: 00 00 00 00 00 00 02 12 04 04 00 04 22 20 00 01
000009cb: 00 00 00 00 00 00 00 00 00 00 00 00 00 00 00 00
000009db: 00 00 00 00 00 00 00 00 00 00 00 00 00 00 00 00

# UDB_1_1_1_CONFIG (count=128)
000009eb: 00 00 00 00 00 00 00 00 1e 08 00 00 0b 02 14 04
000009fb: 10 08 04 02 00 00 20 00 01 01 00 00 00 02 00 0c
00000a0b: 00 00 20 01 1e 00 00 0e 08 00 02 00 06 00 18 00
00000a1b: 01 0e 1e 01 20 00 00 00 00 00 00 02 00 00 11 04
00000a2b: 00 00 00 00 00 00 00 00 00 00 00 00 00 00 00 00
00000a3b: 00 00 00 00 18 00 04 00 04 04 00 04 22 20 00 01
00000a4b: 00 00 00 00 00 00 00 00 00 00 00 00 00 00 00 00
00000a5b: 00 00 00 00 00 00 00 00 00 00 00 00 00 00 00 00

# UDB_1_1_0_CONFIG (count=128)
00000a6b: 00 00 00 00 04 00 00 02 00 00 04 00 03 00 00 00
00000a7b: 04 00 00 02 00 00 02 00 04 00 00 02 00 02 00 00
00000a8b: 03 01 00 00 00 00 04 00 00 00 04 00 01 02 00 00
00000a9b: 00 00 00 01 03 00 04 02 20 00 00 00 00 00 10 44
00000aab: 00 00 00 00 00 00 00 00 00 00 00 00 00 00 00 00
00000abb: 00 00 00 00 01 00 00 00 04 04 00 04 02 20 00 01
00000acb: 00 00 00 00 00 00 00 00 00 00 00 00 00 00 00 00
00000adb: 00 00 00 00 00 00 00 00 00 00 00 00 00 00 00 00

# UDB_0_1_1_CONFIG (count=128)
00000aeb: 00 00 00 00 00 00 00 00 00 00 00 00 00 00 00 00
00000afb: 00 00 00 00 00 00 00 00 00 00 00 00 00 00 00 00
00000b0b: 00 00 00 00 00 00 00 00 00 00 00 00 00 00 00 00
00000b1b: 00 00 00 00 00 00 00 00 00 00 00 00 00 00 00 00
00000b2b: 00 00 00 00 00 00 00 00 00 00 00 00 00 00 00 00
00000b3b: 00 00 00 00 00 00 00 00 00 00 00 00 00 00 00 00
00000b4b: 00 00 00 00 00 00 00 00 00 00 00 00 00 00 00 00
00000b5b: 00 00 00 00 00 00 00 00 00 00 00 00 00 00 00 00

# UDB_0_1_0_CONFIG (count=128)
00000b6b: 00 00 00 00 00 00 00 00 00 00 00 00 00 00 00 00
00000b7b: 00 00 00 00 00 00 00 00 00 00 00 00 00 00 00 00
00000b8b: 00 00 00 00 00 00 00 00 00 00 00 00 00 00 00 00
00000b9b: 00 00 00 00 00 00 00 00 00 00 00 00 00 00 00 00
00000bab: 00 00 00 00 00 00 00 00 00 00 00 00 00 00 00 00
00000bbb: 00 00 00 00 00 00 00 00 00 00 00 00 00 00 00 00
00000bcb: 00 00 00 00 00 00 00 00 00 00 00 00 00 00 00 00
00000bdb: 00 00 00 00 00 00 00 00 00 00 00 00 00 00 00 00

# UDB_0_0_0_CONFIG (count=128)
00000beb: 00 00 00 00 00 00 00 00 00 00 00 00 00 00 00 00
00000bfb: 00 00 00 00 00 00 00 00 00 00 00 00 00 00 00 00
00000c0b: 00 00 00 00 00 00 00 00 00 00 00 00 00 00 00 00
00000c1b: 00 00 00 00 00 00 00 00 00 00 00 00 00 00 00 00
00000c2b: 00 00 00 00 00 00 00 00 00 00 00 00 00 00 00 00
00000c3b: 00 00 00 00 00 00 00 00 00 00 00 00 00 00 00 00
00000c4b: 00 00 00 00 00 00 00 00 00 00 00 00 00 00 00 00
00000c5b: 00 00 00 00 00 00 00 00 00 00 00 00 00 00 00 00

# UDB_0_0_1_CONFIG (count=128)
00000c6b: 00 00 00 00 00 00 00 00 00 00 00 00 00 00 00 00
00000c7b: 00 00 00 00 00 00 00 00 00 00 00 00 00 00 00 00
00000c8b: 00 00 00 00 00 00 00 00 00 00 00 00 00 00 00 00
00000c9b: 00 00 00 00 00 00 00 00 00 00 00 00 00 00 00 00
00000cab: 00 00 00 00 00 00 00 00 00 00 00 00 00 00 00 00
00000cbb: 00 00 00 00 00 00 00 00 00 00 00 00 00 00 00 00
00000ccb: 00 00 00 00 00 00 00 00 00 00 00 00 00 00 00 00
00000cdb: 00 00 00 00 00 00 00 00 00 00 00 00 00 00 00 00

# UWRK_B0_WRK_DP_BITS (count=64)
00000ceb: 00 00 00 00 00 00 00 00 00 00 00 00 00 00 00 00
00000cfb: 00 00 00 00 00 00 00 00 00 00 00 00 00 00 00 00
00000d0b: 00 00 00 00 00 00 00 00 00 00 00 00 00 00 00 00
00000d1b: 00 00 00 00 00 00 00 00 00 00 00 00 00 00 00 00

# UWRK_B0_WRK_STATCTL_BITS + 0x00000070 (count=32)
00000d2b: 00 00 00 00 00 00 00 00 00 00 00 00 00 00 00 00
00000d3b: 00 00 00 0d 00 00 00 00 2f 00 00 00 00 00 00 00

# UWRK_B1_WRK_DP_BITS (count=64)
00000d4b: 00 00 00 00 00 00 00 00 00 00 00 00 00 00 00 00
00000d5b: 00 00 00 00 00 00 00 00 00 00 00 00 00 00 00 00
00000d6b: 00 00 00 00 00 00 00 00 00 00 00 00 00 00 00 00
00000d7b: 00 00 00 00 00 00 00 00 00 00 00 00 00 00 00 00

# UWRK_B1_WRK_STATCTL_BITS + 0x00000070 (count=32)
00000d8b: 00 00 00 00 00 00 00 00 00 00 00 00 00 00 00 00
00000d9b: 00 00 00 00 00 72 38 0f 00 00 00 00 00 00 00 00

# UCFG_BCTL1 (count=16)
00000dab: 04 00 00 00 00 00 00 00 00 00 04 00 00 00 00 00

# UCFG_BCTL0 (count=16)
00000dbb: 06 00 00 00 00 00 00 00 04 00 06 00 02 00 00 00

# DSISWITCH_0_0 (count=128)
00000dcb: 00 00 00 00 00 00 00 00 00 00 00 00 00 00 00 00
00000ddb: 00 00 00 00 00 00 00 00 00 00 00 00 00 00 00 00
00000deb: 00 00 00 00 00 00 00 00 00 00 00 00 00 00 00 00
00000dfb: 00 00 00 00 00 00 00 00 00 00 00 00 00 00 00 00
00000e0b: 00 00 00 00 00 00 00 00 00 00 00 00 00 00 00 00
00000e1b: 00 00 00 00 00 00 00 00 00 00 00 00 00 00 00 00
00000e2b: 00 00 00 00 00 00 00 00 00 00 00 00 00 00 00 00
00000e3b: 00 00 00 00 00 00 00 00 00 00 00 00 00 00 00 00

# DSI0_0_HV_ROUTING + 0x00000080 (count=128)
00000e4b: 00 00 00 00 00 00 00 00 00 00 00 00 00 00 00 00
00000e5b: 00 00 00 00 00 00 00 00 00 00 00 00 00 00 00 00
00000e6b: 00 00 00 00 00 00 00 00 00 00 00 00 00 00 00 00
00000e7b: 00 00 00 00 00 00 00 00 00 00 00 00 00 00 00 00
00000e8b: 00 00 00 00 00 00 00 00 00 00 00 00 00 00 00 00
00000e9b: 00 00 00 00 00 00 00 00 00 00 00 00 00 00 00 00
00000eab: 00 00 00 00 00 00 00 00 00 00 00 00 00 00 00 00
00000ebb: 00 00 00 00 00 00 00 00 00 00 00 00 00 00 00 00

# DSISWITCH_0_1 (count=128)
00000ecb: 00 00 00 00 00 00 00 00 00 00 00 00 00 00 00 00
00000edb: 00 00 00 00 00 00 00 00 00 00 00 00 00 00 00 00
00000eeb: 00 00 00 00 00 00 00 00 00 00 00 00 00 00 00 00
00000efb: 00 00 00 00 00 00 00 00 00 00 00 00 00 00 00 00
00000f0b: 00 00 00 00 00 00 00 00 00 00 00 00 00 00 00 00
00000f1b: 00 00 00 00 00 00 00 00 00 00 00 00 00 00 00 00
00000f2b: 00 00 00 00 00 00 00 00 00 00 00 00 00 00 00 00
00000f3b: 00 00 00 00 00 00 00 00 00 00 00 00 00 00 00 00

# DSI0_1_HV_ROUTING + 0x00000080 (count=128)
00000f4b: 00 00 00 00 00 00 00 00 00 00 00 00 00 00 00 00
00000f5b: 00 00 00 00 00 00 00 00 00 00 00 00 00 00 00 00
00000f6b: 00 00 00 00 00 00 00 00 00 00 00 00 00 00 00 00
00000f7b: 00 00 00 00 00 00 00 00 00 00 00 00 00 00 00 00
00000f8b: 00 00 00 00 00 00 00 00 00 00 00 00 00 00 00 00
00000f9b: 00 00 00 00 00 00 00 00 00 00 00 00 00 00 00 00
00000fab: 00 00 00 00 00 00 00 00 00 00 00 00 00 00 00 00
00000fbb: 00 00 00 00 00 00 00 00 00 00 00 00 00 00 00 00

# DSISWITCH_0_2 (count=128)
00000fcb: 00 00 00 00 00 00 00 00 00 00 00 00 00 00 00 00
00000fdb: 00 00 00 00 00 00 00 00 00 00 00 00 00 00 00 00
00000feb: 00 00 00 00 00 00 00 00 00 00 00 00 00 00 00 00
00000ffb: 00 00 00 00 00 00 00 00 00 00 00 00 00 00 00 00
0000100b: 00 00 00 00 00 00 00 00 00 00 00 00 00 00 00 00
0000101b: 00 00 00 00 00 00 00 00 00 00 00 00 00 00 00 00
0000102b: 00 00 00 00 00 00 00 00 00 00 00 00 00 00 00 00
0000103b: 00 00 00 00 00 00 00 00 00 00 00 00 00 00 00 00

# DSI0_2_HV_ROUTING + 0x00000080 (count=128)
0000104b: 00 00 00 00 00 00 00 00 00 00 00 00 00 00 00 04
0000105b: 00 00 00 00 00 00 00 00 00 00 00 04 00 00 00 00
0000106b: 00 00 00 00 00 00 00 00 00 00 00 00 00 00 00 00
0000107b: 00 00 00 00 00 00 00 00 00 00 00 00 00 00 00 00
0000108b: 00 00 00 00 00 00 00 00 00 00 00 00 00 00 00 00
0000109b: 00 00 00 00 00 00 00 00 00 00 00 00 00 00 00 00
000010ab: 00 00 00 00 00 00 08 00 00 00 00 00 00 00 00 00
000010bb: 00 00 00 00 00 00 00 00 00 00 00 00 00 00 00 00

# DSISWITCH_0_3 (count=128)
000010cb: 00 00 00 00 00 00 00 00 00 00 00 00 00 00 00 00
000010db: 00 00 00 00 00 00 00 00 00 00 00 00 00 00 00 00
000010eb: 00 00 00 00 00 00 00 00 00 00 00 00 00 00 00 00
000010fb: 00 00 00 00 00 00 00 00 00 00 00 00 00 00 00 00
0000110b: 00 00 00 00 00 00 00 00 00 00 00 00 00 00 00 00
0000111b: 00 00 00 00 00 00 00 00 00 00 00 00 00 00 00 00
0000112b: 00 00 00 00 00 00 00 00 00 00 00 00 00 00 00 00
0000113b: 00 00 00 00 00 00 00 00 00 00 00 00 00 00 00 00

# DSI0_3_HV_ROUTING + 0x00000080 (count=128)
0000114b: 00 00 00 00 00 00 00 00 00 00 00 00 00 00 00 00
0000115b: 00 00 00 00 00 00 00 00 00 00 00 04 00 00 00 00
0000116b: 00 00 00 00 00 00 00 00 00 00 00 00 00 00 00 00
0000117b: 00 40 00 00 01 00 00 00 00 00 00 00 00 00 00 00
0000118b: 00 00 00 00 00 00 00 00 00 00 00 00 00 00 00 00
0000119b: 00 00 00 00 00 00 00 00 00 00 00 00 00 00 00 00
000011ab: 00 00 00 00 00 00 00 00 00 00 03 00 00 00 00 00
000011bb: 00 00 00 00 00 00 00 00 00 00 00 00 00 00 00 00

# DSISWITCH_0_4 (count=128)
000011cb: 00 00 00 84 02 40 00 00 00 00 00 00 00 00 00 00
000011db: 00 00 00 00 00 00 00 00 00 00 00 00 00 00 00 00
000011eb: 00 00 00 00 00 00 00 00 00 00 00 00 00 00 00 00
000011fb: 00 00 00 00 00 00 00 00 00 00 00 00 00 00 00 00
0000120b: 00 00 00 00 00 00 00 00 00 00 00 00 00 00 00 00
0000121b: 00 00 00 00 00 00 00 00 00 00 00 00 00 00 00 00
0000122b: 00 00 00 00 00 00 00 00 00 00 00 00 00 00 00 00
0000123b: 00 00 00 00 00 00 00 00 00 00 00 00 00 00 00 00

# DSI0_4_HV_ROUTING + 0x00000080 (count=128)
0000124b: 00 00 00 00 00 00 00 80 00 00 00 00 00 00 00 00
0000125b: 00 00 00 00 00 00 00 00 00 00 00 00 00 00 00 00
0000126b: 00 00 00 00 00 00 00 00 00 00 00 00 00 00 00 00
0000127b: 00 00 00 00 00 00 00 00 00 00 00 00 00 00 00 00
0000128b: 0f 00 00 00 00 00 00 00 00 00 00 00 00 00 00 00
0000129b: 00 00 00 00 00 00 00 00 00 00 00 00 00 00 00 00
000012ab: 00 00 00 00 00 00 00 00 00 00 00 00 00 00 00 00
000012bb: 00 00 00 00 00 00 00 00 00 00 00 00 00 00 00 00

# DSISWITCH_0_5 (count=128)
000012cb: 00 00 00 00 00 00 00 00 00 00 00 00 00 00 00 00
000012db: 00 00 00 00 00 00 00 00 00 00 00 00 00 00 00 00
000012eb: 00 00 00 00 00 00 00 00 00 00 00 00 00 00 00 00
000012fb: 00 00 00 00 00 00 00 00 00 00 00 00 00 00 00 00
0000130b: 00 00 00 00 00 00 00 00 00 00 00 00 00 00 00 00
0000131b: 00 00 00 00 00 00 00 00 00 00 00 00 00 00 00 00
0000132b: 00 00 00 00 00 00 00 00 00 00 00 00 00 00 00 00
0000133b: 00 00 00 00 00 00 00 00 00 00 00 00 00 00 00 00

# DSI0_5_HV_ROUTING + 0x00000080 (count=128)
0000134b: 00 00 00 00 00 00 00 00 00 00 00 00 00 00 00 00
0000135b: 00 00 00 00 00 00 00 00 00 00 00 00 00 00 00 00
0000136b: 00 00 00 00 00 00 00 00 00 00 00 00 00 00 00 00
0000137b: 00 00 00 00 00 00 00 00 00 00 00 00 00 00 00 00
0000138b: 00 00 00 00 00 00 00 00 00 00 00 00 00 00 00 00
0000139b: 00 00 00 00 00 00 00 00 00 00 00 00 00 00 00 00
000013ab: 00 00 00 00 00 00 00 00 00 00 00 00 00 00 00 00
000013bb: 00 00 00 00 00 00 00 00 00 00 00 00 00 00 00 00

# UDBSWITCH_0_0 (count=128)
000013cb: 00 00 00 00 00 00 00 00 00 00 00 00 00 00 00 00
000013db: 00 00 00 00 00 00 00 00 00 00 00 00 00 00 00 00
000013eb: 00 00 00 00 00 00 00 00 00 00 00 00 00 00 00 00
000013fb: 00 00 00 00 00 00 00 00 00 00 00 00 00 00 00 00
0000140b: 00 00 00 00 00 00 00 00 00 00 00 00 00 00 00 00
0000141b: 00 00 00 00 00 00 00 00 00 00 00 00 00 00 00 00
0000142b: 00 00 00 00 00 00 00 00 00 00 00 00 00 00 00 00
0000143b: 00 00 00 00 00 00 00 00 00 00 00 00 00 00 00 00

# UDB_1_0_HV_ROUTING + 0x00000080 (count=128)
0000144b: 00 00 00 00 00 00 00 00 00 00 00 00 00 00 00 00
0000145b: 00 00 00 00 00 00 00 00 00 00 00 00 00 00 00 00
0000146b: 00 00 00 00 00 00 00 00 00 00 00 00 00 00 00 00
0000147b: 00 00 00 00 00 00 00 00 00 00 00 00 00 00 00 00
0000148b: 00 00 00 00 00 00 00 00 00 00 00 00 00 00 00 00
0000149b: 00 00 00 00 00 00 00 00 00 00 00 00 00 00 00 00
000014ab: 00 00 00 00 00 00 00 00 00 00 00 00 00 00 00 00
000014bb: 00 00 00 00 00 00 00 00 00 00 00 00 00 00 00 00

# UDBSWITCH_1_0 (count=128)
000014cb: 40 08 00 08 8c 00 10 20 00 00 01 14 00 00 20 24
000014db: a0 00 00 20 00 40 00 14 c0 00 00 00 00 00 08 08
000014eb: 00 28 00 04 00 00 00 40 00 00 40 18 00 10 00 00
000014fb: 88 20 00 00 00 04 00 41 80 00 14 00 00 08 10 80
0000150b: 00 00 20 08 00 00 00 00 10 10 00 00 00 00 00 00
0000151b: 00 00 40 40 00 00 00 00 00 00 00 00 00 00 08 00
0000152b: 00 00 00 00 00 00 00 00 00 00 00 00 10 48 10 14
0000153b: 00 00 00 00 a8 28 04 00 00 00 00 00 00 00 00 00

# UDB_2_0_HV_ROUTING + 0x00000080 (count=128)
0000154b: 00 00 00 40 00 00 00 00 00 00 00 00 00 00 00 00
0000155b: 08 10 01 10 a4 00 00 84 00 14 00 01 00 28 20 44
0000156b: 00 00 10 00 90 08 00 48 00 00 00 00 00 00 00 20
0000157b: 00 00 00 00 00 00 00 00 00 00 00 00 00 00 00 00
0000158b: a7 00 67 00 ee 00 00 00 00 00 2e 00 de 00 7e 00
0000159b: 00 00 04 00 00 00 40 00 00 00 00 00 00 00 00 00
000015ab: 00 00 00 00 00 00 00 00 00 00 00 00 00 00 00 00
000015bb: 00 00 00 00 00 00 00 00 00 00 00 00 00 00 00 00

# UDBSWITCH_0_1 (count=128)
000015cb: 00 00 00 00 00 00 00 00 00 00 00 00 00 00 00 00
000015db: 00 00 00 00 00 00 00 00 00 00 00 00 00 00 00 00
000015eb: 00 00 00 00 00 00 00 00 00 00 00 00 00 00 00 00
000015fb: 00 00 00 00 00 00 00 00 00 00 00 00 00 00 00 00
0000160b: 00 00 00 00 00 00 00 00 00 00 00 00 00 00 00 00
0000161b: 00 00 00 00 00 00 00 00 00 00 00 00 00 00 00 00
0000162b: 00 00 00 00 00 00 00 00 00 00 00 00 00 00 00 00
0000163b: 00 00 00 00 00 00 00 00 00 00 00 00 00 00 00 00

# UDB_1_1_HV_ROUTING + 0x00000080 (count=128)
0000164b: 00 00 00 00 00 00 00 00 00 00 00 00 00 00 00 00
0000165b: 00 00 00 00 00 00 00 00 00 00 00 00 00 00 00 00
0000166b: 00 00 00 00 00 00 00 00 00 00 40 00 00 00 00 00
0000167b: 00 00 00 00 00 00 00 04 00 00 00 00 00 00 00 00
0000168b: 00 00 00 00 00 00 00 00 00 00 00 00 00 00 00 00
0000169b: 00 00 00 00 00 00 00 00 00 00 00 00 00 00 00 00
000016ab: 00 00 00 00 00 00 00 00 00 00 00 00 00 00 10 00
000016bb: 00 00 00 00 00 00 00 00 00 00 00 00 00 00 00 00

# UDBSWITCH_1_1 (count=128)
000016cb: 84 80 00 08 20 00 02 01 00 28 20 60 10 00 00 a0
000016db: 00 00 82 14 02 12 00 04 01 10 00 00 00 04 00 22
000016eb: 00 00 44 00 00 00 02 20 00 81 00 00 00 00 02 10
000016fb: 00 00 92 00 10 00 82 00 00 08 00 00 a0 00 00 00
0000170b: 20 04 00 00 00 00 00 00 00 00 00 00 00 00 00 00
0000171b: 00 00 00 00 00 00 00 00 20 01 88 00 01 00 20 10
0000172b: 00 00 00 00 40 00 00 0a 00 00 00 00 00 00 00 00
0000173b: 00 00 00 00 00 00 00 00 00 00 00 00 00 00 00 00

# UDB_2_1_HV_ROUTING + 0x00000080 (count=128)
0000174b: 02 04 00 21 40 00 00 02 00 00 00 00 00 00 00 00
0000175b: 08 1a 01 48 80 00 00 a4 10 01 00 01 00 ac 20 40
0000176b: 40 20 90 10 90 00 02 40 00 00 00 00 18 00 80 08
0000177b: 00 00 00 00 00 00 00 00 00 00 00 00 00 00 00 00
0000178b: c7 00 7e 00 ff 00 00 00 00 00 c9 00 bd 00 32 00
0000179b: 00 00 00 00 00 00 8f 00 b0 00 00 00 00 00 00 00
000017ab: 00 00 00 00 00 00 00 00 00 00 00 00 00 00 11 00
000017bb: 00 00 00 00 00 00 00 00 00 00 00 00 00 00 00 00

# UDBSWITCH_0_2 (count=128)
000017cb: 00 00 00 00 00 00 00 40 00 00 40 00 00 00 40 04
000017db: 00 00 10 00 00 02 10 00 00 00 80 00 00 20 a0 00
000017eb: 00 01 00 00 00 00 00 44 00 00 00 00 00 00 40 00
000017fb: 00 00 00 00 00 00 20 00 00 00 00 04 00 00 00 04
0000180b: 00 20 00 00 00 20 00 00 00 00 0c 05 00 00 08 00
0000181b: 00 00 38 00 00 00 00 00 48 02 00 20 00 00 a8 01
0000182b: 00 00 00 00 00 00 02 08 00 00 00 00 00 00 00 00
0000183b: 00 00 40 00 00 00 00 00 00 00 00 00 00 00 00 00

# UDB_1_2_HV_ROUTING + 0x00000080 (count=128)
0000184b: 00 00 00 00 00 00 00 00 00 00 00 04 00 00 00 20
0000185b: 00 00 00 00 00 00 00 00 48 02 00 00 00 00 02 00
0000186b: 00 00 00 00 00 00 00 00 00 00 00 00 00 00 00 00
0000187b: 00 00 00 00 00 00 00 00 00 00 00 00 00 00 00 00
0000188b: 10 00 58 00 34 00 00 00 00 00 10 00 20 00 42 00
0000189b: 24 00 24 00 00 00 ff 00 a0 00 00 00 00 00 00 00
000018ab: 80 00 00 00 00 00 00 00 00 00 00 00 00 00 00 00
000018bb: 00 00 00 00 00 00 00 00 00 00 00 00 00 00 00 00

# UDBSWITCH_1_2 (count=128)
000018cb: 00 00 02 08 00 04 08 40 00 10 00 a2 00 00 08 80
000018db: 20 40 80 00 00 10 00 01 00 00 48 08 00 20 01 05
000018eb: 80 00 00 00 00 00 80 00 08 80 00 00 00 00 00 10
000018fb: 00 00 02 00 08 00 02 00 80 08 00 60 a0 60 00 00
0000190b: 08 00 40 00 80 20 20 00 20 81 00 00 04 00 00 40
0000191b: 00 04 00 00 00 00 08 10 00 00 00 00 00 00 00 00
0000192b: 00 00 00 00 00 00 00 00 00 00 00 00 00 00 00 01
0000193b: 00 00 80 00 00 00 00 00 00 00 00 00 00 00 00 00

# UDB_2_2_HV_ROUTING + 0x00000080 (count=128)
0000194b: 00 00 00 00 80 01 00 00 00 00 04 00 00 00 00 00
0000195b: 08 12 00 00 80 00 00 04 00 00 00 00 00 28 a0 01
0000196b: 00 00 14 00 80 00 00 40 00 00 00 00 00 00 00 00
0000197b: 00 00 00 00 00 00 00 00 00 00 00 00 00 00 00 00
0000198b: 73 00 5f 00 5d 00 00 00 00 00 4c 00 c1 00 36 00
0000199b: e5 00 38 00 00 00 00 00 00 00 00 00 00 00 00 00
000019ab: 00 00 00 00 00 00 00 00 00 00 00 00 00 00 00 00
000019bb: 00 00 00 00 00 00 00 00 00 00 00 00 00 00 00 00

# UDBSWITCH_0_3 (count=128)
000019cb: 00 00 00 00 00 00 00 00 00 00 00 00 00 00 00 00
000019db: 00 00 00 00 00 00 00 00 00 00 00 00 00 00 00 00
000019eb: 00 00 00 00 00 00 00 00 00 00 00 00 00 00 00 00
000019fb: 00 00 00 00 00 00 00 00 00 00 00 00 00 00 00 00
00001a0b: 00 00 00 00 00 00 00 00 00 00 00 00 00 00 00 00
00001a1b: 00 00 00 00 00 00 00 00 00 00 00 00 00 00 00 00
00001a2b: 00 00 00 00 00 00 00 00 00 00 00 00 00 00 00 00
00001a3b: 00 00 00 00 00 00 00 00 00 00 00 00 00 00 00 00

# UDB_1_3_HV_ROUTING + 0x00000080 (count=128)
00001a4b: 00 00 00 00 00 00 02 00 00 00 00 00 00 00 00 00
00001a5b: 00 00 00 00 00 00 00 00 48 02 00 00 00 00 00 00
00001a6b: 00 00 00 00 00 00 00 00 00 00 00 00 00 00 00 00
00001a7b: 40 00 00 00 08 00 00 00 00 00 00 00 00 00 00 00
00001a8b: 00 00 00 00 00 00 00 00 00 00 00 00 00 00 00 00
00001a9b: 00 00 00 00 00 00 00 00 00 00 00 00 00 00 00 00
00001aab: 00 00 00 00 00 00 00 00 00 00 00 00 00 00 00 00
00001abb: 00 00 00 00 00 00 00 00 00 00 00 00 00 00 00 00

# UDBSWITCH_1_3 (count=128)
00001acb: 00 00 00 00 00 00 00 00 00 00 00 00 00 00 00 00
00001adb: 00 00 00 00 00 00 00 00 00 00 00 00 00 00 00 00
00001aeb: 00 00 00 00 00 00 00 00 00 00 00 00 00 00 00 00
00001afb: 00 00 00 00 00 00 00 00 00 00 00 00 00 00 00 00
00001b0b: 00 00 00 00 00 00 00 00 00 00 00 00 00 00 00 00
00001b1b: 00 00 00 00 00 00 00 00 00 00 00 00 00 00 00 00
00001b2b: 00 00 00 00 00 00 00 00 00 00 00 00 00 00 00 00
00001b3b: 00 00 00 00 00 00 00 00 00 00 00 00 00 00 00 00

# UDB_2_3_HV_ROUTING + 0x00000080 (count=128)
00001b4b: 00 00 00 00 00 00 00 00 00 00 00 00 00 00 00 00
00001b5b: 08 12 00 00 80 00 00 04 00 00 00 00 00 28 a0 01
00001b6b: 00 00 14 00 80 00 00 40 08 00 00 00 21 10 00 10
00001b7b: 80 00 00 00 00 00 00 00 00 00 00 00 00 00 00 00
00001b8b: 00 00 00 00 00 00 00 00 00 00 00 00 00 00 00 00
00001b9b: 00 00 00 00 00 00 00 00 00 00 00 00 00 00 00 00
00001bab: 00 00 00 00 00 00 08 00 20 00 00 00 00 00 00 00
00001bbb: 00 00 00 00 00 00 00 00 00 00 00 00 00 00 00 00

# UDBSWITCH_0_4 (count=128)
00001bcb: 00 00 00 00 00 00 00 00 00 00 00 00 00 00 00 00
00001bdb: 00 00 00 00 00 00 00 00 00 00 00 00 00 00 00 00
00001beb: 00 00 00 00 00 00 00 00 00 00 00 00 00 00 00 00
00001bfb: 00 00 00 00 00 00 00 00 00 00 00 00 00 00 00 00
00001c0b: 00 00 00 00 00 00 00 00 00 00 00 00 00 00 00 00
00001c1b: 00 00 00 00 00 00 00 00 00 00 00 00 00 00 00 00
00001c2b: 00 00 00 00 00 00 00 00 00 00 00 00 00 00 00 00
00001c3b: 00 00 00 00 00 00 00 00 00 00 00 00 00 00 00 00

# UDB_1_4_HV_ROUTING + 0x00000080 (count=128)
00001c4b: 00 00 00 00 00 02 00 00 00 00 00 00 00 00 00 00
00001c5b: 00 00 00 00 00 00 00 00 00 00 00 00 00 00 00 00
00001c6b: 00 00 00 00 00 00 00 00 00 00 00 00 00 00 00 00
00001c7b: 00 00 00 00 00 00 00 00 00 00 00 00 00 00 00 00
00001c8b: 00 00 00 00 00 00 00 00 00 00 00 00 00 00 00 00
00001c9b: 00 00 00 00 00 00 00 00 00 00 00 00 00 00 00 00
00001cab: 00 00 00 00 00 00 08 00 00 00 00 00 00 00 00 00
00001cbb: 00 00 00 00 00 00 00 00 00 00 00 00 00 00 00 00

# UDBSWITCH_1_4 (count=128)
00001ccb: 00 00 00 00 81 28 00 00 00 00 00 00 80 00 20 84
00001cdb: 02 02 00 00 01 10 20 01 08 10 40 00 01 08 20 00
00001ceb: 00 01 00 00 00 00 04 00 00 28 00 00 20 00 00 00
00001cfb: a0 18 00 00 00 00 10 00 80 40 20 04 00 40 00 04
00001d0b: 00 00 80 00 00 01 80 00 02 05 00 00 00 00 02 00
00001d1b: 02 00 02 00 00 00 00 00 00 05 40 00 88 02 00 10
00001d2b: 00 00 00 00 00 00 00 00 00 00 00 00 00 00 00 00
00001d3b: 00 00 00 00 00 00 00 00 00 00 00 00 00 00 00 00

# UDB_2_4_HV_ROUTING + 0x00000080 (count=128)
00001d4b: 00 00 00 00 00 00 00 00 00 00 00 00 00 02 00 00
00001d5b: 00 00 00 00 00 00 00 00 00 00 00 00 00 00 00 00
00001d6b: 00 00 00 00 00 00 00 00 00 00 00 00 00 00 00 00
00001d7b: 00 00 00 00 00 00 00 00 00 00 00 00 00 00 00 00
00001d8b: f0 00 f0 00 f9 00 00 00 00 00 46 00 2e 00 5e 00
00001d9b: 81 00 18 00 00 00 fb 00 00 00 00 00 00 00 00 00
00001dab: 40 00 00 00 00 00 00 00 00 00 00 00 00 00 00 00
00001dbb: 00 00 00 00 00 00 00 00 00 00 00 00 00 00 00 00

# UDBSWITCH_0_5 (count=128)
00001dcb: 00 00 00 00 00 00 00 00 00 00 00 00 00 00 00 00
00001ddb: 00 00 00 00 00 00 00 00 00 00 00 00 00 00 00 00
00001deb: 00 00 00 00 00 00 00 00 00 00 00 00 00 00 00 00
00001dfb: 00 00 00 00 00 00 00 00 00 00 00 00 00 00 00 00
00001e0b: 00 00 00 00 00 00 00 00 00 00 00 00 00 00 00 00
00001e1b: 00 00 00 00 00 00 00 00 00 00 00 00 00 00 00 00
00001e2b: 00 00 00 00 00 00 00 00 00 00 00 00 00 00 00 00
00001e3b: 00 00 00 00 00 00 00 00 00 00 00 00 00 00 00 00

# UDB_1_5_HV_ROUTING + 0x00000080 (count=128)
00001e4b: 00 00 00 00 00 00 00 00 00 00 00 00 00 00 00 00
00001e5b: 00 00 00 00 00 00 00 00 00 00 00 00 00 00 00 00
00001e6b: 00 00 00 00 00 00 00 00 00 00 00 00 00 00 00 00
00001e7b: 00 00 00 00 00 00 00 00 00 00 00 00 00 00 00 00
00001e8b: 00 00 00 00 00 00 00 00 00 00 00 00 00 00 00 00
00001e9b: 00 00 00 00 00 00 00 00 00 00 00 00 00 00 00 00
00001eab: 00 00 00 00 00 00 00 00 00 00 00 00 00 00 00 00
00001ebb: 00 00 00 00 00 00 00 00 00 00 00 00 00 00 00 00

# UDBSWITCH_1_5 (count=128)
00001ecb: 00 00 00 00 00 00 00 00 00 00 00 00 00 00 00 00
00001edb: 00 00 00 00 00 00 00 00 00 00 00 00 00 00 00 00
00001eeb: 00 00 00 00 00 00 00 00 00 00 00 00 00 00 00 00
00001efb: 00 00 00 00 00 00 00 00 00 00 00 00 00 00 00 00
00001f0b: 00 00 00 00 00 00 00 00 00 00 00 00 00 00 00 00
00001f1b: 00 00 00 00 00 00 00 00 00 00 00 00 00 00 00 00
00001f2b: 00 00 00 00 00 00 00 00 00 00 00 00 00 00 00 00
00001f3b: 00 00 00 00 00 00 00 00 00 00 00 00 00 00 00 00

# UDB_2_5_HV_ROUTING + 0x00000080 (count=128)
00001f4b: 00 00 00 00 00 00 00 00 00 00 00 00 00 00 00 00
00001f5b: 00 00 00 00 00 00 00 00 00 00 00 00 00 00 00 00
00001f6b: 00 00 00 00 00 00 00 00 00 00 00 00 00 00 00 00
00001f7b: 00 00 00 00 00 00 00 00 00 00 00 00 00 00 00 00
00001f8b: 00 00 00 00 00 00 00 00 00 00 00 00 00 00 00 00
00001f9b: 00 00 00 00 00 00 00 00 00 00 00 00 00 00 00 00
00001fab: 00 00 00 00 00 00 00 00 00 00 00 00 00 00 00 00
00001fbb: 00 00 00 00 00 00 00 00 00 00 00 00 00 00 00 00

# DSISWITCH_1_0 (count=128)
00001fcb: 00 00 00 00 00 00 00 00 00 00 40 00 00 00 00 00
00001fdb: 00 00 00 00 00 00 00 00 00 00 00 00 00 00 00 00
00001feb: 00 00 00 00 00 00 00 00 00 00 00 00 00 00 00 00
00001ffb: 00 00 00 00 00 00 00 00 00 00 00 00 00 00 00 00
0000200b: 00 00 00 00 00 00 00 00 00 00 00 00 00 00 00 00
0000201b: 00 00 00 00 20 00 00 00 00 00 00 00 00 20 00 00
0000202b: 00 00 00 04 00 00 00 00 00 00 00 00 00 00 00 00
0000203b: 00 00 00 00 00 00 00 00 00 00 00 00 00 00 00 00

# DSI3_0_HV_ROUTING + 0x00000080 (count=128)
0000204b: 00 00 40 00 00 00 00 00 00 00 00 00 00 00 00 00
0000205b: 00 00 00 04 00 00 00 00 00 20 00 00 00 00 00 00
0000206b: 20 00 00 00 00 00 00 00 00 00 00 00 00 00 00 04
0000207b: 00 00 00 00 00 00 00 00 00 00 00 00 00 00 00 00
0000208b: 00 00 10 00 00 00 00 00 00 00 00 00 00 00 00 00
0000209b: 00 00 00 00 40 00 20 00 40 00 00 00 00 00 00 00
000020ab: 20 00 00 00 00 00 00 00 00 00 40 00 00 00 00 00
000020bb: 00 00 00 00 00 00 00 00 00 00 00 00 00 00 00 00

# DSISWITCH_1_1 (count=128)
000020cb: 00 00 00 00 00 00 00 00 00 00 00 00 00 00 00 00
000020db: 00 00 00 00 00 00 00 00 00 00 00 00 00 00 00 00
000020eb: 00 00 00 00 00 00 00 00 00 00 00 00 00 00 00 00
000020fb: 00 00 00 00 00 00 00 00 00 00 00 00 00 00 00 00
0000210b: 00 00 00 00 00 00 00 00 00 00 00 00 00 00 00 00
0000211b: 00 00 00 00 00 00 00 00 00 00 00 00 00 00 00 00
0000212b: 00 00 00 00 00 00 00 00 00 00 00 00 00 00 00 00
0000213b: 00 00 00 00 00 00 00 00 00 00 00 00 00 00 00 00

# DSI3_1_HV_ROUTING + 0x00000080 (count=128)
0000214b: 00 00 00 00 10 00 10 00 00 00 00 00 00 00 00 00
0000215b: 00 00 00 00 00 00 00 00 00 20 00 00 00 00 00 00
0000216b: 20 00 00 00 10 00 10 00 00 20 00 00 00 00 00 00
0000217b: 00 00 00 00 20 00 00 00 00 00 00 00 00 00 00 00
0000218b: 00 00 00 00 00 00 00 00 00 00 00 00 00 00 00 00
0000219b: 00 00 00 00 00 00 00 00 00 00 00 00 00 00 00 00
000021ab: 00 00 10 00 00 00 10 00 00 00 00 00 00 00 80 00
000021bb: 00 00 00 00 00 00 00 00 00 00 00 00 00 00 00 00

# DSISWITCH_1_2 (count=128)
000021cb: 00 00 00 00 00 00 00 00 00 00 00 00 00 00 00 00
000021db: 00 00 00 00 00 00 00 00 00 00 00 00 00 00 00 00
000021eb: 00 00 00 00 00 00 00 00 00 00 00 00 00 00 00 00
000021fb: 00 00 00 00 00 00 00 00 00 00 00 00 00 00 00 00
0000220b: 00 00 00 00 00 00 00 00 00 00 00 00 00 00 00 00
0000221b: 00 00 00 00 00 00 00 00 00 00 00 00 00 00 00 00
0000222b: 00 00 00 00 00 00 00 00 00 00 00 00 00 00 00 00
0000223b: 00 00 00 00 00 00 00 00 00 00 00 00 00 00 00 00

# DSI3_2_HV_ROUTING + 0x00000080 (count=128)
0000224b: 00 00 00 00 00 00 00 00 00 00 00 00 00 00 00 00
0000225b: 00 00 00 00 00 00 00 00 00 00 00 00 00 00 00 00
0000226b: 00 00 00 00 10 00 10 00 00 00 00 00 00 00 00 00
0000227b: 00 00 00 00 00 00 00 00 00 00 00 00 00 00 00 00
0000228b: 00 00 00 00 00 00 00 00 00 00 00 00 00 00 00 00
0000229b: 00 00 00 00 00 00 00 00 00 00 00 00 00 00 00 00
000022ab: 00 00 00 00 00 00 00 00 00 00 00 00 00 00 00 00
000022bb: 00 00 00 00 00 00 00 00 00 00 00 00 00 00 00 00

# DSISWITCH_1_3 (count=128)
000022cb: 00 00 00 00 00 00 00 00 00 00 00 00 00 00 00 00
000022db: 00 00 00 00 00 00 00 00 00 00 00 00 00 00 00 00
000022eb: 00 00 00 00 00 00 00 00 00 00 00 00 00 00 00 00
000022fb: 00 00 00 00 00 00 00 00 00 00 00 00 00 00 00 00
0000230b: 00 00 00 00 00 00 00 00 00 00 00 00 00 00 00 00
0000231b: 00 00 00 00 00 00 00 00 00 00 00 00 00 00 00 00
0000232b: 00 00 00 00 00 00 00 00 00 00 00 00 00 00 00 00
0000233b: 00 00 00 00 00 00 00 00 00 00 00 00 00 00 00 00

# DSI3_3_HV_ROUTING + 0x00000080 (count=128)
0000234b: 00 00 00 00 00 40 00 00 00 00 00 00 00 00 00 00
0000235b: 00 00 00 00 00 00 00 00 00 00 00 00 00 40 00 00
0000236b: 00 00 00 00 10 00 10 00 00 00 10 00 00 00 01 80
0000237b: 00 00 00 40 00 00 00 00 00 00 00 00 00 00 00 00
0000238b: 00 00 00 00 00 00 00 00 00 00 00 00 00 00 00 00
0000239b: 00 00 00 00 00 00 00 00 00 00 00 00 00 00 00 00
000023ab: 00 00 00 00 00 00 10 00 10 00 00 00 30 00 00 00
000023bb: 00 00 00 00 00 00 00 00 00 00 00 00 00 00 00 00

# DSISWITCH_1_4 (count=128)
000023cb: 00 00 00 80 00 00 00 00 00 00 21 00 00 00 00 48
000023db: 00 00 00 00 00 00 00 00 00 00 00 00 00 00 00 00
000023eb: 00 00 00 00 00 00 00 00 00 00 00 00 00 00 00 00
000023fb: 00 00 00 00 00 00 00 00 00 00 00 00 00 00 00 00
0000240b: 00 00 00 00 00 00 00 00 00 00 00 00 00 00 00 00
0000241b: 00 00 00 00 10 00 00 00 00 00 00 00 00 00 00 00
0000242b: 00 00 00 00 00 00 00 00 00 00 00 00 00 00 00 00
0000243b: 00 00 00 00 00 00 00 00 00 00 00 00 00 00 00 00

# DSI3_4_HV_ROUTING + 0x00000080 (count=128)
0000244b: 00 00 00 00 00 00 00 00 00 00 00 00 00 00 00 04
0000245b: 00 00 00 00 00 00 00 00 00 00 00 00 00 40 00 00
0000246b: 00 00 00 00 00 00 10 00 00 00 00 00 00 00 00 00
0000247b: 00 00 00 00 00 00 00 00 00 00 00 00 00 00 00 00
0000248b: 10 00 f0 00 00 00 00 00 00 00 00 00 00 00 00 00
0000249b: 00 00 00 00 40 00 00 00 00 00 00 00 00 00 00 00
000024ab: 00 00 00 00 00 00 00 00 00 00 00 00 00 00 00 00
000024bb: 00 00 00 00 00 00 00 00 00 00 00 00 00 00 00 00

# DSISWITCH_1_5 (count=128)
000024cb: 00 00 00 00 00 00 00 00 00 00 00 00 00 00 00 00
000024db: 00 00 00 00 00 00 00 00 00 00 00 00 00 00 00 00
000024eb: 00 00 00 00 00 00 00 00 00 00 00 00 00 00 00 00
000024fb: 00 40 00 00 00 00 10 00 00 00 00 00 00 00 00 00
0000250b: 00 00 00 00 00 00 00 00 00 00 00 00 00 00 00 00
0000251b: 00 00 00 00 00 00 00 00 00 00 00 00 00 00 00 00
0000252b: 00 00 00 00 00 00 00 00 00 00 00 00 00 00 00 00
0000253b: 00 00 00 00 00 00 00 00 00 00 00 00 00 00 00 00

# DSI3_5_HV_ROUTING + 0x00000080 (count=128)
0000254b: 00 00 00 00 00 00 00 00 00 00 00 00 00 00 00 00
0000255b: 00 00 00 00 00 00 00 00 00 00 00 00 00 00 00 00
0000256b: 00 00 00 00 00 00 00 00 00 00 00 00 00 00 00 00
0000257b: 00 00 00 00 00 00 00 00 00 00 00 00 00 00 00 00
0000258b: 00 00 00 00 00 00 00 00 00 00 00 00 30 00 00 00
0000259b: 00 00 00 00 00 00 00 00 00 00 00 00 00 00 00 00
000025ab: 00 00 00 00 00 00 00 00 00 00 00 00 00 00 00 00
000025bb: 00 00 00 00 00 00 00 00 00 00 00 00 00 00 00 00

