:2000000008520040036400400265004041000140310101404F020140460301404C04014056
:2000200047050140560601404407014001090140020B0140010D0140011501404D16014027
:200040003A1701400340014010410140074201400243014006450140064601400247014045
:20006000044801400C49014005500140015101400008010804F1140E1804190C60047C20CB
:20008000800F86728738860D872F09090A020C021001130E1503170C19101A041D031E02B1
:2000A0001F04220228022D032F0430023201330F340435103B083E053F104036410445E093
:2000C00046BC480E49FF4AFF4BFF4EF04F44500C5401580459045A045B045C215D225F0199
:2000E00066C06A406B02840385018A0390019501960398039C02A403A501A901AA03B501D6
:20010000B603BF10D804D904DC02DF010010030204040704080109200A020C040D400E040B
:200120000F4010801208162819141A401E0120082104220826102B022E282F1430A0320964
:20014000370438103C043D08410443024804490150805110580159055A405B10C063C2FBAA
:20016000C46ACA68CC4FCE44D003D204D60F041F0501081F100A12D114141649170118015F
:2001800019021A262701290130803218330234073660370139803E403F04406241034205D3
:2001A0004401450C46E0480949FF4AFF4BFF4C624DA04EF04F41500C580459045A045B041C
:2001C0005C225D025F016640670269106A306B106D106E106F128510870C880489148A01ED
:2001E0008C018E06951C97029B039E079F10A004A109A310A801AA02AD0CAF11B207B51F46
:20020000BA08D804D904DB04DC22DF0100100302042808400A020E140F40108012081810CE
:2002200019041C801D801E1422302680272028402B022F1430803104321036203704392806
:200240003D084404458447104D204E024F08561058915B085C045D415F1065206708814009
:2002600083208810890191289201941095809606976899109C049F04A218A420A524A7023D
:20028000B480B710C063C271C40ACA69CC6ECE46D070D230D6FFE48005030B040E03120702
:2002A0001302180619081F042002210325012A05300731083303350439083A023F1440033A
:2002C0004615480C49FF4A074BFF4C404D204EF04F0550085280580459045A045B045C22E3
:2002E0005D125F01604061A86240632081078318840C851F880489088C088F04900F910492
:200300009403951C960C970298039B039C02A00FA40CA51CA603A701A918AA03AC01AD103A
:20032000B20FB51FBA08BB28D804D904DC22DF010302041005800620081009020D400E1496
:200340000F801080120414021502171419011B021E101F04210A2221250427042810290560
:200360002D802E202F103020310232803402371439083A143CB03D083E02410850A07340A1
:2003800091889205942896029728980299149A109C019F14A040A290A304A4A0A524A602EB
:2003A000A702A804A940AA10AC02AF50B308B480C0E1C2FAC4FACA73CCEDCEF6D002010100
:2003C000030605070601080609080A010C040D0810071401150716061A081B011D041E08C9
:2003E000200621062201230124062502280229062D0831073308340736083A203E40403056
:20040000410649FF4AFF4BFF4DA04F04501856025711580459045A045B045C225D215F0180
:20042000604062C06440654066C068C06AC06CC06EC0C030C106C5D5C610C702C81BC9FF44
:20044000CAFFCBFFCDAFCE0FCF04D018D418D604DA04DB04DD21DF01E040E2C0E440E54089
:20046000E6C0E8C0EAC0ECC0EEC0058007140E120F881440150216241D401F102603271042
:200480002C422E28358037143C013D5841084508482049014A084E0C512052085A015E202E
:2004A0006080614062206C146D5074107580762C850187109211934094289502972099109B
:2004C0009B049D809E209F10A104A230A344A410A520A602A904AB40AE02AF04B001C0E028
:2004E000C2F0C470CAF0CC70CEF0D042D224D621D80DEE20EA10EE80E220AFA00F02120193
:2005000017011A0127022F013302360137013F40404649FF4AFF4BFF4F01501852805401EC
:20052000580459045A045B045C115D225F016040624064406540668068806A806C806E80DC
:20054000840288018F029B04A602A701A904B001B104B302B402B501B808BE01C046C5ECA2
:20056000C702C813C9FFCAFFCBFFCD83CE03CF01D018D427D604D804D904DA04DB04DC116B
:20058000DD12DF01E040E240E440E540E680E880EA80EC80EE8000140D200F4010301810F7
:2005A00019221F8020042108238026402720281029102C202E80312036083B403F4042800E
:2005C00046404A084B054E08520859215A085B805E805F056008610276C0840885028902AB
:2005E000920893409911A020A120A508A801AA10B492C006C250C404CA56CC44CE18D08106
:20060000D224D6DFD805E620EA1030203740CC3000080A010B800E080F805F8082048380E4
:200620008A019F40A420C010C2F0D620E280E4209F40A420AB40AC04AF40E830EC409F405E
:20064000A4200308052006208B08C007E2040610B220B520C004EA08EE01B210EE04882082
:200660008940A420B74057015B807D809B80A140A301AF81D480D620DE20EA40EE10000680
:2006800008060A0610061A06000F00000800F10E06000800000000000004040004000000D6
:2006A000200C0C00000000000E000000000000000400000C08000C000000000000000000D0
:00000001FF
