ARM GAS  C:\Users\Kenichi\AppData\Local\Temp\cc7blFiL.s 			page 1


   1              		.syntax unified
   2              		.cpu cortex-m3
   3              		.fpu softvfp
   4              		.eabi_attribute 20, 1
   5              		.eabi_attribute 21, 1
   6              		.eabi_attribute 23, 3
   7              		.eabi_attribute 24, 1
   8              		.eabi_attribute 25, 1
   9              		.eabi_attribute 26, 1
  10              		.eabi_attribute 30, 6
  11              		.eabi_attribute 34, 1
  12              		.eabi_attribute 18, 4
  13              		.thumb
  14              		.file	"main.c"
  15              		.text
  16              	.Ltext0:
  17              		.cfi_sections	.debug_frame
  18              		.comm	aileronL,4,4
  19              		.comm	aileronL_buffer,4,4
  20              		.comm	aileronL_before,4,4
  21              		.comm	pak,6,4
  22              		.section	.text.main,"ax",%progbits
  23              		.align	2
  24              		.global	main
  25              		.thumb
  26              		.thumb_func
  27              		.type	main, %function
  28              	main:
  29              	.LFB56:
  30              		.file 1 ".\\main.c"
   1:.\main.c      **** /* ========================================
   2:.\main.c      ****  * aileronL14 version 1.0 2014/4/25
   3:.\main.c      ****  * 1...right 2...left
   4:.\main.c      ****  *
   5:.\main.c      ****  * 元ファイルです
   6:.\main.c      ****  * ========================================
   7:.\main.c      **** */
   8:.\main.c      **** #include <project.h>
   9:.\main.c      **** 
  10:.\main.c      **** #define WRITE()		DE_Write(1)
  11:.\main.c      **** #define	READ()		DE_Write(0)
  12:.\main.c      **** 
  13:.\main.c      **** #define	RS485_PACKET_LENGTH	(6)
  14:.\main.c      **** 
  15:.\main.c      **** typedef union _tagRS485_PACKET {
  16:.\main.c      **** 	struct {
  17:.\main.c      **** 		unsigned char bStatus;
  18:.\main.c      **** 		unsigned char bCheckSum;
  19:.\main.c      **** 		unsigned short wData[2];
  20:.\main.c      **** 	} _pak;
  21:.\main.c      **** 	unsigned char _byte[RS485_PACKET_LENGTH];
  22:.\main.c      **** } PACKET;
  23:.\main.c      **** 
  24:.\main.c      **** void rs485_Start(void);
  25:.\main.c      **** void rs485_isr(void);
  26:.\main.c      **** char rs485_CheckPacket(char, PACKET*);
  27:.\main.c      **** char CheckValid(PACKET *);
ARM GAS  C:\Users\Kenichi\AppData\Local\Temp\cc7blFiL.s 			page 2


  28:.\main.c      **** void Servo_Start(void);
  29:.\main.c      **** void Terminal_Count_ISR(void);
  30:.\main.c      **** unsigned int FormatValueAilL(unsigned short);
  31:.\main.c      **** int CenterStatus(void);
  32:.\main.c      **** 
  33:.\main.c      **** #define	PACKET_ENDIANCHANGE(x)	{\
  34:.\main.c      **** 	char temp; \
  35:.\main.c      **** 	temp = x->_byte[2]; \
  36:.\main.c      **** 	x->_byte[2] = x->_byte[3]; \
  37:.\main.c      **** 	x->_byte[3] = temp; \
  38:.\main.c      **** 	temp = x->_byte[4]; \
  39:.\main.c      **** 	x->_byte[4] = x->_byte[5]; \
  40:.\main.c      **** 	x->_byte[5] = temp; \
  41:.\main.c      **** 	}
  42:.\main.c      **** 
  43:.\main.c      **** //Global variable here.
  44:.\main.c      **** 
  45:.\main.c      **** unsigned int aileronL,aileronL_buffer,aileronL_before;
  46:.\main.c      **** PACKET pak;
  47:.\main.c      **** 
  48:.\main.c      **** void main(){ 
  31              		.loc 1 48 0
  32              		.cfi_startproc
  33              		@ args = 0, pretend = 0, frame = 0
  34              		@ frame_needed = 1, uses_anonymous_args = 0
  35 0000 80B5     		push	{r7, lr}
  36              	.LCFI0:
  37              		.cfi_def_cfa_offset 8
  38              		.cfi_offset 7, -8
  39              		.cfi_offset 14, -4
  40 0002 00AF     		add	r7, sp, #0
  41              	.LCFI1:
  42              		.cfi_def_cfa_register 7
  49:.\main.c      ****     rs485_Start();   
  43              		.loc 1 49 0
  44 0004 FFF7FEFF 		bl	rs485_Start
  50:.\main.c      ****     Servo_Start();
  45              		.loc 1 50 0
  46 0008 FFF7FEFF 		bl	Servo_Start
  51:.\main.c      ****     CyGlobalIntEnable;  // Uncomment this line to enable global interrupts. 
  47              		.loc 1 51 0
  48              	@ 51 ".\main.c" 1
  49 000c 62B6     		CPSIE   i
  50              	@ 0 "" 2
  51              		.thumb
  52              	.L5:
  52:.\main.c      **** 	while(1) {
  53:.\main.c      **** 		if(rs485_CheckPacket(0x63, &pak)==0) {
  53              		.loc 1 53 0
  54 000e 4FF06300 		mov	r0, #99
  55 0012 40F20001 		movw	r1, #:lower16:pak
  56 0016 C0F20001 		movt	r1, #:upper16:pak
  57 001a FFF7FEFF 		bl	rs485_CheckPacket
  58 001e 0346     		mov	r3, r0
  59 0020 002B     		cmp	r3, #0
  60 0022 2DD1     		bne	.L2
  54:.\main.c      ****             LED_2_Write(1);
ARM GAS  C:\Users\Kenichi\AppData\Local\Temp\cc7blFiL.s 			page 3


  61              		.loc 1 54 0
  62 0024 4FF00100 		mov	r0, #1
  63 0028 FFF7FEFF 		bl	LED_2_Write
  55:.\main.c      ****             LED_1_Write(0);
  64              		.loc 1 55 0
  65 002c 4FF00000 		mov	r0, #0
  66 0030 FFF7FEFF 		bl	LED_1_Write
  56:.\main.c      ****             if(CheckValid(&pak)==1) {
  67              		.loc 1 56 0
  68 0034 40F20000 		movw	r0, #:lower16:pak
  69 0038 C0F20000 		movt	r0, #:upper16:pak
  70 003c FFF7FEFF 		bl	CheckValid
  71 0040 0346     		mov	r3, r0
  72 0042 012B     		cmp	r3, #1
  73 0044 13D1     		bne	.L3
  57:.\main.c      ****                 aileronL_buffer = pak._pak.wData[0];
  74              		.loc 1 57 0
  75 0046 40F20003 		movw	r3, #:lower16:pak
  76 004a C0F20003 		movt	r3, #:upper16:pak
  77 004e 5B88     		ldrh	r3, [r3, #2]
  78 0050 1A46     		mov	r2, r3
  79 0052 40F20003 		movw	r3, #:lower16:aileronL_buffer
  80 0056 C0F20003 		movt	r3, #:upper16:aileronL_buffer
  81 005a 1A60     		str	r2, [r3, #0]
  58:.\main.c      ****                 LED_2_Write(0);
  82              		.loc 1 58 0
  83 005c 4FF00000 		mov	r0, #0
  84 0060 FFF7FEFF 		bl	LED_2_Write
  59:.\main.c      ****                 LED_1_Write(0);
  85              		.loc 1 59 0
  86 0064 4FF00000 		mov	r0, #0
  87 0068 FFF7FEFF 		bl	LED_1_Write
  60:.\main.c      ****             } else {
  61:.\main.c      ****                 LED_2_Write(1);
  62:.\main.c      ****                 LED_1_Write(1);
  63:.\main.c      ****             }
  64:.\main.c      ****         } else {
  65:.\main.c      ****             LED_2_Write(1);
  66:.\main.c      ****             LED_1_Write(1);
  67:.\main.c      ****         } 
  68:.\main.c      **** 	}
  88              		.loc 1 68 0
  89 006c CFE7     		b	.L5
  90              	.L3:
  61:.\main.c      ****                 LED_2_Write(1);
  91              		.loc 1 61 0
  92 006e 4FF00100 		mov	r0, #1
  93 0072 FFF7FEFF 		bl	LED_2_Write
  62:.\main.c      ****                 LED_1_Write(1);
  94              		.loc 1 62 0
  95 0076 4FF00100 		mov	r0, #1
  96 007a FFF7FEFF 		bl	LED_1_Write
  97              		.loc 1 68 0
  98 007e C6E7     		b	.L5
  99              	.L2:
  65:.\main.c      ****             LED_2_Write(1);
 100              		.loc 1 65 0
ARM GAS  C:\Users\Kenichi\AppData\Local\Temp\cc7blFiL.s 			page 4


 101 0080 4FF00100 		mov	r0, #1
 102 0084 FFF7FEFF 		bl	LED_2_Write
  66:.\main.c      ****             LED_1_Write(1);
 103              		.loc 1 66 0
 104 0088 4FF00100 		mov	r0, #1
 105 008c FFF7FEFF 		bl	LED_1_Write
 106              		.loc 1 68 0
 107 0090 BDE7     		b	.L5
 108              		.cfi_endproc
 109              	.LFE56:
 110              		.size	main, .-main
 111 0092 00BF     		.section	.text.Timer_Set,"ax",%progbits
 112              		.align	2
 113              		.global	Timer_Set
 114              		.thumb
 115              		.thumb_func
 116              		.type	Timer_Set, %function
 117              	Timer_Set:
 118              	.LFB57:
  69:.\main.c      ****     return;
  70:.\main.c      **** }
  71:.\main.c      **** 
  72:.\main.c      **** void Timer_Set(unsigned int ms){
 119              		.loc 1 72 0
 120              		.cfi_startproc
 121              		@ args = 0, pretend = 0, frame = 8
 122              		@ frame_needed = 1, uses_anonymous_args = 0
 123 0000 80B5     		push	{r7, lr}
 124              	.LCFI2:
 125              		.cfi_def_cfa_offset 8
 126              		.cfi_offset 7, -8
 127              		.cfi_offset 14, -4
 128 0002 82B0     		sub	sp, sp, #8
 129              	.LCFI3:
 130              		.cfi_def_cfa_offset 16
 131 0004 00AF     		add	r7, sp, #0
 132              	.LCFI4:
 133              		.cfi_def_cfa_register 7
 134 0006 7860     		str	r0, [r7, #4]
  73:.\main.c      **** 	Timer_WriteCounter(ms);
 135              		.loc 1 73 0
 136 0008 7B68     		ldr	r3, [r7, #4]
 137 000a 9BB2     		uxth	r3, r3
 138 000c 1846     		mov	r0, r3
 139 000e FFF7FEFF 		bl	Timer_WriteCounter
  74:.\main.c      **** 	return;
 140              		.loc 1 74 0
 141 0012 00BF     		nop
  75:.\main.c      **** }
 142              		.loc 1 75 0
 143 0014 07F10807 		add	r7, r7, #8
 144 0018 BD46     		mov	sp, r7
 145 001a 80BD     		pop	{r7, pc}
 146              		.cfi_endproc
 147              	.LFE57:
 148              		.size	Timer_Set, .-Timer_Set
 149              		.section	.text.Timer_Delayus,"ax",%progbits
ARM GAS  C:\Users\Kenichi\AppData\Local\Temp\cc7blFiL.s 			page 5


 150              		.align	2
 151              		.global	Timer_Delayus
 152              		.thumb
 153              		.thumb_func
 154              		.type	Timer_Delayus, %function
 155              	Timer_Delayus:
 156              	.LFB58:
  76:.\main.c      **** 
  77:.\main.c      **** void Timer_Delayus(unsigned int us){
 157              		.loc 1 77 0
 158              		.cfi_startproc
 159              		@ args = 0, pretend = 0, frame = 8
 160              		@ frame_needed = 1, uses_anonymous_args = 0
 161 0000 80B5     		push	{r7, lr}
 162              	.LCFI5:
 163              		.cfi_def_cfa_offset 8
 164              		.cfi_offset 7, -8
 165              		.cfi_offset 14, -4
 166 0002 82B0     		sub	sp, sp, #8
 167              	.LCFI6:
 168              		.cfi_def_cfa_offset 16
 169 0004 00AF     		add	r7, sp, #0
 170              	.LCFI7:
 171              		.cfi_def_cfa_register 7
 172 0006 7860     		str	r0, [r7, #4]
  78:.\main.c      **** 	Timer_Set(us + 50);
 173              		.loc 1 78 0
 174 0008 7B68     		ldr	r3, [r7, #4]
 175 000a 03F13203 		add	r3, r3, #50
 176 000e 1846     		mov	r0, r3
 177 0010 FFF7FEFF 		bl	Timer_Set
  79:.\main.c      **** 	while(Timer_ReadCounter() > 50) {}
 178              		.loc 1 79 0
 179 0014 00BF     		nop
 180              	.L9:
 181              		.loc 1 79 0 is_stmt 0 discriminator 1
 182 0016 FFF7FEFF 		bl	Timer_ReadCounter
 183 001a 0346     		mov	r3, r0
 184 001c 322B     		cmp	r3, #50
 185 001e FAD8     		bhi	.L9
  80:.\main.c      **** 	return;
 186              		.loc 1 80 0 is_stmt 1
 187 0020 00BF     		nop
  81:.\main.c      **** }
 188              		.loc 1 81 0
 189 0022 07F10807 		add	r7, r7, #8
 190 0026 BD46     		mov	sp, r7
 191 0028 80BD     		pop	{r7, pc}
 192              		.cfi_endproc
 193              	.LFE58:
 194              		.size	Timer_Delayus, .-Timer_Delayus
 195 002a 00BF     		.section	.text.rs485_Start,"ax",%progbits
 196              		.align	2
 197              		.global	rs485_Start
 198              		.thumb
 199              		.thumb_func
 200              		.type	rs485_Start, %function
ARM GAS  C:\Users\Kenichi\AppData\Local\Temp\cc7blFiL.s 			page 6


 201              	rs485_Start:
 202              	.LFB59:
  82:.\main.c      **** 
  83:.\main.c      **** void rs485_Start(void){
 203              		.loc 1 83 0
 204              		.cfi_startproc
 205              		@ args = 0, pretend = 0, frame = 0
 206              		@ frame_needed = 1, uses_anonymous_args = 0
 207 0000 80B5     		push	{r7, lr}
 208              	.LCFI8:
 209              		.cfi_def_cfa_offset 8
 210              		.cfi_offset 7, -8
 211              		.cfi_offset 14, -4
 212 0002 00AF     		add	r7, sp, #0
 213              	.LCFI9:
 214              		.cfi_def_cfa_register 7
  84:.\main.c      **** 	UART_Start();
 215              		.loc 1 84 0
 216 0004 FFF7FEFF 		bl	UART_Start
  85:.\main.c      **** 	Timer_Start();
 217              		.loc 1 85 0
 218 0008 FFF7FEFF 		bl	Timer_Start
  86:.\main.c      **** 	return;
 219              		.loc 1 86 0
 220 000c 00BF     		nop
  87:.\main.c      **** }
 221              		.loc 1 87 0
 222 000e 80BD     		pop	{r7, pc}
 223              		.cfi_endproc
 224              	.LFE59:
 225              		.size	rs485_Start, .-rs485_Start
 226              		.section	.text.rs485_CheckPacket,"ax",%progbits
 227              		.align	2
 228              		.global	rs485_CheckPacket
 229              		.thumb
 230              		.thumb_func
 231              		.type	rs485_CheckPacket, %function
 232              	rs485_CheckPacket:
 233              	.LFB60:
  88:.\main.c      **** 
  89:.\main.c      **** /*
  90:.\main.c      ****  * rs485_CheckPacket
  91:.\main.c      ****  * 複数アドレス対応版 ビット3-6が一致で応答
  92:.\main.c      ****  * addr : device address (7bit unsigned)
  93:.\main.c      ****  * pak : pointer to PACKET structure
  94:.\main.c      ****  */
  95:.\main.c      **** char rs485_CheckPacket(
  96:.\main.c      **** 	char addr,
  97:.\main.c      **** 	PACKET *pak)
  98:.\main.c      **** {
 234              		.loc 1 98 0
 235              		.cfi_startproc
 236              		@ args = 0, pretend = 0, frame = 16
 237              		@ frame_needed = 1, uses_anonymous_args = 0
 238 0000 90B5     		push	{r4, r7, lr}
 239              	.LCFI10:
 240              		.cfi_def_cfa_offset 12
ARM GAS  C:\Users\Kenichi\AppData\Local\Temp\cc7blFiL.s 			page 7


 241              		.cfi_offset 4, -12
 242              		.cfi_offset 7, -8
 243              		.cfi_offset 14, -4
 244 0002 85B0     		sub	sp, sp, #20
 245              	.LCFI11:
 246              		.cfi_def_cfa_offset 32
 247 0004 00AF     		add	r7, sp, #0
 248              	.LCFI12:
 249              		.cfi_def_cfa_register 7
 250 0006 0346     		mov	r3, r0
 251 0008 3960     		str	r1, [r7, #0]
 252 000a FB71     		strb	r3, [r7, #7]
  99:.\main.c      **** 	char rcv;
 100:.\main.c      **** 	unsigned char i;
 101:.\main.c      **** 	
 102:.\main.c      **** 	if((UART_ReadRxStatus() & UART_RX_STS_FIFO_NOTEMPTY) == 0)
 253              		.loc 1 102 0
 254 000c FFF7FEFF 		bl	UART_ReadRxStatus
 255 0010 0346     		mov	r3, r0
 256 0012 03F02003 		and	r3, r3, #32
 257 0016 002B     		cmp	r3, #0
 258 0018 0AD1     		bne	.L14
 103:.\main.c      **** 	{
 104:.\main.c      ****         LED_1_Write(1);
 259              		.loc 1 104 0
 260 001a 4FF00100 		mov	r0, #1
 261 001e FFF7FEFF 		bl	LED_1_Write
 105:.\main.c      **** 		READ();
 262              		.loc 1 105 0
 263 0022 4FF00000 		mov	r0, #0
 264 0026 FFF7FEFF 		bl	DE_Write
 106:.\main.c      **** 		return 1;
 265              		.loc 1 106 0
 266 002a 4FF00103 		mov	r3, #1
 267 002e BCE0     		b	.L15
 268              	.L14:
 107:.\main.c      **** 	}
 108:.\main.c      **** 	LED_1_Write(1);
 269              		.loc 1 108 0
 270 0030 4FF00100 		mov	r0, #1
 271 0034 FFF7FEFF 		bl	LED_1_Write
 109:.\main.c      **** 	rcv = UART_ReadRxData();
 272              		.loc 1 109 0
 273 0038 FFF7FEFF 		bl	UART_ReadRxData
 274 003c 0346     		mov	r3, r0
 275 003e BB73     		strb	r3, [r7, #14]
 110:.\main.c      **** 	UART_ClearRxBuffer();
 276              		.loc 1 110 0
 277 0040 FFF7FEFF 		bl	UART_ClearRxBuffer
 111:.\main.c      **** 	if(addr != (rcv & 0x7f)){
 278              		.loc 1 111 0
 279 0044 FA79     		ldrb	r2, [r7, #7]	@ zero_extendqisi2
 280 0046 BB7B     		ldrb	r3, [r7, #14]	@ zero_extendqisi2
 281 0048 03F07F03 		and	r3, r3, #127
 282 004c 9A42     		cmp	r2, r3
 283 004e 22D0     		beq	.L16
 112:.\main.c      **** 		Timer_Set(200);
ARM GAS  C:\Users\Kenichi\AppData\Local\Temp\cc7blFiL.s 			page 8


 284              		.loc 1 112 0
 285 0050 4FF0C800 		mov	r0, #200
 286 0054 FFF7FEFF 		bl	Timer_Set
 113:.\main.c      **** 		READ();
 287              		.loc 1 113 0
 288 0058 4FF00000 		mov	r0, #0
 289 005c FFF7FEFF 		bl	DE_Write
 114:.\main.c      **** 		while(Timer_ReadCounter() > 49){
 290              		.loc 1 114 0
 291 0060 0FE0     		b	.L17
 292              	.L18:
 115:.\main.c      **** 			if((UART_ReadRxStatus() & UART_RX_STS_FIFO_NOTEMPTY) != 0){
 293              		.loc 1 115 0
 294 0062 FFF7FEFF 		bl	UART_ReadRxStatus
 295 0066 0346     		mov	r3, r0
 296 0068 03F02003 		and	r3, r3, #32
 297 006c 002B     		cmp	r3, #0
 298 006e 08D0     		beq	.L17
 116:.\main.c      **** 				Timer_Delayus(900);
 299              		.loc 1 116 0
 300 0070 4FF46170 		mov	r0, #900
 301 0074 FFF7FEFF 		bl	Timer_Delayus
 117:.\main.c      **** 				UART_ClearRxBuffer();
 302              		.loc 1 117 0
 303 0078 FFF7FEFF 		bl	UART_ClearRxBuffer
 118:.\main.c      **** 				return 1;
 304              		.loc 1 118 0
 305 007c 4FF00103 		mov	r3, #1
 306 0080 93E0     		b	.L15
 307              	.L17:
 114:.\main.c      **** 		while(Timer_ReadCounter() > 49){
 308              		.loc 1 114 0 discriminator 1
 309 0082 FFF7FEFF 		bl	Timer_ReadCounter
 310 0086 0346     		mov	r3, r0
 311 0088 312B     		cmp	r3, #49
 312 008a EAD8     		bhi	.L18
 119:.\main.c      **** 			}
 120:.\main.c      **** 		}
 121:.\main.c      **** 		UART_ClearRxBuffer();
 313              		.loc 1 121 0
 314 008c FFF7FEFF 		bl	UART_ClearRxBuffer
 122:.\main.c      **** 		return 1;
 315              		.loc 1 122 0
 316 0090 4FF00103 		mov	r3, #1
 317 0094 89E0     		b	.L15
 318              	.L16:
 123:.\main.c      **** 	}
 124:.\main.c      **** 	
 125:.\main.c      ****     LED_1_Write(0);
 319              		.loc 1 125 0
 320 0096 4FF00000 		mov	r0, #0
 321 009a FFF7FEFF 		bl	LED_1_Write
 126:.\main.c      **** 	WRITE();
 322              		.loc 1 126 0
 323 009e 4FF00100 		mov	r0, #1
 324 00a2 FFF7FEFF 		bl	DE_Write
 127:.\main.c      **** 	UART_PutChar(addr);
ARM GAS  C:\Users\Kenichi\AppData\Local\Temp\cc7blFiL.s 			page 9


 325              		.loc 1 127 0
 326 00a6 FB79     		ldrb	r3, [r7, #7]	@ zero_extendqisi2
 327 00a8 1846     		mov	r0, r3
 328 00aa FFF7FEFF 		bl	UART_PutChar
 128:.\main.c      **** 	while(!(UART_ReadTxStatus() & UART_TX_STS_COMPLETE)) {}
 329              		.loc 1 128 0
 330 00ae 00BF     		nop
 331              	.L19:
 332              		.loc 1 128 0 is_stmt 0 discriminator 1
 333 00b0 FFF7FEFF 		bl	UART_ReadTxStatus
 334 00b4 0346     		mov	r3, r0
 335 00b6 03F00103 		and	r3, r3, #1
 336 00ba 002B     		cmp	r3, #0
 337 00bc F8D0     		beq	.L19
 129:.\main.c      **** 	UART_ClearRxBuffer();
 338              		.loc 1 129 0 is_stmt 1
 339 00be FFF7FEFF 		bl	UART_ClearRxBuffer
 130:.\main.c      **** 	
 131:.\main.c      **** 	if(rcv & 0x80){
 340              		.loc 1 131 0
 341 00c2 BB7B     		ldrb	r3, [r7, #14]	@ zero_extendqisi2
 342 00c4 5BB2     		sxtb	r3, r3
 343 00c6 002B     		cmp	r3, #0
 344 00c8 2FDA     		bge	.L20
 345              	.LBB2:
 132:.\main.c      **** 		// send data to master
 133:.\main.c      **** 		PACKET_ENDIANCHANGE(pak);
 346              		.loc 1 133 0
 347 00ca 3B68     		ldr	r3, [r7, #0]
 348 00cc 9B78     		ldrb	r3, [r3, #2]
 349 00ce 7B73     		strb	r3, [r7, #13]
 350 00d0 3B68     		ldr	r3, [r7, #0]
 351 00d2 DA78     		ldrb	r2, [r3, #3]	@ zero_extendqisi2
 352 00d4 3B68     		ldr	r3, [r7, #0]
 353 00d6 9A70     		strb	r2, [r3, #2]
 354 00d8 3B68     		ldr	r3, [r7, #0]
 355 00da 7A7B     		ldrb	r2, [r7, #13]
 356 00dc DA70     		strb	r2, [r3, #3]
 357 00de 3B68     		ldr	r3, [r7, #0]
 358 00e0 1B79     		ldrb	r3, [r3, #4]
 359 00e2 7B73     		strb	r3, [r7, #13]
 360 00e4 3B68     		ldr	r3, [r7, #0]
 361 00e6 5A79     		ldrb	r2, [r3, #5]	@ zero_extendqisi2
 362 00e8 3B68     		ldr	r3, [r7, #0]
 363 00ea 1A71     		strb	r2, [r3, #4]
 364 00ec 3B68     		ldr	r3, [r7, #0]
 365 00ee 7A7B     		ldrb	r2, [r7, #13]
 366 00f0 5A71     		strb	r2, [r3, #5]
 367              	.LBE2:
 134:.\main.c      **** 		for(i = 0; i < 6; i++){
 368              		.loc 1 134 0
 369 00f2 4FF00003 		mov	r3, #0
 370 00f6 FB73     		strb	r3, [r7, #15]
 371 00f8 13E0     		b	.L21
 372              	.L23:
 135:.\main.c      **** 			UART_PutChar(pak->_byte[i]);
 373              		.loc 1 135 0
ARM GAS  C:\Users\Kenichi\AppData\Local\Temp\cc7blFiL.s 			page 10


 374 00fa FB7B     		ldrb	r3, [r7, #15]	@ zero_extendqisi2
 375 00fc 3A68     		ldr	r2, [r7, #0]
 376 00fe D35C     		ldrb	r3, [r2, r3]	@ zero_extendqisi2
 377 0100 1846     		mov	r0, r3
 378 0102 FFF7FEFF 		bl	UART_PutChar
 136:.\main.c      **** 			while(!(UART_ReadTxStatus() & UART_TX_STS_COMPLETE)) {}
 379              		.loc 1 136 0
 380 0106 00BF     		nop
 381              	.L22:
 382              		.loc 1 136 0 is_stmt 0 discriminator 1
 383 0108 FFF7FEFF 		bl	UART_ReadTxStatus
 384 010c 0346     		mov	r3, r0
 385 010e 03F00103 		and	r3, r3, #1
 386 0112 002B     		cmp	r3, #0
 387 0114 F8D0     		beq	.L22
 137:.\main.c      **** 			UART_ClearRxBuffer();
 388              		.loc 1 137 0 is_stmt 1
 389 0116 FFF7FEFF 		bl	UART_ClearRxBuffer
 134:.\main.c      **** 		for(i = 0; i < 6; i++){
 390              		.loc 1 134 0
 391 011a FB7B     		ldrb	r3, [r7, #15]
 392 011c 03F10103 		add	r3, r3, #1
 393 0120 FB73     		strb	r3, [r7, #15]
 394              	.L21:
 134:.\main.c      **** 		for(i = 0; i < 6; i++){
 395              		.loc 1 134 0 is_stmt 0 discriminator 1
 396 0122 FB7B     		ldrb	r3, [r7, #15]	@ zero_extendqisi2
 397 0124 052B     		cmp	r3, #5
 398 0126 E8D9     		bls	.L23
 134:.\main.c      **** 		for(i = 0; i < 6; i++){
 399              		.loc 1 134 0
 400 0128 27E0     		b	.L24
 401              	.L20:
 138:.\main.c      **** 		}
 139:.\main.c      **** 	}
 140:.\main.c      **** 	else{
 141:.\main.c      **** 		// receive data from master
 142:.\main.c      **** 		READ();
 402              		.loc 1 142 0 is_stmt 1
 403 012a 4FF00000 		mov	r0, #0
 404 012e FFF7FEFF 		bl	DE_Write
 143:.\main.c      **** 		Timer_Set(1010);
 405              		.loc 1 143 0
 406 0132 40F2F230 		movw	r0, #1010
 407 0136 FFF7FEFF 		bl	Timer_Set
 144:.\main.c      **** 		i = 0;
 408              		.loc 1 144 0
 409 013a 4FF00003 		mov	r3, #0
 410 013e FB73     		strb	r3, [r7, #15]
 145:.\main.c      **** 		while((i < 6) && (Timer_ReadCounter() > 10)){
 411              		.loc 1 145 0
 412 0140 13E0     		b	.L25
 413              	.L26:
 146:.\main.c      **** 			if(UART_ReadRxStatus() & UART_RX_STS_FIFO_NOTEMPTY){
 414              		.loc 1 146 0
 415 0142 FFF7FEFF 		bl	UART_ReadRxStatus
 416 0146 0346     		mov	r3, r0
ARM GAS  C:\Users\Kenichi\AppData\Local\Temp\cc7blFiL.s 			page 11


 417 0148 03F02003 		and	r3, r3, #32
 418 014c 002B     		cmp	r3, #0
 419 014e 0CD0     		beq	.L25
 147:.\main.c      **** 				pak->_byte[i++] = UART_ReadRxData();
 420              		.loc 1 147 0
 421 0150 FC7B     		ldrb	r4, [r7, #15]	@ zero_extendqisi2
 422 0152 FFF7FEFF 		bl	UART_ReadRxData
 423 0156 0346     		mov	r3, r0
 424 0158 1A46     		mov	r2, r3
 425 015a 3B68     		ldr	r3, [r7, #0]
 426 015c 1A55     		strb	r2, [r3, r4]
 427 015e FB7B     		ldrb	r3, [r7, #15]
 428 0160 03F10103 		add	r3, r3, #1
 429 0164 FB73     		strb	r3, [r7, #15]
 148:.\main.c      **** 				UART_ClearRxBuffer();
 430              		.loc 1 148 0
 431 0166 FFF7FEFF 		bl	UART_ClearRxBuffer
 432              	.L25:
 145:.\main.c      **** 		while((i < 6) && (Timer_ReadCounter() > 10)){
 433              		.loc 1 145 0 discriminator 1
 434 016a FB7B     		ldrb	r3, [r7, #15]	@ zero_extendqisi2
 435 016c 052B     		cmp	r3, #5
 436 016e 04D8     		bhi	.L24
 145:.\main.c      **** 		while((i < 6) && (Timer_ReadCounter() > 10)){
 437              		.loc 1 145 0 is_stmt 0 discriminator 2
 438 0170 FFF7FEFF 		bl	Timer_ReadCounter
 439 0174 0346     		mov	r3, r0
 440 0176 0A2B     		cmp	r3, #10
 441 0178 E3D8     		bhi	.L26
 442              	.L24:
 149:.\main.c      **** 			}
 150:.\main.c      **** 		}
 151:.\main.c      **** 		//PACKET_ENDIANCHANGE(pak);
 152:.\main.c      **** 	}
 153:.\main.c      **** 	WRITE();
 443              		.loc 1 153 0 is_stmt 1
 444 017a 4FF00100 		mov	r0, #1
 445 017e FFF7FEFF 		bl	DE_Write
 154:.\main.c      **** 	UART_PutChar(addr);
 446              		.loc 1 154 0
 447 0182 FB79     		ldrb	r3, [r7, #7]	@ zero_extendqisi2
 448 0184 1846     		mov	r0, r3
 449 0186 FFF7FEFF 		bl	UART_PutChar
 155:.\main.c      **** 	while(!(UART_ReadTxStatus() & UART_TX_STS_COMPLETE)) {}
 450              		.loc 1 155 0
 451 018a 00BF     		nop
 452              	.L27:
 453              		.loc 1 155 0 is_stmt 0 discriminator 1
 454 018c FFF7FEFF 		bl	UART_ReadTxStatus
 455 0190 0346     		mov	r3, r0
 456 0192 03F00103 		and	r3, r3, #1
 457 0196 002B     		cmp	r3, #0
 458 0198 F8D0     		beq	.L27
 156:.\main.c      **** 	UART_ClearRxBuffer();
 459              		.loc 1 156 0 is_stmt 1
 460 019a FFF7FEFF 		bl	UART_ClearRxBuffer
 157:.\main.c      **** 	READ();
ARM GAS  C:\Users\Kenichi\AppData\Local\Temp\cc7blFiL.s 			page 12


 461              		.loc 1 157 0
 462 019e 4FF00000 		mov	r0, #0
 463 01a2 FFF7FEFF 		bl	DE_Write
 158:.\main.c      **** 	return 0;
 464              		.loc 1 158 0
 465 01a6 4FF00003 		mov	r3, #0
 466              	.L15:
 159:.\main.c      **** }
 467              		.loc 1 159 0
 468 01aa 1846     		mov	r0, r3
 469 01ac 07F11407 		add	r7, r7, #20
 470 01b0 BD46     		mov	sp, r7
 471 01b2 90BD     		pop	{r4, r7, pc}
 472              		.cfi_endproc
 473              	.LFE60:
 474              		.size	rs485_CheckPacket, .-rs485_CheckPacket
 475              		.section	.text.CheckValid,"ax",%progbits
 476              		.align	2
 477              		.global	CheckValid
 478              		.thumb
 479              		.thumb_func
 480              		.type	CheckValid, %function
 481              	CheckValid:
 482              	.LFB61:
 160:.\main.c      **** 
 161:.\main.c      **** char CheckValid(PACKET *pak){
 483              		.loc 1 161 0
 484              		.cfi_startproc
 485              		@ args = 0, pretend = 0, frame = 16
 486              		@ frame_needed = 1, uses_anonymous_args = 0
 487              		@ link register save eliminated.
 488 0000 80B4     		push	{r7}
 489              	.LCFI13:
 490              		.cfi_def_cfa_offset 4
 491              		.cfi_offset 7, -4
 492 0002 85B0     		sub	sp, sp, #20
 493              	.LCFI14:
 494              		.cfi_def_cfa_offset 24
 495 0004 00AF     		add	r7, sp, #0
 496              	.LCFI15:
 497              		.cfi_def_cfa_register 7
 498 0006 7860     		str	r0, [r7, #4]
 162:.\main.c      ****     unsigned char sum = 0;
 499              		.loc 1 162 0
 500 0008 4FF00003 		mov	r3, #0
 501 000c FB73     		strb	r3, [r7, #15]
 163:.\main.c      ****     int i;
 164:.\main.c      ****     
 165:.\main.c      ****     for(i = 0; i < 4; i++){
 502              		.loc 1 165 0
 503 000e 4FF00003 		mov	r3, #0
 504 0012 BB60     		str	r3, [r7, #8]
 505 0014 0BE0     		b	.L29
 506              	.L30:
 166:.\main.c      ****         sum += pak->_byte[i+2];    
 507              		.loc 1 166 0 discriminator 2
 508 0016 BB68     		ldr	r3, [r7, #8]
ARM GAS  C:\Users\Kenichi\AppData\Local\Temp\cc7blFiL.s 			page 13


 509 0018 03F10203 		add	r3, r3, #2
 510 001c 7A68     		ldr	r2, [r7, #4]
 511 001e D25C     		ldrb	r2, [r2, r3]	@ zero_extendqisi2
 512 0020 FB7B     		ldrb	r3, [r7, #15]
 513 0022 D318     		adds	r3, r2, r3
 514 0024 FB73     		strb	r3, [r7, #15]
 165:.\main.c      ****     for(i = 0; i < 4; i++){
 515              		.loc 1 165 0 discriminator 2
 516 0026 BB68     		ldr	r3, [r7, #8]
 517 0028 03F10103 		add	r3, r3, #1
 518 002c BB60     		str	r3, [r7, #8]
 519              	.L29:
 165:.\main.c      ****     for(i = 0; i < 4; i++){
 520              		.loc 1 165 0 is_stmt 0 discriminator 1
 521 002e BB68     		ldr	r3, [r7, #8]
 522 0030 032B     		cmp	r3, #3
 523 0032 F0DD     		ble	.L30
 167:.\main.c      ****     }
 168:.\main.c      ****     if((~sum & 0xff) == pak->_pak.bCheckSum) {
 524              		.loc 1 168 0 is_stmt 1
 525 0034 FB7B     		ldrb	r3, [r7, #15]	@ zero_extendqisi2
 526 0036 6FEA0303 		mvn	r3, r3
 527 003a DAB2     		uxtb	r2, r3
 528 003c 7B68     		ldr	r3, [r7, #4]
 529 003e 5B78     		ldrb	r3, [r3, #1]	@ zero_extendqisi2
 530 0040 9A42     		cmp	r2, r3
 531 0042 02D1     		bne	.L31
 169:.\main.c      ****         return 1;
 532              		.loc 1 169 0
 533 0044 4FF00103 		mov	r3, #1
 534 0048 01E0     		b	.L32
 535              	.L31:
 170:.\main.c      ****     } else {
 171:.\main.c      ****         return 0;
 536              		.loc 1 171 0
 537 004a 4FF00003 		mov	r3, #0
 538              	.L32:
 172:.\main.c      ****     }
 173:.\main.c      **** }
 539              		.loc 1 173 0
 540 004e 1846     		mov	r0, r3
 541 0050 07F11407 		add	r7, r7, #20
 542 0054 BD46     		mov	sp, r7
 543 0056 80BC     		pop	{r7}
 544 0058 7047     		bx	lr
 545              		.cfi_endproc
 546              	.LFE61:
 547              		.size	CheckValid, .-CheckValid
 548 005a 00BF     		.section	.text.Servo_Start,"ax",%progbits
 549              		.align	2
 550              		.global	Servo_Start
 551              		.thumb
 552              		.thumb_func
 553              		.type	Servo_Start, %function
 554              	Servo_Start:
 555              	.LFB62:
 174:.\main.c      **** 
ARM GAS  C:\Users\Kenichi\AppData\Local\Temp\cc7blFiL.s 			page 14


 175:.\main.c      **** void Servo_Start(void){
 556              		.loc 1 175 0
 557              		.cfi_startproc
 558              		@ args = 0, pretend = 0, frame = 0
 559              		@ frame_needed = 1, uses_anonymous_args = 0
 560 0000 80B5     		push	{r7, lr}
 561              	.LCFI16:
 562              		.cfi_def_cfa_offset 8
 563              		.cfi_offset 7, -8
 564              		.cfi_offset 14, -4
 565 0002 00AF     		add	r7, sp, #0
 566              	.LCFI17:
 567              		.cfi_def_cfa_register 7
 176:.\main.c      ****     PWM_1_Start();
 568              		.loc 1 176 0
 569 0004 FFF7FEFF 		bl	PWM_1_Start
 177:.\main.c      **** 	aileronL_buffer = 1500;
 570              		.loc 1 177 0
 571 0008 40F20003 		movw	r3, #:lower16:aileronL_buffer
 572 000c C0F20003 		movt	r3, #:upper16:aileronL_buffer
 573 0010 40F2DC52 		movw	r2, #1500
 574 0014 1A60     		str	r2, [r3, #0]
 178:.\main.c      ****     isr_tc_StartEx(Terminal_Count_ISR);
 575              		.loc 1 178 0
 576 0016 40F20000 		movw	r0, #:lower16:Terminal_Count_ISR
 577 001a C0F20000 		movt	r0, #:upper16:Terminal_Count_ISR
 578 001e FFF7FEFF 		bl	isr_tc_StartEx
 179:.\main.c      ****     return;
 579              		.loc 1 179 0
 580 0022 00BF     		nop
 180:.\main.c      **** }
 581              		.loc 1 180 0
 582 0024 80BD     		pop	{r7, pc}
 583              		.cfi_endproc
 584              	.LFE62:
 585              		.size	Servo_Start, .-Servo_Start
 586              		.global	__aeabi_i2d
 587              		.global	__aeabi_dmul
 588              		.global	__aeabi_dadd
 589              		.global	__aeabi_d2uiz
 590 0026 00BF     		.section	.text.FormatValueAilL,"ax",%progbits
 591              		.align	2
 592              		.global	FormatValueAilL
 593              		.thumb
 594              		.thumb_func
 595              		.type	FormatValueAilL, %function
 596              	FormatValueAilL:
 597              	.LFB63:
 181:.\main.c      **** 
 182:.\main.c      **** unsigned int FormatValueAilL(unsigned short raw){
 598              		.loc 1 182 0
 599              		.cfi_startproc
 600              		@ args = 0, pretend = 0, frame = 8
 601              		@ frame_needed = 1, uses_anonymous_args = 0
 602 0000 B0B5     		push	{r4, r5, r7, lr}
 603              	.LCFI18:
 604              		.cfi_def_cfa_offset 16
ARM GAS  C:\Users\Kenichi\AppData\Local\Temp\cc7blFiL.s 			page 15


 605              		.cfi_offset 4, -16
 606              		.cfi_offset 5, -12
 607              		.cfi_offset 7, -8
 608              		.cfi_offset 14, -4
 609 0002 82B0     		sub	sp, sp, #8
 610              	.LCFI19:
 611              		.cfi_def_cfa_offset 24
 612 0004 00AF     		add	r7, sp, #0
 613              	.LCFI20:
 614              		.cfi_def_cfa_register 7
 615 0006 0346     		mov	r3, r0
 616 0008 FB80     		strh	r3, [r7, #6]	@ movhi
 183:.\main.c      **** 	if((raw >= 1500)&&(raw <= 2000)){
 617              		.loc 1 183 0
 618 000a FA88     		ldrh	r2, [r7, #6]
 619 000c 40F2DB53 		movw	r3, #1499
 620 0010 9A42     		cmp	r2, r3
 621 0012 2AD9     		bls	.L36
 622              		.loc 1 183 0 is_stmt 0 discriminator 1
 623 0014 FB88     		ldrh	r3, [r7, #6]
 624 0016 B3F5FA6F 		cmp	r3, #2000
 625 001a 26D8     		bhi	.L36
 184:.\main.c      **** 		return (1200 + CenterStatus() + (raw - 1500)*0.8);
 626              		.loc 1 184 0 is_stmt 1
 627 001c FFF7FEFF 		bl	CenterStatus
 628 0020 0346     		mov	r3, r0
 629 0022 03F59663 		add	r3, r3, #1200
 630 0026 1846     		mov	r0, r3
 631 0028 FFF7FEFF 		bl	__aeabi_i2d
 632 002c 0446     		mov	r4, r0
 633 002e 0D46     		mov	r5, r1
 634 0030 FB88     		ldrh	r3, [r7, #6]
 635 0032 A3F2DC53 		subw	r3, r3, #1500
 636 0036 1846     		mov	r0, r3
 637 0038 FFF7FEFF 		bl	__aeabi_i2d
 638 003c 0246     		mov	r2, r0
 639 003e 0B46     		mov	r3, r1
 640 0040 1046     		mov	r0, r2
 641 0042 1946     		mov	r1, r3
 642 0044 26A3     		adr	r3, .L39
 643 0046 D3E90023 		ldrd	r2, [r3]
 644 004a FFF7FEFF 		bl	__aeabi_dmul
 645 004e 0246     		mov	r2, r0
 646 0050 0B46     		mov	r3, r1
 647 0052 2046     		mov	r0, r4
 648 0054 2946     		mov	r1, r5
 649 0056 FFF7FEFF 		bl	__aeabi_dadd
 650 005a 0246     		mov	r2, r0
 651 005c 0B46     		mov	r3, r1
 652 005e 1046     		mov	r0, r2
 653 0060 1946     		mov	r1, r3
 654 0062 FFF7FEFF 		bl	__aeabi_d2uiz
 655 0066 0346     		mov	r3, r0
 656 0068 33E0     		b	.L37
 657              	.L36:
 185:.\main.c      **** 	}else if((raw < 1500)&&(raw >= 500)){
 658              		.loc 1 185 0
ARM GAS  C:\Users\Kenichi\AppData\Local\Temp\cc7blFiL.s 			page 16


 659 006a FA88     		ldrh	r2, [r7, #6]
 660 006c 40F2DB53 		movw	r3, #1499
 661 0070 9A42     		cmp	r2, r3
 662 0072 2BD8     		bhi	.L38
 663              		.loc 1 185 0 is_stmt 0 discriminator 1
 664 0074 FA88     		ldrh	r2, [r7, #6]
 665 0076 40F2F313 		movw	r3, #499
 666 007a 9A42     		cmp	r2, r3
 667 007c 26D9     		bls	.L38
 186:.\main.c      **** 		return (1200 + CenterStatus() + (raw - 1500)*0.6);
 668              		.loc 1 186 0 is_stmt 1
 669 007e FFF7FEFF 		bl	CenterStatus
 670 0082 0346     		mov	r3, r0
 671 0084 03F59663 		add	r3, r3, #1200
 672 0088 1846     		mov	r0, r3
 673 008a FFF7FEFF 		bl	__aeabi_i2d
 674 008e 0446     		mov	r4, r0
 675 0090 0D46     		mov	r5, r1
 676 0092 FB88     		ldrh	r3, [r7, #6]
 677 0094 A3F2DC53 		subw	r3, r3, #1500
 678 0098 1846     		mov	r0, r3
 679 009a FFF7FEFF 		bl	__aeabi_i2d
 680 009e 0246     		mov	r2, r0
 681 00a0 0B46     		mov	r3, r1
 682 00a2 1046     		mov	r0, r2
 683 00a4 1946     		mov	r1, r3
 684 00a6 10A3     		adr	r3, .L39+8
 685 00a8 D3E90023 		ldrd	r2, [r3]
 686 00ac FFF7FEFF 		bl	__aeabi_dmul
 687 00b0 0246     		mov	r2, r0
 688 00b2 0B46     		mov	r3, r1
 689 00b4 2046     		mov	r0, r4
 690 00b6 2946     		mov	r1, r5
 691 00b8 FFF7FEFF 		bl	__aeabi_dadd
 692 00bc 0246     		mov	r2, r0
 693 00be 0B46     		mov	r3, r1
 694 00c0 1046     		mov	r0, r2
 695 00c2 1946     		mov	r1, r3
 696 00c4 FFF7FEFF 		bl	__aeabi_d2uiz
 697 00c8 0346     		mov	r3, r0
 698 00ca 02E0     		b	.L37
 699              	.L38:
 187:.\main.c      **** 	}else{
 188:.\main.c      **** 		return PWM_1_ReadCompare1(); 
 700              		.loc 1 188 0
 701 00cc FFF7FEFF 		bl	PWM_1_ReadCompare1
 702 00d0 0346     		mov	r3, r0
 703              	.L37:
 189:.\main.c      **** 	}
 190:.\main.c      **** }
 704              		.loc 1 190 0
 705 00d2 1846     		mov	r0, r3
 706 00d4 07F10807 		add	r7, r7, #8
 707 00d8 BD46     		mov	sp, r7
 708 00da B0BD     		pop	{r4, r5, r7, pc}
 709              	.L40:
 710 00dc AFF30080 		.align	3
ARM GAS  C:\Users\Kenichi\AppData\Local\Temp\cc7blFiL.s 			page 17


 711              	.L39:
 712 00e0 9A999999 		.word	-1717986918
 713 00e4 9999E93F 		.word	1072273817
 714 00e8 33333333 		.word	858993459
 715 00ec 3333E33F 		.word	1071854387
 716              		.cfi_endproc
 717              	.LFE63:
 718              		.size	FormatValueAilL, .-FormatValueAilL
 719              		.section	.text.CenterStatus,"ax",%progbits
 720              		.align	2
 721              		.global	CenterStatus
 722              		.thumb
 723              		.thumb_func
 724              		.type	CenterStatus, %function
 725              	CenterStatus:
 726              	.LFB64:
 191:.\main.c      **** 
 192:.\main.c      **** int CenterStatus(void){
 727              		.loc 1 192 0
 728              		.cfi_startproc
 729              		@ args = 0, pretend = 0, frame = 16
 730              		@ frame_needed = 1, uses_anonymous_args = 0
 731 0000 80B5     		push	{r7, lr}
 732              	.LCFI21:
 733              		.cfi_def_cfa_offset 8
 734              		.cfi_offset 7, -8
 735              		.cfi_offset 14, -4
 736 0002 84B0     		sub	sp, sp, #16
 737              	.LCFI22:
 738              		.cfi_def_cfa_offset 24
 739 0004 00AF     		add	r7, sp, #0
 740              	.LCFI23:
 741              		.cfi_def_cfa_register 7
 193:.\main.c      **** 	int Trim ,dTrim = 20;
 742              		.loc 1 193 0
 743 0006 4FF01403 		mov	r3, #20
 744 000a BB60     		str	r3, [r7, #8]
 194:.\main.c      **** 	int sw = (~ Status_Reg_Read()) & 0x0F ;
 745              		.loc 1 194 0
 746 000c FFF7FEFF 		bl	Status_Reg_Read
 747 0010 0346     		mov	r3, r0
 748 0012 6FEA0303 		mvn	r3, r3
 749 0016 03F00F03 		and	r3, r3, #15
 750 001a 7B60     		str	r3, [r7, #4]
 195:.\main.c      **** 	switch(sw){
 751              		.loc 1 195 0
 752 001c 7B68     		ldr	r3, [r7, #4]
 753 001e 0F2B     		cmp	r3, #15
 754 0020 00F29480 		bhi	.L42
 755 0024 01A2     		adr	r2, .L59
 756 0026 52F823F0 		ldr	pc, [r2, r3, lsl #2]
 757 002a 00BF     		.align	2
 758              	.L59:
 759 002c 6D000000 		.word	.L43+1
 760 0030 7F000000 		.word	.L44+1
 761 0034 8D000000 		.word	.L45+1
 762 0038 9F000000 		.word	.L46+1
ARM GAS  C:\Users\Kenichi\AppData\Local\Temp\cc7blFiL.s 			page 18


 763 003c B3000000 		.word	.L47+1
 764 0040 C5000000 		.word	.L48+1
 765 0044 D3000000 		.word	.L49+1
 766 0048 E5000000 		.word	.L50+1
 767 004c EF000000 		.word	.L51+1
 768 0050 F7000000 		.word	.L52+1
 769 0054 FD000000 		.word	.L53+1
 770 0058 07010000 		.word	.L54+1
 771 005c 15010000 		.word	.L55+1
 772 0060 1F010000 		.word	.L56+1
 773 0064 2D010000 		.word	.L57+1
 774 0068 3F010000 		.word	.L58+1
 775              	.L43:
 196:.\main.c      **** 		case 0x00 :
 197:.\main.c      **** 			Trim = -8*dTrim;
 776              		.loc 1 197 0
 777 006c BA68     		ldr	r2, [r7, #8]
 778 006e 1346     		mov	r3, r2
 779 0070 4FEA4373 		lsl	r3, r3, #29
 780 0074 9B1A     		subs	r3, r3, r2
 781 0076 4FEAC303 		lsl	r3, r3, #3
 782 007a FB60     		str	r3, [r7, #12]
 198:.\main.c      **** 			break;	
 783              		.loc 1 198 0
 784 007c 66E0     		b	.L42
 785              	.L44:
 199:.\main.c      **** 		case 0x01 :
 200:.\main.c      **** 			Trim = -7*dTrim;
 786              		.loc 1 200 0
 787 007e BB68     		ldr	r3, [r7, #8]
 788 0080 1A46     		mov	r2, r3
 789 0082 4FEAC303 		lsl	r3, r3, #3
 790 0086 D31A     		subs	r3, r2, r3
 791 0088 FB60     		str	r3, [r7, #12]
 201:.\main.c      **** 			break;
 792              		.loc 1 201 0
 793 008a 5FE0     		b	.L42
 794              	.L45:
 202:.\main.c      **** 		case 0x02 :
 203:.\main.c      **** 			Trim = -6*dTrim;
 795              		.loc 1 203 0
 796 008c BA68     		ldr	r2, [r7, #8]
 797 008e 1346     		mov	r3, r2
 798 0090 4FEA8202 		lsl	r2, r2, #2
 799 0094 9B1A     		subs	r3, r3, r2
 800 0096 4FEA4303 		lsl	r3, r3, #1
 801 009a FB60     		str	r3, [r7, #12]
 204:.\main.c      **** 			break;
 802              		.loc 1 204 0
 803 009c 56E0     		b	.L42
 804              	.L46:
 205:.\main.c      **** 		case 0x03 :
 206:.\main.c      **** 			Trim = -5*dTrim;
 805              		.loc 1 206 0
 806 009e BA68     		ldr	r2, [r7, #8]
 807 00a0 1346     		mov	r3, r2
 808 00a2 4FEA8373 		lsl	r3, r3, #30
ARM GAS  C:\Users\Kenichi\AppData\Local\Temp\cc7blFiL.s 			page 19


 809 00a6 9B1A     		subs	r3, r3, r2
 810 00a8 4FEA8303 		lsl	r3, r3, #2
 811 00ac 9B1A     		subs	r3, r3, r2
 812 00ae FB60     		str	r3, [r7, #12]
 207:.\main.c      **** 			break;
 813              		.loc 1 207 0
 814 00b0 4CE0     		b	.L42
 815              	.L47:
 208:.\main.c      **** 		case 0x04 :
 209:.\main.c      **** 			Trim = -4*dTrim;
 816              		.loc 1 209 0
 817 00b2 BA68     		ldr	r2, [r7, #8]
 818 00b4 1346     		mov	r3, r2
 819 00b6 4FEA8373 		lsl	r3, r3, #30
 820 00ba 9B1A     		subs	r3, r3, r2
 821 00bc 4FEA8303 		lsl	r3, r3, #2
 822 00c0 FB60     		str	r3, [r7, #12]
 210:.\main.c      **** 			break;
 823              		.loc 1 210 0
 824 00c2 43E0     		b	.L42
 825              	.L48:
 211:.\main.c      **** 		case 0x05 :
 212:.\main.c      **** 			Trim = -3*dTrim;
 826              		.loc 1 212 0
 827 00c4 BB68     		ldr	r3, [r7, #8]
 828 00c6 1A46     		mov	r2, r3
 829 00c8 4FEA8303 		lsl	r3, r3, #2
 830 00cc D31A     		subs	r3, r2, r3
 831 00ce FB60     		str	r3, [r7, #12]
 213:.\main.c      **** 			break;
 832              		.loc 1 213 0
 833 00d0 3CE0     		b	.L42
 834              	.L49:
 214:.\main.c      **** 		case 0x06 :
 215:.\main.c      **** 			Trim = -2*dTrim;
 835              		.loc 1 215 0
 836 00d2 BA68     		ldr	r2, [r7, #8]
 837 00d4 1346     		mov	r3, r2
 838 00d6 4FEAC373 		lsl	r3, r3, #31
 839 00da 9B1A     		subs	r3, r3, r2
 840 00dc 4FEA4303 		lsl	r3, r3, #1
 841 00e0 FB60     		str	r3, [r7, #12]
 216:.\main.c      **** 			break;
 842              		.loc 1 216 0
 843 00e2 33E0     		b	.L42
 844              	.L50:
 217:.\main.c      **** 		case 0x07 :
 218:.\main.c      **** 			Trim = -1*dTrim;
 845              		.loc 1 218 0
 846 00e4 BB68     		ldr	r3, [r7, #8]
 847 00e6 C3F10003 		rsb	r3, r3, #0
 848 00ea FB60     		str	r3, [r7, #12]
 219:.\main.c      **** 			break;
 849              		.loc 1 219 0
 850 00ec 2EE0     		b	.L42
 851              	.L51:
 220:.\main.c      **** 		case 0x08 :
ARM GAS  C:\Users\Kenichi\AppData\Local\Temp\cc7blFiL.s 			page 20


 221:.\main.c      **** 			Trim = 0*dTrim;
 852              		.loc 1 221 0
 853 00ee 4FF00003 		mov	r3, #0
 854 00f2 FB60     		str	r3, [r7, #12]
 222:.\main.c      **** 			break;
 855              		.loc 1 222 0
 856 00f4 2AE0     		b	.L42
 857              	.L52:
 223:.\main.c      **** 		case 0x09 :
 224:.\main.c      **** 			Trim = 1*dTrim;
 858              		.loc 1 224 0
 859 00f6 BB68     		ldr	r3, [r7, #8]
 860 00f8 FB60     		str	r3, [r7, #12]
 225:.\main.c      **** 			break;
 861              		.loc 1 225 0
 862 00fa 27E0     		b	.L42
 863              	.L53:
 226:.\main.c      **** 		case 0x0A :
 227:.\main.c      **** 			Trim = 2*dTrim;
 864              		.loc 1 227 0
 865 00fc BB68     		ldr	r3, [r7, #8]
 866 00fe 4FEA4303 		lsl	r3, r3, #1
 867 0102 FB60     		str	r3, [r7, #12]
 228:.\main.c      **** 			break;
 868              		.loc 1 228 0
 869 0104 22E0     		b	.L42
 870              	.L54:
 229:.\main.c      **** 		case 0x0B :
 230:.\main.c      **** 			Trim = 3*dTrim;
 871              		.loc 1 230 0
 872 0106 BA68     		ldr	r2, [r7, #8]
 873 0108 1346     		mov	r3, r2
 874 010a 4FEA4303 		lsl	r3, r3, #1
 875 010e 9B18     		adds	r3, r3, r2
 876 0110 FB60     		str	r3, [r7, #12]
 231:.\main.c      **** 			break;
 877              		.loc 1 231 0
 878 0112 1BE0     		b	.L42
 879              	.L55:
 232:.\main.c      **** 		case 0x0C :
 233:.\main.c      **** 			Trim = 4*dTrim;
 880              		.loc 1 233 0
 881 0114 BB68     		ldr	r3, [r7, #8]
 882 0116 4FEA8303 		lsl	r3, r3, #2
 883 011a FB60     		str	r3, [r7, #12]
 234:.\main.c      **** 			break;
 884              		.loc 1 234 0
 885 011c 16E0     		b	.L42
 886              	.L56:
 235:.\main.c      **** 		case 0x0D :
 236:.\main.c      **** 			Trim = 5*dTrim;
 887              		.loc 1 236 0
 888 011e BA68     		ldr	r2, [r7, #8]
 889 0120 1346     		mov	r3, r2
 890 0122 4FEA8303 		lsl	r3, r3, #2
 891 0126 9B18     		adds	r3, r3, r2
 892 0128 FB60     		str	r3, [r7, #12]
ARM GAS  C:\Users\Kenichi\AppData\Local\Temp\cc7blFiL.s 			page 21


 237:.\main.c      **** 			break;
 893              		.loc 1 237 0
 894 012a 0FE0     		b	.L42
 895              	.L57:
 238:.\main.c      **** 		case 0x0E :
 239:.\main.c      **** 			Trim = 6*dTrim;
 896              		.loc 1 239 0
 897 012c BA68     		ldr	r2, [r7, #8]
 898 012e 1346     		mov	r3, r2
 899 0130 4FEA4303 		lsl	r3, r3, #1
 900 0134 9B18     		adds	r3, r3, r2
 901 0136 4FEA4303 		lsl	r3, r3, #1
 902 013a FB60     		str	r3, [r7, #12]
 240:.\main.c      **** 			break;
 903              		.loc 1 240 0
 904 013c 06E0     		b	.L42
 905              	.L58:
 241:.\main.c      **** 		case 0x0F :
 242:.\main.c      **** 			Trim = 7*dTrim;
 906              		.loc 1 242 0
 907 013e BA68     		ldr	r2, [r7, #8]
 908 0140 1346     		mov	r3, r2
 909 0142 4FEAC303 		lsl	r3, r3, #3
 910 0146 9B1A     		subs	r3, r3, r2
 911 0148 FB60     		str	r3, [r7, #12]
 243:.\main.c      **** 			break;
 912              		.loc 1 243 0
 913 014a 00BF     		nop
 914              	.L42:
 244:.\main.c      **** 	}
 245:.\main.c      **** 	return(Trim);
 915              		.loc 1 245 0
 916 014c FB68     		ldr	r3, [r7, #12]
 246:.\main.c      **** }
 917              		.loc 1 246 0
 918 014e 1846     		mov	r0, r3
 919 0150 07F11007 		add	r7, r7, #16
 920 0154 BD46     		mov	sp, r7
 921 0156 80BD     		pop	{r7, pc}
 922              		.cfi_endproc
 923              	.LFE64:
 924              		.size	CenterStatus, .-CenterStatus
 925              		.section	.text.Terminal_Count_ISR,"ax",%progbits
 926              		.align	2
 927              		.global	Terminal_Count_ISR
 928              		.thumb
 929              		.thumb_func
 930              		.type	Terminal_Count_ISR, %function
 931              	Terminal_Count_ISR:
 932              	.LFB65:
 247:.\main.c      **** 
 248:.\main.c      **** CY_ISR(Terminal_Count_ISR) {
 933              		.loc 1 248 0
 934              		.cfi_startproc
 935              		@ args = 0, pretend = 0, frame = 0
 936              		@ frame_needed = 1, uses_anonymous_args = 0
 937 0000 80B5     		push	{r7, lr}
ARM GAS  C:\Users\Kenichi\AppData\Local\Temp\cc7blFiL.s 			page 22


 938              	.LCFI24:
 939              		.cfi_def_cfa_offset 8
 940              		.cfi_offset 7, -8
 941              		.cfi_offset 14, -4
 942 0002 00AF     		add	r7, sp, #0
 943              	.LCFI25:
 944              		.cfi_def_cfa_register 7
 249:.\main.c      ****     PWM_1_WriteCompare1(FormatValueAilL(aileronL_buffer));
 945              		.loc 1 249 0
 946 0004 40F20003 		movw	r3, #:lower16:aileronL_buffer
 947 0008 C0F20003 		movt	r3, #:upper16:aileronL_buffer
 948 000c 1B68     		ldr	r3, [r3, #0]
 949 000e 9BB2     		uxth	r3, r3
 950 0010 1846     		mov	r0, r3
 951 0012 FFF7FEFF 		bl	FormatValueAilL
 952 0016 0346     		mov	r3, r0
 953 0018 9BB2     		uxth	r3, r3
 954 001a 1846     		mov	r0, r3
 955 001c FFF7FEFF 		bl	PWM_1_WriteCompare1
 250:.\main.c      ****     PWM_1_ReadStatusRegister();
 956              		.loc 1 250 0
 957 0020 FFF7FEFF 		bl	PWM_1_ReadStatusRegister
 251:.\main.c      ****     return;
 958              		.loc 1 251 0
 959 0024 00BF     		nop
 252:.\main.c      **** }
 960              		.loc 1 252 0
 961 0026 80BD     		pop	{r7, pc}
 962              		.cfi_endproc
 963              	.LFE65:
 964              		.size	Terminal_Count_ISR, .-Terminal_Count_ISR
 965              		.text
 966              	.Letext0:
 967              		.file 2 "c:\\program files (x86)\\cypress\\psoc creator\\3.0\\psoc creator\\import\\gnu_cs\\arm\\4
 968              		.file 3 "./Generated_Source/PSoC5/cytypes.h"
 969              		.file 4 "./Generated_Source/PSoC5/core_cm3.h"
 970              		.section	.debug_info,"",%progbits
 971              	.Ldebug_info0:
 972 0000 50030000 		.4byte	0x350
 973 0004 0200     		.2byte	0x2
 974 0006 00000000 		.4byte	.Ldebug_abbrev0
 975 000a 04       		.byte	0x4
 976 000b 01       		.uleb128 0x1
 977 000c 15000000 		.4byte	.LASF38
 978 0010 01       		.byte	0x1
 979 0011 88000000 		.4byte	.LASF39
 980 0015 FD010000 		.4byte	.LASF40
 981 0019 00000000 		.4byte	.Ldebug_ranges0+0
 982 001d 00000000 		.4byte	0
 983 0021 00000000 		.4byte	0
 984 0025 00000000 		.4byte	.Ldebug_line0
 985 0029 02       		.uleb128 0x2
 986 002a 01       		.byte	0x1
 987 002b 06       		.byte	0x6
 988 002c 66010000 		.4byte	.LASF0
 989 0030 02       		.uleb128 0x2
 990 0031 01       		.byte	0x1
ARM GAS  C:\Users\Kenichi\AppData\Local\Temp\cc7blFiL.s 			page 23


 991 0032 08       		.byte	0x8
 992 0033 B2000000 		.4byte	.LASF1
 993 0037 02       		.uleb128 0x2
 994 0038 02       		.byte	0x2
 995 0039 05       		.byte	0x5
 996 003a 12010000 		.4byte	.LASF2
 997 003e 02       		.uleb128 0x2
 998 003f 02       		.byte	0x2
 999 0040 07       		.byte	0x7
 1000 0041 69000000 		.4byte	.LASF3
 1001 0045 03       		.uleb128 0x3
 1002 0046 82010000 		.4byte	.LASF9
 1003 004a 02       		.byte	0x2
 1004 004b 4F       		.byte	0x4f
 1005 004c 50000000 		.4byte	0x50
 1006 0050 02       		.uleb128 0x2
 1007 0051 04       		.byte	0x4
 1008 0052 05       		.byte	0x5
 1009 0053 EE010000 		.4byte	.LASF4
 1010 0057 02       		.uleb128 0x2
 1011 0058 04       		.byte	0x4
 1012 0059 07       		.byte	0x7
 1013 005a CA000000 		.4byte	.LASF5
 1014 005e 02       		.uleb128 0x2
 1015 005f 08       		.byte	0x8
 1016 0060 05       		.byte	0x5
 1017 0061 97000000 		.4byte	.LASF6
 1018 0065 02       		.uleb128 0x2
 1019 0066 08       		.byte	0x8
 1020 0067 07       		.byte	0x7
 1021 0068 3E010000 		.4byte	.LASF7
 1022 006c 04       		.uleb128 0x4
 1023 006d 04       		.byte	0x4
 1024 006e 05       		.byte	0x5
 1025 006f 696E7400 		.ascii	"int\000"
 1026 0073 02       		.uleb128 0x2
 1027 0074 04       		.byte	0x4
 1028 0075 07       		.byte	0x7
 1029 0076 2A010000 		.4byte	.LASF8
 1030 007a 03       		.uleb128 0x3
 1031 007b C4010000 		.4byte	.LASF10
 1032 007f 03       		.byte	0x3
 1033 0080 5B       		.byte	0x5b
 1034 0081 30000000 		.4byte	0x30
 1035 0085 02       		.uleb128 0x2
 1036 0086 04       		.byte	0x4
 1037 0087 04       		.byte	0x4
 1038 0088 91000000 		.4byte	.LASF11
 1039 008c 02       		.uleb128 0x2
 1040 008d 08       		.byte	0x8
 1041 008e 04       		.byte	0x4
 1042 008f F3000000 		.4byte	.LASF12
 1043 0093 02       		.uleb128 0x2
 1044 0094 01       		.byte	0x1
 1045 0095 08       		.byte	0x8
 1046 0096 A1010000 		.4byte	.LASF13
 1047 009a 02       		.uleb128 0x2
ARM GAS  C:\Users\Kenichi\AppData\Local\Temp\cc7blFiL.s 			page 24


 1048 009b 04       		.byte	0x4
 1049 009c 07       		.byte	0x7
 1050 009d 8A010000 		.4byte	.LASF14
 1051 00a1 05       		.uleb128 0x5
 1052 00a2 06       		.byte	0x6
 1053 00a3 01       		.byte	0x1
 1054 00a4 10       		.byte	0x10
 1055 00a5 D4000000 		.4byte	0xd4
 1056 00a9 06       		.uleb128 0x6
 1057 00aa CA010000 		.4byte	.LASF15
 1058 00ae 01       		.byte	0x1
 1059 00af 11       		.byte	0x11
 1060 00b0 30000000 		.4byte	0x30
 1061 00b4 02       		.byte	0x2
 1062 00b5 23       		.byte	0x23
 1063 00b6 00       		.uleb128 0
 1064 00b7 06       		.uleb128 0x6
 1065 00b8 C0000000 		.4byte	.LASF16
 1066 00bc 01       		.byte	0x1
 1067 00bd 12       		.byte	0x12
 1068 00be 30000000 		.4byte	0x30
 1069 00c2 02       		.byte	0x2
 1070 00c3 23       		.byte	0x23
 1071 00c4 01       		.uleb128 0x1
 1072 00c5 06       		.uleb128 0x6
 1073 00c6 BE010000 		.4byte	.LASF17
 1074 00ca 01       		.byte	0x1
 1075 00cb 13       		.byte	0x13
 1076 00cc D4000000 		.4byte	0xd4
 1077 00d0 02       		.byte	0x2
 1078 00d1 23       		.byte	0x23
 1079 00d2 02       		.uleb128 0x2
 1080 00d3 00       		.byte	0
 1081 00d4 07       		.uleb128 0x7
 1082 00d5 3E000000 		.4byte	0x3e
 1083 00d9 E4000000 		.4byte	0xe4
 1084 00dd 08       		.uleb128 0x8
 1085 00de 9A000000 		.4byte	0x9a
 1086 00e2 01       		.byte	0x1
 1087 00e3 00       		.byte	0
 1088 00e4 09       		.uleb128 0x9
 1089 00e5 55010000 		.4byte	.LASF41
 1090 00e9 06       		.byte	0x6
 1091 00ea 01       		.byte	0x1
 1092 00eb 0F       		.byte	0xf
 1093 00ec 07010000 		.4byte	0x107
 1094 00f0 0A       		.uleb128 0xa
 1095 00f1 FA000000 		.4byte	.LASF18
 1096 00f5 01       		.byte	0x1
 1097 00f6 14       		.byte	0x14
 1098 00f7 A1000000 		.4byte	0xa1
 1099 00fb 0A       		.uleb128 0xa
 1100 00fc B8010000 		.4byte	.LASF19
 1101 0100 01       		.byte	0x1
 1102 0101 15       		.byte	0x15
 1103 0102 07010000 		.4byte	0x107
 1104 0106 00       		.byte	0
ARM GAS  C:\Users\Kenichi\AppData\Local\Temp\cc7blFiL.s 			page 25


 1105 0107 07       		.uleb128 0x7
 1106 0108 30000000 		.4byte	0x30
 1107 010c 17010000 		.4byte	0x117
 1108 0110 08       		.uleb128 0x8
 1109 0111 9A000000 		.4byte	0x9a
 1110 0115 05       		.byte	0x5
 1111 0116 00       		.byte	0
 1112 0117 03       		.uleb128 0x3
 1113 0118 37010000 		.4byte	.LASF20
 1114 011c 01       		.byte	0x1
 1115 011d 16       		.byte	0x16
 1116 011e E4000000 		.4byte	0xe4
 1117 0122 0B       		.uleb128 0xb
 1118 0123 01       		.byte	0x1
 1119 0124 25010000 		.4byte	.LASF42
 1120 0128 01       		.byte	0x1
 1121 0129 30       		.byte	0x30
 1122 012a 00000000 		.4byte	.LFB56
 1123 012e 92000000 		.4byte	.LFE56
 1124 0132 00000000 		.4byte	.LLST0
 1125 0136 01       		.byte	0x1
 1126 0137 0C       		.uleb128 0xc
 1127 0138 01       		.byte	0x1
 1128 0139 40020000 		.4byte	.LASF21
 1129 013d 01       		.byte	0x1
 1130 013e 48       		.byte	0x48
 1131 013f 01       		.byte	0x1
 1132 0140 00000000 		.4byte	.LFB57
 1133 0144 1C000000 		.4byte	.LFE57
 1134 0148 2C000000 		.4byte	.LLST1
 1135 014c 01       		.byte	0x1
 1136 014d 5F010000 		.4byte	0x15f
 1137 0151 0D       		.uleb128 0xd
 1138 0152 6D7300   		.ascii	"ms\000"
 1139 0155 01       		.byte	0x1
 1140 0156 48       		.byte	0x48
 1141 0157 73000000 		.4byte	0x73
 1142 015b 02       		.byte	0x2
 1143 015c 91       		.byte	0x91
 1144 015d 74       		.sleb128 -12
 1145 015e 00       		.byte	0
 1146 015f 0C       		.uleb128 0xc
 1147 0160 01       		.byte	0x1
 1148 0161 93010000 		.4byte	.LASF22
 1149 0165 01       		.byte	0x1
 1150 0166 4D       		.byte	0x4d
 1151 0167 01       		.byte	0x1
 1152 0168 00000000 		.4byte	.LFB58
 1153 016c 2A000000 		.4byte	.LFE58
 1154 0170 64000000 		.4byte	.LLST2
 1155 0174 01       		.byte	0x1
 1156 0175 87010000 		.4byte	0x187
 1157 0179 0D       		.uleb128 0xd
 1158 017a 757300   		.ascii	"us\000"
 1159 017d 01       		.byte	0x1
 1160 017e 4D       		.byte	0x4d
 1161 017f 73000000 		.4byte	0x73
ARM GAS  C:\Users\Kenichi\AppData\Local\Temp\cc7blFiL.s 			page 26


 1162 0183 02       		.byte	0x2
 1163 0184 91       		.byte	0x91
 1164 0185 74       		.sleb128 -12
 1165 0186 00       		.byte	0
 1166 0187 0E       		.uleb128 0xe
 1167 0188 01       		.byte	0x1
 1168 0189 7C000000 		.4byte	.LASF27
 1169 018d 01       		.byte	0x1
 1170 018e 53       		.byte	0x53
 1171 018f 01       		.byte	0x1
 1172 0190 00000000 		.4byte	.LFB59
 1173 0194 10000000 		.4byte	.LFE59
 1174 0198 9C000000 		.4byte	.LLST3
 1175 019c 01       		.byte	0x1
 1176 019d 0F       		.uleb128 0xf
 1177 019e 01       		.byte	0x1
 1178 019f A6010000 		.4byte	.LASF25
 1179 01a3 01       		.byte	0x1
 1180 01a4 5F       		.byte	0x5f
 1181 01a5 01       		.byte	0x1
 1182 01a6 93000000 		.4byte	0x93
 1183 01aa 00000000 		.4byte	.LFB60
 1184 01ae B4010000 		.4byte	.LFE60
 1185 01b2 C8000000 		.4byte	.LLST4
 1186 01b6 01       		.byte	0x1
 1187 01b7 0A020000 		.4byte	0x20a
 1188 01bb 10       		.uleb128 0x10
 1189 01bc E1000000 		.4byte	.LASF23
 1190 01c0 01       		.byte	0x1
 1191 01c1 60       		.byte	0x60
 1192 01c2 93000000 		.4byte	0x93
 1193 01c6 02       		.byte	0x2
 1194 01c7 91       		.byte	0x91
 1195 01c8 67       		.sleb128 -25
 1196 01c9 0D       		.uleb128 0xd
 1197 01ca 70616B00 		.ascii	"pak\000"
 1198 01ce 01       		.byte	0x1
 1199 01cf 61       		.byte	0x61
 1200 01d0 0A020000 		.4byte	0x20a
 1201 01d4 02       		.byte	0x2
 1202 01d5 91       		.byte	0x91
 1203 01d6 60       		.sleb128 -32
 1204 01d7 11       		.uleb128 0x11
 1205 01d8 72637600 		.ascii	"rcv\000"
 1206 01dc 01       		.byte	0x1
 1207 01dd 63       		.byte	0x63
 1208 01de 93000000 		.4byte	0x93
 1209 01e2 02       		.byte	0x2
 1210 01e3 91       		.byte	0x91
 1211 01e4 6E       		.sleb128 -18
 1212 01e5 11       		.uleb128 0x11
 1213 01e6 6900     		.ascii	"i\000"
 1214 01e8 01       		.byte	0x1
 1215 01e9 64       		.byte	0x64
 1216 01ea 30000000 		.4byte	0x30
 1217 01ee 02       		.byte	0x2
 1218 01ef 91       		.byte	0x91
ARM GAS  C:\Users\Kenichi\AppData\Local\Temp\cc7blFiL.s 			page 27


 1219 01f0 6F       		.sleb128 -17
 1220 01f1 12       		.uleb128 0x12
 1221 01f2 CA000000 		.4byte	.LBB2
 1222 01f6 F2000000 		.4byte	.LBE2
 1223 01fa 13       		.uleb128 0x13
 1224 01fb DC000000 		.4byte	.LASF24
 1225 01ff 01       		.byte	0x1
 1226 0200 85       		.byte	0x85
 1227 0201 93000000 		.4byte	0x93
 1228 0205 02       		.byte	0x2
 1229 0206 91       		.byte	0x91
 1230 0207 6D       		.sleb128 -19
 1231 0208 00       		.byte	0
 1232 0209 00       		.byte	0
 1233 020a 14       		.uleb128 0x14
 1234 020b 04       		.byte	0x4
 1235 020c 17010000 		.4byte	0x117
 1236 0210 15       		.uleb128 0x15
 1237 0211 01       		.byte	0x1
 1238 0212 5E000000 		.4byte	.LASF26
 1239 0216 01       		.byte	0x1
 1240 0217 A1       		.byte	0xa1
 1241 0218 01       		.byte	0x1
 1242 0219 93000000 		.4byte	0x93
 1243 021d 00000000 		.4byte	.LFB61
 1244 0221 5A000000 		.4byte	.LFE61
 1245 0225 00010000 		.4byte	.LLST5
 1246 0229 01       		.byte	0x1
 1247 022a 57020000 		.4byte	0x257
 1248 022e 0D       		.uleb128 0xd
 1249 022f 70616B00 		.ascii	"pak\000"
 1250 0233 01       		.byte	0x1
 1251 0234 A1       		.byte	0xa1
 1252 0235 0A020000 		.4byte	0x20a
 1253 0239 02       		.byte	0x2
 1254 023a 91       		.byte	0x91
 1255 023b 6C       		.sleb128 -20
 1256 023c 11       		.uleb128 0x11
 1257 023d 73756D00 		.ascii	"sum\000"
 1258 0241 01       		.byte	0x1
 1259 0242 A2       		.byte	0xa2
 1260 0243 30000000 		.4byte	0x30
 1261 0247 02       		.byte	0x2
 1262 0248 91       		.byte	0x91
 1263 0249 77       		.sleb128 -9
 1264 024a 11       		.uleb128 0x11
 1265 024b 6900     		.ascii	"i\000"
 1266 024d 01       		.byte	0x1
 1267 024e A3       		.byte	0xa3
 1268 024f 6C000000 		.4byte	0x6c
 1269 0253 02       		.byte	0x2
 1270 0254 91       		.byte	0x91
 1271 0255 70       		.sleb128 -16
 1272 0256 00       		.byte	0
 1273 0257 0E       		.uleb128 0xe
 1274 0258 01       		.byte	0x1
 1275 0259 E2010000 		.4byte	.LASF28
ARM GAS  C:\Users\Kenichi\AppData\Local\Temp\cc7blFiL.s 			page 28


 1276 025d 01       		.byte	0x1
 1277 025e AF       		.byte	0xaf
 1278 025f 01       		.byte	0x1
 1279 0260 00000000 		.4byte	.LFB62
 1280 0264 26000000 		.4byte	.LFE62
 1281 0268 38010000 		.4byte	.LLST6
 1282 026c 01       		.byte	0x1
 1283 026d 0F       		.uleb128 0xf
 1284 026e 01       		.byte	0x1
 1285 026f D2010000 		.4byte	.LASF29
 1286 0273 01       		.byte	0x1
 1287 0274 B6       		.byte	0xb6
 1288 0275 01       		.byte	0x1
 1289 0276 73000000 		.4byte	0x73
 1290 027a 00000000 		.4byte	.LFB63
 1291 027e F0000000 		.4byte	.LFE63
 1292 0282 64010000 		.4byte	.LLST7
 1293 0286 01       		.byte	0x1
 1294 0287 9A020000 		.4byte	0x29a
 1295 028b 0D       		.uleb128 0xd
 1296 028c 72617700 		.ascii	"raw\000"
 1297 0290 01       		.byte	0x1
 1298 0291 B6       		.byte	0xb6
 1299 0292 3E000000 		.4byte	0x3e
 1300 0296 02       		.byte	0x2
 1301 0297 91       		.byte	0x91
 1302 0298 6E       		.sleb128 -18
 1303 0299 00       		.byte	0
 1304 029a 0F       		.uleb128 0xf
 1305 029b 01       		.byte	0x1
 1306 029c A5000000 		.4byte	.LASF30
 1307 02a0 01       		.byte	0x1
 1308 02a1 C0       		.byte	0xc0
 1309 02a2 01       		.byte	0x1
 1310 02a3 6C000000 		.4byte	0x6c
 1311 02a7 00000000 		.4byte	.LFB64
 1312 02ab 58010000 		.4byte	.LFE64
 1313 02af 9C010000 		.4byte	.LLST8
 1314 02b3 01       		.byte	0x1
 1315 02b4 E2020000 		.4byte	0x2e2
 1316 02b8 13       		.uleb128 0x13
 1317 02b9 10000000 		.4byte	.LASF31
 1318 02bd 01       		.byte	0x1
 1319 02be C1       		.byte	0xc1
 1320 02bf 6C000000 		.4byte	0x6c
 1321 02c3 02       		.byte	0x2
 1322 02c4 91       		.byte	0x91
 1323 02c5 74       		.sleb128 -12
 1324 02c6 13       		.uleb128 0x13
 1325 02c7 F7010000 		.4byte	.LASF32
 1326 02cb 01       		.byte	0x1
 1327 02cc C1       		.byte	0xc1
 1328 02cd 6C000000 		.4byte	0x6c
 1329 02d1 02       		.byte	0x2
 1330 02d2 91       		.byte	0x91
 1331 02d3 70       		.sleb128 -16
 1332 02d4 11       		.uleb128 0x11
ARM GAS  C:\Users\Kenichi\AppData\Local\Temp\cc7blFiL.s 			page 29


 1333 02d5 737700   		.ascii	"sw\000"
 1334 02d8 01       		.byte	0x1
 1335 02d9 C2       		.byte	0xc2
 1336 02da 6C000000 		.4byte	0x6c
 1337 02de 02       		.byte	0x2
 1338 02df 91       		.byte	0x91
 1339 02e0 6C       		.sleb128 -20
 1340 02e1 00       		.byte	0
 1341 02e2 0E       		.uleb128 0xe
 1342 02e3 01       		.byte	0x1
 1343 02e4 FF000000 		.4byte	.LASF33
 1344 02e8 01       		.byte	0x1
 1345 02e9 F8       		.byte	0xf8
 1346 02ea 01       		.byte	0x1
 1347 02eb 00000000 		.4byte	.LFB65
 1348 02ef 28000000 		.4byte	.LFE65
 1349 02f3 D4010000 		.4byte	.LLST9
 1350 02f7 01       		.byte	0x1
 1351 02f8 16       		.uleb128 0x16
 1352 02f9 E6000000 		.4byte	.LASF34
 1353 02fd 04       		.byte	0x4
 1354 02fe 1606     		.2byte	0x616
 1355 0300 06030000 		.4byte	0x306
 1356 0304 01       		.byte	0x1
 1357 0305 01       		.byte	0x1
 1358 0306 17       		.uleb128 0x17
 1359 0307 45000000 		.4byte	0x45
 1360 030b 18       		.uleb128 0x18
 1361 030c 1C010000 		.4byte	.LASF35
 1362 0310 01       		.byte	0x1
 1363 0311 2D       		.byte	0x2d
 1364 0312 73000000 		.4byte	0x73
 1365 0316 01       		.byte	0x1
 1366 0317 05       		.byte	0x5
 1367 0318 03       		.byte	0x3
 1368 0319 00000000 		.4byte	aileronL
 1369 031d 18       		.uleb128 0x18
 1370 031e 72010000 		.4byte	.LASF36
 1371 0322 01       		.byte	0x1
 1372 0323 2D       		.byte	0x2d
 1373 0324 73000000 		.4byte	0x73
 1374 0328 01       		.byte	0x1
 1375 0329 05       		.byte	0x5
 1376 032a 03       		.byte	0x3
 1377 032b 00000000 		.4byte	aileronL_buffer
 1378 032f 18       		.uleb128 0x18
 1379 0330 00000000 		.4byte	.LASF37
 1380 0334 01       		.byte	0x1
 1381 0335 2D       		.byte	0x2d
 1382 0336 73000000 		.4byte	0x73
 1383 033a 01       		.byte	0x1
 1384 033b 05       		.byte	0x5
 1385 033c 03       		.byte	0x3
 1386 033d 00000000 		.4byte	aileronL_before
 1387 0341 19       		.uleb128 0x19
 1388 0342 70616B00 		.ascii	"pak\000"
 1389 0346 01       		.byte	0x1
ARM GAS  C:\Users\Kenichi\AppData\Local\Temp\cc7blFiL.s 			page 30


 1390 0347 2E       		.byte	0x2e
 1391 0348 17010000 		.4byte	0x117
 1392 034c 01       		.byte	0x1
 1393 034d 05       		.byte	0x5
 1394 034e 03       		.byte	0x3
 1395 034f 00000000 		.4byte	pak
 1396 0353 00       		.byte	0
 1397              		.section	.debug_abbrev,"",%progbits
 1398              	.Ldebug_abbrev0:
 1399 0000 01       		.uleb128 0x1
 1400 0001 11       		.uleb128 0x11
 1401 0002 01       		.byte	0x1
 1402 0003 25       		.uleb128 0x25
 1403 0004 0E       		.uleb128 0xe
 1404 0005 13       		.uleb128 0x13
 1405 0006 0B       		.uleb128 0xb
 1406 0007 03       		.uleb128 0x3
 1407 0008 0E       		.uleb128 0xe
 1408 0009 1B       		.uleb128 0x1b
 1409 000a 0E       		.uleb128 0xe
 1410 000b 55       		.uleb128 0x55
 1411 000c 06       		.uleb128 0x6
 1412 000d 11       		.uleb128 0x11
 1413 000e 01       		.uleb128 0x1
 1414 000f 52       		.uleb128 0x52
 1415 0010 01       		.uleb128 0x1
 1416 0011 10       		.uleb128 0x10
 1417 0012 06       		.uleb128 0x6
 1418 0013 00       		.byte	0
 1419 0014 00       		.byte	0
 1420 0015 02       		.uleb128 0x2
 1421 0016 24       		.uleb128 0x24
 1422 0017 00       		.byte	0
 1423 0018 0B       		.uleb128 0xb
 1424 0019 0B       		.uleb128 0xb
 1425 001a 3E       		.uleb128 0x3e
 1426 001b 0B       		.uleb128 0xb
 1427 001c 03       		.uleb128 0x3
 1428 001d 0E       		.uleb128 0xe
 1429 001e 00       		.byte	0
 1430 001f 00       		.byte	0
 1431 0020 03       		.uleb128 0x3
 1432 0021 16       		.uleb128 0x16
 1433 0022 00       		.byte	0
 1434 0023 03       		.uleb128 0x3
 1435 0024 0E       		.uleb128 0xe
 1436 0025 3A       		.uleb128 0x3a
 1437 0026 0B       		.uleb128 0xb
 1438 0027 3B       		.uleb128 0x3b
 1439 0028 0B       		.uleb128 0xb
 1440 0029 49       		.uleb128 0x49
 1441 002a 13       		.uleb128 0x13
 1442 002b 00       		.byte	0
 1443 002c 00       		.byte	0
 1444 002d 04       		.uleb128 0x4
 1445 002e 24       		.uleb128 0x24
 1446 002f 00       		.byte	0
ARM GAS  C:\Users\Kenichi\AppData\Local\Temp\cc7blFiL.s 			page 31


 1447 0030 0B       		.uleb128 0xb
 1448 0031 0B       		.uleb128 0xb
 1449 0032 3E       		.uleb128 0x3e
 1450 0033 0B       		.uleb128 0xb
 1451 0034 03       		.uleb128 0x3
 1452 0035 08       		.uleb128 0x8
 1453 0036 00       		.byte	0
 1454 0037 00       		.byte	0
 1455 0038 05       		.uleb128 0x5
 1456 0039 13       		.uleb128 0x13
 1457 003a 01       		.byte	0x1
 1458 003b 0B       		.uleb128 0xb
 1459 003c 0B       		.uleb128 0xb
 1460 003d 3A       		.uleb128 0x3a
 1461 003e 0B       		.uleb128 0xb
 1462 003f 3B       		.uleb128 0x3b
 1463 0040 0B       		.uleb128 0xb
 1464 0041 01       		.uleb128 0x1
 1465 0042 13       		.uleb128 0x13
 1466 0043 00       		.byte	0
 1467 0044 00       		.byte	0
 1468 0045 06       		.uleb128 0x6
 1469 0046 0D       		.uleb128 0xd
 1470 0047 00       		.byte	0
 1471 0048 03       		.uleb128 0x3
 1472 0049 0E       		.uleb128 0xe
 1473 004a 3A       		.uleb128 0x3a
 1474 004b 0B       		.uleb128 0xb
 1475 004c 3B       		.uleb128 0x3b
 1476 004d 0B       		.uleb128 0xb
 1477 004e 49       		.uleb128 0x49
 1478 004f 13       		.uleb128 0x13
 1479 0050 38       		.uleb128 0x38
 1480 0051 0A       		.uleb128 0xa
 1481 0052 00       		.byte	0
 1482 0053 00       		.byte	0
 1483 0054 07       		.uleb128 0x7
 1484 0055 01       		.uleb128 0x1
 1485 0056 01       		.byte	0x1
 1486 0057 49       		.uleb128 0x49
 1487 0058 13       		.uleb128 0x13
 1488 0059 01       		.uleb128 0x1
 1489 005a 13       		.uleb128 0x13
 1490 005b 00       		.byte	0
 1491 005c 00       		.byte	0
 1492 005d 08       		.uleb128 0x8
 1493 005e 21       		.uleb128 0x21
 1494 005f 00       		.byte	0
 1495 0060 49       		.uleb128 0x49
 1496 0061 13       		.uleb128 0x13
 1497 0062 2F       		.uleb128 0x2f
 1498 0063 0B       		.uleb128 0xb
 1499 0064 00       		.byte	0
 1500 0065 00       		.byte	0
 1501 0066 09       		.uleb128 0x9
 1502 0067 17       		.uleb128 0x17
 1503 0068 01       		.byte	0x1
ARM GAS  C:\Users\Kenichi\AppData\Local\Temp\cc7blFiL.s 			page 32


 1504 0069 03       		.uleb128 0x3
 1505 006a 0E       		.uleb128 0xe
 1506 006b 0B       		.uleb128 0xb
 1507 006c 0B       		.uleb128 0xb
 1508 006d 3A       		.uleb128 0x3a
 1509 006e 0B       		.uleb128 0xb
 1510 006f 3B       		.uleb128 0x3b
 1511 0070 0B       		.uleb128 0xb
 1512 0071 01       		.uleb128 0x1
 1513 0072 13       		.uleb128 0x13
 1514 0073 00       		.byte	0
 1515 0074 00       		.byte	0
 1516 0075 0A       		.uleb128 0xa
 1517 0076 0D       		.uleb128 0xd
 1518 0077 00       		.byte	0
 1519 0078 03       		.uleb128 0x3
 1520 0079 0E       		.uleb128 0xe
 1521 007a 3A       		.uleb128 0x3a
 1522 007b 0B       		.uleb128 0xb
 1523 007c 3B       		.uleb128 0x3b
 1524 007d 0B       		.uleb128 0xb
 1525 007e 49       		.uleb128 0x49
 1526 007f 13       		.uleb128 0x13
 1527 0080 00       		.byte	0
 1528 0081 00       		.byte	0
 1529 0082 0B       		.uleb128 0xb
 1530 0083 2E       		.uleb128 0x2e
 1531 0084 00       		.byte	0
 1532 0085 3F       		.uleb128 0x3f
 1533 0086 0C       		.uleb128 0xc
 1534 0087 03       		.uleb128 0x3
 1535 0088 0E       		.uleb128 0xe
 1536 0089 3A       		.uleb128 0x3a
 1537 008a 0B       		.uleb128 0xb
 1538 008b 3B       		.uleb128 0x3b
 1539 008c 0B       		.uleb128 0xb
 1540 008d 11       		.uleb128 0x11
 1541 008e 01       		.uleb128 0x1
 1542 008f 12       		.uleb128 0x12
 1543 0090 01       		.uleb128 0x1
 1544 0091 40       		.uleb128 0x40
 1545 0092 06       		.uleb128 0x6
 1546 0093 9642     		.uleb128 0x2116
 1547 0095 0C       		.uleb128 0xc
 1548 0096 00       		.byte	0
 1549 0097 00       		.byte	0
 1550 0098 0C       		.uleb128 0xc
 1551 0099 2E       		.uleb128 0x2e
 1552 009a 01       		.byte	0x1
 1553 009b 3F       		.uleb128 0x3f
 1554 009c 0C       		.uleb128 0xc
 1555 009d 03       		.uleb128 0x3
 1556 009e 0E       		.uleb128 0xe
 1557 009f 3A       		.uleb128 0x3a
 1558 00a0 0B       		.uleb128 0xb
 1559 00a1 3B       		.uleb128 0x3b
 1560 00a2 0B       		.uleb128 0xb
ARM GAS  C:\Users\Kenichi\AppData\Local\Temp\cc7blFiL.s 			page 33


 1561 00a3 27       		.uleb128 0x27
 1562 00a4 0C       		.uleb128 0xc
 1563 00a5 11       		.uleb128 0x11
 1564 00a6 01       		.uleb128 0x1
 1565 00a7 12       		.uleb128 0x12
 1566 00a8 01       		.uleb128 0x1
 1567 00a9 40       		.uleb128 0x40
 1568 00aa 06       		.uleb128 0x6
 1569 00ab 9642     		.uleb128 0x2116
 1570 00ad 0C       		.uleb128 0xc
 1571 00ae 01       		.uleb128 0x1
 1572 00af 13       		.uleb128 0x13
 1573 00b0 00       		.byte	0
 1574 00b1 00       		.byte	0
 1575 00b2 0D       		.uleb128 0xd
 1576 00b3 05       		.uleb128 0x5
 1577 00b4 00       		.byte	0
 1578 00b5 03       		.uleb128 0x3
 1579 00b6 08       		.uleb128 0x8
 1580 00b7 3A       		.uleb128 0x3a
 1581 00b8 0B       		.uleb128 0xb
 1582 00b9 3B       		.uleb128 0x3b
 1583 00ba 0B       		.uleb128 0xb
 1584 00bb 49       		.uleb128 0x49
 1585 00bc 13       		.uleb128 0x13
 1586 00bd 02       		.uleb128 0x2
 1587 00be 0A       		.uleb128 0xa
 1588 00bf 00       		.byte	0
 1589 00c0 00       		.byte	0
 1590 00c1 0E       		.uleb128 0xe
 1591 00c2 2E       		.uleb128 0x2e
 1592 00c3 00       		.byte	0
 1593 00c4 3F       		.uleb128 0x3f
 1594 00c5 0C       		.uleb128 0xc
 1595 00c6 03       		.uleb128 0x3
 1596 00c7 0E       		.uleb128 0xe
 1597 00c8 3A       		.uleb128 0x3a
 1598 00c9 0B       		.uleb128 0xb
 1599 00ca 3B       		.uleb128 0x3b
 1600 00cb 0B       		.uleb128 0xb
 1601 00cc 27       		.uleb128 0x27
 1602 00cd 0C       		.uleb128 0xc
 1603 00ce 11       		.uleb128 0x11
 1604 00cf 01       		.uleb128 0x1
 1605 00d0 12       		.uleb128 0x12
 1606 00d1 01       		.uleb128 0x1
 1607 00d2 40       		.uleb128 0x40
 1608 00d3 06       		.uleb128 0x6
 1609 00d4 9642     		.uleb128 0x2116
 1610 00d6 0C       		.uleb128 0xc
 1611 00d7 00       		.byte	0
 1612 00d8 00       		.byte	0
 1613 00d9 0F       		.uleb128 0xf
 1614 00da 2E       		.uleb128 0x2e
 1615 00db 01       		.byte	0x1
 1616 00dc 3F       		.uleb128 0x3f
 1617 00dd 0C       		.uleb128 0xc
ARM GAS  C:\Users\Kenichi\AppData\Local\Temp\cc7blFiL.s 			page 34


 1618 00de 03       		.uleb128 0x3
 1619 00df 0E       		.uleb128 0xe
 1620 00e0 3A       		.uleb128 0x3a
 1621 00e1 0B       		.uleb128 0xb
 1622 00e2 3B       		.uleb128 0x3b
 1623 00e3 0B       		.uleb128 0xb
 1624 00e4 27       		.uleb128 0x27
 1625 00e5 0C       		.uleb128 0xc
 1626 00e6 49       		.uleb128 0x49
 1627 00e7 13       		.uleb128 0x13
 1628 00e8 11       		.uleb128 0x11
 1629 00e9 01       		.uleb128 0x1
 1630 00ea 12       		.uleb128 0x12
 1631 00eb 01       		.uleb128 0x1
 1632 00ec 40       		.uleb128 0x40
 1633 00ed 06       		.uleb128 0x6
 1634 00ee 9642     		.uleb128 0x2116
 1635 00f0 0C       		.uleb128 0xc
 1636 00f1 01       		.uleb128 0x1
 1637 00f2 13       		.uleb128 0x13
 1638 00f3 00       		.byte	0
 1639 00f4 00       		.byte	0
 1640 00f5 10       		.uleb128 0x10
 1641 00f6 05       		.uleb128 0x5
 1642 00f7 00       		.byte	0
 1643 00f8 03       		.uleb128 0x3
 1644 00f9 0E       		.uleb128 0xe
 1645 00fa 3A       		.uleb128 0x3a
 1646 00fb 0B       		.uleb128 0xb
 1647 00fc 3B       		.uleb128 0x3b
 1648 00fd 0B       		.uleb128 0xb
 1649 00fe 49       		.uleb128 0x49
 1650 00ff 13       		.uleb128 0x13
 1651 0100 02       		.uleb128 0x2
 1652 0101 0A       		.uleb128 0xa
 1653 0102 00       		.byte	0
 1654 0103 00       		.byte	0
 1655 0104 11       		.uleb128 0x11
 1656 0105 34       		.uleb128 0x34
 1657 0106 00       		.byte	0
 1658 0107 03       		.uleb128 0x3
 1659 0108 08       		.uleb128 0x8
 1660 0109 3A       		.uleb128 0x3a
 1661 010a 0B       		.uleb128 0xb
 1662 010b 3B       		.uleb128 0x3b
 1663 010c 0B       		.uleb128 0xb
 1664 010d 49       		.uleb128 0x49
 1665 010e 13       		.uleb128 0x13
 1666 010f 02       		.uleb128 0x2
 1667 0110 0A       		.uleb128 0xa
 1668 0111 00       		.byte	0
 1669 0112 00       		.byte	0
 1670 0113 12       		.uleb128 0x12
 1671 0114 0B       		.uleb128 0xb
 1672 0115 01       		.byte	0x1
 1673 0116 11       		.uleb128 0x11
 1674 0117 01       		.uleb128 0x1
ARM GAS  C:\Users\Kenichi\AppData\Local\Temp\cc7blFiL.s 			page 35


 1675 0118 12       		.uleb128 0x12
 1676 0119 01       		.uleb128 0x1
 1677 011a 00       		.byte	0
 1678 011b 00       		.byte	0
 1679 011c 13       		.uleb128 0x13
 1680 011d 34       		.uleb128 0x34
 1681 011e 00       		.byte	0
 1682 011f 03       		.uleb128 0x3
 1683 0120 0E       		.uleb128 0xe
 1684 0121 3A       		.uleb128 0x3a
 1685 0122 0B       		.uleb128 0xb
 1686 0123 3B       		.uleb128 0x3b
 1687 0124 0B       		.uleb128 0xb
 1688 0125 49       		.uleb128 0x49
 1689 0126 13       		.uleb128 0x13
 1690 0127 02       		.uleb128 0x2
 1691 0128 0A       		.uleb128 0xa
 1692 0129 00       		.byte	0
 1693 012a 00       		.byte	0
 1694 012b 14       		.uleb128 0x14
 1695 012c 0F       		.uleb128 0xf
 1696 012d 00       		.byte	0
 1697 012e 0B       		.uleb128 0xb
 1698 012f 0B       		.uleb128 0xb
 1699 0130 49       		.uleb128 0x49
 1700 0131 13       		.uleb128 0x13
 1701 0132 00       		.byte	0
 1702 0133 00       		.byte	0
 1703 0134 15       		.uleb128 0x15
 1704 0135 2E       		.uleb128 0x2e
 1705 0136 01       		.byte	0x1
 1706 0137 3F       		.uleb128 0x3f
 1707 0138 0C       		.uleb128 0xc
 1708 0139 03       		.uleb128 0x3
 1709 013a 0E       		.uleb128 0xe
 1710 013b 3A       		.uleb128 0x3a
 1711 013c 0B       		.uleb128 0xb
 1712 013d 3B       		.uleb128 0x3b
 1713 013e 0B       		.uleb128 0xb
 1714 013f 27       		.uleb128 0x27
 1715 0140 0C       		.uleb128 0xc
 1716 0141 49       		.uleb128 0x49
 1717 0142 13       		.uleb128 0x13
 1718 0143 11       		.uleb128 0x11
 1719 0144 01       		.uleb128 0x1
 1720 0145 12       		.uleb128 0x12
 1721 0146 01       		.uleb128 0x1
 1722 0147 40       		.uleb128 0x40
 1723 0148 06       		.uleb128 0x6
 1724 0149 9742     		.uleb128 0x2117
 1725 014b 0C       		.uleb128 0xc
 1726 014c 01       		.uleb128 0x1
 1727 014d 13       		.uleb128 0x13
 1728 014e 00       		.byte	0
 1729 014f 00       		.byte	0
 1730 0150 16       		.uleb128 0x16
 1731 0151 34       		.uleb128 0x34
ARM GAS  C:\Users\Kenichi\AppData\Local\Temp\cc7blFiL.s 			page 36


 1732 0152 00       		.byte	0
 1733 0153 03       		.uleb128 0x3
 1734 0154 0E       		.uleb128 0xe
 1735 0155 3A       		.uleb128 0x3a
 1736 0156 0B       		.uleb128 0xb
 1737 0157 3B       		.uleb128 0x3b
 1738 0158 05       		.uleb128 0x5
 1739 0159 49       		.uleb128 0x49
 1740 015a 13       		.uleb128 0x13
 1741 015b 3F       		.uleb128 0x3f
 1742 015c 0C       		.uleb128 0xc
 1743 015d 3C       		.uleb128 0x3c
 1744 015e 0C       		.uleb128 0xc
 1745 015f 00       		.byte	0
 1746 0160 00       		.byte	0
 1747 0161 17       		.uleb128 0x17
 1748 0162 35       		.uleb128 0x35
 1749 0163 00       		.byte	0
 1750 0164 49       		.uleb128 0x49
 1751 0165 13       		.uleb128 0x13
 1752 0166 00       		.byte	0
 1753 0167 00       		.byte	0
 1754 0168 18       		.uleb128 0x18
 1755 0169 34       		.uleb128 0x34
 1756 016a 00       		.byte	0
 1757 016b 03       		.uleb128 0x3
 1758 016c 0E       		.uleb128 0xe
 1759 016d 3A       		.uleb128 0x3a
 1760 016e 0B       		.uleb128 0xb
 1761 016f 3B       		.uleb128 0x3b
 1762 0170 0B       		.uleb128 0xb
 1763 0171 49       		.uleb128 0x49
 1764 0172 13       		.uleb128 0x13
 1765 0173 3F       		.uleb128 0x3f
 1766 0174 0C       		.uleb128 0xc
 1767 0175 02       		.uleb128 0x2
 1768 0176 0A       		.uleb128 0xa
 1769 0177 00       		.byte	0
 1770 0178 00       		.byte	0
 1771 0179 19       		.uleb128 0x19
 1772 017a 34       		.uleb128 0x34
 1773 017b 00       		.byte	0
 1774 017c 03       		.uleb128 0x3
 1775 017d 08       		.uleb128 0x8
 1776 017e 3A       		.uleb128 0x3a
 1777 017f 0B       		.uleb128 0xb
 1778 0180 3B       		.uleb128 0x3b
 1779 0181 0B       		.uleb128 0xb
 1780 0182 49       		.uleb128 0x49
 1781 0183 13       		.uleb128 0x13
 1782 0184 3F       		.uleb128 0x3f
 1783 0185 0C       		.uleb128 0xc
 1784 0186 02       		.uleb128 0x2
 1785 0187 0A       		.uleb128 0xa
 1786 0188 00       		.byte	0
 1787 0189 00       		.byte	0
 1788 018a 00       		.byte	0
ARM GAS  C:\Users\Kenichi\AppData\Local\Temp\cc7blFiL.s 			page 37


 1789              		.section	.debug_loc,"",%progbits
 1790              	.Ldebug_loc0:
 1791              	.LLST0:
 1792 0000 00000000 		.4byte	.LFB56
 1793 0004 02000000 		.4byte	.LCFI0
 1794 0008 0200     		.2byte	0x2
 1795 000a 7D       		.byte	0x7d
 1796 000b 00       		.sleb128 0
 1797 000c 02000000 		.4byte	.LCFI0
 1798 0010 04000000 		.4byte	.LCFI1
 1799 0014 0200     		.2byte	0x2
 1800 0016 7D       		.byte	0x7d
 1801 0017 08       		.sleb128 8
 1802 0018 04000000 		.4byte	.LCFI1
 1803 001c 92000000 		.4byte	.LFE56
 1804 0020 0200     		.2byte	0x2
 1805 0022 77       		.byte	0x77
 1806 0023 08       		.sleb128 8
 1807 0024 00000000 		.4byte	0
 1808 0028 00000000 		.4byte	0
 1809              	.LLST1:
 1810 002c 00000000 		.4byte	.LFB57
 1811 0030 02000000 		.4byte	.LCFI2
 1812 0034 0200     		.2byte	0x2
 1813 0036 7D       		.byte	0x7d
 1814 0037 00       		.sleb128 0
 1815 0038 02000000 		.4byte	.LCFI2
 1816 003c 04000000 		.4byte	.LCFI3
 1817 0040 0200     		.2byte	0x2
 1818 0042 7D       		.byte	0x7d
 1819 0043 08       		.sleb128 8
 1820 0044 04000000 		.4byte	.LCFI3
 1821 0048 06000000 		.4byte	.LCFI4
 1822 004c 0200     		.2byte	0x2
 1823 004e 7D       		.byte	0x7d
 1824 004f 10       		.sleb128 16
 1825 0050 06000000 		.4byte	.LCFI4
 1826 0054 1C000000 		.4byte	.LFE57
 1827 0058 0200     		.2byte	0x2
 1828 005a 77       		.byte	0x77
 1829 005b 10       		.sleb128 16
 1830 005c 00000000 		.4byte	0
 1831 0060 00000000 		.4byte	0
 1832              	.LLST2:
 1833 0064 00000000 		.4byte	.LFB58
 1834 0068 02000000 		.4byte	.LCFI5
 1835 006c 0200     		.2byte	0x2
 1836 006e 7D       		.byte	0x7d
 1837 006f 00       		.sleb128 0
 1838 0070 02000000 		.4byte	.LCFI5
 1839 0074 04000000 		.4byte	.LCFI6
 1840 0078 0200     		.2byte	0x2
 1841 007a 7D       		.byte	0x7d
 1842 007b 08       		.sleb128 8
 1843 007c 04000000 		.4byte	.LCFI6
 1844 0080 06000000 		.4byte	.LCFI7
 1845 0084 0200     		.2byte	0x2
ARM GAS  C:\Users\Kenichi\AppData\Local\Temp\cc7blFiL.s 			page 38


 1846 0086 7D       		.byte	0x7d
 1847 0087 10       		.sleb128 16
 1848 0088 06000000 		.4byte	.LCFI7
 1849 008c 2A000000 		.4byte	.LFE58
 1850 0090 0200     		.2byte	0x2
 1851 0092 77       		.byte	0x77
 1852 0093 10       		.sleb128 16
 1853 0094 00000000 		.4byte	0
 1854 0098 00000000 		.4byte	0
 1855              	.LLST3:
 1856 009c 00000000 		.4byte	.LFB59
 1857 00a0 02000000 		.4byte	.LCFI8
 1858 00a4 0200     		.2byte	0x2
 1859 00a6 7D       		.byte	0x7d
 1860 00a7 00       		.sleb128 0
 1861 00a8 02000000 		.4byte	.LCFI8
 1862 00ac 04000000 		.4byte	.LCFI9
 1863 00b0 0200     		.2byte	0x2
 1864 00b2 7D       		.byte	0x7d
 1865 00b3 08       		.sleb128 8
 1866 00b4 04000000 		.4byte	.LCFI9
 1867 00b8 10000000 		.4byte	.LFE59
 1868 00bc 0200     		.2byte	0x2
 1869 00be 77       		.byte	0x77
 1870 00bf 08       		.sleb128 8
 1871 00c0 00000000 		.4byte	0
 1872 00c4 00000000 		.4byte	0
 1873              	.LLST4:
 1874 00c8 00000000 		.4byte	.LFB60
 1875 00cc 02000000 		.4byte	.LCFI10
 1876 00d0 0200     		.2byte	0x2
 1877 00d2 7D       		.byte	0x7d
 1878 00d3 00       		.sleb128 0
 1879 00d4 02000000 		.4byte	.LCFI10
 1880 00d8 04000000 		.4byte	.LCFI11
 1881 00dc 0200     		.2byte	0x2
 1882 00de 7D       		.byte	0x7d
 1883 00df 0C       		.sleb128 12
 1884 00e0 04000000 		.4byte	.LCFI11
 1885 00e4 06000000 		.4byte	.LCFI12
 1886 00e8 0200     		.2byte	0x2
 1887 00ea 7D       		.byte	0x7d
 1888 00eb 20       		.sleb128 32
 1889 00ec 06000000 		.4byte	.LCFI12
 1890 00f0 B4010000 		.4byte	.LFE60
 1891 00f4 0200     		.2byte	0x2
 1892 00f6 77       		.byte	0x77
 1893 00f7 20       		.sleb128 32
 1894 00f8 00000000 		.4byte	0
 1895 00fc 00000000 		.4byte	0
 1896              	.LLST5:
 1897 0100 00000000 		.4byte	.LFB61
 1898 0104 02000000 		.4byte	.LCFI13
 1899 0108 0200     		.2byte	0x2
 1900 010a 7D       		.byte	0x7d
 1901 010b 00       		.sleb128 0
 1902 010c 02000000 		.4byte	.LCFI13
ARM GAS  C:\Users\Kenichi\AppData\Local\Temp\cc7blFiL.s 			page 39


 1903 0110 04000000 		.4byte	.LCFI14
 1904 0114 0200     		.2byte	0x2
 1905 0116 7D       		.byte	0x7d
 1906 0117 04       		.sleb128 4
 1907 0118 04000000 		.4byte	.LCFI14
 1908 011c 06000000 		.4byte	.LCFI15
 1909 0120 0200     		.2byte	0x2
 1910 0122 7D       		.byte	0x7d
 1911 0123 18       		.sleb128 24
 1912 0124 06000000 		.4byte	.LCFI15
 1913 0128 5A000000 		.4byte	.LFE61
 1914 012c 0200     		.2byte	0x2
 1915 012e 77       		.byte	0x77
 1916 012f 18       		.sleb128 24
 1917 0130 00000000 		.4byte	0
 1918 0134 00000000 		.4byte	0
 1919              	.LLST6:
 1920 0138 00000000 		.4byte	.LFB62
 1921 013c 02000000 		.4byte	.LCFI16
 1922 0140 0200     		.2byte	0x2
 1923 0142 7D       		.byte	0x7d
 1924 0143 00       		.sleb128 0
 1925 0144 02000000 		.4byte	.LCFI16
 1926 0148 04000000 		.4byte	.LCFI17
 1927 014c 0200     		.2byte	0x2
 1928 014e 7D       		.byte	0x7d
 1929 014f 08       		.sleb128 8
 1930 0150 04000000 		.4byte	.LCFI17
 1931 0154 26000000 		.4byte	.LFE62
 1932 0158 0200     		.2byte	0x2
 1933 015a 77       		.byte	0x77
 1934 015b 08       		.sleb128 8
 1935 015c 00000000 		.4byte	0
 1936 0160 00000000 		.4byte	0
 1937              	.LLST7:
 1938 0164 00000000 		.4byte	.LFB63
 1939 0168 02000000 		.4byte	.LCFI18
 1940 016c 0200     		.2byte	0x2
 1941 016e 7D       		.byte	0x7d
 1942 016f 00       		.sleb128 0
 1943 0170 02000000 		.4byte	.LCFI18
 1944 0174 04000000 		.4byte	.LCFI19
 1945 0178 0200     		.2byte	0x2
 1946 017a 7D       		.byte	0x7d
 1947 017b 10       		.sleb128 16
 1948 017c 04000000 		.4byte	.LCFI19
 1949 0180 06000000 		.4byte	.LCFI20
 1950 0184 0200     		.2byte	0x2
 1951 0186 7D       		.byte	0x7d
 1952 0187 18       		.sleb128 24
 1953 0188 06000000 		.4byte	.LCFI20
 1954 018c F0000000 		.4byte	.LFE63
 1955 0190 0200     		.2byte	0x2
 1956 0192 77       		.byte	0x77
 1957 0193 18       		.sleb128 24
 1958 0194 00000000 		.4byte	0
 1959 0198 00000000 		.4byte	0
ARM GAS  C:\Users\Kenichi\AppData\Local\Temp\cc7blFiL.s 			page 40


 1960              	.LLST8:
 1961 019c 00000000 		.4byte	.LFB64
 1962 01a0 02000000 		.4byte	.LCFI21
 1963 01a4 0200     		.2byte	0x2
 1964 01a6 7D       		.byte	0x7d
 1965 01a7 00       		.sleb128 0
 1966 01a8 02000000 		.4byte	.LCFI21
 1967 01ac 04000000 		.4byte	.LCFI22
 1968 01b0 0200     		.2byte	0x2
 1969 01b2 7D       		.byte	0x7d
 1970 01b3 08       		.sleb128 8
 1971 01b4 04000000 		.4byte	.LCFI22
 1972 01b8 06000000 		.4byte	.LCFI23
 1973 01bc 0200     		.2byte	0x2
 1974 01be 7D       		.byte	0x7d
 1975 01bf 18       		.sleb128 24
 1976 01c0 06000000 		.4byte	.LCFI23
 1977 01c4 58010000 		.4byte	.LFE64
 1978 01c8 0200     		.2byte	0x2
 1979 01ca 77       		.byte	0x77
 1980 01cb 18       		.sleb128 24
 1981 01cc 00000000 		.4byte	0
 1982 01d0 00000000 		.4byte	0
 1983              	.LLST9:
 1984 01d4 00000000 		.4byte	.LFB65
 1985 01d8 02000000 		.4byte	.LCFI24
 1986 01dc 0200     		.2byte	0x2
 1987 01de 7D       		.byte	0x7d
 1988 01df 00       		.sleb128 0
 1989 01e0 02000000 		.4byte	.LCFI24
 1990 01e4 04000000 		.4byte	.LCFI25
 1991 01e8 0200     		.2byte	0x2
 1992 01ea 7D       		.byte	0x7d
 1993 01eb 08       		.sleb128 8
 1994 01ec 04000000 		.4byte	.LCFI25
 1995 01f0 28000000 		.4byte	.LFE65
 1996 01f4 0200     		.2byte	0x2
 1997 01f6 77       		.byte	0x77
 1998 01f7 08       		.sleb128 8
 1999 01f8 00000000 		.4byte	0
 2000 01fc 00000000 		.4byte	0
 2001              		.section	.debug_aranges,"",%progbits
 2002 0000 64000000 		.4byte	0x64
 2003 0004 0200     		.2byte	0x2
 2004 0006 00000000 		.4byte	.Ldebug_info0
 2005 000a 04       		.byte	0x4
 2006 000b 00       		.byte	0
 2007 000c 0000     		.2byte	0
 2008 000e 0000     		.2byte	0
 2009 0010 00000000 		.4byte	.LFB56
 2010 0014 92000000 		.4byte	.LFE56-.LFB56
 2011 0018 00000000 		.4byte	.LFB57
 2012 001c 1C000000 		.4byte	.LFE57-.LFB57
 2013 0020 00000000 		.4byte	.LFB58
 2014 0024 2A000000 		.4byte	.LFE58-.LFB58
 2015 0028 00000000 		.4byte	.LFB59
 2016 002c 10000000 		.4byte	.LFE59-.LFB59
ARM GAS  C:\Users\Kenichi\AppData\Local\Temp\cc7blFiL.s 			page 41


 2017 0030 00000000 		.4byte	.LFB60
 2018 0034 B4010000 		.4byte	.LFE60-.LFB60
 2019 0038 00000000 		.4byte	.LFB61
 2020 003c 5A000000 		.4byte	.LFE61-.LFB61
 2021 0040 00000000 		.4byte	.LFB62
 2022 0044 26000000 		.4byte	.LFE62-.LFB62
 2023 0048 00000000 		.4byte	.LFB63
 2024 004c F0000000 		.4byte	.LFE63-.LFB63
 2025 0050 00000000 		.4byte	.LFB64
 2026 0054 58010000 		.4byte	.LFE64-.LFB64
 2027 0058 00000000 		.4byte	.LFB65
 2028 005c 28000000 		.4byte	.LFE65-.LFB65
 2029 0060 00000000 		.4byte	0
 2030 0064 00000000 		.4byte	0
 2031              		.section	.debug_ranges,"",%progbits
 2032              	.Ldebug_ranges0:
 2033 0000 00000000 		.4byte	.LFB56
 2034 0004 92000000 		.4byte	.LFE56
 2035 0008 00000000 		.4byte	.LFB57
 2036 000c 1C000000 		.4byte	.LFE57
 2037 0010 00000000 		.4byte	.LFB58
 2038 0014 2A000000 		.4byte	.LFE58
 2039 0018 00000000 		.4byte	.LFB59
 2040 001c 10000000 		.4byte	.LFE59
 2041 0020 00000000 		.4byte	.LFB60
 2042 0024 B4010000 		.4byte	.LFE60
 2043 0028 00000000 		.4byte	.LFB61
 2044 002c 5A000000 		.4byte	.LFE61
 2045 0030 00000000 		.4byte	.LFB62
 2046 0034 26000000 		.4byte	.LFE62
 2047 0038 00000000 		.4byte	.LFB63
 2048 003c F0000000 		.4byte	.LFE63
 2049 0040 00000000 		.4byte	.LFB64
 2050 0044 58010000 		.4byte	.LFE64
 2051 0048 00000000 		.4byte	.LFB65
 2052 004c 28000000 		.4byte	.LFE65
 2053 0050 00000000 		.4byte	0
 2054 0054 00000000 		.4byte	0
 2055              		.section	.debug_line,"",%progbits
 2056              	.Ldebug_line0:
 2057 0000 7E020000 		.section	.debug_str,"MS",%progbits,1
 2057      0200F900 
 2057      00000201 
 2057      FB0E0D00 
 2057      01010101 
 2058              	.LASF37:
 2059 0000 61696C65 		.ascii	"aileronL_before\000"
 2059      726F6E4C 
 2059      5F626566 
 2059      6F726500 
 2060              	.LASF31:
 2061 0010 5472696D 		.ascii	"Trim\000"
 2061      00
 2062              	.LASF38:
 2063 0015 474E5520 		.ascii	"GNU C 4.7.3 20130312 (release) [ARM/embedded-4_7-br"
 2063      4320342E 
 2063      372E3320 
ARM GAS  C:\Users\Kenichi\AppData\Local\Temp\cc7blFiL.s 			page 42


 2063      32303133 
 2063      30333132 
 2064 0048 616E6368 		.ascii	"anch revision 196615]\000"
 2064      20726576 
 2064      6973696F 
 2064      6E203139 
 2064      36363135 
 2065              	.LASF26:
 2066 005e 43686563 		.ascii	"CheckValid\000"
 2066      6B56616C 
 2066      696400
 2067              	.LASF3:
 2068 0069 73686F72 		.ascii	"short unsigned int\000"
 2068      7420756E 
 2068      7369676E 
 2068      65642069 
 2068      6E7400
 2069              	.LASF27:
 2070 007c 72733438 		.ascii	"rs485_Start\000"
 2070      355F5374 
 2070      61727400 
 2071              	.LASF39:
 2072 0088 2E5C6D61 		.ascii	".\\main.c\000"
 2072      696E2E63 
 2072      00
 2073              	.LASF11:
 2074 0091 666C6F61 		.ascii	"float\000"
 2074      7400
 2075              	.LASF6:
 2076 0097 6C6F6E67 		.ascii	"long long int\000"
 2076      206C6F6E 
 2076      6720696E 
 2076      7400
 2077              	.LASF30:
 2078 00a5 43656E74 		.ascii	"CenterStatus\000"
 2078      65725374 
 2078      61747573 
 2078      00
 2079              	.LASF1:
 2080 00b2 756E7369 		.ascii	"unsigned char\000"
 2080      676E6564 
 2080      20636861 
 2080      7200
 2081              	.LASF16:
 2082 00c0 62436865 		.ascii	"bCheckSum\000"
 2082      636B5375 
 2082      6D00
 2083              	.LASF5:
 2084 00ca 6C6F6E67 		.ascii	"long unsigned int\000"
 2084      20756E73 
 2084      69676E65 
 2084      6420696E 
 2084      7400
 2085              	.LASF24:
 2086 00dc 74656D70 		.ascii	"temp\000"
 2086      00
 2087              	.LASF23:
ARM GAS  C:\Users\Kenichi\AppData\Local\Temp\cc7blFiL.s 			page 43


 2088 00e1 61646472 		.ascii	"addr\000"
 2088      00
 2089              	.LASF34:
 2090 00e6 49544D5F 		.ascii	"ITM_RxBuffer\000"
 2090      52784275 
 2090      66666572 
 2090      00
 2091              	.LASF12:
 2092 00f3 646F7562 		.ascii	"double\000"
 2092      6C6500
 2093              	.LASF18:
 2094 00fa 5F70616B 		.ascii	"_pak\000"
 2094      00
 2095              	.LASF33:
 2096 00ff 5465726D 		.ascii	"Terminal_Count_ISR\000"
 2096      696E616C 
 2096      5F436F75 
 2096      6E745F49 
 2096      535200
 2097              	.LASF2:
 2098 0112 73686F72 		.ascii	"short int\000"
 2098      7420696E 
 2098      7400
 2099              	.LASF35:
 2100 011c 61696C65 		.ascii	"aileronL\000"
 2100      726F6E4C 
 2100      00
 2101              	.LASF42:
 2102 0125 6D61696E 		.ascii	"main\000"
 2102      00
 2103              	.LASF8:
 2104 012a 756E7369 		.ascii	"unsigned int\000"
 2104      676E6564 
 2104      20696E74 
 2104      00
 2105              	.LASF20:
 2106 0137 5041434B 		.ascii	"PACKET\000"
 2106      455400
 2107              	.LASF7:
 2108 013e 6C6F6E67 		.ascii	"long long unsigned int\000"
 2108      206C6F6E 
 2108      6720756E 
 2108      7369676E 
 2108      65642069 
 2109              	.LASF41:
 2110 0155 5F746167 		.ascii	"_tagRS485_PACKET\000"
 2110      52533438 
 2110      355F5041 
 2110      434B4554 
 2110      00
 2111              	.LASF0:
 2112 0166 7369676E 		.ascii	"signed char\000"
 2112      65642063 
 2112      68617200 
 2113              	.LASF36:
 2114 0172 61696C65 		.ascii	"aileronL_buffer\000"
 2114      726F6E4C 
ARM GAS  C:\Users\Kenichi\AppData\Local\Temp\cc7blFiL.s 			page 44


 2114      5F627566 
 2114      66657200 
 2115              	.LASF9:
 2116 0182 696E7433 		.ascii	"int32_t\000"
 2116      325F7400 
 2117              	.LASF14:
 2118 018a 73697A65 		.ascii	"sizetype\000"
 2118      74797065 
 2118      00
 2119              	.LASF22:
 2120 0193 54696D65 		.ascii	"Timer_Delayus\000"
 2120      725F4465 
 2120      6C617975 
 2120      7300
 2121              	.LASF13:
 2122 01a1 63686172 		.ascii	"char\000"
 2122      00
 2123              	.LASF25:
 2124 01a6 72733438 		.ascii	"rs485_CheckPacket\000"
 2124      355F4368 
 2124      65636B50 
 2124      61636B65 
 2124      7400
 2125              	.LASF19:
 2126 01b8 5F627974 		.ascii	"_byte\000"
 2126      6500
 2127              	.LASF17:
 2128 01be 77446174 		.ascii	"wData\000"
 2128      6100
 2129              	.LASF10:
 2130 01c4 75696E74 		.ascii	"uint8\000"
 2130      3800
 2131              	.LASF15:
 2132 01ca 62537461 		.ascii	"bStatus\000"
 2132      74757300 
 2133              	.LASF29:
 2134 01d2 466F726D 		.ascii	"FormatValueAilL\000"
 2134      61745661 
 2134      6C756541 
 2134      696C4C00 
 2135              	.LASF28:
 2136 01e2 53657276 		.ascii	"Servo_Start\000"
 2136      6F5F5374 
 2136      61727400 
 2137              	.LASF4:
 2138 01ee 6C6F6E67 		.ascii	"long int\000"
 2138      20696E74 
 2138      00
 2139              	.LASF32:
 2140 01f7 64547269 		.ascii	"dTrim\000"
 2140      6D00
 2141              	.LASF40:
 2142 01fd 433A5C55 		.ascii	"C:\\Users\\Kenichi\\Documents\\PSoC Creator\\servo_"
 2142      73657273 
 2142      5C4B656E 
 2142      69636869 
 2142      5C446F63 
ARM GAS  C:\Users\Kenichi\AppData\Local\Temp\cc7blFiL.s 			page 45


 2143 022b 345F3238 		.ascii	"4_28\\ailL_true.cydsn\000"
 2143      5C61696C 
 2143      4C5F7472 
 2143      75652E63 
 2143      7964736E 
 2144              	.LASF21:
 2145 0240 54696D65 		.ascii	"Timer_Set\000"
 2145      725F5365 
 2145      7400
 2146              		.ident	"GCC: (GNU Tools for ARM Embedded Processors) 4.7.3 20130312 (release) [ARM/embedded-4_7-br
