ARM GAS  C:\Users\Kenichi\AppData\Local\Temp\ccbKeO31.s 			page 1


   1              		.syntax unified
   2              		.cpu cortex-m3
   3              		.fpu softvfp
   4              		.eabi_attribute 20, 1
   5              		.eabi_attribute 21, 1
   6              		.eabi_attribute 23, 3
   7              		.eabi_attribute 24, 1
   8              		.eabi_attribute 25, 1
   9              		.eabi_attribute 26, 1
  10              		.eabi_attribute 30, 6
  11              		.eabi_attribute 34, 1
  12              		.eabi_attribute 18, 4
  13              		.thumb
  14              		.file	"PWM_1_PM.c"
  15              		.text
  16              	.Ltext0:
  17              		.cfi_sections	.debug_frame
  18              		.bss
  19              		.align	2
  20              	PWM_1_backup:
  21 0000 00000000 		.space	8
  21      00000000 
  22              		.section	.text.PWM_1_SaveConfig,"ax",%progbits
  23              		.align	2
  24              		.global	PWM_1_SaveConfig
  25              		.thumb
  26              		.thumb_func
  27              		.type	PWM_1_SaveConfig, %function
  28              	PWM_1_SaveConfig:
  29              	.LFB0:
  30              		.file 1 ".\\Generated_Source\\PSoC5\\PWM_1_PM.c"
   1:.\Generated_Source\PSoC5/PWM_1_PM.c **** /*******************************************************************************
   2:.\Generated_Source\PSoC5/PWM_1_PM.c **** * File Name: PWM_1_PM.c
   3:.\Generated_Source\PSoC5/PWM_1_PM.c **** * Version 3.0
   4:.\Generated_Source\PSoC5/PWM_1_PM.c **** *
   5:.\Generated_Source\PSoC5/PWM_1_PM.c **** * Description:
   6:.\Generated_Source\PSoC5/PWM_1_PM.c **** *  This file provides the power management source code to API for the
   7:.\Generated_Source\PSoC5/PWM_1_PM.c **** *  PWM.
   8:.\Generated_Source\PSoC5/PWM_1_PM.c **** *
   9:.\Generated_Source\PSoC5/PWM_1_PM.c **** * Note:
  10:.\Generated_Source\PSoC5/PWM_1_PM.c **** *
  11:.\Generated_Source\PSoC5/PWM_1_PM.c **** ********************************************************************************
  12:.\Generated_Source\PSoC5/PWM_1_PM.c **** * Copyright 2008-2012, Cypress Semiconductor Corporation.  All rights reserved.
  13:.\Generated_Source\PSoC5/PWM_1_PM.c **** * You may use this file only in accordance with the license, terms, conditions,
  14:.\Generated_Source\PSoC5/PWM_1_PM.c **** * disclaimers, and limitations in the end user license agreement accompanying
  15:.\Generated_Source\PSoC5/PWM_1_PM.c **** * the software package with which this file was provided.
  16:.\Generated_Source\PSoC5/PWM_1_PM.c **** *******************************************************************************/
  17:.\Generated_Source\PSoC5/PWM_1_PM.c **** #include "cytypes.h"
  18:.\Generated_Source\PSoC5/PWM_1_PM.c **** #include "PWM_1.h"
  19:.\Generated_Source\PSoC5/PWM_1_PM.c **** 
  20:.\Generated_Source\PSoC5/PWM_1_PM.c **** static PWM_1_backupStruct PWM_1_backup;
  21:.\Generated_Source\PSoC5/PWM_1_PM.c **** 
  22:.\Generated_Source\PSoC5/PWM_1_PM.c **** 
  23:.\Generated_Source\PSoC5/PWM_1_PM.c **** /*******************************************************************************
  24:.\Generated_Source\PSoC5/PWM_1_PM.c **** * Function Name: PWM_1_SaveConfig
  25:.\Generated_Source\PSoC5/PWM_1_PM.c **** ********************************************************************************
  26:.\Generated_Source\PSoC5/PWM_1_PM.c **** *
ARM GAS  C:\Users\Kenichi\AppData\Local\Temp\ccbKeO31.s 			page 2


  27:.\Generated_Source\PSoC5/PWM_1_PM.c **** * Summary:
  28:.\Generated_Source\PSoC5/PWM_1_PM.c **** *  Saves the current user configuration of the component.
  29:.\Generated_Source\PSoC5/PWM_1_PM.c **** *  
  30:.\Generated_Source\PSoC5/PWM_1_PM.c **** * Parameters:  
  31:.\Generated_Source\PSoC5/PWM_1_PM.c **** *  None
  32:.\Generated_Source\PSoC5/PWM_1_PM.c **** *
  33:.\Generated_Source\PSoC5/PWM_1_PM.c **** * Return: 
  34:.\Generated_Source\PSoC5/PWM_1_PM.c **** *  None
  35:.\Generated_Source\PSoC5/PWM_1_PM.c **** *
  36:.\Generated_Source\PSoC5/PWM_1_PM.c **** * Global variables:
  37:.\Generated_Source\PSoC5/PWM_1_PM.c **** *  PWM_1_backup:  Variables of this global structure are modified to 
  38:.\Generated_Source\PSoC5/PWM_1_PM.c **** *  store the values of non retention configuration registers when Sleep() API is 
  39:.\Generated_Source\PSoC5/PWM_1_PM.c **** *  called.
  40:.\Generated_Source\PSoC5/PWM_1_PM.c **** *
  41:.\Generated_Source\PSoC5/PWM_1_PM.c **** *******************************************************************************/
  42:.\Generated_Source\PSoC5/PWM_1_PM.c **** void PWM_1_SaveConfig(void) 
  43:.\Generated_Source\PSoC5/PWM_1_PM.c **** {
  31              		.loc 1 43 0
  32              		.cfi_startproc
  33              		@ args = 0, pretend = 0, frame = 0
  34              		@ frame_needed = 1, uses_anonymous_args = 0
  35 0000 80B5     		push	{r7, lr}
  36              	.LCFI0:
  37              		.cfi_def_cfa_offset 8
  38              		.cfi_offset 7, -8
  39              		.cfi_offset 14, -4
  40 0002 00AF     		add	r7, sp, #0
  41              	.LCFI1:
  42              		.cfi_def_cfa_register 7
  44:.\Generated_Source\PSoC5/PWM_1_PM.c ****     
  45:.\Generated_Source\PSoC5/PWM_1_PM.c ****     #if(!PWM_1_UsingFixedFunction)
  46:.\Generated_Source\PSoC5/PWM_1_PM.c ****         #if(!PWM_1_PWMModeIsCenterAligned)
  47:.\Generated_Source\PSoC5/PWM_1_PM.c ****             PWM_1_backup.PWMPeriod = PWM_1_ReadPeriod();
  43              		.loc 1 47 0
  44 0004 FFF7FEFF 		bl	PWM_1_ReadPeriod
  45 0008 0346     		mov	r3, r0
  46 000a 1A46     		mov	r2, r3
  47 000c 40F20003 		movw	r3, #:lower16:PWM_1_backup
  48 0010 C0F20003 		movt	r3, #:upper16:PWM_1_backup
  49 0014 9A80     		strh	r2, [r3, #4]	@ movhi
  48:.\Generated_Source\PSoC5/PWM_1_PM.c ****         #endif /* (!PWM_1_PWMModeIsCenterAligned) */
  49:.\Generated_Source\PSoC5/PWM_1_PM.c ****         PWM_1_backup.PWMUdb = PWM_1_ReadCounter();
  50              		.loc 1 49 0
  51 0016 FFF7FEFF 		bl	PWM_1_ReadCounter
  52 001a 0346     		mov	r3, r0
  53 001c 1A46     		mov	r2, r3
  54 001e 40F20003 		movw	r3, #:lower16:PWM_1_backup
  55 0022 C0F20003 		movt	r3, #:upper16:PWM_1_backup
  56 0026 5A80     		strh	r2, [r3, #2]	@ movhi
  50:.\Generated_Source\PSoC5/PWM_1_PM.c ****         #if (PWM_1_UseStatus)
  51:.\Generated_Source\PSoC5/PWM_1_PM.c ****             PWM_1_backup.InterruptMaskValue = PWM_1_STATUS_MASK;
  57              		.loc 1 51 0
  58 0028 46F28943 		movw	r3, #25737
  59 002c C4F20003 		movt	r3, 16384
  60 0030 1B78     		ldrb	r3, [r3, #0]
  61 0032 DAB2     		uxtb	r2, r3
  62 0034 40F20003 		movw	r3, #:lower16:PWM_1_backup
ARM GAS  C:\Users\Kenichi\AppData\Local\Temp\ccbKeO31.s 			page 3


  63 0038 C0F20003 		movt	r3, #:upper16:PWM_1_backup
  64 003c 9A71     		strb	r2, [r3, #6]
  52:.\Generated_Source\PSoC5/PWM_1_PM.c ****         #endif /* (PWM_1_UseStatus) */
  53:.\Generated_Source\PSoC5/PWM_1_PM.c ****         
  54:.\Generated_Source\PSoC5/PWM_1_PM.c ****         #if(PWM_1_DeadBandMode == PWM_1__B_PWM__DBM_256_CLOCKS || \
  55:.\Generated_Source\PSoC5/PWM_1_PM.c ****             PWM_1_DeadBandMode == PWM_1__B_PWM__DBM_2_4_CLOCKS)
  56:.\Generated_Source\PSoC5/PWM_1_PM.c ****             PWM_1_backup.PWMdeadBandValue = PWM_1_ReadDeadTime();
  57:.\Generated_Source\PSoC5/PWM_1_PM.c ****         #endif /*  deadband count is either 2-4 clocks or 256 clocks */
  58:.\Generated_Source\PSoC5/PWM_1_PM.c ****         
  59:.\Generated_Source\PSoC5/PWM_1_PM.c ****         #if(PWM_1_KillModeMinTime)
  60:.\Generated_Source\PSoC5/PWM_1_PM.c ****              PWM_1_backup.PWMKillCounterPeriod = PWM_1_ReadKillTime();
  61:.\Generated_Source\PSoC5/PWM_1_PM.c ****         #endif /* (PWM_1_KillModeMinTime) */
  62:.\Generated_Source\PSoC5/PWM_1_PM.c ****         
  63:.\Generated_Source\PSoC5/PWM_1_PM.c ****         #if(PWM_1_UseControl)
  64:.\Generated_Source\PSoC5/PWM_1_PM.c ****             PWM_1_backup.PWMControlRegister = PWM_1_ReadControlRegister();
  65              		.loc 1 64 0
  66 003e FFF7FEFF 		bl	PWM_1_ReadControlRegister
  67 0042 0346     		mov	r3, r0
  68 0044 1A46     		mov	r2, r3
  69 0046 40F20003 		movw	r3, #:lower16:PWM_1_backup
  70 004a C0F20003 		movt	r3, #:upper16:PWM_1_backup
  71 004e DA71     		strb	r2, [r3, #7]
  65:.\Generated_Source\PSoC5/PWM_1_PM.c ****         #endif /* (PWM_1_UseControl) */
  66:.\Generated_Source\PSoC5/PWM_1_PM.c ****     #endif  /* (!PWM_1_UsingFixedFunction) */
  67:.\Generated_Source\PSoC5/PWM_1_PM.c **** }
  72              		.loc 1 67 0
  73 0050 80BD     		pop	{r7, pc}
  74              		.cfi_endproc
  75              	.LFE0:
  76              		.size	PWM_1_SaveConfig, .-PWM_1_SaveConfig
  77 0052 00BF     		.section	.text.PWM_1_RestoreConfig,"ax",%progbits
  78              		.align	2
  79              		.global	PWM_1_RestoreConfig
  80              		.thumb
  81              		.thumb_func
  82              		.type	PWM_1_RestoreConfig, %function
  83              	PWM_1_RestoreConfig:
  84              	.LFB1:
  68:.\Generated_Source\PSoC5/PWM_1_PM.c **** 
  69:.\Generated_Source\PSoC5/PWM_1_PM.c **** 
  70:.\Generated_Source\PSoC5/PWM_1_PM.c **** /*******************************************************************************
  71:.\Generated_Source\PSoC5/PWM_1_PM.c **** * Function Name: PWM_1_RestoreConfig
  72:.\Generated_Source\PSoC5/PWM_1_PM.c **** ********************************************************************************
  73:.\Generated_Source\PSoC5/PWM_1_PM.c **** * 
  74:.\Generated_Source\PSoC5/PWM_1_PM.c **** * Summary:
  75:.\Generated_Source\PSoC5/PWM_1_PM.c **** *  Restores the current user configuration of the component.
  76:.\Generated_Source\PSoC5/PWM_1_PM.c **** *
  77:.\Generated_Source\PSoC5/PWM_1_PM.c **** * Parameters:  
  78:.\Generated_Source\PSoC5/PWM_1_PM.c **** *  None
  79:.\Generated_Source\PSoC5/PWM_1_PM.c **** *
  80:.\Generated_Source\PSoC5/PWM_1_PM.c **** * Return: 
  81:.\Generated_Source\PSoC5/PWM_1_PM.c **** *  None
  82:.\Generated_Source\PSoC5/PWM_1_PM.c **** *
  83:.\Generated_Source\PSoC5/PWM_1_PM.c **** * Global variables:
  84:.\Generated_Source\PSoC5/PWM_1_PM.c **** *  PWM_1_backup:  Variables of this global structure are used to  
  85:.\Generated_Source\PSoC5/PWM_1_PM.c **** *  restore the values of non retention registers on wakeup from sleep mode.
  86:.\Generated_Source\PSoC5/PWM_1_PM.c **** *
ARM GAS  C:\Users\Kenichi\AppData\Local\Temp\ccbKeO31.s 			page 4


  87:.\Generated_Source\PSoC5/PWM_1_PM.c **** *******************************************************************************/
  88:.\Generated_Source\PSoC5/PWM_1_PM.c **** void PWM_1_RestoreConfig(void) 
  89:.\Generated_Source\PSoC5/PWM_1_PM.c **** {
  85              		.loc 1 89 0
  86              		.cfi_startproc
  87              		@ args = 0, pretend = 0, frame = 0
  88              		@ frame_needed = 1, uses_anonymous_args = 0
  89 0000 80B5     		push	{r7, lr}
  90              	.LCFI2:
  91              		.cfi_def_cfa_offset 8
  92              		.cfi_offset 7, -8
  93              		.cfi_offset 14, -4
  94 0002 00AF     		add	r7, sp, #0
  95              	.LCFI3:
  96              		.cfi_def_cfa_register 7
  90:.\Generated_Source\PSoC5/PWM_1_PM.c ****         #if(!PWM_1_UsingFixedFunction)
  91:.\Generated_Source\PSoC5/PWM_1_PM.c ****             #if(!PWM_1_PWMModeIsCenterAligned)
  92:.\Generated_Source\PSoC5/PWM_1_PM.c ****                 PWM_1_WritePeriod(PWM_1_backup.PWMPeriod);
  97              		.loc 1 92 0
  98 0004 40F20003 		movw	r3, #:lower16:PWM_1_backup
  99 0008 C0F20003 		movt	r3, #:upper16:PWM_1_backup
 100 000c 9B88     		ldrh	r3, [r3, #4]
 101 000e 1846     		mov	r0, r3
 102 0010 FFF7FEFF 		bl	PWM_1_WritePeriod
  93:.\Generated_Source\PSoC5/PWM_1_PM.c ****             #endif /* (!PWM_1_PWMModeIsCenterAligned) */
  94:.\Generated_Source\PSoC5/PWM_1_PM.c ****             PWM_1_WriteCounter(PWM_1_backup.PWMUdb);
 103              		.loc 1 94 0
 104 0014 40F20003 		movw	r3, #:lower16:PWM_1_backup
 105 0018 C0F20003 		movt	r3, #:upper16:PWM_1_backup
 106 001c 5B88     		ldrh	r3, [r3, #2]
 107 001e 1846     		mov	r0, r3
 108 0020 FFF7FEFF 		bl	PWM_1_WriteCounter
  95:.\Generated_Source\PSoC5/PWM_1_PM.c ****             #if (PWM_1_UseStatus)
  96:.\Generated_Source\PSoC5/PWM_1_PM.c ****                 PWM_1_STATUS_MASK = PWM_1_backup.InterruptMaskValue;
 109              		.loc 1 96 0
 110 0024 46F28943 		movw	r3, #25737
 111 0028 C4F20003 		movt	r3, 16384
 112 002c 40F20002 		movw	r2, #:lower16:PWM_1_backup
 113 0030 C0F20002 		movt	r2, #:upper16:PWM_1_backup
 114 0034 9279     		ldrb	r2, [r2, #6]	@ zero_extendqisi2
 115 0036 1A70     		strb	r2, [r3, #0]
  97:.\Generated_Source\PSoC5/PWM_1_PM.c ****             #endif /* (PWM_1_UseStatus) */
  98:.\Generated_Source\PSoC5/PWM_1_PM.c ****             
  99:.\Generated_Source\PSoC5/PWM_1_PM.c ****             #if(PWM_1_DeadBandMode == PWM_1__B_PWM__DBM_256_CLOCKS || \
 100:.\Generated_Source\PSoC5/PWM_1_PM.c ****                 PWM_1_DeadBandMode == PWM_1__B_PWM__DBM_2_4_CLOCKS)
 101:.\Generated_Source\PSoC5/PWM_1_PM.c ****                 PWM_1_WriteDeadTime(PWM_1_backup.PWMdeadBandValue);
 102:.\Generated_Source\PSoC5/PWM_1_PM.c ****             #endif /* deadband count is either 2-4 clocks or 256 clocks */
 103:.\Generated_Source\PSoC5/PWM_1_PM.c ****             
 104:.\Generated_Source\PSoC5/PWM_1_PM.c ****             #if(PWM_1_KillModeMinTime)
 105:.\Generated_Source\PSoC5/PWM_1_PM.c ****                 PWM_1_WriteKillTime(PWM_1_backup.PWMKillCounterPeriod);
 106:.\Generated_Source\PSoC5/PWM_1_PM.c ****             #endif /* (PWM_1_KillModeMinTime) */
 107:.\Generated_Source\PSoC5/PWM_1_PM.c ****             
 108:.\Generated_Source\PSoC5/PWM_1_PM.c ****             #if(PWM_1_UseControl)
 109:.\Generated_Source\PSoC5/PWM_1_PM.c ****                 PWM_1_WriteControlRegister(PWM_1_backup.PWMControlRegister); 
 116              		.loc 1 109 0
 117 0038 40F20003 		movw	r3, #:lower16:PWM_1_backup
 118 003c C0F20003 		movt	r3, #:upper16:PWM_1_backup
ARM GAS  C:\Users\Kenichi\AppData\Local\Temp\ccbKeO31.s 			page 5


 119 0040 DB79     		ldrb	r3, [r3, #7]	@ zero_extendqisi2
 120 0042 1846     		mov	r0, r3
 121 0044 FFF7FEFF 		bl	PWM_1_WriteControlRegister
 110:.\Generated_Source\PSoC5/PWM_1_PM.c ****             #endif /* (PWM_1_UseControl) */
 111:.\Generated_Source\PSoC5/PWM_1_PM.c ****         #endif  /* (!PWM_1_UsingFixedFunction) */
 112:.\Generated_Source\PSoC5/PWM_1_PM.c ****     }
 122              		.loc 1 112 0
 123 0048 80BD     		pop	{r7, pc}
 124              		.cfi_endproc
 125              	.LFE1:
 126              		.size	PWM_1_RestoreConfig, .-PWM_1_RestoreConfig
 127 004a 00BF     		.section	.text.PWM_1_Sleep,"ax",%progbits
 128              		.align	2
 129              		.global	PWM_1_Sleep
 130              		.thumb
 131              		.thumb_func
 132              		.type	PWM_1_Sleep, %function
 133              	PWM_1_Sleep:
 134              	.LFB2:
 113:.\Generated_Source\PSoC5/PWM_1_PM.c **** 
 114:.\Generated_Source\PSoC5/PWM_1_PM.c **** 
 115:.\Generated_Source\PSoC5/PWM_1_PM.c **** /*******************************************************************************
 116:.\Generated_Source\PSoC5/PWM_1_PM.c **** * Function Name: PWM_1_Sleep
 117:.\Generated_Source\PSoC5/PWM_1_PM.c **** ********************************************************************************
 118:.\Generated_Source\PSoC5/PWM_1_PM.c **** * 
 119:.\Generated_Source\PSoC5/PWM_1_PM.c **** * Summary:
 120:.\Generated_Source\PSoC5/PWM_1_PM.c **** *  Disables block's operation and saves the user configuration. Should be called 
 121:.\Generated_Source\PSoC5/PWM_1_PM.c **** *  just prior to entering sleep.
 122:.\Generated_Source\PSoC5/PWM_1_PM.c **** *  
 123:.\Generated_Source\PSoC5/PWM_1_PM.c **** * Parameters:  
 124:.\Generated_Source\PSoC5/PWM_1_PM.c **** *  None
 125:.\Generated_Source\PSoC5/PWM_1_PM.c **** *
 126:.\Generated_Source\PSoC5/PWM_1_PM.c **** * Return: 
 127:.\Generated_Source\PSoC5/PWM_1_PM.c **** *  None
 128:.\Generated_Source\PSoC5/PWM_1_PM.c **** *
 129:.\Generated_Source\PSoC5/PWM_1_PM.c **** * Global variables:
 130:.\Generated_Source\PSoC5/PWM_1_PM.c **** *  PWM_1_backup.PWMEnableState:  Is modified depending on the enable 
 131:.\Generated_Source\PSoC5/PWM_1_PM.c **** *  state of the block before entering sleep mode.
 132:.\Generated_Source\PSoC5/PWM_1_PM.c **** *
 133:.\Generated_Source\PSoC5/PWM_1_PM.c **** *******************************************************************************/
 134:.\Generated_Source\PSoC5/PWM_1_PM.c **** void PWM_1_Sleep(void) 
 135:.\Generated_Source\PSoC5/PWM_1_PM.c **** {
 135              		.loc 1 135 0
 136              		.cfi_startproc
 137              		@ args = 0, pretend = 0, frame = 0
 138              		@ frame_needed = 1, uses_anonymous_args = 0
 139 0000 80B5     		push	{r7, lr}
 140              	.LCFI4:
 141              		.cfi_def_cfa_offset 8
 142              		.cfi_offset 7, -8
 143              		.cfi_offset 14, -4
 144 0002 00AF     		add	r7, sp, #0
 145              	.LCFI5:
 146              		.cfi_def_cfa_register 7
 136:.\Generated_Source\PSoC5/PWM_1_PM.c ****     #if(PWM_1_UseControl)
 137:.\Generated_Source\PSoC5/PWM_1_PM.c ****         if(PWM_1_CTRL_ENABLE == (PWM_1_CONTROL & PWM_1_CTRL_ENABLE))
 147              		.loc 1 137 0
ARM GAS  C:\Users\Kenichi\AppData\Local\Temp\ccbKeO31.s 			page 6


 148 0004 46F27843 		movw	r3, #25720
 149 0008 C4F20003 		movt	r3, 16384
 150 000c 1B78     		ldrb	r3, [r3, #0]
 151 000e DBB2     		uxtb	r3, r3
 152 0010 DBB2     		uxtb	r3, r3
 153 0012 5BB2     		sxtb	r3, r3
 154 0014 002B     		cmp	r3, #0
 155 0016 07DA     		bge	.L4
 138:.\Generated_Source\PSoC5/PWM_1_PM.c ****         {
 139:.\Generated_Source\PSoC5/PWM_1_PM.c ****             /*Component is enabled */
 140:.\Generated_Source\PSoC5/PWM_1_PM.c ****             PWM_1_backup.PWMEnableState = 1u;
 156              		.loc 1 140 0
 157 0018 40F20003 		movw	r3, #:lower16:PWM_1_backup
 158 001c C0F20003 		movt	r3, #:upper16:PWM_1_backup
 159 0020 4FF00102 		mov	r2, #1
 160 0024 1A70     		strb	r2, [r3, #0]
 161 0026 06E0     		b	.L5
 162              	.L4:
 141:.\Generated_Source\PSoC5/PWM_1_PM.c ****         }
 142:.\Generated_Source\PSoC5/PWM_1_PM.c ****         else
 143:.\Generated_Source\PSoC5/PWM_1_PM.c ****         {
 144:.\Generated_Source\PSoC5/PWM_1_PM.c ****             /* Component is disabled */
 145:.\Generated_Source\PSoC5/PWM_1_PM.c ****             PWM_1_backup.PWMEnableState = 0u;
 163              		.loc 1 145 0
 164 0028 40F20003 		movw	r3, #:lower16:PWM_1_backup
 165 002c C0F20003 		movt	r3, #:upper16:PWM_1_backup
 166 0030 4FF00002 		mov	r2, #0
 167 0034 1A70     		strb	r2, [r3, #0]
 168              	.L5:
 146:.\Generated_Source\PSoC5/PWM_1_PM.c ****         }
 147:.\Generated_Source\PSoC5/PWM_1_PM.c ****     #endif /* (PWM_1_UseControl) */
 148:.\Generated_Source\PSoC5/PWM_1_PM.c **** 
 149:.\Generated_Source\PSoC5/PWM_1_PM.c ****     /* Stop component */
 150:.\Generated_Source\PSoC5/PWM_1_PM.c ****     PWM_1_Stop();
 169              		.loc 1 150 0
 170 0036 FFF7FEFF 		bl	PWM_1_Stop
 151:.\Generated_Source\PSoC5/PWM_1_PM.c ****     
 152:.\Generated_Source\PSoC5/PWM_1_PM.c ****     /* Save registers configuration */
 153:.\Generated_Source\PSoC5/PWM_1_PM.c ****     PWM_1_SaveConfig();
 171              		.loc 1 153 0
 172 003a FFF7FEFF 		bl	PWM_1_SaveConfig
 154:.\Generated_Source\PSoC5/PWM_1_PM.c **** }
 173              		.loc 1 154 0
 174 003e 80BD     		pop	{r7, pc}
 175              		.cfi_endproc
 176              	.LFE2:
 177              		.size	PWM_1_Sleep, .-PWM_1_Sleep
 178              		.section	.text.PWM_1_Wakeup,"ax",%progbits
 179              		.align	2
 180              		.global	PWM_1_Wakeup
 181              		.thumb
 182              		.thumb_func
 183              		.type	PWM_1_Wakeup, %function
 184              	PWM_1_Wakeup:
 185              	.LFB3:
 155:.\Generated_Source\PSoC5/PWM_1_PM.c **** 
 156:.\Generated_Source\PSoC5/PWM_1_PM.c **** 
ARM GAS  C:\Users\Kenichi\AppData\Local\Temp\ccbKeO31.s 			page 7


 157:.\Generated_Source\PSoC5/PWM_1_PM.c **** /*******************************************************************************
 158:.\Generated_Source\PSoC5/PWM_1_PM.c **** * Function Name: PWM_1_Wakeup
 159:.\Generated_Source\PSoC5/PWM_1_PM.c **** ********************************************************************************
 160:.\Generated_Source\PSoC5/PWM_1_PM.c **** * 
 161:.\Generated_Source\PSoC5/PWM_1_PM.c **** * Summary:
 162:.\Generated_Source\PSoC5/PWM_1_PM.c **** *  Restores and enables the user configuration. Should be called just after 
 163:.\Generated_Source\PSoC5/PWM_1_PM.c **** *  awaking from sleep.
 164:.\Generated_Source\PSoC5/PWM_1_PM.c **** *  
 165:.\Generated_Source\PSoC5/PWM_1_PM.c **** * Parameters:  
 166:.\Generated_Source\PSoC5/PWM_1_PM.c **** *  None
 167:.\Generated_Source\PSoC5/PWM_1_PM.c **** *
 168:.\Generated_Source\PSoC5/PWM_1_PM.c **** * Return: 
 169:.\Generated_Source\PSoC5/PWM_1_PM.c **** *  None
 170:.\Generated_Source\PSoC5/PWM_1_PM.c **** *
 171:.\Generated_Source\PSoC5/PWM_1_PM.c **** * Global variables:
 172:.\Generated_Source\PSoC5/PWM_1_PM.c **** *  PWM_1_backup.pwmEnable:  Is used to restore the enable state of 
 173:.\Generated_Source\PSoC5/PWM_1_PM.c **** *  block on wakeup from sleep mode.
 174:.\Generated_Source\PSoC5/PWM_1_PM.c **** *
 175:.\Generated_Source\PSoC5/PWM_1_PM.c **** *******************************************************************************/
 176:.\Generated_Source\PSoC5/PWM_1_PM.c **** void PWM_1_Wakeup(void) 
 177:.\Generated_Source\PSoC5/PWM_1_PM.c **** {
 186              		.loc 1 177 0
 187              		.cfi_startproc
 188              		@ args = 0, pretend = 0, frame = 0
 189              		@ frame_needed = 1, uses_anonymous_args = 0
 190 0000 80B5     		push	{r7, lr}
 191              	.LCFI6:
 192              		.cfi_def_cfa_offset 8
 193              		.cfi_offset 7, -8
 194              		.cfi_offset 14, -4
 195 0002 00AF     		add	r7, sp, #0
 196              	.LCFI7:
 197              		.cfi_def_cfa_register 7
 178:.\Generated_Source\PSoC5/PWM_1_PM.c ****      /* Restore registers values */
 179:.\Generated_Source\PSoC5/PWM_1_PM.c ****     PWM_1_RestoreConfig();
 198              		.loc 1 179 0
 199 0004 FFF7FEFF 		bl	PWM_1_RestoreConfig
 180:.\Generated_Source\PSoC5/PWM_1_PM.c ****     
 181:.\Generated_Source\PSoC5/PWM_1_PM.c ****     if(PWM_1_backup.PWMEnableState != 0u)
 200              		.loc 1 181 0
 201 0008 40F20003 		movw	r3, #:lower16:PWM_1_backup
 202 000c C0F20003 		movt	r3, #:upper16:PWM_1_backup
 203 0010 1B78     		ldrb	r3, [r3, #0]	@ zero_extendqisi2
 204 0012 002B     		cmp	r3, #0
 205 0014 01D0     		beq	.L6
 182:.\Generated_Source\PSoC5/PWM_1_PM.c ****     {
 183:.\Generated_Source\PSoC5/PWM_1_PM.c ****         /* Enable component's operation */
 184:.\Generated_Source\PSoC5/PWM_1_PM.c ****         PWM_1_Enable();
 206              		.loc 1 184 0
 207 0016 FFF7FEFF 		bl	PWM_1_Enable
 208              	.L6:
 185:.\Generated_Source\PSoC5/PWM_1_PM.c ****     } /* Do nothing if component's block was disabled before */
 186:.\Generated_Source\PSoC5/PWM_1_PM.c ****     
 187:.\Generated_Source\PSoC5/PWM_1_PM.c **** }
 209              		.loc 1 187 0
 210 001a 80BD     		pop	{r7, pc}
 211              		.cfi_endproc
ARM GAS  C:\Users\Kenichi\AppData\Local\Temp\ccbKeO31.s 			page 8


 212              	.LFE3:
 213              		.size	PWM_1_Wakeup, .-PWM_1_Wakeup
 214              		.text
 215              	.Letext0:
 216              		.file 2 ".\\Generated_Source\\PSoC5\\cytypes.h"
 217              		.file 3 ".\\Generated_Source\\PSoC5\\PWM_1.h"
 218              		.section	.debug_info,"",%progbits
 219              	.Ldebug_info0:
 220 0000 71010000 		.4byte	0x171
 221 0004 0200     		.2byte	0x2
 222 0006 00000000 		.4byte	.Ldebug_abbrev0
 223 000a 04       		.byte	0x4
 224 000b 01       		.uleb128 0x1
 225 000c 8F010000 		.4byte	.LASF26
 226 0010 01       		.byte	0x1
 227 0011 E2000000 		.4byte	.LASF27
 228 0015 11000000 		.4byte	.LASF28
 229 0019 00000000 		.4byte	.Ldebug_ranges0+0
 230 001d 00000000 		.4byte	0
 231 0021 00000000 		.4byte	0
 232 0025 00000000 		.4byte	.Ldebug_line0
 233 0029 02       		.uleb128 0x2
 234 002a 01       		.byte	0x1
 235 002b 06       		.byte	0x6
 236 002c E1010000 		.4byte	.LASF0
 237 0030 02       		.uleb128 0x2
 238 0031 01       		.byte	0x1
 239 0032 08       		.byte	0x8
 240 0033 85000000 		.4byte	.LASF1
 241 0037 02       		.uleb128 0x2
 242 0038 02       		.byte	0x2
 243 0039 05       		.byte	0x5
 244 003a 85010000 		.4byte	.LASF2
 245 003e 02       		.uleb128 0x2
 246 003f 02       		.byte	0x2
 247 0040 07       		.byte	0x7
 248 0041 4F000000 		.4byte	.LASF3
 249 0045 02       		.uleb128 0x2
 250 0046 04       		.byte	0x4
 251 0047 05       		.byte	0x5
 252 0048 D8010000 		.4byte	.LASF4
 253 004c 02       		.uleb128 0x2
 254 004d 04       		.byte	0x4
 255 004e 07       		.byte	0x7
 256 004f 0D010000 		.4byte	.LASF5
 257 0053 02       		.uleb128 0x2
 258 0054 08       		.byte	0x8
 259 0055 05       		.byte	0x5
 260 0056 72010000 		.4byte	.LASF6
 261 005a 02       		.uleb128 0x2
 262 005b 08       		.byte	0x8
 263 005c 07       		.byte	0x7
 264 005d 39010000 		.4byte	.LASF7
 265 0061 03       		.uleb128 0x3
 266 0062 04       		.byte	0x4
 267 0063 05       		.byte	0x5
 268 0064 696E7400 		.ascii	"int\000"
ARM GAS  C:\Users\Kenichi\AppData\Local\Temp\ccbKeO31.s 			page 9


 269 0068 02       		.uleb128 0x2
 270 0069 04       		.byte	0x4
 271 006a 07       		.byte	0x7
 272 006b 1F010000 		.4byte	.LASF8
 273 006f 04       		.uleb128 0x4
 274 0070 AF000000 		.4byte	.LASF9
 275 0074 02       		.byte	0x2
 276 0075 5B       		.byte	0x5b
 277 0076 30000000 		.4byte	0x30
 278 007a 04       		.uleb128 0x4
 279 007b 06010000 		.4byte	.LASF10
 280 007f 02       		.byte	0x2
 281 0080 5C       		.byte	0x5c
 282 0081 3E000000 		.4byte	0x3e
 283 0085 02       		.uleb128 0x2
 284 0086 04       		.byte	0x4
 285 0087 04       		.byte	0x4
 286 0088 7F000000 		.4byte	.LASF11
 287 008c 02       		.uleb128 0x2
 288 008d 08       		.byte	0x8
 289 008e 04       		.byte	0x4
 290 008f C8000000 		.4byte	.LASF12
 291 0093 02       		.uleb128 0x2
 292 0094 01       		.byte	0x1
 293 0095 08       		.byte	0x8
 294 0096 80010000 		.4byte	.LASF13
 295 009a 04       		.uleb128 0x4
 296 009b 64010000 		.4byte	.LASF14
 297 009f 02       		.byte	0x2
 298 00a0 F0       		.byte	0xf0
 299 00a1 A5000000 		.4byte	0xa5
 300 00a5 05       		.uleb128 0x5
 301 00a6 6F000000 		.4byte	0x6f
 302 00aa 02       		.uleb128 0x2
 303 00ab 04       		.byte	0x4
 304 00ac 07       		.byte	0x7
 305 00ad 69010000 		.4byte	.LASF15
 306 00b1 06       		.uleb128 0x6
 307 00b2 08       		.byte	0x8
 308 00b3 03       		.byte	0x3
 309 00b4 6A       		.byte	0x6a
 310 00b5 00010000 		.4byte	0x100
 311 00b9 07       		.uleb128 0x7
 312 00ba 93000000 		.4byte	.LASF16
 313 00be 03       		.byte	0x3
 314 00bf 6D       		.byte	0x6d
 315 00c0 6F000000 		.4byte	0x6f
 316 00c4 02       		.byte	0x2
 317 00c5 23       		.byte	0x23
 318 00c6 00       		.uleb128 0
 319 00c7 07       		.uleb128 0x7
 320 00c8 00000000 		.4byte	.LASF17
 321 00cc 03       		.byte	0x3
 322 00cd 70       		.byte	0x70
 323 00ce 7A000000 		.4byte	0x7a
 324 00d2 02       		.byte	0x2
 325 00d3 23       		.byte	0x23
ARM GAS  C:\Users\Kenichi\AppData\Local\Temp\ccbKeO31.s 			page 10


 326 00d4 02       		.uleb128 0x2
 327 00d5 07       		.uleb128 0x7
 328 00d6 07000000 		.4byte	.LASF18
 329 00da 03       		.byte	0x3
 330 00db 72       		.byte	0x72
 331 00dc 7A000000 		.4byte	0x7a
 332 00e0 02       		.byte	0x2
 333 00e1 23       		.byte	0x23
 334 00e2 04       		.uleb128 0x4
 335 00e3 07       		.uleb128 0x7
 336 00e4 ED010000 		.4byte	.LASF19
 337 00e8 03       		.byte	0x3
 338 00e9 75       		.byte	0x75
 339 00ea 6F000000 		.4byte	0x6f
 340 00ee 02       		.byte	0x2
 341 00ef 23       		.byte	0x23
 342 00f0 06       		.uleb128 0x6
 343 00f1 07       		.uleb128 0x7
 344 00f2 B5000000 		.4byte	.LASF20
 345 00f6 03       		.byte	0x3
 346 00f7 85       		.byte	0x85
 347 00f8 6F000000 		.4byte	0x6f
 348 00fc 02       		.byte	0x2
 349 00fd 23       		.byte	0x23
 350 00fe 07       		.uleb128 0x7
 351 00ff 00       		.byte	0
 352 0100 04       		.uleb128 0x4
 353 0101 CF000000 		.4byte	.LASF21
 354 0105 03       		.byte	0x3
 355 0106 8A       		.byte	0x8a
 356 0107 B1000000 		.4byte	0xb1
 357 010b 08       		.uleb128 0x8
 358 010c 01       		.byte	0x1
 359 010d 62000000 		.4byte	.LASF22
 360 0111 01       		.byte	0x1
 361 0112 2A       		.byte	0x2a
 362 0113 01       		.byte	0x1
 363 0114 00000000 		.4byte	.LFB0
 364 0118 52000000 		.4byte	.LFE0
 365 011c 00000000 		.4byte	.LLST0
 366 0120 01       		.byte	0x1
 367 0121 08       		.uleb128 0x8
 368 0122 01       		.byte	0x1
 369 0123 50010000 		.4byte	.LASF23
 370 0127 01       		.byte	0x1
 371 0128 58       		.byte	0x58
 372 0129 01       		.byte	0x1
 373 012a 00000000 		.4byte	.LFB1
 374 012e 4A000000 		.4byte	.LFE1
 375 0132 2C000000 		.4byte	.LLST1
 376 0136 01       		.byte	0x1
 377 0137 08       		.uleb128 0x8
 378 0138 01       		.byte	0x1
 379 0139 73000000 		.4byte	.LASF24
 380 013d 01       		.byte	0x1
 381 013e 86       		.byte	0x86
 382 013f 01       		.byte	0x1
ARM GAS  C:\Users\Kenichi\AppData\Local\Temp\ccbKeO31.s 			page 11


 383 0140 00000000 		.4byte	.LFB2
 384 0144 40000000 		.4byte	.LFE2
 385 0148 58000000 		.4byte	.LLST2
 386 014c 01       		.byte	0x1
 387 014d 08       		.uleb128 0x8
 388 014e 01       		.byte	0x1
 389 014f 2C010000 		.4byte	.LASF25
 390 0153 01       		.byte	0x1
 391 0154 B0       		.byte	0xb0
 392 0155 01       		.byte	0x1
 393 0156 00000000 		.4byte	.LFB3
 394 015a 1C000000 		.4byte	.LFE3
 395 015e 84000000 		.4byte	.LLST3
 396 0162 01       		.byte	0x1
 397 0163 09       		.uleb128 0x9
 398 0164 A2000000 		.4byte	.LASF29
 399 0168 01       		.byte	0x1
 400 0169 14       		.byte	0x14
 401 016a 00010000 		.4byte	0x100
 402 016e 05       		.byte	0x5
 403 016f 03       		.byte	0x3
 404 0170 00000000 		.4byte	PWM_1_backup
 405 0174 00       		.byte	0
 406              		.section	.debug_abbrev,"",%progbits
 407              	.Ldebug_abbrev0:
 408 0000 01       		.uleb128 0x1
 409 0001 11       		.uleb128 0x11
 410 0002 01       		.byte	0x1
 411 0003 25       		.uleb128 0x25
 412 0004 0E       		.uleb128 0xe
 413 0005 13       		.uleb128 0x13
 414 0006 0B       		.uleb128 0xb
 415 0007 03       		.uleb128 0x3
 416 0008 0E       		.uleb128 0xe
 417 0009 1B       		.uleb128 0x1b
 418 000a 0E       		.uleb128 0xe
 419 000b 55       		.uleb128 0x55
 420 000c 06       		.uleb128 0x6
 421 000d 11       		.uleb128 0x11
 422 000e 01       		.uleb128 0x1
 423 000f 52       		.uleb128 0x52
 424 0010 01       		.uleb128 0x1
 425 0011 10       		.uleb128 0x10
 426 0012 06       		.uleb128 0x6
 427 0013 00       		.byte	0
 428 0014 00       		.byte	0
 429 0015 02       		.uleb128 0x2
 430 0016 24       		.uleb128 0x24
 431 0017 00       		.byte	0
 432 0018 0B       		.uleb128 0xb
 433 0019 0B       		.uleb128 0xb
 434 001a 3E       		.uleb128 0x3e
 435 001b 0B       		.uleb128 0xb
 436 001c 03       		.uleb128 0x3
 437 001d 0E       		.uleb128 0xe
 438 001e 00       		.byte	0
 439 001f 00       		.byte	0
ARM GAS  C:\Users\Kenichi\AppData\Local\Temp\ccbKeO31.s 			page 12


 440 0020 03       		.uleb128 0x3
 441 0021 24       		.uleb128 0x24
 442 0022 00       		.byte	0
 443 0023 0B       		.uleb128 0xb
 444 0024 0B       		.uleb128 0xb
 445 0025 3E       		.uleb128 0x3e
 446 0026 0B       		.uleb128 0xb
 447 0027 03       		.uleb128 0x3
 448 0028 08       		.uleb128 0x8
 449 0029 00       		.byte	0
 450 002a 00       		.byte	0
 451 002b 04       		.uleb128 0x4
 452 002c 16       		.uleb128 0x16
 453 002d 00       		.byte	0
 454 002e 03       		.uleb128 0x3
 455 002f 0E       		.uleb128 0xe
 456 0030 3A       		.uleb128 0x3a
 457 0031 0B       		.uleb128 0xb
 458 0032 3B       		.uleb128 0x3b
 459 0033 0B       		.uleb128 0xb
 460 0034 49       		.uleb128 0x49
 461 0035 13       		.uleb128 0x13
 462 0036 00       		.byte	0
 463 0037 00       		.byte	0
 464 0038 05       		.uleb128 0x5
 465 0039 35       		.uleb128 0x35
 466 003a 00       		.byte	0
 467 003b 49       		.uleb128 0x49
 468 003c 13       		.uleb128 0x13
 469 003d 00       		.byte	0
 470 003e 00       		.byte	0
 471 003f 06       		.uleb128 0x6
 472 0040 13       		.uleb128 0x13
 473 0041 01       		.byte	0x1
 474 0042 0B       		.uleb128 0xb
 475 0043 0B       		.uleb128 0xb
 476 0044 3A       		.uleb128 0x3a
 477 0045 0B       		.uleb128 0xb
 478 0046 3B       		.uleb128 0x3b
 479 0047 0B       		.uleb128 0xb
 480 0048 01       		.uleb128 0x1
 481 0049 13       		.uleb128 0x13
 482 004a 00       		.byte	0
 483 004b 00       		.byte	0
 484 004c 07       		.uleb128 0x7
 485 004d 0D       		.uleb128 0xd
 486 004e 00       		.byte	0
 487 004f 03       		.uleb128 0x3
 488 0050 0E       		.uleb128 0xe
 489 0051 3A       		.uleb128 0x3a
 490 0052 0B       		.uleb128 0xb
 491 0053 3B       		.uleb128 0x3b
 492 0054 0B       		.uleb128 0xb
 493 0055 49       		.uleb128 0x49
 494 0056 13       		.uleb128 0x13
 495 0057 38       		.uleb128 0x38
 496 0058 0A       		.uleb128 0xa
ARM GAS  C:\Users\Kenichi\AppData\Local\Temp\ccbKeO31.s 			page 13


 497 0059 00       		.byte	0
 498 005a 00       		.byte	0
 499 005b 08       		.uleb128 0x8
 500 005c 2E       		.uleb128 0x2e
 501 005d 00       		.byte	0
 502 005e 3F       		.uleb128 0x3f
 503 005f 0C       		.uleb128 0xc
 504 0060 03       		.uleb128 0x3
 505 0061 0E       		.uleb128 0xe
 506 0062 3A       		.uleb128 0x3a
 507 0063 0B       		.uleb128 0xb
 508 0064 3B       		.uleb128 0x3b
 509 0065 0B       		.uleb128 0xb
 510 0066 27       		.uleb128 0x27
 511 0067 0C       		.uleb128 0xc
 512 0068 11       		.uleb128 0x11
 513 0069 01       		.uleb128 0x1
 514 006a 12       		.uleb128 0x12
 515 006b 01       		.uleb128 0x1
 516 006c 40       		.uleb128 0x40
 517 006d 06       		.uleb128 0x6
 518 006e 9642     		.uleb128 0x2116
 519 0070 0C       		.uleb128 0xc
 520 0071 00       		.byte	0
 521 0072 00       		.byte	0
 522 0073 09       		.uleb128 0x9
 523 0074 34       		.uleb128 0x34
 524 0075 00       		.byte	0
 525 0076 03       		.uleb128 0x3
 526 0077 0E       		.uleb128 0xe
 527 0078 3A       		.uleb128 0x3a
 528 0079 0B       		.uleb128 0xb
 529 007a 3B       		.uleb128 0x3b
 530 007b 0B       		.uleb128 0xb
 531 007c 49       		.uleb128 0x49
 532 007d 13       		.uleb128 0x13
 533 007e 02       		.uleb128 0x2
 534 007f 0A       		.uleb128 0xa
 535 0080 00       		.byte	0
 536 0081 00       		.byte	0
 537 0082 00       		.byte	0
 538              		.section	.debug_loc,"",%progbits
 539              	.Ldebug_loc0:
 540              	.LLST0:
 541 0000 00000000 		.4byte	.LFB0
 542 0004 02000000 		.4byte	.LCFI0
 543 0008 0200     		.2byte	0x2
 544 000a 7D       		.byte	0x7d
 545 000b 00       		.sleb128 0
 546 000c 02000000 		.4byte	.LCFI0
 547 0010 04000000 		.4byte	.LCFI1
 548 0014 0200     		.2byte	0x2
 549 0016 7D       		.byte	0x7d
 550 0017 08       		.sleb128 8
 551 0018 04000000 		.4byte	.LCFI1
 552 001c 52000000 		.4byte	.LFE0
 553 0020 0200     		.2byte	0x2
ARM GAS  C:\Users\Kenichi\AppData\Local\Temp\ccbKeO31.s 			page 14


 554 0022 77       		.byte	0x77
 555 0023 08       		.sleb128 8
 556 0024 00000000 		.4byte	0
 557 0028 00000000 		.4byte	0
 558              	.LLST1:
 559 002c 00000000 		.4byte	.LFB1
 560 0030 02000000 		.4byte	.LCFI2
 561 0034 0200     		.2byte	0x2
 562 0036 7D       		.byte	0x7d
 563 0037 00       		.sleb128 0
 564 0038 02000000 		.4byte	.LCFI2
 565 003c 04000000 		.4byte	.LCFI3
 566 0040 0200     		.2byte	0x2
 567 0042 7D       		.byte	0x7d
 568 0043 08       		.sleb128 8
 569 0044 04000000 		.4byte	.LCFI3
 570 0048 4A000000 		.4byte	.LFE1
 571 004c 0200     		.2byte	0x2
 572 004e 77       		.byte	0x77
 573 004f 08       		.sleb128 8
 574 0050 00000000 		.4byte	0
 575 0054 00000000 		.4byte	0
 576              	.LLST2:
 577 0058 00000000 		.4byte	.LFB2
 578 005c 02000000 		.4byte	.LCFI4
 579 0060 0200     		.2byte	0x2
 580 0062 7D       		.byte	0x7d
 581 0063 00       		.sleb128 0
 582 0064 02000000 		.4byte	.LCFI4
 583 0068 04000000 		.4byte	.LCFI5
 584 006c 0200     		.2byte	0x2
 585 006e 7D       		.byte	0x7d
 586 006f 08       		.sleb128 8
 587 0070 04000000 		.4byte	.LCFI5
 588 0074 40000000 		.4byte	.LFE2
 589 0078 0200     		.2byte	0x2
 590 007a 77       		.byte	0x77
 591 007b 08       		.sleb128 8
 592 007c 00000000 		.4byte	0
 593 0080 00000000 		.4byte	0
 594              	.LLST3:
 595 0084 00000000 		.4byte	.LFB3
 596 0088 02000000 		.4byte	.LCFI6
 597 008c 0200     		.2byte	0x2
 598 008e 7D       		.byte	0x7d
 599 008f 00       		.sleb128 0
 600 0090 02000000 		.4byte	.LCFI6
 601 0094 04000000 		.4byte	.LCFI7
 602 0098 0200     		.2byte	0x2
 603 009a 7D       		.byte	0x7d
 604 009b 08       		.sleb128 8
 605 009c 04000000 		.4byte	.LCFI7
 606 00a0 1C000000 		.4byte	.LFE3
 607 00a4 0200     		.2byte	0x2
 608 00a6 77       		.byte	0x77
 609 00a7 08       		.sleb128 8
 610 00a8 00000000 		.4byte	0
ARM GAS  C:\Users\Kenichi\AppData\Local\Temp\ccbKeO31.s 			page 15


 611 00ac 00000000 		.4byte	0
 612              		.section	.debug_aranges,"",%progbits
 613 0000 34000000 		.4byte	0x34
 614 0004 0200     		.2byte	0x2
 615 0006 00000000 		.4byte	.Ldebug_info0
 616 000a 04       		.byte	0x4
 617 000b 00       		.byte	0
 618 000c 0000     		.2byte	0
 619 000e 0000     		.2byte	0
 620 0010 00000000 		.4byte	.LFB0
 621 0014 52000000 		.4byte	.LFE0-.LFB0
 622 0018 00000000 		.4byte	.LFB1
 623 001c 4A000000 		.4byte	.LFE1-.LFB1
 624 0020 00000000 		.4byte	.LFB2
 625 0024 40000000 		.4byte	.LFE2-.LFB2
 626 0028 00000000 		.4byte	.LFB3
 627 002c 1C000000 		.4byte	.LFE3-.LFB3
 628 0030 00000000 		.4byte	0
 629 0034 00000000 		.4byte	0
 630              		.section	.debug_ranges,"",%progbits
 631              	.Ldebug_ranges0:
 632 0000 00000000 		.4byte	.LFB0
 633 0004 52000000 		.4byte	.LFE0
 634 0008 00000000 		.4byte	.LFB1
 635 000c 4A000000 		.4byte	.LFE1
 636 0010 00000000 		.4byte	.LFB2
 637 0014 40000000 		.4byte	.LFE2
 638 0018 00000000 		.4byte	.LFB3
 639 001c 1C000000 		.4byte	.LFE3
 640 0020 00000000 		.4byte	0
 641 0024 00000000 		.4byte	0
 642              		.section	.debug_line,"",%progbits
 643              	.Ldebug_line0:
 644 0000 AF000000 		.section	.debug_str,"MS",%progbits,1
 644      02005200 
 644      00000201 
 644      FB0E0D00 
 644      01010101 
 645              	.LASF17:
 646 0000 50574D55 		.ascii	"PWMUdb\000"
 646      646200
 647              	.LASF18:
 648 0007 50574D50 		.ascii	"PWMPeriod\000"
 648      6572696F 
 648      6400
 649              	.LASF28:
 650 0011 433A5C55 		.ascii	"C:\\Users\\Kenichi\\Documents\\PSoC Creator\\servo\\"
 650      73657273 
 650      5C4B656E 
 650      69636869 
 650      5C446F63 
 651 003f 61696C4C 		.ascii	"ailL_true.cydsn\000"
 651      5F747275 
 651      652E6379 
 651      64736E00 
 652              	.LASF3:
 653 004f 73686F72 		.ascii	"short unsigned int\000"
ARM GAS  C:\Users\Kenichi\AppData\Local\Temp\ccbKeO31.s 			page 16


 653      7420756E 
 653      7369676E 
 653      65642069 
 653      6E7400
 654              	.LASF22:
 655 0062 50574D5F 		.ascii	"PWM_1_SaveConfig\000"
 655      315F5361 
 655      7665436F 
 655      6E666967 
 655      00
 656              	.LASF24:
 657 0073 50574D5F 		.ascii	"PWM_1_Sleep\000"
 657      315F536C 
 657      65657000 
 658              	.LASF11:
 659 007f 666C6F61 		.ascii	"float\000"
 659      7400
 660              	.LASF1:
 661 0085 756E7369 		.ascii	"unsigned char\000"
 661      676E6564 
 661      20636861 
 661      7200
 662              	.LASF16:
 663 0093 50574D45 		.ascii	"PWMEnableState\000"
 663      6E61626C 
 663      65537461 
 663      746500
 664              	.LASF29:
 665 00a2 50574D5F 		.ascii	"PWM_1_backup\000"
 665      315F6261 
 665      636B7570 
 665      00
 666              	.LASF9:
 667 00af 75696E74 		.ascii	"uint8\000"
 667      3800
 668              	.LASF20:
 669 00b5 50574D43 		.ascii	"PWMControlRegister\000"
 669      6F6E7472 
 669      6F6C5265 
 669      67697374 
 669      657200
 670              	.LASF12:
 671 00c8 646F7562 		.ascii	"double\000"
 671      6C6500
 672              	.LASF21:
 673 00cf 50574D5F 		.ascii	"PWM_1_backupStruct\000"
 673      315F6261 
 673      636B7570 
 673      53747275 
 673      637400
 674              	.LASF27:
 675 00e2 2E5C4765 		.ascii	".\\Generated_Source\\PSoC5\\PWM_1_PM.c\000"
 675      6E657261 
 675      7465645F 
 675      536F7572 
 675      63655C50 
 676              	.LASF10:
ARM GAS  C:\Users\Kenichi\AppData\Local\Temp\ccbKeO31.s 			page 17


 677 0106 75696E74 		.ascii	"uint16\000"
 677      313600
 678              	.LASF5:
 679 010d 6C6F6E67 		.ascii	"long unsigned int\000"
 679      20756E73 
 679      69676E65 
 679      6420696E 
 679      7400
 680              	.LASF8:
 681 011f 756E7369 		.ascii	"unsigned int\000"
 681      676E6564 
 681      20696E74 
 681      00
 682              	.LASF25:
 683 012c 50574D5F 		.ascii	"PWM_1_Wakeup\000"
 683      315F5761 
 683      6B657570 
 683      00
 684              	.LASF7:
 685 0139 6C6F6E67 		.ascii	"long long unsigned int\000"
 685      206C6F6E 
 685      6720756E 
 685      7369676E 
 685      65642069 
 686              	.LASF23:
 687 0150 50574D5F 		.ascii	"PWM_1_RestoreConfig\000"
 687      315F5265 
 687      73746F72 
 687      65436F6E 
 687      66696700 
 688              	.LASF14:
 689 0164 72656738 		.ascii	"reg8\000"
 689      00
 690              	.LASF15:
 691 0169 73697A65 		.ascii	"sizetype\000"
 691      74797065 
 691      00
 692              	.LASF6:
 693 0172 6C6F6E67 		.ascii	"long long int\000"
 693      206C6F6E 
 693      6720696E 
 693      7400
 694              	.LASF13:
 695 0180 63686172 		.ascii	"char\000"
 695      00
 696              	.LASF2:
 697 0185 73686F72 		.ascii	"short int\000"
 697      7420696E 
 697      7400
 698              	.LASF26:
 699 018f 474E5520 		.ascii	"GNU C 4.7.3 20130312 (release) [ARM/embedded-4_7-br"
 699      4320342E 
 699      372E3320 
 699      32303133 
 699      30333132 
 700 01c2 616E6368 		.ascii	"anch revision 196615]\000"
 700      20726576 
ARM GAS  C:\Users\Kenichi\AppData\Local\Temp\ccbKeO31.s 			page 18


 700      6973696F 
 700      6E203139 
 700      36363135 
 701              	.LASF4:
 702 01d8 6C6F6E67 		.ascii	"long int\000"
 702      20696E74 
 702      00
 703              	.LASF0:
 704 01e1 7369676E 		.ascii	"signed char\000"
 704      65642063 
 704      68617200 
 705              	.LASF19:
 706 01ed 496E7465 		.ascii	"InterruptMaskValue\000"
 706      72727570 
 706      744D6173 
 706      6B56616C 
 706      756500
 707              		.ident	"GCC: (GNU Tools for ARM Embedded Processors) 4.7.3 20130312 (release) [ARM/embedded-4_7-br
