ARM GAS  C:\Users\Kenichi\AppData\Local\Temp\cc4f2YTn.s 			page 1


   1              		.syntax unified
   2              		.cpu cortex-m3
   3              		.fpu softvfp
   4              		.eabi_attribute 20, 1
   5              		.eabi_attribute 21, 1
   6              		.eabi_attribute 23, 3
   7              		.eabi_attribute 24, 1
   8              		.eabi_attribute 25, 1
   9              		.eabi_attribute 26, 1
  10              		.eabi_attribute 30, 6
  11              		.eabi_attribute 34, 1
  12              		.eabi_attribute 18, 4
  13              		.thumb
  14              		.file	"rs485_isr.c"
  15              		.text
  16              	.Ltext0:
  17              		.cfi_sections	.debug_frame
  18              		.section	.text.rs485_isr_Start,"ax",%progbits
  19              		.align	2
  20              		.global	rs485_isr_Start
  21              		.thumb
  22              		.thumb_func
  23              		.type	rs485_isr_Start, %function
  24              	rs485_isr_Start:
  25              	.LFB0:
  26              		.file 1 ".\\Generated_Source\\PSoC5\\rs485_isr.c"
   1:.\Generated_Source\PSoC5/rs485_isr.c **** /*******************************************************************************
   2:.\Generated_Source\PSoC5/rs485_isr.c **** * File Name: rs485_isr.c  
   3:.\Generated_Source\PSoC5/rs485_isr.c **** * Version 1.70
   4:.\Generated_Source\PSoC5/rs485_isr.c **** *
   5:.\Generated_Source\PSoC5/rs485_isr.c **** *  Description:
   6:.\Generated_Source\PSoC5/rs485_isr.c **** *   API for controlling the state of an interrupt.
   7:.\Generated_Source\PSoC5/rs485_isr.c **** *
   8:.\Generated_Source\PSoC5/rs485_isr.c **** *
   9:.\Generated_Source\PSoC5/rs485_isr.c **** *  Note:
  10:.\Generated_Source\PSoC5/rs485_isr.c **** *
  11:.\Generated_Source\PSoC5/rs485_isr.c **** ********************************************************************************
  12:.\Generated_Source\PSoC5/rs485_isr.c **** * Copyright 2008-2012, Cypress Semiconductor Corporation.  All rights reserved.
  13:.\Generated_Source\PSoC5/rs485_isr.c **** * You may use this file only in accordance with the license, terms, conditions, 
  14:.\Generated_Source\PSoC5/rs485_isr.c **** * disclaimers, and limitations in the end user license agreement accompanying 
  15:.\Generated_Source\PSoC5/rs485_isr.c **** * the software package with which this file was provided.
  16:.\Generated_Source\PSoC5/rs485_isr.c **** *******************************************************************************/
  17:.\Generated_Source\PSoC5/rs485_isr.c **** 
  18:.\Generated_Source\PSoC5/rs485_isr.c **** 
  19:.\Generated_Source\PSoC5/rs485_isr.c **** #include <cydevice_trm.h>
  20:.\Generated_Source\PSoC5/rs485_isr.c **** #include <CyLib.h>
  21:.\Generated_Source\PSoC5/rs485_isr.c **** #include <rs485_isr.h>
  22:.\Generated_Source\PSoC5/rs485_isr.c **** 
  23:.\Generated_Source\PSoC5/rs485_isr.c **** #if !defined(rs485_isr__REMOVED) /* Check for removal by optimization */
  24:.\Generated_Source\PSoC5/rs485_isr.c **** 
  25:.\Generated_Source\PSoC5/rs485_isr.c **** /*******************************************************************************
  26:.\Generated_Source\PSoC5/rs485_isr.c **** *  Place your includes, defines and code here 
  27:.\Generated_Source\PSoC5/rs485_isr.c **** ********************************************************************************/
  28:.\Generated_Source\PSoC5/rs485_isr.c **** /* `#START rs485_isr_intc` */
  29:.\Generated_Source\PSoC5/rs485_isr.c **** 
  30:.\Generated_Source\PSoC5/rs485_isr.c **** /* `#END` */
  31:.\Generated_Source\PSoC5/rs485_isr.c **** 
ARM GAS  C:\Users\Kenichi\AppData\Local\Temp\cc4f2YTn.s 			page 2


  32:.\Generated_Source\PSoC5/rs485_isr.c **** #ifndef CYINT_IRQ_BASE
  33:.\Generated_Source\PSoC5/rs485_isr.c **** #define CYINT_IRQ_BASE      16
  34:.\Generated_Source\PSoC5/rs485_isr.c **** #endif /* CYINT_IRQ_BASE */
  35:.\Generated_Source\PSoC5/rs485_isr.c **** #ifndef CYINT_VECT_TABLE
  36:.\Generated_Source\PSoC5/rs485_isr.c **** #define CYINT_VECT_TABLE    ((cyisraddress **) CYREG_NVIC_VECT_OFFSET)
  37:.\Generated_Source\PSoC5/rs485_isr.c **** #endif /* CYINT_VECT_TABLE */
  38:.\Generated_Source\PSoC5/rs485_isr.c **** 
  39:.\Generated_Source\PSoC5/rs485_isr.c **** /* Declared in startup, used to set unused interrupts to. */
  40:.\Generated_Source\PSoC5/rs485_isr.c **** CY_ISR_PROTO(IntDefaultHandler);
  41:.\Generated_Source\PSoC5/rs485_isr.c **** 
  42:.\Generated_Source\PSoC5/rs485_isr.c **** 
  43:.\Generated_Source\PSoC5/rs485_isr.c **** /*******************************************************************************
  44:.\Generated_Source\PSoC5/rs485_isr.c **** * Function Name: rs485_isr_Start
  45:.\Generated_Source\PSoC5/rs485_isr.c **** ********************************************************************************
  46:.\Generated_Source\PSoC5/rs485_isr.c **** *
  47:.\Generated_Source\PSoC5/rs485_isr.c **** * Summary:
  48:.\Generated_Source\PSoC5/rs485_isr.c **** *  Set up the interrupt and enable it.
  49:.\Generated_Source\PSoC5/rs485_isr.c **** *
  50:.\Generated_Source\PSoC5/rs485_isr.c **** * Parameters:  
  51:.\Generated_Source\PSoC5/rs485_isr.c **** *   None
  52:.\Generated_Source\PSoC5/rs485_isr.c **** *
  53:.\Generated_Source\PSoC5/rs485_isr.c **** * Return:
  54:.\Generated_Source\PSoC5/rs485_isr.c **** *   None
  55:.\Generated_Source\PSoC5/rs485_isr.c **** *
  56:.\Generated_Source\PSoC5/rs485_isr.c **** *******************************************************************************/
  57:.\Generated_Source\PSoC5/rs485_isr.c **** void rs485_isr_Start(void)
  58:.\Generated_Source\PSoC5/rs485_isr.c **** {
  27              		.loc 1 58 0
  28              		.cfi_startproc
  29              		@ args = 0, pretend = 0, frame = 0
  30              		@ frame_needed = 1, uses_anonymous_args = 0
  31 0000 80B5     		push	{r7, lr}
  32              	.LCFI0:
  33              		.cfi_def_cfa_offset 8
  34              		.cfi_offset 7, -8
  35              		.cfi_offset 14, -4
  36 0002 00AF     		add	r7, sp, #0
  37              	.LCFI1:
  38              		.cfi_def_cfa_register 7
  59:.\Generated_Source\PSoC5/rs485_isr.c ****     /* For all we know the interrupt is active. */
  60:.\Generated_Source\PSoC5/rs485_isr.c ****     rs485_isr_Disable();
  39              		.loc 1 60 0
  40 0004 FFF7FEFF 		bl	rs485_isr_Disable
  61:.\Generated_Source\PSoC5/rs485_isr.c **** 
  62:.\Generated_Source\PSoC5/rs485_isr.c ****     /* Set the ISR to point to the rs485_isr Interrupt. */
  63:.\Generated_Source\PSoC5/rs485_isr.c ****     rs485_isr_SetVector(&rs485_isr_Interrupt);
  41              		.loc 1 63 0
  42 0008 40F20000 		movw	r0, #:lower16:rs485_isr_Interrupt
  43 000c C0F20000 		movt	r0, #:upper16:rs485_isr_Interrupt
  44 0010 FFF7FEFF 		bl	rs485_isr_SetVector
  64:.\Generated_Source\PSoC5/rs485_isr.c **** 
  65:.\Generated_Source\PSoC5/rs485_isr.c ****     /* Set the priority. */
  66:.\Generated_Source\PSoC5/rs485_isr.c ****     rs485_isr_SetPriority((uint8)rs485_isr_INTC_PRIOR_NUMBER);
  45              		.loc 1 66 0
  46 0014 4FF00700 		mov	r0, #7
  47 0018 FFF7FEFF 		bl	rs485_isr_SetPriority
  67:.\Generated_Source\PSoC5/rs485_isr.c **** 
ARM GAS  C:\Users\Kenichi\AppData\Local\Temp\cc4f2YTn.s 			page 3


  68:.\Generated_Source\PSoC5/rs485_isr.c ****     /* Enable it. */
  69:.\Generated_Source\PSoC5/rs485_isr.c ****     rs485_isr_Enable();
  48              		.loc 1 69 0
  49 001c FFF7FEFF 		bl	rs485_isr_Enable
  70:.\Generated_Source\PSoC5/rs485_isr.c **** }
  50              		.loc 1 70 0
  51 0020 80BD     		pop	{r7, pc}
  52              		.cfi_endproc
  53              	.LFE0:
  54              		.size	rs485_isr_Start, .-rs485_isr_Start
  55 0022 00BF     		.section	.text.rs485_isr_StartEx,"ax",%progbits
  56              		.align	2
  57              		.global	rs485_isr_StartEx
  58              		.thumb
  59              		.thumb_func
  60              		.type	rs485_isr_StartEx, %function
  61              	rs485_isr_StartEx:
  62              	.LFB1:
  71:.\Generated_Source\PSoC5/rs485_isr.c **** 
  72:.\Generated_Source\PSoC5/rs485_isr.c **** 
  73:.\Generated_Source\PSoC5/rs485_isr.c **** /*******************************************************************************
  74:.\Generated_Source\PSoC5/rs485_isr.c **** * Function Name: rs485_isr_StartEx
  75:.\Generated_Source\PSoC5/rs485_isr.c **** ********************************************************************************
  76:.\Generated_Source\PSoC5/rs485_isr.c **** *
  77:.\Generated_Source\PSoC5/rs485_isr.c **** * Summary:
  78:.\Generated_Source\PSoC5/rs485_isr.c **** *  Set up the interrupt and enable it.
  79:.\Generated_Source\PSoC5/rs485_isr.c **** *
  80:.\Generated_Source\PSoC5/rs485_isr.c **** * Parameters:  
  81:.\Generated_Source\PSoC5/rs485_isr.c **** *   address: Address of the ISR to set in the interrupt vector table.
  82:.\Generated_Source\PSoC5/rs485_isr.c **** *
  83:.\Generated_Source\PSoC5/rs485_isr.c **** * Return:
  84:.\Generated_Source\PSoC5/rs485_isr.c **** *   None
  85:.\Generated_Source\PSoC5/rs485_isr.c **** *
  86:.\Generated_Source\PSoC5/rs485_isr.c **** *******************************************************************************/
  87:.\Generated_Source\PSoC5/rs485_isr.c **** void rs485_isr_StartEx(cyisraddress address)
  88:.\Generated_Source\PSoC5/rs485_isr.c **** {
  63              		.loc 1 88 0
  64              		.cfi_startproc
  65              		@ args = 0, pretend = 0, frame = 8
  66              		@ frame_needed = 1, uses_anonymous_args = 0
  67 0000 80B5     		push	{r7, lr}
  68              	.LCFI2:
  69              		.cfi_def_cfa_offset 8
  70              		.cfi_offset 7, -8
  71              		.cfi_offset 14, -4
  72 0002 82B0     		sub	sp, sp, #8
  73              	.LCFI3:
  74              		.cfi_def_cfa_offset 16
  75 0004 00AF     		add	r7, sp, #0
  76              	.LCFI4:
  77              		.cfi_def_cfa_register 7
  78 0006 7860     		str	r0, [r7, #4]
  89:.\Generated_Source\PSoC5/rs485_isr.c ****     /* For all we know the interrupt is active. */
  90:.\Generated_Source\PSoC5/rs485_isr.c ****     rs485_isr_Disable();
  79              		.loc 1 90 0
  80 0008 FFF7FEFF 		bl	rs485_isr_Disable
  91:.\Generated_Source\PSoC5/rs485_isr.c **** 
ARM GAS  C:\Users\Kenichi\AppData\Local\Temp\cc4f2YTn.s 			page 4


  92:.\Generated_Source\PSoC5/rs485_isr.c ****     /* Set the ISR to point to the rs485_isr Interrupt. */
  93:.\Generated_Source\PSoC5/rs485_isr.c ****     rs485_isr_SetVector(address);
  81              		.loc 1 93 0
  82 000c 7868     		ldr	r0, [r7, #4]
  83 000e FFF7FEFF 		bl	rs485_isr_SetVector
  94:.\Generated_Source\PSoC5/rs485_isr.c **** 
  95:.\Generated_Source\PSoC5/rs485_isr.c ****     /* Set the priority. */
  96:.\Generated_Source\PSoC5/rs485_isr.c ****     rs485_isr_SetPriority((uint8)rs485_isr_INTC_PRIOR_NUMBER);
  84              		.loc 1 96 0
  85 0012 4FF00700 		mov	r0, #7
  86 0016 FFF7FEFF 		bl	rs485_isr_SetPriority
  97:.\Generated_Source\PSoC5/rs485_isr.c **** 
  98:.\Generated_Source\PSoC5/rs485_isr.c ****     /* Enable it. */
  99:.\Generated_Source\PSoC5/rs485_isr.c ****     rs485_isr_Enable();
  87              		.loc 1 99 0
  88 001a FFF7FEFF 		bl	rs485_isr_Enable
 100:.\Generated_Source\PSoC5/rs485_isr.c **** }
  89              		.loc 1 100 0
  90 001e 07F10807 		add	r7, r7, #8
  91 0022 BD46     		mov	sp, r7
  92 0024 80BD     		pop	{r7, pc}
  93              		.cfi_endproc
  94              	.LFE1:
  95              		.size	rs485_isr_StartEx, .-rs485_isr_StartEx
  96 0026 00BF     		.section	.text.rs485_isr_Stop,"ax",%progbits
  97              		.align	2
  98              		.global	rs485_isr_Stop
  99              		.thumb
 100              		.thumb_func
 101              		.type	rs485_isr_Stop, %function
 102              	rs485_isr_Stop:
 103              	.LFB2:
 101:.\Generated_Source\PSoC5/rs485_isr.c **** 
 102:.\Generated_Source\PSoC5/rs485_isr.c **** 
 103:.\Generated_Source\PSoC5/rs485_isr.c **** /*******************************************************************************
 104:.\Generated_Source\PSoC5/rs485_isr.c **** * Function Name: rs485_isr_Stop
 105:.\Generated_Source\PSoC5/rs485_isr.c **** ********************************************************************************
 106:.\Generated_Source\PSoC5/rs485_isr.c **** *
 107:.\Generated_Source\PSoC5/rs485_isr.c **** * Summary:
 108:.\Generated_Source\PSoC5/rs485_isr.c **** *   Disables and removes the interrupt.
 109:.\Generated_Source\PSoC5/rs485_isr.c **** *
 110:.\Generated_Source\PSoC5/rs485_isr.c **** * Parameters:  
 111:.\Generated_Source\PSoC5/rs485_isr.c **** *
 112:.\Generated_Source\PSoC5/rs485_isr.c **** * Return:
 113:.\Generated_Source\PSoC5/rs485_isr.c **** *   None
 114:.\Generated_Source\PSoC5/rs485_isr.c **** *
 115:.\Generated_Source\PSoC5/rs485_isr.c **** *******************************************************************************/
 116:.\Generated_Source\PSoC5/rs485_isr.c **** void rs485_isr_Stop(void)
 117:.\Generated_Source\PSoC5/rs485_isr.c **** {
 104              		.loc 1 117 0
 105              		.cfi_startproc
 106              		@ args = 0, pretend = 0, frame = 0
 107              		@ frame_needed = 1, uses_anonymous_args = 0
 108 0000 80B5     		push	{r7, lr}
 109              	.LCFI5:
 110              		.cfi_def_cfa_offset 8
 111              		.cfi_offset 7, -8
ARM GAS  C:\Users\Kenichi\AppData\Local\Temp\cc4f2YTn.s 			page 5


 112              		.cfi_offset 14, -4
 113 0002 00AF     		add	r7, sp, #0
 114              	.LCFI6:
 115              		.cfi_def_cfa_register 7
 118:.\Generated_Source\PSoC5/rs485_isr.c ****     /* Disable this interrupt. */
 119:.\Generated_Source\PSoC5/rs485_isr.c ****     rs485_isr_Disable();
 116              		.loc 1 119 0
 117 0004 FFF7FEFF 		bl	rs485_isr_Disable
 120:.\Generated_Source\PSoC5/rs485_isr.c **** 
 121:.\Generated_Source\PSoC5/rs485_isr.c ****     /* Set the ISR to point to the passive one. */
 122:.\Generated_Source\PSoC5/rs485_isr.c ****     rs485_isr_SetVector(&IntDefaultHandler);
 118              		.loc 1 122 0
 119 0008 40F20000 		movw	r0, #:lower16:IntDefaultHandler
 120 000c C0F20000 		movt	r0, #:upper16:IntDefaultHandler
 121 0010 FFF7FEFF 		bl	rs485_isr_SetVector
 123:.\Generated_Source\PSoC5/rs485_isr.c **** }
 122              		.loc 1 123 0
 123 0014 80BD     		pop	{r7, pc}
 124              		.cfi_endproc
 125              	.LFE2:
 126              		.size	rs485_isr_Stop, .-rs485_isr_Stop
 127 0016 00BF     		.section	.text.rs485_isr_Interrupt,"ax",%progbits
 128              		.align	2
 129              		.global	rs485_isr_Interrupt
 130              		.thumb
 131              		.thumb_func
 132              		.type	rs485_isr_Interrupt, %function
 133              	rs485_isr_Interrupt:
 134              	.LFB3:
 124:.\Generated_Source\PSoC5/rs485_isr.c **** 
 125:.\Generated_Source\PSoC5/rs485_isr.c **** 
 126:.\Generated_Source\PSoC5/rs485_isr.c **** /*******************************************************************************
 127:.\Generated_Source\PSoC5/rs485_isr.c **** * Function Name: rs485_isr_Interrupt
 128:.\Generated_Source\PSoC5/rs485_isr.c **** ********************************************************************************
 129:.\Generated_Source\PSoC5/rs485_isr.c **** *
 130:.\Generated_Source\PSoC5/rs485_isr.c **** * Summary:
 131:.\Generated_Source\PSoC5/rs485_isr.c **** *   The default Interrupt Service Routine for rs485_isr.
 132:.\Generated_Source\PSoC5/rs485_isr.c **** *
 133:.\Generated_Source\PSoC5/rs485_isr.c **** *   Add custom code between the coments to keep the next version of this file
 134:.\Generated_Source\PSoC5/rs485_isr.c **** *   from over writting your code.
 135:.\Generated_Source\PSoC5/rs485_isr.c **** *
 136:.\Generated_Source\PSoC5/rs485_isr.c **** * Parameters:  
 137:.\Generated_Source\PSoC5/rs485_isr.c **** *
 138:.\Generated_Source\PSoC5/rs485_isr.c **** * Return:
 139:.\Generated_Source\PSoC5/rs485_isr.c **** *   None
 140:.\Generated_Source\PSoC5/rs485_isr.c **** *
 141:.\Generated_Source\PSoC5/rs485_isr.c **** *******************************************************************************/
 142:.\Generated_Source\PSoC5/rs485_isr.c **** CY_ISR(rs485_isr_Interrupt)
 143:.\Generated_Source\PSoC5/rs485_isr.c **** {
 135              		.loc 1 143 0
 136              		.cfi_startproc
 137              		@ args = 0, pretend = 0, frame = 0
 138              		@ frame_needed = 1, uses_anonymous_args = 0
 139              		@ link register save eliminated.
 140 0000 80B4     		push	{r7}
 141              	.LCFI7:
 142              		.cfi_def_cfa_offset 4
ARM GAS  C:\Users\Kenichi\AppData\Local\Temp\cc4f2YTn.s 			page 6


 143              		.cfi_offset 7, -4
 144 0002 00AF     		add	r7, sp, #0
 145              	.LCFI8:
 146              		.cfi_def_cfa_register 7
 144:.\Generated_Source\PSoC5/rs485_isr.c ****     /*  Place your Interrupt code here. */
 145:.\Generated_Source\PSoC5/rs485_isr.c ****     /* `#START rs485_isr_Interrupt` */
 146:.\Generated_Source\PSoC5/rs485_isr.c **** 
 147:.\Generated_Source\PSoC5/rs485_isr.c ****     /* `#END` */
 148:.\Generated_Source\PSoC5/rs485_isr.c **** }
 147              		.loc 1 148 0
 148 0004 BD46     		mov	sp, r7
 149 0006 80BC     		pop	{r7}
 150 0008 7047     		bx	lr
 151              		.cfi_endproc
 152              	.LFE3:
 153              		.size	rs485_isr_Interrupt, .-rs485_isr_Interrupt
 154 000a 00BF     		.section	.text.rs485_isr_SetVector,"ax",%progbits
 155              		.align	2
 156              		.global	rs485_isr_SetVector
 157              		.thumb
 158              		.thumb_func
 159              		.type	rs485_isr_SetVector, %function
 160              	rs485_isr_SetVector:
 161              	.LFB4:
 149:.\Generated_Source\PSoC5/rs485_isr.c **** 
 150:.\Generated_Source\PSoC5/rs485_isr.c **** 
 151:.\Generated_Source\PSoC5/rs485_isr.c **** /*******************************************************************************
 152:.\Generated_Source\PSoC5/rs485_isr.c **** * Function Name: rs485_isr_SetVector
 153:.\Generated_Source\PSoC5/rs485_isr.c **** ********************************************************************************
 154:.\Generated_Source\PSoC5/rs485_isr.c **** *
 155:.\Generated_Source\PSoC5/rs485_isr.c **** * Summary:
 156:.\Generated_Source\PSoC5/rs485_isr.c **** *   Change the ISR vector for the Interrupt. Note calling rs485_isr_Start
 157:.\Generated_Source\PSoC5/rs485_isr.c **** *   will override any effect this method would have had. To set the vector 
 158:.\Generated_Source\PSoC5/rs485_isr.c **** *   before the component has been started use rs485_isr_StartEx instead.
 159:.\Generated_Source\PSoC5/rs485_isr.c **** *
 160:.\Generated_Source\PSoC5/rs485_isr.c **** * Parameters:
 161:.\Generated_Source\PSoC5/rs485_isr.c **** *   address: Address of the ISR to set in the interrupt vector table.
 162:.\Generated_Source\PSoC5/rs485_isr.c **** *
 163:.\Generated_Source\PSoC5/rs485_isr.c **** * Return:
 164:.\Generated_Source\PSoC5/rs485_isr.c **** *   None
 165:.\Generated_Source\PSoC5/rs485_isr.c **** *
 166:.\Generated_Source\PSoC5/rs485_isr.c **** *******************************************************************************/
 167:.\Generated_Source\PSoC5/rs485_isr.c **** void rs485_isr_SetVector(cyisraddress address)
 168:.\Generated_Source\PSoC5/rs485_isr.c **** {
 162              		.loc 1 168 0
 163              		.cfi_startproc
 164              		@ args = 0, pretend = 0, frame = 16
 165              		@ frame_needed = 1, uses_anonymous_args = 0
 166              		@ link register save eliminated.
 167 0000 80B4     		push	{r7}
 168              	.LCFI9:
 169              		.cfi_def_cfa_offset 4
 170              		.cfi_offset 7, -4
 171 0002 85B0     		sub	sp, sp, #20
 172              	.LCFI10:
 173              		.cfi_def_cfa_offset 24
 174 0004 00AF     		add	r7, sp, #0
ARM GAS  C:\Users\Kenichi\AppData\Local\Temp\cc4f2YTn.s 			page 7


 175              	.LCFI11:
 176              		.cfi_def_cfa_register 7
 177 0006 7860     		str	r0, [r7, #4]
 169:.\Generated_Source\PSoC5/rs485_isr.c ****     cyisraddress * ramVectorTable;
 170:.\Generated_Source\PSoC5/rs485_isr.c **** 
 171:.\Generated_Source\PSoC5/rs485_isr.c ****     ramVectorTable = (cyisraddress *) *CYINT_VECT_TABLE;
 178              		.loc 1 171 0
 179 0008 4EF60853 		movw	r3, #60680
 180 000c CEF20003 		movt	r3, 57344
 181 0010 1B68     		ldr	r3, [r3, #0]
 182 0012 FB60     		str	r3, [r7, #12]
 172:.\Generated_Source\PSoC5/rs485_isr.c **** 
 173:.\Generated_Source\PSoC5/rs485_isr.c ****     ramVectorTable[CYINT_IRQ_BASE + (uint32)rs485_isr__INTC_NUMBER] = address;
 183              		.loc 1 173 0
 184 0014 FB68     		ldr	r3, [r7, #12]
 185 0016 03F14403 		add	r3, r3, #68
 186 001a 7A68     		ldr	r2, [r7, #4]
 187 001c 1A60     		str	r2, [r3, #0]
 174:.\Generated_Source\PSoC5/rs485_isr.c **** }
 188              		.loc 1 174 0
 189 001e 07F11407 		add	r7, r7, #20
 190 0022 BD46     		mov	sp, r7
 191 0024 80BC     		pop	{r7}
 192 0026 7047     		bx	lr
 193              		.cfi_endproc
 194              	.LFE4:
 195              		.size	rs485_isr_SetVector, .-rs485_isr_SetVector
 196              		.section	.text.rs485_isr_GetVector,"ax",%progbits
 197              		.align	2
 198              		.global	rs485_isr_GetVector
 199              		.thumb
 200              		.thumb_func
 201              		.type	rs485_isr_GetVector, %function
 202              	rs485_isr_GetVector:
 203              	.LFB5:
 175:.\Generated_Source\PSoC5/rs485_isr.c **** 
 176:.\Generated_Source\PSoC5/rs485_isr.c **** 
 177:.\Generated_Source\PSoC5/rs485_isr.c **** /*******************************************************************************
 178:.\Generated_Source\PSoC5/rs485_isr.c **** * Function Name: rs485_isr_GetVector
 179:.\Generated_Source\PSoC5/rs485_isr.c **** ********************************************************************************
 180:.\Generated_Source\PSoC5/rs485_isr.c **** *
 181:.\Generated_Source\PSoC5/rs485_isr.c **** * Summary:
 182:.\Generated_Source\PSoC5/rs485_isr.c **** *   Gets the "address" of the current ISR vector for the Interrupt.
 183:.\Generated_Source\PSoC5/rs485_isr.c **** *
 184:.\Generated_Source\PSoC5/rs485_isr.c **** * Parameters:
 185:.\Generated_Source\PSoC5/rs485_isr.c **** *   None
 186:.\Generated_Source\PSoC5/rs485_isr.c **** *
 187:.\Generated_Source\PSoC5/rs485_isr.c **** * Return:
 188:.\Generated_Source\PSoC5/rs485_isr.c **** *   Address of the ISR in the interrupt vector table.
 189:.\Generated_Source\PSoC5/rs485_isr.c **** *
 190:.\Generated_Source\PSoC5/rs485_isr.c **** *******************************************************************************/
 191:.\Generated_Source\PSoC5/rs485_isr.c **** cyisraddress rs485_isr_GetVector(void)
 192:.\Generated_Source\PSoC5/rs485_isr.c **** {
 204              		.loc 1 192 0
 205              		.cfi_startproc
 206              		@ args = 0, pretend = 0, frame = 8
 207              		@ frame_needed = 1, uses_anonymous_args = 0
ARM GAS  C:\Users\Kenichi\AppData\Local\Temp\cc4f2YTn.s 			page 8


 208              		@ link register save eliminated.
 209 0000 80B4     		push	{r7}
 210              	.LCFI12:
 211              		.cfi_def_cfa_offset 4
 212              		.cfi_offset 7, -4
 213 0002 83B0     		sub	sp, sp, #12
 214              	.LCFI13:
 215              		.cfi_def_cfa_offset 16
 216 0004 00AF     		add	r7, sp, #0
 217              	.LCFI14:
 218              		.cfi_def_cfa_register 7
 193:.\Generated_Source\PSoC5/rs485_isr.c ****     cyisraddress * ramVectorTable;
 194:.\Generated_Source\PSoC5/rs485_isr.c **** 
 195:.\Generated_Source\PSoC5/rs485_isr.c ****     ramVectorTable = (cyisraddress *) *CYINT_VECT_TABLE;
 219              		.loc 1 195 0
 220 0006 4EF60853 		movw	r3, #60680
 221 000a CEF20003 		movt	r3, 57344
 222 000e 1B68     		ldr	r3, [r3, #0]
 223 0010 7B60     		str	r3, [r7, #4]
 196:.\Generated_Source\PSoC5/rs485_isr.c **** 
 197:.\Generated_Source\PSoC5/rs485_isr.c ****     return ramVectorTable[CYINT_IRQ_BASE + (uint32)rs485_isr__INTC_NUMBER];
 224              		.loc 1 197 0
 225 0012 7B68     		ldr	r3, [r7, #4]
 226 0014 5B6C     		ldr	r3, [r3, #68]
 198:.\Generated_Source\PSoC5/rs485_isr.c **** }
 227              		.loc 1 198 0
 228 0016 1846     		mov	r0, r3
 229 0018 07F10C07 		add	r7, r7, #12
 230 001c BD46     		mov	sp, r7
 231 001e 80BC     		pop	{r7}
 232 0020 7047     		bx	lr
 233              		.cfi_endproc
 234              	.LFE5:
 235              		.size	rs485_isr_GetVector, .-rs485_isr_GetVector
 236 0022 00BF     		.section	.text.rs485_isr_SetPriority,"ax",%progbits
 237              		.align	2
 238              		.global	rs485_isr_SetPriority
 239              		.thumb
 240              		.thumb_func
 241              		.type	rs485_isr_SetPriority, %function
 242              	rs485_isr_SetPriority:
 243              	.LFB6:
 199:.\Generated_Source\PSoC5/rs485_isr.c **** 
 200:.\Generated_Source\PSoC5/rs485_isr.c **** 
 201:.\Generated_Source\PSoC5/rs485_isr.c **** /*******************************************************************************
 202:.\Generated_Source\PSoC5/rs485_isr.c **** * Function Name: rs485_isr_SetPriority
 203:.\Generated_Source\PSoC5/rs485_isr.c **** ********************************************************************************
 204:.\Generated_Source\PSoC5/rs485_isr.c **** *
 205:.\Generated_Source\PSoC5/rs485_isr.c **** * Summary:
 206:.\Generated_Source\PSoC5/rs485_isr.c **** *   Sets the Priority of the Interrupt. Note calling rs485_isr_Start
 207:.\Generated_Source\PSoC5/rs485_isr.c **** *   or rs485_isr_StartEx will override any effect this method 
 208:.\Generated_Source\PSoC5/rs485_isr.c **** *   would have had. This method should only be called after 
 209:.\Generated_Source\PSoC5/rs485_isr.c **** *   rs485_isr_Start or rs485_isr_StartEx has been called. To set 
 210:.\Generated_Source\PSoC5/rs485_isr.c **** *   the initial priority for the component use the cydwr file in the tool.
 211:.\Generated_Source\PSoC5/rs485_isr.c **** *
 212:.\Generated_Source\PSoC5/rs485_isr.c **** * Parameters:
 213:.\Generated_Source\PSoC5/rs485_isr.c **** *   priority: Priority of the interrupt. 0 - 7, 0 being the highest.
ARM GAS  C:\Users\Kenichi\AppData\Local\Temp\cc4f2YTn.s 			page 9


 214:.\Generated_Source\PSoC5/rs485_isr.c **** *
 215:.\Generated_Source\PSoC5/rs485_isr.c **** * Return:
 216:.\Generated_Source\PSoC5/rs485_isr.c **** *   None
 217:.\Generated_Source\PSoC5/rs485_isr.c **** *
 218:.\Generated_Source\PSoC5/rs485_isr.c **** *******************************************************************************/
 219:.\Generated_Source\PSoC5/rs485_isr.c **** void rs485_isr_SetPriority(uint8 priority)
 220:.\Generated_Source\PSoC5/rs485_isr.c **** {
 244              		.loc 1 220 0
 245              		.cfi_startproc
 246              		@ args = 0, pretend = 0, frame = 8
 247              		@ frame_needed = 1, uses_anonymous_args = 0
 248              		@ link register save eliminated.
 249 0000 80B4     		push	{r7}
 250              	.LCFI15:
 251              		.cfi_def_cfa_offset 4
 252              		.cfi_offset 7, -4
 253 0002 83B0     		sub	sp, sp, #12
 254              	.LCFI16:
 255              		.cfi_def_cfa_offset 16
 256 0004 00AF     		add	r7, sp, #0
 257              	.LCFI17:
 258              		.cfi_def_cfa_register 7
 259 0006 0346     		mov	r3, r0
 260 0008 FB71     		strb	r3, [r7, #7]
 221:.\Generated_Source\PSoC5/rs485_isr.c ****     *rs485_isr_INTC_PRIOR = priority << 5;
 261              		.loc 1 221 0
 262 000a 4EF20143 		movw	r3, #58369
 263 000e CEF20003 		movt	r3, 57344
 264 0012 FA79     		ldrb	r2, [r7, #7]
 265 0014 4FEA4212 		lsl	r2, r2, #5
 266 0018 D2B2     		uxtb	r2, r2
 267 001a 1A70     		strb	r2, [r3, #0]
 222:.\Generated_Source\PSoC5/rs485_isr.c **** }
 268              		.loc 1 222 0
 269 001c 07F10C07 		add	r7, r7, #12
 270 0020 BD46     		mov	sp, r7
 271 0022 80BC     		pop	{r7}
 272 0024 7047     		bx	lr
 273              		.cfi_endproc
 274              	.LFE6:
 275              		.size	rs485_isr_SetPriority, .-rs485_isr_SetPriority
 276 0026 00BF     		.section	.text.rs485_isr_GetPriority,"ax",%progbits
 277              		.align	2
 278              		.global	rs485_isr_GetPriority
 279              		.thumb
 280              		.thumb_func
 281              		.type	rs485_isr_GetPriority, %function
 282              	rs485_isr_GetPriority:
 283              	.LFB7:
 223:.\Generated_Source\PSoC5/rs485_isr.c **** 
 224:.\Generated_Source\PSoC5/rs485_isr.c **** 
 225:.\Generated_Source\PSoC5/rs485_isr.c **** /*******************************************************************************
 226:.\Generated_Source\PSoC5/rs485_isr.c **** * Function Name: rs485_isr_GetPriority
 227:.\Generated_Source\PSoC5/rs485_isr.c **** ********************************************************************************
 228:.\Generated_Source\PSoC5/rs485_isr.c **** *
 229:.\Generated_Source\PSoC5/rs485_isr.c **** * Summary:
 230:.\Generated_Source\PSoC5/rs485_isr.c **** *   Gets the Priority of the Interrupt.
ARM GAS  C:\Users\Kenichi\AppData\Local\Temp\cc4f2YTn.s 			page 10


 231:.\Generated_Source\PSoC5/rs485_isr.c **** *
 232:.\Generated_Source\PSoC5/rs485_isr.c **** * Parameters:
 233:.\Generated_Source\PSoC5/rs485_isr.c **** *   None
 234:.\Generated_Source\PSoC5/rs485_isr.c **** *
 235:.\Generated_Source\PSoC5/rs485_isr.c **** * Return:
 236:.\Generated_Source\PSoC5/rs485_isr.c **** *   Priority of the interrupt. 0 - 7, 0 being the highest.
 237:.\Generated_Source\PSoC5/rs485_isr.c **** *
 238:.\Generated_Source\PSoC5/rs485_isr.c **** *******************************************************************************/
 239:.\Generated_Source\PSoC5/rs485_isr.c **** uint8 rs485_isr_GetPriority(void)
 240:.\Generated_Source\PSoC5/rs485_isr.c **** {
 284              		.loc 1 240 0
 285              		.cfi_startproc
 286              		@ args = 0, pretend = 0, frame = 8
 287              		@ frame_needed = 1, uses_anonymous_args = 0
 288              		@ link register save eliminated.
 289 0000 80B4     		push	{r7}
 290              	.LCFI18:
 291              		.cfi_def_cfa_offset 4
 292              		.cfi_offset 7, -4
 293 0002 83B0     		sub	sp, sp, #12
 294              	.LCFI19:
 295              		.cfi_def_cfa_offset 16
 296 0004 00AF     		add	r7, sp, #0
 297              	.LCFI20:
 298              		.cfi_def_cfa_register 7
 241:.\Generated_Source\PSoC5/rs485_isr.c ****     uint8 priority;
 242:.\Generated_Source\PSoC5/rs485_isr.c **** 
 243:.\Generated_Source\PSoC5/rs485_isr.c **** 
 244:.\Generated_Source\PSoC5/rs485_isr.c ****     priority = *rs485_isr_INTC_PRIOR >> 5;
 299              		.loc 1 244 0
 300 0006 4EF20143 		movw	r3, #58369
 301 000a CEF20003 		movt	r3, 57344
 302 000e 1B78     		ldrb	r3, [r3, #0]
 303 0010 DBB2     		uxtb	r3, r3
 304 0012 4FEA5313 		lsr	r3, r3, #5
 305 0016 FB71     		strb	r3, [r7, #7]
 245:.\Generated_Source\PSoC5/rs485_isr.c **** 
 246:.\Generated_Source\PSoC5/rs485_isr.c ****     return priority;
 306              		.loc 1 246 0
 307 0018 FB79     		ldrb	r3, [r7, #7]	@ zero_extendqisi2
 247:.\Generated_Source\PSoC5/rs485_isr.c **** }
 308              		.loc 1 247 0
 309 001a 1846     		mov	r0, r3
 310 001c 07F10C07 		add	r7, r7, #12
 311 0020 BD46     		mov	sp, r7
 312 0022 80BC     		pop	{r7}
 313 0024 7047     		bx	lr
 314              		.cfi_endproc
 315              	.LFE7:
 316              		.size	rs485_isr_GetPriority, .-rs485_isr_GetPriority
 317 0026 00BF     		.section	.text.rs485_isr_Enable,"ax",%progbits
 318              		.align	2
 319              		.global	rs485_isr_Enable
 320              		.thumb
 321              		.thumb_func
 322              		.type	rs485_isr_Enable, %function
 323              	rs485_isr_Enable:
ARM GAS  C:\Users\Kenichi\AppData\Local\Temp\cc4f2YTn.s 			page 11


 324              	.LFB8:
 248:.\Generated_Source\PSoC5/rs485_isr.c **** 
 249:.\Generated_Source\PSoC5/rs485_isr.c **** 
 250:.\Generated_Source\PSoC5/rs485_isr.c **** /*******************************************************************************
 251:.\Generated_Source\PSoC5/rs485_isr.c **** * Function Name: rs485_isr_Enable
 252:.\Generated_Source\PSoC5/rs485_isr.c **** ********************************************************************************
 253:.\Generated_Source\PSoC5/rs485_isr.c **** *
 254:.\Generated_Source\PSoC5/rs485_isr.c **** * Summary:
 255:.\Generated_Source\PSoC5/rs485_isr.c **** *   Enables the interrupt.
 256:.\Generated_Source\PSoC5/rs485_isr.c **** *
 257:.\Generated_Source\PSoC5/rs485_isr.c **** * Parameters:
 258:.\Generated_Source\PSoC5/rs485_isr.c **** *   None
 259:.\Generated_Source\PSoC5/rs485_isr.c **** *
 260:.\Generated_Source\PSoC5/rs485_isr.c **** * Return:
 261:.\Generated_Source\PSoC5/rs485_isr.c **** *   None
 262:.\Generated_Source\PSoC5/rs485_isr.c **** *
 263:.\Generated_Source\PSoC5/rs485_isr.c **** *******************************************************************************/
 264:.\Generated_Source\PSoC5/rs485_isr.c **** void rs485_isr_Enable(void)
 265:.\Generated_Source\PSoC5/rs485_isr.c **** {
 325              		.loc 1 265 0
 326              		.cfi_startproc
 327              		@ args = 0, pretend = 0, frame = 0
 328              		@ frame_needed = 1, uses_anonymous_args = 0
 329              		@ link register save eliminated.
 330 0000 80B4     		push	{r7}
 331              	.LCFI21:
 332              		.cfi_def_cfa_offset 4
 333              		.cfi_offset 7, -4
 334 0002 00AF     		add	r7, sp, #0
 335              	.LCFI22:
 336              		.cfi_def_cfa_register 7
 266:.\Generated_Source\PSoC5/rs485_isr.c ****     /* Enable the general interrupt. */
 267:.\Generated_Source\PSoC5/rs485_isr.c ****     *rs485_isr_INTC_SET_EN = rs485_isr__INTC_MASK;
 337              		.loc 1 267 0
 338 0004 4FF46143 		mov	r3, #57600
 339 0008 CEF20003 		movt	r3, 57344
 340 000c 4FF00202 		mov	r2, #2
 341 0010 1A60     		str	r2, [r3, #0]
 268:.\Generated_Source\PSoC5/rs485_isr.c **** }
 342              		.loc 1 268 0
 343 0012 BD46     		mov	sp, r7
 344 0014 80BC     		pop	{r7}
 345 0016 7047     		bx	lr
 346              		.cfi_endproc
 347              	.LFE8:
 348              		.size	rs485_isr_Enable, .-rs485_isr_Enable
 349              		.section	.text.rs485_isr_GetState,"ax",%progbits
 350              		.align	2
 351              		.global	rs485_isr_GetState
 352              		.thumb
 353              		.thumb_func
 354              		.type	rs485_isr_GetState, %function
 355              	rs485_isr_GetState:
 356              	.LFB9:
 269:.\Generated_Source\PSoC5/rs485_isr.c **** 
 270:.\Generated_Source\PSoC5/rs485_isr.c **** 
 271:.\Generated_Source\PSoC5/rs485_isr.c **** /*******************************************************************************
ARM GAS  C:\Users\Kenichi\AppData\Local\Temp\cc4f2YTn.s 			page 12


 272:.\Generated_Source\PSoC5/rs485_isr.c **** * Function Name: rs485_isr_GetState
 273:.\Generated_Source\PSoC5/rs485_isr.c **** ********************************************************************************
 274:.\Generated_Source\PSoC5/rs485_isr.c **** *
 275:.\Generated_Source\PSoC5/rs485_isr.c **** * Summary:
 276:.\Generated_Source\PSoC5/rs485_isr.c **** *   Gets the state (enabled, disabled) of the Interrupt.
 277:.\Generated_Source\PSoC5/rs485_isr.c **** *
 278:.\Generated_Source\PSoC5/rs485_isr.c **** * Parameters:
 279:.\Generated_Source\PSoC5/rs485_isr.c **** *   None
 280:.\Generated_Source\PSoC5/rs485_isr.c **** *
 281:.\Generated_Source\PSoC5/rs485_isr.c **** * Return:
 282:.\Generated_Source\PSoC5/rs485_isr.c **** *   1 if enabled, 0 if disabled.
 283:.\Generated_Source\PSoC5/rs485_isr.c **** *
 284:.\Generated_Source\PSoC5/rs485_isr.c **** *******************************************************************************/
 285:.\Generated_Source\PSoC5/rs485_isr.c **** uint8 rs485_isr_GetState(void)
 286:.\Generated_Source\PSoC5/rs485_isr.c **** {
 357              		.loc 1 286 0
 358              		.cfi_startproc
 359              		@ args = 0, pretend = 0, frame = 0
 360              		@ frame_needed = 1, uses_anonymous_args = 0
 361              		@ link register save eliminated.
 362 0000 80B4     		push	{r7}
 363              	.LCFI23:
 364              		.cfi_def_cfa_offset 4
 365              		.cfi_offset 7, -4
 366 0002 00AF     		add	r7, sp, #0
 367              	.LCFI24:
 368              		.cfi_def_cfa_register 7
 287:.\Generated_Source\PSoC5/rs485_isr.c ****     /* Get the state of the general interrupt. */
 288:.\Generated_Source\PSoC5/rs485_isr.c ****     return ((*rs485_isr_INTC_SET_EN & (uint32)rs485_isr__INTC_MASK) != 0u) ? 1u:0u;
 369              		.loc 1 288 0
 370 0004 4FF46143 		mov	r3, #57600
 371 0008 CEF20003 		movt	r3, 57344
 372 000c 1B68     		ldr	r3, [r3, #0]
 373 000e 03F00203 		and	r3, r3, #2
 374 0012 002B     		cmp	r3, #0
 375 0014 02D0     		beq	.L13
 376              		.loc 1 288 0 is_stmt 0 discriminator 1
 377 0016 4FF00103 		mov	r3, #1
 378 001a 01E0     		b	.L14
 379              	.L13:
 380              		.loc 1 288 0 discriminator 2
 381 001c 4FF00003 		mov	r3, #0
 382              	.L14:
 289:.\Generated_Source\PSoC5/rs485_isr.c **** }
 383              		.loc 1 289 0 is_stmt 1 discriminator 3
 384 0020 1846     		mov	r0, r3
 385 0022 BD46     		mov	sp, r7
 386 0024 80BC     		pop	{r7}
 387 0026 7047     		bx	lr
 388              		.cfi_endproc
 389              	.LFE9:
 390              		.size	rs485_isr_GetState, .-rs485_isr_GetState
 391              		.section	.text.rs485_isr_Disable,"ax",%progbits
 392              		.align	2
 393              		.global	rs485_isr_Disable
 394              		.thumb
 395              		.thumb_func
ARM GAS  C:\Users\Kenichi\AppData\Local\Temp\cc4f2YTn.s 			page 13


 396              		.type	rs485_isr_Disable, %function
 397              	rs485_isr_Disable:
 398              	.LFB10:
 290:.\Generated_Source\PSoC5/rs485_isr.c **** 
 291:.\Generated_Source\PSoC5/rs485_isr.c **** 
 292:.\Generated_Source\PSoC5/rs485_isr.c **** /*******************************************************************************
 293:.\Generated_Source\PSoC5/rs485_isr.c **** * Function Name: rs485_isr_Disable
 294:.\Generated_Source\PSoC5/rs485_isr.c **** ********************************************************************************
 295:.\Generated_Source\PSoC5/rs485_isr.c **** *
 296:.\Generated_Source\PSoC5/rs485_isr.c **** * Summary:
 297:.\Generated_Source\PSoC5/rs485_isr.c **** *   Disables the Interrupt.
 298:.\Generated_Source\PSoC5/rs485_isr.c **** *
 299:.\Generated_Source\PSoC5/rs485_isr.c **** * Parameters:
 300:.\Generated_Source\PSoC5/rs485_isr.c **** *   None
 301:.\Generated_Source\PSoC5/rs485_isr.c **** *
 302:.\Generated_Source\PSoC5/rs485_isr.c **** * Return:
 303:.\Generated_Source\PSoC5/rs485_isr.c **** *   None
 304:.\Generated_Source\PSoC5/rs485_isr.c **** *
 305:.\Generated_Source\PSoC5/rs485_isr.c **** *******************************************************************************/
 306:.\Generated_Source\PSoC5/rs485_isr.c **** void rs485_isr_Disable(void)
 307:.\Generated_Source\PSoC5/rs485_isr.c **** {
 399              		.loc 1 307 0
 400              		.cfi_startproc
 401              		@ args = 0, pretend = 0, frame = 0
 402              		@ frame_needed = 1, uses_anonymous_args = 0
 403              		@ link register save eliminated.
 404 0000 80B4     		push	{r7}
 405              	.LCFI25:
 406              		.cfi_def_cfa_offset 4
 407              		.cfi_offset 7, -4
 408 0002 00AF     		add	r7, sp, #0
 409              	.LCFI26:
 410              		.cfi_def_cfa_register 7
 308:.\Generated_Source\PSoC5/rs485_isr.c ****     /* Disable the general interrupt. */
 309:.\Generated_Source\PSoC5/rs485_isr.c ****     *rs485_isr_INTC_CLR_EN = rs485_isr__INTC_MASK;
 411              		.loc 1 309 0
 412 0004 4EF28013 		movw	r3, #57728
 413 0008 CEF20003 		movt	r3, 57344
 414 000c 4FF00202 		mov	r2, #2
 415 0010 1A60     		str	r2, [r3, #0]
 310:.\Generated_Source\PSoC5/rs485_isr.c **** }
 416              		.loc 1 310 0
 417 0012 BD46     		mov	sp, r7
 418 0014 80BC     		pop	{r7}
 419 0016 7047     		bx	lr
 420              		.cfi_endproc
 421              	.LFE10:
 422              		.size	rs485_isr_Disable, .-rs485_isr_Disable
 423              		.section	.text.rs485_isr_SetPending,"ax",%progbits
 424              		.align	2
 425              		.global	rs485_isr_SetPending
 426              		.thumb
 427              		.thumb_func
 428              		.type	rs485_isr_SetPending, %function
 429              	rs485_isr_SetPending:
 430              	.LFB11:
 311:.\Generated_Source\PSoC5/rs485_isr.c **** 
ARM GAS  C:\Users\Kenichi\AppData\Local\Temp\cc4f2YTn.s 			page 14


 312:.\Generated_Source\PSoC5/rs485_isr.c **** 
 313:.\Generated_Source\PSoC5/rs485_isr.c **** /*******************************************************************************
 314:.\Generated_Source\PSoC5/rs485_isr.c **** * Function Name: rs485_isr_SetPending
 315:.\Generated_Source\PSoC5/rs485_isr.c **** ********************************************************************************
 316:.\Generated_Source\PSoC5/rs485_isr.c **** *
 317:.\Generated_Source\PSoC5/rs485_isr.c **** * Summary:
 318:.\Generated_Source\PSoC5/rs485_isr.c **** *   Causes the Interrupt to enter the pending state, a software method of
 319:.\Generated_Source\PSoC5/rs485_isr.c **** *   generating the interrupt.
 320:.\Generated_Source\PSoC5/rs485_isr.c **** *
 321:.\Generated_Source\PSoC5/rs485_isr.c **** * Parameters:
 322:.\Generated_Source\PSoC5/rs485_isr.c **** *   None
 323:.\Generated_Source\PSoC5/rs485_isr.c **** *
 324:.\Generated_Source\PSoC5/rs485_isr.c **** * Return:
 325:.\Generated_Source\PSoC5/rs485_isr.c **** *   None
 326:.\Generated_Source\PSoC5/rs485_isr.c **** *
 327:.\Generated_Source\PSoC5/rs485_isr.c **** *******************************************************************************/
 328:.\Generated_Source\PSoC5/rs485_isr.c **** void rs485_isr_SetPending(void)
 329:.\Generated_Source\PSoC5/rs485_isr.c **** {
 431              		.loc 1 329 0
 432              		.cfi_startproc
 433              		@ args = 0, pretend = 0, frame = 0
 434              		@ frame_needed = 1, uses_anonymous_args = 0
 435              		@ link register save eliminated.
 436 0000 80B4     		push	{r7}
 437              	.LCFI27:
 438              		.cfi_def_cfa_offset 4
 439              		.cfi_offset 7, -4
 440 0002 00AF     		add	r7, sp, #0
 441              	.LCFI28:
 442              		.cfi_def_cfa_register 7
 330:.\Generated_Source\PSoC5/rs485_isr.c ****     *rs485_isr_INTC_SET_PD = rs485_isr__INTC_MASK;
 443              		.loc 1 330 0
 444 0004 4FF46243 		mov	r3, #57856
 445 0008 CEF20003 		movt	r3, 57344
 446 000c 4FF00202 		mov	r2, #2
 447 0010 1A60     		str	r2, [r3, #0]
 331:.\Generated_Source\PSoC5/rs485_isr.c **** }
 448              		.loc 1 331 0
 449 0012 BD46     		mov	sp, r7
 450 0014 80BC     		pop	{r7}
 451 0016 7047     		bx	lr
 452              		.cfi_endproc
 453              	.LFE11:
 454              		.size	rs485_isr_SetPending, .-rs485_isr_SetPending
 455              		.section	.text.rs485_isr_ClearPending,"ax",%progbits
 456              		.align	2
 457              		.global	rs485_isr_ClearPending
 458              		.thumb
 459              		.thumb_func
 460              		.type	rs485_isr_ClearPending, %function
 461              	rs485_isr_ClearPending:
 462              	.LFB12:
 332:.\Generated_Source\PSoC5/rs485_isr.c **** 
 333:.\Generated_Source\PSoC5/rs485_isr.c **** 
 334:.\Generated_Source\PSoC5/rs485_isr.c **** /*******************************************************************************
 335:.\Generated_Source\PSoC5/rs485_isr.c **** * Function Name: rs485_isr_ClearPending
 336:.\Generated_Source\PSoC5/rs485_isr.c **** ********************************************************************************
ARM GAS  C:\Users\Kenichi\AppData\Local\Temp\cc4f2YTn.s 			page 15


 337:.\Generated_Source\PSoC5/rs485_isr.c **** *
 338:.\Generated_Source\PSoC5/rs485_isr.c **** * Summary:
 339:.\Generated_Source\PSoC5/rs485_isr.c **** *   Clears a pending interrupt.
 340:.\Generated_Source\PSoC5/rs485_isr.c **** *
 341:.\Generated_Source\PSoC5/rs485_isr.c **** * Parameters:
 342:.\Generated_Source\PSoC5/rs485_isr.c **** *   None
 343:.\Generated_Source\PSoC5/rs485_isr.c **** *
 344:.\Generated_Source\PSoC5/rs485_isr.c **** * Return:
 345:.\Generated_Source\PSoC5/rs485_isr.c **** *   None
 346:.\Generated_Source\PSoC5/rs485_isr.c **** *
 347:.\Generated_Source\PSoC5/rs485_isr.c **** *******************************************************************************/
 348:.\Generated_Source\PSoC5/rs485_isr.c **** void rs485_isr_ClearPending(void)
 349:.\Generated_Source\PSoC5/rs485_isr.c **** {
 463              		.loc 1 349 0
 464              		.cfi_startproc
 465              		@ args = 0, pretend = 0, frame = 0
 466              		@ frame_needed = 1, uses_anonymous_args = 0
 467              		@ link register save eliminated.
 468 0000 80B4     		push	{r7}
 469              	.LCFI29:
 470              		.cfi_def_cfa_offset 4
 471              		.cfi_offset 7, -4
 472 0002 00AF     		add	r7, sp, #0
 473              	.LCFI30:
 474              		.cfi_def_cfa_register 7
 350:.\Generated_Source\PSoC5/rs485_isr.c ****     *rs485_isr_INTC_CLR_PD = rs485_isr__INTC_MASK;
 475              		.loc 1 350 0
 476 0004 4EF28023 		movw	r3, #57984
 477 0008 CEF20003 		movt	r3, 57344
 478 000c 4FF00202 		mov	r2, #2
 479 0010 1A60     		str	r2, [r3, #0]
 351:.\Generated_Source\PSoC5/rs485_isr.c **** }
 480              		.loc 1 351 0
 481 0012 BD46     		mov	sp, r7
 482 0014 80BC     		pop	{r7}
 483 0016 7047     		bx	lr
 484              		.cfi_endproc
 485              	.LFE12:
 486              		.size	rs485_isr_ClearPending, .-rs485_isr_ClearPending
 487              		.text
 488              	.Letext0:
 489              		.file 2 "./Generated_Source/PSoC5/cytypes.h"
 490              		.section	.debug_info,"",%progbits
 491              	.Ldebug_info0:
 492 0000 74020000 		.4byte	0x274
 493 0004 0200     		.2byte	0x2
 494 0006 00000000 		.4byte	.Ldebug_abbrev0
 495 000a 04       		.byte	0x4
 496 000b 01       		.uleb128 0x1
 497 000c 0F020000 		.4byte	.LASF33
 498 0010 01       		.byte	0x1
 499 0011 58020000 		.4byte	.LASF34
 500 0015 F7000000 		.4byte	.LASF35
 501 0019 00000000 		.4byte	.Ldebug_ranges0+0
 502 001d 00000000 		.4byte	0
 503 0021 00000000 		.4byte	0
 504 0025 00000000 		.4byte	.Ldebug_line0
ARM GAS  C:\Users\Kenichi\AppData\Local\Temp\cc4f2YTn.s 			page 16


 505 0029 02       		.uleb128 0x2
 506 002a 01       		.byte	0x1
 507 002b 06       		.byte	0x6
 508 002c 86020000 		.4byte	.LASF0
 509 0030 02       		.uleb128 0x2
 510 0031 01       		.byte	0x1
 511 0032 08       		.byte	0x8
 512 0033 92000000 		.4byte	.LASF1
 513 0037 02       		.uleb128 0x2
 514 0038 02       		.byte	0x2
 515 0039 05       		.byte	0x5
 516 003a F0010000 		.4byte	.LASF2
 517 003e 02       		.uleb128 0x2
 518 003f 02       		.byte	0x2
 519 0040 07       		.byte	0x7
 520 0041 52000000 		.4byte	.LASF3
 521 0045 03       		.uleb128 0x3
 522 0046 04       		.byte	0x4
 523 0047 05       		.byte	0x5
 524 0048 696E7400 		.ascii	"int\000"
 525 004c 02       		.uleb128 0x2
 526 004d 04       		.byte	0x4
 527 004e 07       		.byte	0x7
 528 004f 55010000 		.4byte	.LASF4
 529 0053 02       		.uleb128 0x2
 530 0054 08       		.byte	0x8
 531 0055 05       		.byte	0x5
 532 0056 BA010000 		.4byte	.LASF5
 533 005a 02       		.uleb128 0x2
 534 005b 08       		.byte	0x8
 535 005c 07       		.byte	0x7
 536 005d 6A010000 		.4byte	.LASF6
 537 0061 02       		.uleb128 0x2
 538 0062 04       		.byte	0x4
 539 0063 05       		.byte	0x5
 540 0064 7D020000 		.4byte	.LASF7
 541 0068 02       		.uleb128 0x2
 542 0069 04       		.byte	0x4
 543 006a 07       		.byte	0x7
 544 006b B1010000 		.4byte	.LASF8
 545 006f 02       		.uleb128 0x2
 546 0070 04       		.byte	0x4
 547 0071 07       		.byte	0x7
 548 0072 A5000000 		.4byte	.LASF9
 549 0076 04       		.uleb128 0x4
 550 0077 01       		.byte	0x1
 551 0078 05       		.uleb128 0x5
 552 0079 04       		.byte	0x4
 553 007a 76000000 		.4byte	0x76
 554 007e 02       		.uleb128 0x2
 555 007f 01       		.byte	0x1
 556 0080 08       		.byte	0x8
 557 0081 C8010000 		.4byte	.LASF10
 558 0085 06       		.uleb128 0x6
 559 0086 B7000000 		.4byte	.LASF11
 560 008a 02       		.byte	0x2
 561 008b 5B       		.byte	0x5b
ARM GAS  C:\Users\Kenichi\AppData\Local\Temp\cc4f2YTn.s 			page 17


 562 008c 30000000 		.4byte	0x30
 563 0090 06       		.uleb128 0x6
 564 0091 4E010000 		.4byte	.LASF12
 565 0095 02       		.byte	0x2
 566 0096 5D       		.byte	0x5d
 567 0097 6F000000 		.4byte	0x6f
 568 009b 02       		.uleb128 0x2
 569 009c 04       		.byte	0x4
 570 009d 04       		.byte	0x4
 571 009e 3A000000 		.4byte	.LASF13
 572 00a2 02       		.uleb128 0x2
 573 00a3 08       		.byte	0x8
 574 00a4 04       		.byte	0x4
 575 00a5 F0000000 		.4byte	.LASF14
 576 00a9 06       		.uleb128 0x6
 577 00aa A0000000 		.4byte	.LASF15
 578 00ae 02       		.byte	0x2
 579 00af F0       		.byte	0xf0
 580 00b0 B4000000 		.4byte	0xb4
 581 00b4 07       		.uleb128 0x7
 582 00b5 85000000 		.4byte	0x85
 583 00b9 06       		.uleb128 0x6
 584 00ba 11000000 		.4byte	.LASF16
 585 00be 02       		.byte	0x2
 586 00bf F2       		.byte	0xf2
 587 00c0 C4000000 		.4byte	0xc4
 588 00c4 07       		.uleb128 0x7
 589 00c5 90000000 		.4byte	0x90
 590 00c9 08       		.uleb128 0x8
 591 00ca 91010000 		.4byte	.LASF17
 592 00ce 02       		.byte	0x2
 593 00cf 0201     		.2byte	0x102
 594 00d1 78000000 		.4byte	0x78
 595 00d5 09       		.uleb128 0x9
 596 00d6 01       		.byte	0x1
 597 00d7 81010000 		.4byte	.LASF18
 598 00db 01       		.byte	0x1
 599 00dc 39       		.byte	0x39
 600 00dd 01       		.byte	0x1
 601 00de 00000000 		.4byte	.LFB0
 602 00e2 22000000 		.4byte	.LFE0
 603 00e6 00000000 		.4byte	.LLST0
 604 00ea 01       		.byte	0x1
 605 00eb 0A       		.uleb128 0xa
 606 00ec 01       		.byte	0x1
 607 00ed 40000000 		.4byte	.LASF21
 608 00f1 01       		.byte	0x1
 609 00f2 57       		.byte	0x57
 610 00f3 01       		.byte	0x1
 611 00f4 00000000 		.4byte	.LFB1
 612 00f8 26000000 		.4byte	.LFE1
 613 00fc 2C000000 		.4byte	.LLST1
 614 0100 01       		.byte	0x1
 615 0101 14010000 		.4byte	0x114
 616 0105 0B       		.uleb128 0xb
 617 0106 62010000 		.4byte	.LASF23
 618 010a 01       		.byte	0x1
ARM GAS  C:\Users\Kenichi\AppData\Local\Temp\cc4f2YTn.s 			page 18


 619 010b 57       		.byte	0x57
 620 010c C9000000 		.4byte	0xc9
 621 0110 02       		.byte	0x2
 622 0111 91       		.byte	0x91
 623 0112 74       		.sleb128 -12
 624 0113 00       		.byte	0
 625 0114 09       		.uleb128 0x9
 626 0115 01       		.byte	0x1
 627 0116 2B000000 		.4byte	.LASF19
 628 011a 01       		.byte	0x1
 629 011b 74       		.byte	0x74
 630 011c 01       		.byte	0x1
 631 011d 00000000 		.4byte	.LFB2
 632 0121 16000000 		.4byte	.LFE2
 633 0125 64000000 		.4byte	.LLST2
 634 0129 01       		.byte	0x1
 635 012a 0C       		.uleb128 0xc
 636 012b 01       		.byte	0x1
 637 012c 17000000 		.4byte	.LASF20
 638 0130 01       		.byte	0x1
 639 0131 8E       		.byte	0x8e
 640 0132 01       		.byte	0x1
 641 0133 00000000 		.4byte	.LFB3
 642 0137 0A000000 		.4byte	.LFE3
 643 013b 90000000 		.4byte	.LLST3
 644 013f 01       		.byte	0x1
 645 0140 0D       		.uleb128 0xd
 646 0141 01       		.byte	0x1
 647 0142 BD000000 		.4byte	.LASF22
 648 0146 01       		.byte	0x1
 649 0147 A7       		.byte	0xa7
 650 0148 01       		.byte	0x1
 651 0149 00000000 		.4byte	.LFB4
 652 014d 28000000 		.4byte	.LFE4
 653 0151 BC000000 		.4byte	.LLST4
 654 0155 01       		.byte	0x1
 655 0156 77010000 		.4byte	0x177
 656 015a 0B       		.uleb128 0xb
 657 015b 62010000 		.4byte	.LASF23
 658 015f 01       		.byte	0x1
 659 0160 A7       		.byte	0xa7
 660 0161 C9000000 		.4byte	0xc9
 661 0165 02       		.byte	0x2
 662 0166 91       		.byte	0x91
 663 0167 6C       		.sleb128 -20
 664 0168 0E       		.uleb128 0xe
 665 0169 CD010000 		.4byte	.LASF24
 666 016d 01       		.byte	0x1
 667 016e A9       		.byte	0xa9
 668 016f 77010000 		.4byte	0x177
 669 0173 02       		.byte	0x2
 670 0174 91       		.byte	0x91
 671 0175 74       		.sleb128 -12
 672 0176 00       		.byte	0
 673 0177 05       		.uleb128 0x5
 674 0178 04       		.byte	0x4
 675 0179 C9000000 		.4byte	0xc9
ARM GAS  C:\Users\Kenichi\AppData\Local\Temp\cc4f2YTn.s 			page 19


 676 017d 0F       		.uleb128 0xf
 677 017e 01       		.byte	0x1
 678 017f DC010000 		.4byte	.LASF27
 679 0183 01       		.byte	0x1
 680 0184 BF       		.byte	0xbf
 681 0185 01       		.byte	0x1
 682 0186 C9000000 		.4byte	0xc9
 683 018a 00000000 		.4byte	.LFB5
 684 018e 22000000 		.4byte	.LFE5
 685 0192 F4000000 		.4byte	.LLST5
 686 0196 01       		.byte	0x1
 687 0197 AA010000 		.4byte	0x1aa
 688 019b 0E       		.uleb128 0xe
 689 019c CD010000 		.4byte	.LASF24
 690 01a0 01       		.byte	0x1
 691 01a1 C1       		.byte	0xc1
 692 01a2 77010000 		.4byte	0x177
 693 01a6 02       		.byte	0x2
 694 01a7 91       		.byte	0x91
 695 01a8 74       		.sleb128 -12
 696 01a9 00       		.byte	0
 697 01aa 0D       		.uleb128 0xd
 698 01ab 01       		.byte	0x1
 699 01ac DA000000 		.4byte	.LASF25
 700 01b0 01       		.byte	0x1
 701 01b1 DB       		.byte	0xdb
 702 01b2 01       		.byte	0x1
 703 01b3 00000000 		.4byte	.LFB6
 704 01b7 26000000 		.4byte	.LFE6
 705 01bb 2C010000 		.4byte	.LLST6
 706 01bf 01       		.byte	0x1
 707 01c0 D3010000 		.4byte	0x1d3
 708 01c4 0B       		.uleb128 0xb
 709 01c5 D1000000 		.4byte	.LASF26
 710 01c9 01       		.byte	0x1
 711 01ca DB       		.byte	0xdb
 712 01cb 85000000 		.4byte	0x85
 713 01cf 02       		.byte	0x2
 714 01d0 91       		.byte	0x91
 715 01d1 77       		.sleb128 -9
 716 01d2 00       		.byte	0
 717 01d3 0F       		.uleb128 0xf
 718 01d4 01       		.byte	0x1
 719 01d5 65000000 		.4byte	.LASF28
 720 01d9 01       		.byte	0x1
 721 01da EF       		.byte	0xef
 722 01db 01       		.byte	0x1
 723 01dc 85000000 		.4byte	0x85
 724 01e0 00000000 		.4byte	.LFB7
 725 01e4 26000000 		.4byte	.LFE7
 726 01e8 64010000 		.4byte	.LLST7
 727 01ec 01       		.byte	0x1
 728 01ed 00020000 		.4byte	0x200
 729 01f1 0E       		.uleb128 0xe
 730 01f2 D1000000 		.4byte	.LASF26
 731 01f6 01       		.byte	0x1
 732 01f7 F1       		.byte	0xf1
ARM GAS  C:\Users\Kenichi\AppData\Local\Temp\cc4f2YTn.s 			page 20


 733 01f8 85000000 		.4byte	0x85
 734 01fc 02       		.byte	0x2
 735 01fd 91       		.byte	0x91
 736 01fe 77       		.sleb128 -9
 737 01ff 00       		.byte	0
 738 0200 10       		.uleb128 0x10
 739 0201 01       		.byte	0x1
 740 0202 00000000 		.4byte	.LASF29
 741 0206 01       		.byte	0x1
 742 0207 0801     		.2byte	0x108
 743 0209 01       		.byte	0x1
 744 020a 00000000 		.4byte	.LFB8
 745 020e 18000000 		.4byte	.LFE8
 746 0212 9C010000 		.4byte	.LLST8
 747 0216 01       		.byte	0x1
 748 0217 11       		.uleb128 0x11
 749 0218 01       		.byte	0x1
 750 0219 9E010000 		.4byte	.LASF36
 751 021d 01       		.byte	0x1
 752 021e 1D01     		.2byte	0x11d
 753 0220 01       		.byte	0x1
 754 0221 85000000 		.4byte	0x85
 755 0225 00000000 		.4byte	.LFB9
 756 0229 28000000 		.4byte	.LFE9
 757 022d C8010000 		.4byte	.LLST9
 758 0231 01       		.byte	0x1
 759 0232 10       		.uleb128 0x10
 760 0233 01       		.byte	0x1
 761 0234 3C010000 		.4byte	.LASF30
 762 0238 01       		.byte	0x1
 763 0239 3201     		.2byte	0x132
 764 023b 01       		.byte	0x1
 765 023c 00000000 		.4byte	.LFB10
 766 0240 18000000 		.4byte	.LFE10
 767 0244 F4010000 		.4byte	.LLST10
 768 0248 01       		.byte	0x1
 769 0249 10       		.uleb128 0x10
 770 024a 01       		.byte	0x1
 771 024b FA010000 		.4byte	.LASF31
 772 024f 01       		.byte	0x1
 773 0250 4801     		.2byte	0x148
 774 0252 01       		.byte	0x1
 775 0253 00000000 		.4byte	.LFB11
 776 0257 18000000 		.4byte	.LFE11
 777 025b 20020000 		.4byte	.LLST11
 778 025f 01       		.byte	0x1
 779 0260 10       		.uleb128 0x10
 780 0261 01       		.byte	0x1
 781 0262 7B000000 		.4byte	.LASF32
 782 0266 01       		.byte	0x1
 783 0267 5C01     		.2byte	0x15c
 784 0269 01       		.byte	0x1
 785 026a 00000000 		.4byte	.LFB12
 786 026e 18000000 		.4byte	.LFE12
 787 0272 4C020000 		.4byte	.LLST12
 788 0276 01       		.byte	0x1
 789 0277 00       		.byte	0
ARM GAS  C:\Users\Kenichi\AppData\Local\Temp\cc4f2YTn.s 			page 21


 790              		.section	.debug_abbrev,"",%progbits
 791              	.Ldebug_abbrev0:
 792 0000 01       		.uleb128 0x1
 793 0001 11       		.uleb128 0x11
 794 0002 01       		.byte	0x1
 795 0003 25       		.uleb128 0x25
 796 0004 0E       		.uleb128 0xe
 797 0005 13       		.uleb128 0x13
 798 0006 0B       		.uleb128 0xb
 799 0007 03       		.uleb128 0x3
 800 0008 0E       		.uleb128 0xe
 801 0009 1B       		.uleb128 0x1b
 802 000a 0E       		.uleb128 0xe
 803 000b 55       		.uleb128 0x55
 804 000c 06       		.uleb128 0x6
 805 000d 11       		.uleb128 0x11
 806 000e 01       		.uleb128 0x1
 807 000f 52       		.uleb128 0x52
 808 0010 01       		.uleb128 0x1
 809 0011 10       		.uleb128 0x10
 810 0012 06       		.uleb128 0x6
 811 0013 00       		.byte	0
 812 0014 00       		.byte	0
 813 0015 02       		.uleb128 0x2
 814 0016 24       		.uleb128 0x24
 815 0017 00       		.byte	0
 816 0018 0B       		.uleb128 0xb
 817 0019 0B       		.uleb128 0xb
 818 001a 3E       		.uleb128 0x3e
 819 001b 0B       		.uleb128 0xb
 820 001c 03       		.uleb128 0x3
 821 001d 0E       		.uleb128 0xe
 822 001e 00       		.byte	0
 823 001f 00       		.byte	0
 824 0020 03       		.uleb128 0x3
 825 0021 24       		.uleb128 0x24
 826 0022 00       		.byte	0
 827 0023 0B       		.uleb128 0xb
 828 0024 0B       		.uleb128 0xb
 829 0025 3E       		.uleb128 0x3e
 830 0026 0B       		.uleb128 0xb
 831 0027 03       		.uleb128 0x3
 832 0028 08       		.uleb128 0x8
 833 0029 00       		.byte	0
 834 002a 00       		.byte	0
 835 002b 04       		.uleb128 0x4
 836 002c 15       		.uleb128 0x15
 837 002d 00       		.byte	0
 838 002e 27       		.uleb128 0x27
 839 002f 0C       		.uleb128 0xc
 840 0030 00       		.byte	0
 841 0031 00       		.byte	0
 842 0032 05       		.uleb128 0x5
 843 0033 0F       		.uleb128 0xf
 844 0034 00       		.byte	0
 845 0035 0B       		.uleb128 0xb
 846 0036 0B       		.uleb128 0xb
ARM GAS  C:\Users\Kenichi\AppData\Local\Temp\cc4f2YTn.s 			page 22


 847 0037 49       		.uleb128 0x49
 848 0038 13       		.uleb128 0x13
 849 0039 00       		.byte	0
 850 003a 00       		.byte	0
 851 003b 06       		.uleb128 0x6
 852 003c 16       		.uleb128 0x16
 853 003d 00       		.byte	0
 854 003e 03       		.uleb128 0x3
 855 003f 0E       		.uleb128 0xe
 856 0040 3A       		.uleb128 0x3a
 857 0041 0B       		.uleb128 0xb
 858 0042 3B       		.uleb128 0x3b
 859 0043 0B       		.uleb128 0xb
 860 0044 49       		.uleb128 0x49
 861 0045 13       		.uleb128 0x13
 862 0046 00       		.byte	0
 863 0047 00       		.byte	0
 864 0048 07       		.uleb128 0x7
 865 0049 35       		.uleb128 0x35
 866 004a 00       		.byte	0
 867 004b 49       		.uleb128 0x49
 868 004c 13       		.uleb128 0x13
 869 004d 00       		.byte	0
 870 004e 00       		.byte	0
 871 004f 08       		.uleb128 0x8
 872 0050 16       		.uleb128 0x16
 873 0051 00       		.byte	0
 874 0052 03       		.uleb128 0x3
 875 0053 0E       		.uleb128 0xe
 876 0054 3A       		.uleb128 0x3a
 877 0055 0B       		.uleb128 0xb
 878 0056 3B       		.uleb128 0x3b
 879 0057 05       		.uleb128 0x5
 880 0058 49       		.uleb128 0x49
 881 0059 13       		.uleb128 0x13
 882 005a 00       		.byte	0
 883 005b 00       		.byte	0
 884 005c 09       		.uleb128 0x9
 885 005d 2E       		.uleb128 0x2e
 886 005e 00       		.byte	0
 887 005f 3F       		.uleb128 0x3f
 888 0060 0C       		.uleb128 0xc
 889 0061 03       		.uleb128 0x3
 890 0062 0E       		.uleb128 0xe
 891 0063 3A       		.uleb128 0x3a
 892 0064 0B       		.uleb128 0xb
 893 0065 3B       		.uleb128 0x3b
 894 0066 0B       		.uleb128 0xb
 895 0067 27       		.uleb128 0x27
 896 0068 0C       		.uleb128 0xc
 897 0069 11       		.uleb128 0x11
 898 006a 01       		.uleb128 0x1
 899 006b 12       		.uleb128 0x12
 900 006c 01       		.uleb128 0x1
 901 006d 40       		.uleb128 0x40
 902 006e 06       		.uleb128 0x6
 903 006f 9642     		.uleb128 0x2116
ARM GAS  C:\Users\Kenichi\AppData\Local\Temp\cc4f2YTn.s 			page 23


 904 0071 0C       		.uleb128 0xc
 905 0072 00       		.byte	0
 906 0073 00       		.byte	0
 907 0074 0A       		.uleb128 0xa
 908 0075 2E       		.uleb128 0x2e
 909 0076 01       		.byte	0x1
 910 0077 3F       		.uleb128 0x3f
 911 0078 0C       		.uleb128 0xc
 912 0079 03       		.uleb128 0x3
 913 007a 0E       		.uleb128 0xe
 914 007b 3A       		.uleb128 0x3a
 915 007c 0B       		.uleb128 0xb
 916 007d 3B       		.uleb128 0x3b
 917 007e 0B       		.uleb128 0xb
 918 007f 27       		.uleb128 0x27
 919 0080 0C       		.uleb128 0xc
 920 0081 11       		.uleb128 0x11
 921 0082 01       		.uleb128 0x1
 922 0083 12       		.uleb128 0x12
 923 0084 01       		.uleb128 0x1
 924 0085 40       		.uleb128 0x40
 925 0086 06       		.uleb128 0x6
 926 0087 9642     		.uleb128 0x2116
 927 0089 0C       		.uleb128 0xc
 928 008a 01       		.uleb128 0x1
 929 008b 13       		.uleb128 0x13
 930 008c 00       		.byte	0
 931 008d 00       		.byte	0
 932 008e 0B       		.uleb128 0xb
 933 008f 05       		.uleb128 0x5
 934 0090 00       		.byte	0
 935 0091 03       		.uleb128 0x3
 936 0092 0E       		.uleb128 0xe
 937 0093 3A       		.uleb128 0x3a
 938 0094 0B       		.uleb128 0xb
 939 0095 3B       		.uleb128 0x3b
 940 0096 0B       		.uleb128 0xb
 941 0097 49       		.uleb128 0x49
 942 0098 13       		.uleb128 0x13
 943 0099 02       		.uleb128 0x2
 944 009a 0A       		.uleb128 0xa
 945 009b 00       		.byte	0
 946 009c 00       		.byte	0
 947 009d 0C       		.uleb128 0xc
 948 009e 2E       		.uleb128 0x2e
 949 009f 00       		.byte	0
 950 00a0 3F       		.uleb128 0x3f
 951 00a1 0C       		.uleb128 0xc
 952 00a2 03       		.uleb128 0x3
 953 00a3 0E       		.uleb128 0xe
 954 00a4 3A       		.uleb128 0x3a
 955 00a5 0B       		.uleb128 0xb
 956 00a6 3B       		.uleb128 0x3b
 957 00a7 0B       		.uleb128 0xb
 958 00a8 27       		.uleb128 0x27
 959 00a9 0C       		.uleb128 0xc
 960 00aa 11       		.uleb128 0x11
ARM GAS  C:\Users\Kenichi\AppData\Local\Temp\cc4f2YTn.s 			page 24


 961 00ab 01       		.uleb128 0x1
 962 00ac 12       		.uleb128 0x12
 963 00ad 01       		.uleb128 0x1
 964 00ae 40       		.uleb128 0x40
 965 00af 06       		.uleb128 0x6
 966 00b0 9742     		.uleb128 0x2117
 967 00b2 0C       		.uleb128 0xc
 968 00b3 00       		.byte	0
 969 00b4 00       		.byte	0
 970 00b5 0D       		.uleb128 0xd
 971 00b6 2E       		.uleb128 0x2e
 972 00b7 01       		.byte	0x1
 973 00b8 3F       		.uleb128 0x3f
 974 00b9 0C       		.uleb128 0xc
 975 00ba 03       		.uleb128 0x3
 976 00bb 0E       		.uleb128 0xe
 977 00bc 3A       		.uleb128 0x3a
 978 00bd 0B       		.uleb128 0xb
 979 00be 3B       		.uleb128 0x3b
 980 00bf 0B       		.uleb128 0xb
 981 00c0 27       		.uleb128 0x27
 982 00c1 0C       		.uleb128 0xc
 983 00c2 11       		.uleb128 0x11
 984 00c3 01       		.uleb128 0x1
 985 00c4 12       		.uleb128 0x12
 986 00c5 01       		.uleb128 0x1
 987 00c6 40       		.uleb128 0x40
 988 00c7 06       		.uleb128 0x6
 989 00c8 9742     		.uleb128 0x2117
 990 00ca 0C       		.uleb128 0xc
 991 00cb 01       		.uleb128 0x1
 992 00cc 13       		.uleb128 0x13
 993 00cd 00       		.byte	0
 994 00ce 00       		.byte	0
 995 00cf 0E       		.uleb128 0xe
 996 00d0 34       		.uleb128 0x34
 997 00d1 00       		.byte	0
 998 00d2 03       		.uleb128 0x3
 999 00d3 0E       		.uleb128 0xe
 1000 00d4 3A       		.uleb128 0x3a
 1001 00d5 0B       		.uleb128 0xb
 1002 00d6 3B       		.uleb128 0x3b
 1003 00d7 0B       		.uleb128 0xb
 1004 00d8 49       		.uleb128 0x49
 1005 00d9 13       		.uleb128 0x13
 1006 00da 02       		.uleb128 0x2
 1007 00db 0A       		.uleb128 0xa
 1008 00dc 00       		.byte	0
 1009 00dd 00       		.byte	0
 1010 00de 0F       		.uleb128 0xf
 1011 00df 2E       		.uleb128 0x2e
 1012 00e0 01       		.byte	0x1
 1013 00e1 3F       		.uleb128 0x3f
 1014 00e2 0C       		.uleb128 0xc
 1015 00e3 03       		.uleb128 0x3
 1016 00e4 0E       		.uleb128 0xe
 1017 00e5 3A       		.uleb128 0x3a
ARM GAS  C:\Users\Kenichi\AppData\Local\Temp\cc4f2YTn.s 			page 25


 1018 00e6 0B       		.uleb128 0xb
 1019 00e7 3B       		.uleb128 0x3b
 1020 00e8 0B       		.uleb128 0xb
 1021 00e9 27       		.uleb128 0x27
 1022 00ea 0C       		.uleb128 0xc
 1023 00eb 49       		.uleb128 0x49
 1024 00ec 13       		.uleb128 0x13
 1025 00ed 11       		.uleb128 0x11
 1026 00ee 01       		.uleb128 0x1
 1027 00ef 12       		.uleb128 0x12
 1028 00f0 01       		.uleb128 0x1
 1029 00f1 40       		.uleb128 0x40
 1030 00f2 06       		.uleb128 0x6
 1031 00f3 9742     		.uleb128 0x2117
 1032 00f5 0C       		.uleb128 0xc
 1033 00f6 01       		.uleb128 0x1
 1034 00f7 13       		.uleb128 0x13
 1035 00f8 00       		.byte	0
 1036 00f9 00       		.byte	0
 1037 00fa 10       		.uleb128 0x10
 1038 00fb 2E       		.uleb128 0x2e
 1039 00fc 00       		.byte	0
 1040 00fd 3F       		.uleb128 0x3f
 1041 00fe 0C       		.uleb128 0xc
 1042 00ff 03       		.uleb128 0x3
 1043 0100 0E       		.uleb128 0xe
 1044 0101 3A       		.uleb128 0x3a
 1045 0102 0B       		.uleb128 0xb
 1046 0103 3B       		.uleb128 0x3b
 1047 0104 05       		.uleb128 0x5
 1048 0105 27       		.uleb128 0x27
 1049 0106 0C       		.uleb128 0xc
 1050 0107 11       		.uleb128 0x11
 1051 0108 01       		.uleb128 0x1
 1052 0109 12       		.uleb128 0x12
 1053 010a 01       		.uleb128 0x1
 1054 010b 40       		.uleb128 0x40
 1055 010c 06       		.uleb128 0x6
 1056 010d 9742     		.uleb128 0x2117
 1057 010f 0C       		.uleb128 0xc
 1058 0110 00       		.byte	0
 1059 0111 00       		.byte	0
 1060 0112 11       		.uleb128 0x11
 1061 0113 2E       		.uleb128 0x2e
 1062 0114 00       		.byte	0
 1063 0115 3F       		.uleb128 0x3f
 1064 0116 0C       		.uleb128 0xc
 1065 0117 03       		.uleb128 0x3
 1066 0118 0E       		.uleb128 0xe
 1067 0119 3A       		.uleb128 0x3a
 1068 011a 0B       		.uleb128 0xb
 1069 011b 3B       		.uleb128 0x3b
 1070 011c 05       		.uleb128 0x5
 1071 011d 27       		.uleb128 0x27
 1072 011e 0C       		.uleb128 0xc
 1073 011f 49       		.uleb128 0x49
 1074 0120 13       		.uleb128 0x13
ARM GAS  C:\Users\Kenichi\AppData\Local\Temp\cc4f2YTn.s 			page 26


 1075 0121 11       		.uleb128 0x11
 1076 0122 01       		.uleb128 0x1
 1077 0123 12       		.uleb128 0x12
 1078 0124 01       		.uleb128 0x1
 1079 0125 40       		.uleb128 0x40
 1080 0126 06       		.uleb128 0x6
 1081 0127 9742     		.uleb128 0x2117
 1082 0129 0C       		.uleb128 0xc
 1083 012a 00       		.byte	0
 1084 012b 00       		.byte	0
 1085 012c 00       		.byte	0
 1086              		.section	.debug_loc,"",%progbits
 1087              	.Ldebug_loc0:
 1088              	.LLST0:
 1089 0000 00000000 		.4byte	.LFB0
 1090 0004 02000000 		.4byte	.LCFI0
 1091 0008 0200     		.2byte	0x2
 1092 000a 7D       		.byte	0x7d
 1093 000b 00       		.sleb128 0
 1094 000c 02000000 		.4byte	.LCFI0
 1095 0010 04000000 		.4byte	.LCFI1
 1096 0014 0200     		.2byte	0x2
 1097 0016 7D       		.byte	0x7d
 1098 0017 08       		.sleb128 8
 1099 0018 04000000 		.4byte	.LCFI1
 1100 001c 22000000 		.4byte	.LFE0
 1101 0020 0200     		.2byte	0x2
 1102 0022 77       		.byte	0x77
 1103 0023 08       		.sleb128 8
 1104 0024 00000000 		.4byte	0
 1105 0028 00000000 		.4byte	0
 1106              	.LLST1:
 1107 002c 00000000 		.4byte	.LFB1
 1108 0030 02000000 		.4byte	.LCFI2
 1109 0034 0200     		.2byte	0x2
 1110 0036 7D       		.byte	0x7d
 1111 0037 00       		.sleb128 0
 1112 0038 02000000 		.4byte	.LCFI2
 1113 003c 04000000 		.4byte	.LCFI3
 1114 0040 0200     		.2byte	0x2
 1115 0042 7D       		.byte	0x7d
 1116 0043 08       		.sleb128 8
 1117 0044 04000000 		.4byte	.LCFI3
 1118 0048 06000000 		.4byte	.LCFI4
 1119 004c 0200     		.2byte	0x2
 1120 004e 7D       		.byte	0x7d
 1121 004f 10       		.sleb128 16
 1122 0050 06000000 		.4byte	.LCFI4
 1123 0054 26000000 		.4byte	.LFE1
 1124 0058 0200     		.2byte	0x2
 1125 005a 77       		.byte	0x77
 1126 005b 10       		.sleb128 16
 1127 005c 00000000 		.4byte	0
 1128 0060 00000000 		.4byte	0
 1129              	.LLST2:
 1130 0064 00000000 		.4byte	.LFB2
 1131 0068 02000000 		.4byte	.LCFI5
ARM GAS  C:\Users\Kenichi\AppData\Local\Temp\cc4f2YTn.s 			page 27


 1132 006c 0200     		.2byte	0x2
 1133 006e 7D       		.byte	0x7d
 1134 006f 00       		.sleb128 0
 1135 0070 02000000 		.4byte	.LCFI5
 1136 0074 04000000 		.4byte	.LCFI6
 1137 0078 0200     		.2byte	0x2
 1138 007a 7D       		.byte	0x7d
 1139 007b 08       		.sleb128 8
 1140 007c 04000000 		.4byte	.LCFI6
 1141 0080 16000000 		.4byte	.LFE2
 1142 0084 0200     		.2byte	0x2
 1143 0086 77       		.byte	0x77
 1144 0087 08       		.sleb128 8
 1145 0088 00000000 		.4byte	0
 1146 008c 00000000 		.4byte	0
 1147              	.LLST3:
 1148 0090 00000000 		.4byte	.LFB3
 1149 0094 02000000 		.4byte	.LCFI7
 1150 0098 0200     		.2byte	0x2
 1151 009a 7D       		.byte	0x7d
 1152 009b 00       		.sleb128 0
 1153 009c 02000000 		.4byte	.LCFI7
 1154 00a0 04000000 		.4byte	.LCFI8
 1155 00a4 0200     		.2byte	0x2
 1156 00a6 7D       		.byte	0x7d
 1157 00a7 04       		.sleb128 4
 1158 00a8 04000000 		.4byte	.LCFI8
 1159 00ac 0A000000 		.4byte	.LFE3
 1160 00b0 0200     		.2byte	0x2
 1161 00b2 77       		.byte	0x77
 1162 00b3 04       		.sleb128 4
 1163 00b4 00000000 		.4byte	0
 1164 00b8 00000000 		.4byte	0
 1165              	.LLST4:
 1166 00bc 00000000 		.4byte	.LFB4
 1167 00c0 02000000 		.4byte	.LCFI9
 1168 00c4 0200     		.2byte	0x2
 1169 00c6 7D       		.byte	0x7d
 1170 00c7 00       		.sleb128 0
 1171 00c8 02000000 		.4byte	.LCFI9
 1172 00cc 04000000 		.4byte	.LCFI10
 1173 00d0 0200     		.2byte	0x2
 1174 00d2 7D       		.byte	0x7d
 1175 00d3 04       		.sleb128 4
 1176 00d4 04000000 		.4byte	.LCFI10
 1177 00d8 06000000 		.4byte	.LCFI11
 1178 00dc 0200     		.2byte	0x2
 1179 00de 7D       		.byte	0x7d
 1180 00df 18       		.sleb128 24
 1181 00e0 06000000 		.4byte	.LCFI11
 1182 00e4 28000000 		.4byte	.LFE4
 1183 00e8 0200     		.2byte	0x2
 1184 00ea 77       		.byte	0x77
 1185 00eb 18       		.sleb128 24
 1186 00ec 00000000 		.4byte	0
 1187 00f0 00000000 		.4byte	0
 1188              	.LLST5:
ARM GAS  C:\Users\Kenichi\AppData\Local\Temp\cc4f2YTn.s 			page 28


 1189 00f4 00000000 		.4byte	.LFB5
 1190 00f8 02000000 		.4byte	.LCFI12
 1191 00fc 0200     		.2byte	0x2
 1192 00fe 7D       		.byte	0x7d
 1193 00ff 00       		.sleb128 0
 1194 0100 02000000 		.4byte	.LCFI12
 1195 0104 04000000 		.4byte	.LCFI13
 1196 0108 0200     		.2byte	0x2
 1197 010a 7D       		.byte	0x7d
 1198 010b 04       		.sleb128 4
 1199 010c 04000000 		.4byte	.LCFI13
 1200 0110 06000000 		.4byte	.LCFI14
 1201 0114 0200     		.2byte	0x2
 1202 0116 7D       		.byte	0x7d
 1203 0117 10       		.sleb128 16
 1204 0118 06000000 		.4byte	.LCFI14
 1205 011c 22000000 		.4byte	.LFE5
 1206 0120 0200     		.2byte	0x2
 1207 0122 77       		.byte	0x77
 1208 0123 10       		.sleb128 16
 1209 0124 00000000 		.4byte	0
 1210 0128 00000000 		.4byte	0
 1211              	.LLST6:
 1212 012c 00000000 		.4byte	.LFB6
 1213 0130 02000000 		.4byte	.LCFI15
 1214 0134 0200     		.2byte	0x2
 1215 0136 7D       		.byte	0x7d
 1216 0137 00       		.sleb128 0
 1217 0138 02000000 		.4byte	.LCFI15
 1218 013c 04000000 		.4byte	.LCFI16
 1219 0140 0200     		.2byte	0x2
 1220 0142 7D       		.byte	0x7d
 1221 0143 04       		.sleb128 4
 1222 0144 04000000 		.4byte	.LCFI16
 1223 0148 06000000 		.4byte	.LCFI17
 1224 014c 0200     		.2byte	0x2
 1225 014e 7D       		.byte	0x7d
 1226 014f 10       		.sleb128 16
 1227 0150 06000000 		.4byte	.LCFI17
 1228 0154 26000000 		.4byte	.LFE6
 1229 0158 0200     		.2byte	0x2
 1230 015a 77       		.byte	0x77
 1231 015b 10       		.sleb128 16
 1232 015c 00000000 		.4byte	0
 1233 0160 00000000 		.4byte	0
 1234              	.LLST7:
 1235 0164 00000000 		.4byte	.LFB7
 1236 0168 02000000 		.4byte	.LCFI18
 1237 016c 0200     		.2byte	0x2
 1238 016e 7D       		.byte	0x7d
 1239 016f 00       		.sleb128 0
 1240 0170 02000000 		.4byte	.LCFI18
 1241 0174 04000000 		.4byte	.LCFI19
 1242 0178 0200     		.2byte	0x2
 1243 017a 7D       		.byte	0x7d
 1244 017b 04       		.sleb128 4
 1245 017c 04000000 		.4byte	.LCFI19
ARM GAS  C:\Users\Kenichi\AppData\Local\Temp\cc4f2YTn.s 			page 29


 1246 0180 06000000 		.4byte	.LCFI20
 1247 0184 0200     		.2byte	0x2
 1248 0186 7D       		.byte	0x7d
 1249 0187 10       		.sleb128 16
 1250 0188 06000000 		.4byte	.LCFI20
 1251 018c 26000000 		.4byte	.LFE7
 1252 0190 0200     		.2byte	0x2
 1253 0192 77       		.byte	0x77
 1254 0193 10       		.sleb128 16
 1255 0194 00000000 		.4byte	0
 1256 0198 00000000 		.4byte	0
 1257              	.LLST8:
 1258 019c 00000000 		.4byte	.LFB8
 1259 01a0 02000000 		.4byte	.LCFI21
 1260 01a4 0200     		.2byte	0x2
 1261 01a6 7D       		.byte	0x7d
 1262 01a7 00       		.sleb128 0
 1263 01a8 02000000 		.4byte	.LCFI21
 1264 01ac 04000000 		.4byte	.LCFI22
 1265 01b0 0200     		.2byte	0x2
 1266 01b2 7D       		.byte	0x7d
 1267 01b3 04       		.sleb128 4
 1268 01b4 04000000 		.4byte	.LCFI22
 1269 01b8 18000000 		.4byte	.LFE8
 1270 01bc 0200     		.2byte	0x2
 1271 01be 77       		.byte	0x77
 1272 01bf 04       		.sleb128 4
 1273 01c0 00000000 		.4byte	0
 1274 01c4 00000000 		.4byte	0
 1275              	.LLST9:
 1276 01c8 00000000 		.4byte	.LFB9
 1277 01cc 02000000 		.4byte	.LCFI23
 1278 01d0 0200     		.2byte	0x2
 1279 01d2 7D       		.byte	0x7d
 1280 01d3 00       		.sleb128 0
 1281 01d4 02000000 		.4byte	.LCFI23
 1282 01d8 04000000 		.4byte	.LCFI24
 1283 01dc 0200     		.2byte	0x2
 1284 01de 7D       		.byte	0x7d
 1285 01df 04       		.sleb128 4
 1286 01e0 04000000 		.4byte	.LCFI24
 1287 01e4 28000000 		.4byte	.LFE9
 1288 01e8 0200     		.2byte	0x2
 1289 01ea 77       		.byte	0x77
 1290 01eb 04       		.sleb128 4
 1291 01ec 00000000 		.4byte	0
 1292 01f0 00000000 		.4byte	0
 1293              	.LLST10:
 1294 01f4 00000000 		.4byte	.LFB10
 1295 01f8 02000000 		.4byte	.LCFI25
 1296 01fc 0200     		.2byte	0x2
 1297 01fe 7D       		.byte	0x7d
 1298 01ff 00       		.sleb128 0
 1299 0200 02000000 		.4byte	.LCFI25
 1300 0204 04000000 		.4byte	.LCFI26
 1301 0208 0200     		.2byte	0x2
 1302 020a 7D       		.byte	0x7d
ARM GAS  C:\Users\Kenichi\AppData\Local\Temp\cc4f2YTn.s 			page 30


 1303 020b 04       		.sleb128 4
 1304 020c 04000000 		.4byte	.LCFI26
 1305 0210 18000000 		.4byte	.LFE10
 1306 0214 0200     		.2byte	0x2
 1307 0216 77       		.byte	0x77
 1308 0217 04       		.sleb128 4
 1309 0218 00000000 		.4byte	0
 1310 021c 00000000 		.4byte	0
 1311              	.LLST11:
 1312 0220 00000000 		.4byte	.LFB11
 1313 0224 02000000 		.4byte	.LCFI27
 1314 0228 0200     		.2byte	0x2
 1315 022a 7D       		.byte	0x7d
 1316 022b 00       		.sleb128 0
 1317 022c 02000000 		.4byte	.LCFI27
 1318 0230 04000000 		.4byte	.LCFI28
 1319 0234 0200     		.2byte	0x2
 1320 0236 7D       		.byte	0x7d
 1321 0237 04       		.sleb128 4
 1322 0238 04000000 		.4byte	.LCFI28
 1323 023c 18000000 		.4byte	.LFE11
 1324 0240 0200     		.2byte	0x2
 1325 0242 77       		.byte	0x77
 1326 0243 04       		.sleb128 4
 1327 0244 00000000 		.4byte	0
 1328 0248 00000000 		.4byte	0
 1329              	.LLST12:
 1330 024c 00000000 		.4byte	.LFB12
 1331 0250 02000000 		.4byte	.LCFI29
 1332 0254 0200     		.2byte	0x2
 1333 0256 7D       		.byte	0x7d
 1334 0257 00       		.sleb128 0
 1335 0258 02000000 		.4byte	.LCFI29
 1336 025c 04000000 		.4byte	.LCFI30
 1337 0260 0200     		.2byte	0x2
 1338 0262 7D       		.byte	0x7d
 1339 0263 04       		.sleb128 4
 1340 0264 04000000 		.4byte	.LCFI30
 1341 0268 18000000 		.4byte	.LFE12
 1342 026c 0200     		.2byte	0x2
 1343 026e 77       		.byte	0x77
 1344 026f 04       		.sleb128 4
 1345 0270 00000000 		.4byte	0
 1346 0274 00000000 		.4byte	0
 1347              		.section	.debug_aranges,"",%progbits
 1348 0000 7C000000 		.4byte	0x7c
 1349 0004 0200     		.2byte	0x2
 1350 0006 00000000 		.4byte	.Ldebug_info0
 1351 000a 04       		.byte	0x4
 1352 000b 00       		.byte	0
 1353 000c 0000     		.2byte	0
 1354 000e 0000     		.2byte	0
 1355 0010 00000000 		.4byte	.LFB0
 1356 0014 22000000 		.4byte	.LFE0-.LFB0
 1357 0018 00000000 		.4byte	.LFB1
 1358 001c 26000000 		.4byte	.LFE1-.LFB1
 1359 0020 00000000 		.4byte	.LFB2
ARM GAS  C:\Users\Kenichi\AppData\Local\Temp\cc4f2YTn.s 			page 31


 1360 0024 16000000 		.4byte	.LFE2-.LFB2
 1361 0028 00000000 		.4byte	.LFB3
 1362 002c 0A000000 		.4byte	.LFE3-.LFB3
 1363 0030 00000000 		.4byte	.LFB4
 1364 0034 28000000 		.4byte	.LFE4-.LFB4
 1365 0038 00000000 		.4byte	.LFB5
 1366 003c 22000000 		.4byte	.LFE5-.LFB5
 1367 0040 00000000 		.4byte	.LFB6
 1368 0044 26000000 		.4byte	.LFE6-.LFB6
 1369 0048 00000000 		.4byte	.LFB7
 1370 004c 26000000 		.4byte	.LFE7-.LFB7
 1371 0050 00000000 		.4byte	.LFB8
 1372 0054 18000000 		.4byte	.LFE8-.LFB8
 1373 0058 00000000 		.4byte	.LFB9
 1374 005c 28000000 		.4byte	.LFE9-.LFB9
 1375 0060 00000000 		.4byte	.LFB10
 1376 0064 18000000 		.4byte	.LFE10-.LFB10
 1377 0068 00000000 		.4byte	.LFB11
 1378 006c 18000000 		.4byte	.LFE11-.LFB11
 1379 0070 00000000 		.4byte	.LFB12
 1380 0074 18000000 		.4byte	.LFE12-.LFB12
 1381 0078 00000000 		.4byte	0
 1382 007c 00000000 		.4byte	0
 1383              		.section	.debug_ranges,"",%progbits
 1384              	.Ldebug_ranges0:
 1385 0000 00000000 		.4byte	.LFB0
 1386 0004 22000000 		.4byte	.LFE0
 1387 0008 00000000 		.4byte	.LFB1
 1388 000c 26000000 		.4byte	.LFE1
 1389 0010 00000000 		.4byte	.LFB2
 1390 0014 16000000 		.4byte	.LFE2
 1391 0018 00000000 		.4byte	.LFB3
 1392 001c 0A000000 		.4byte	.LFE3
 1393 0020 00000000 		.4byte	.LFB4
 1394 0024 28000000 		.4byte	.LFE4
 1395 0028 00000000 		.4byte	.LFB5
 1396 002c 22000000 		.4byte	.LFE5
 1397 0030 00000000 		.4byte	.LFB6
 1398 0034 26000000 		.4byte	.LFE6
 1399 0038 00000000 		.4byte	.LFB7
 1400 003c 26000000 		.4byte	.LFE7
 1401 0040 00000000 		.4byte	.LFB8
 1402 0044 18000000 		.4byte	.LFE8
 1403 0048 00000000 		.4byte	.LFB9
 1404 004c 28000000 		.4byte	.LFE9
 1405 0050 00000000 		.4byte	.LFB10
 1406 0054 18000000 		.4byte	.LFE10
 1407 0058 00000000 		.4byte	.LFB11
 1408 005c 18000000 		.4byte	.LFE11
 1409 0060 00000000 		.4byte	.LFB12
 1410 0064 18000000 		.4byte	.LFE12
 1411 0068 00000000 		.4byte	0
 1412 006c 00000000 		.4byte	0
 1413              		.section	.debug_line,"",%progbits
 1414              	.Ldebug_line0:
 1415 0000 50010000 		.section	.debug_str,"MS",%progbits,1
 1415      02004800 
ARM GAS  C:\Users\Kenichi\AppData\Local\Temp\cc4f2YTn.s 			page 32


 1415      00000201 
 1415      FB0E0D00 
 1415      01010101 
 1416              	.LASF29:
 1417 0000 72733438 		.ascii	"rs485_isr_Enable\000"
 1417      355F6973 
 1417      725F456E 
 1417      61626C65 
 1417      00
 1418              	.LASF16:
 1419 0011 72656733 		.ascii	"reg32\000"
 1419      3200
 1420              	.LASF20:
 1421 0017 72733438 		.ascii	"rs485_isr_Interrupt\000"
 1421      355F6973 
 1421      725F496E 
 1421      74657272 
 1421      75707400 
 1422              	.LASF19:
 1423 002b 72733438 		.ascii	"rs485_isr_Stop\000"
 1423      355F6973 
 1423      725F5374 
 1423      6F7000
 1424              	.LASF13:
 1425 003a 666C6F61 		.ascii	"float\000"
 1425      7400
 1426              	.LASF21:
 1427 0040 72733438 		.ascii	"rs485_isr_StartEx\000"
 1427      355F6973 
 1427      725F5374 
 1427      61727445 
 1427      7800
 1428              	.LASF3:
 1429 0052 73686F72 		.ascii	"short unsigned int\000"
 1429      7420756E 
 1429      7369676E 
 1429      65642069 
 1429      6E7400
 1430              	.LASF28:
 1431 0065 72733438 		.ascii	"rs485_isr_GetPriority\000"
 1431      355F6973 
 1431      725F4765 
 1431      74507269 
 1431      6F726974 
 1432              	.LASF32:
 1433 007b 72733438 		.ascii	"rs485_isr_ClearPending\000"
 1433      355F6973 
 1433      725F436C 
 1433      65617250 
 1433      656E6469 
 1434              	.LASF1:
 1435 0092 756E7369 		.ascii	"unsigned char\000"
 1435      676E6564 
 1435      20636861 
 1435      7200
 1436              	.LASF15:
 1437 00a0 72656738 		.ascii	"reg8\000"
ARM GAS  C:\Users\Kenichi\AppData\Local\Temp\cc4f2YTn.s 			page 33


 1437      00
 1438              	.LASF9:
 1439 00a5 6C6F6E67 		.ascii	"long unsigned int\000"
 1439      20756E73 
 1439      69676E65 
 1439      6420696E 
 1439      7400
 1440              	.LASF11:
 1441 00b7 75696E74 		.ascii	"uint8\000"
 1441      3800
 1442              	.LASF22:
 1443 00bd 72733438 		.ascii	"rs485_isr_SetVector\000"
 1443      355F6973 
 1443      725F5365 
 1443      74566563 
 1443      746F7200 
 1444              	.LASF26:
 1445 00d1 7072696F 		.ascii	"priority\000"
 1445      72697479 
 1445      00
 1446              	.LASF25:
 1447 00da 72733438 		.ascii	"rs485_isr_SetPriority\000"
 1447      355F6973 
 1447      725F5365 
 1447      74507269 
 1447      6F726974 
 1448              	.LASF14:
 1449 00f0 646F7562 		.ascii	"double\000"
 1449      6C6500
 1450              	.LASF35:
 1451 00f7 433A5C55 		.ascii	"C:\\Users\\Kenichi\\Documents\\PSoC Creator\\servo_"
 1451      73657273 
 1451      5C4B656E 
 1451      69636869 
 1451      5C446F63 
 1452 0125 345F3238 		.ascii	"4_28\\tail_backup.cydsn\000"
 1452      5C746169 
 1452      6C5F6261 
 1452      636B7570 
 1452      2E637964 
 1453              	.LASF30:
 1454 013c 72733438 		.ascii	"rs485_isr_Disable\000"
 1454      355F6973 
 1454      725F4469 
 1454      7361626C 
 1454      6500
 1455              	.LASF12:
 1456 014e 75696E74 		.ascii	"uint32\000"
 1456      333200
 1457              	.LASF4:
 1458 0155 756E7369 		.ascii	"unsigned int\000"
 1458      676E6564 
 1458      20696E74 
 1458      00
 1459              	.LASF23:
 1460 0162 61646472 		.ascii	"address\000"
 1460      65737300 
ARM GAS  C:\Users\Kenichi\AppData\Local\Temp\cc4f2YTn.s 			page 34


 1461              	.LASF6:
 1462 016a 6C6F6E67 		.ascii	"long long unsigned int\000"
 1462      206C6F6E 
 1462      6720756E 
 1462      7369676E 
 1462      65642069 
 1463              	.LASF18:
 1464 0181 72733438 		.ascii	"rs485_isr_Start\000"
 1464      355F6973 
 1464      725F5374 
 1464      61727400 
 1465              	.LASF17:
 1466 0191 63796973 		.ascii	"cyisraddress\000"
 1466      72616464 
 1466      72657373 
 1466      00
 1467              	.LASF36:
 1468 019e 72733438 		.ascii	"rs485_isr_GetState\000"
 1468      355F6973 
 1468      725F4765 
 1468      74537461 
 1468      746500
 1469              	.LASF8:
 1470 01b1 73697A65 		.ascii	"sizetype\000"
 1470      74797065 
 1470      00
 1471              	.LASF5:
 1472 01ba 6C6F6E67 		.ascii	"long long int\000"
 1472      206C6F6E 
 1472      6720696E 
 1472      7400
 1473              	.LASF10:
 1474 01c8 63686172 		.ascii	"char\000"
 1474      00
 1475              	.LASF24:
 1476 01cd 72616D56 		.ascii	"ramVectorTable\000"
 1476      6563746F 
 1476      72546162 
 1476      6C6500
 1477              	.LASF27:
 1478 01dc 72733438 		.ascii	"rs485_isr_GetVector\000"
 1478      355F6973 
 1478      725F4765 
 1478      74566563 
 1478      746F7200 
 1479              	.LASF2:
 1480 01f0 73686F72 		.ascii	"short int\000"
 1480      7420696E 
 1480      7400
 1481              	.LASF31:
 1482 01fa 72733438 		.ascii	"rs485_isr_SetPending\000"
 1482      355F6973 
 1482      725F5365 
 1482      7450656E 
 1482      64696E67 
 1483              	.LASF33:
 1484 020f 474E5520 		.ascii	"GNU C 4.7.3 20130312 (release) [ARM/embedded-4_7-br"
ARM GAS  C:\Users\Kenichi\AppData\Local\Temp\cc4f2YTn.s 			page 35


 1484      4320342E 
 1484      372E3320 
 1484      32303133 
 1484      30333132 
 1485 0242 616E6368 		.ascii	"anch revision 196615]\000"
 1485      20726576 
 1485      6973696F 
 1485      6E203139 
 1485      36363135 
 1486              	.LASF34:
 1487 0258 2E5C4765 		.ascii	".\\Generated_Source\\PSoC5\\rs485_isr.c\000"
 1487      6E657261 
 1487      7465645F 
 1487      536F7572 
 1487      63655C50 
 1488              	.LASF7:
 1489 027d 6C6F6E67 		.ascii	"long int\000"
 1489      20696E74 
 1489      00
 1490              	.LASF0:
 1491 0286 7369676E 		.ascii	"signed char\000"
 1491      65642063 
 1491      68617200 
 1492              		.ident	"GCC: (GNU Tools for ARM Embedded Processors) 4.7.3 20130312 (release) [ARM/embedded-4_7-br
