ARM GAS  C:\Users\RIEKOH~1\AppData\Local\Temp\ccmda2Tf.s 			page 1


   1              		.syntax unified
   2              		.cpu cortex-m3
   3              		.fpu softvfp
   4              		.eabi_attribute 20, 1
   5              		.eabi_attribute 21, 1
   6              		.eabi_attribute 23, 3
   7              		.eabi_attribute 24, 1
   8              		.eabi_attribute 25, 1
   9              		.eabi_attribute 26, 1
  10              		.eabi_attribute 30, 6
  11              		.eabi_attribute 34, 1
  12              		.eabi_attribute 18, 4
  13              		.thumb
  14              		.file	"main.c"
  15              		.text
  16              	.Ltext0:
  17              		.cfi_sections	.debug_frame
  18              		.comm	aileronR,4,4
  19              		.comm	aileronR_buffer,4,4
  20              		.comm	aileronR_before,4,4
  21              		.comm	pak,6,4
  22              		.section	.text.main,"ax",%progbits
  23              		.align	2
  24              		.global	main
  25              		.thumb
  26              		.thumb_func
  27              		.type	main, %function
  28              	main:
  29              	.LFB56:
  30              		.file 1 ".\\main.c"
   1:.\main.c      **** /* ========================================
   2:.\main.c      ****  * aileronR14 version 1.0 2014/4/25
   3:.\main.c      ****  * 1...right 2...left
   4:.\main.c      ****  *
   5:.\main.c      ****  * 元ファイルです
   6:.\main.c      ****  * ========================================
   7:.\main.c      **** */
   8:.\main.c      **** #include <project.h>
   9:.\main.c      **** 
  10:.\main.c      **** #define WRITE()		DE_Write(1)
  11:.\main.c      **** #define	READ()		DE_Write(0)
  12:.\main.c      **** 
  13:.\main.c      **** #define	RS485_PACKET_LENGTH	(6)
  14:.\main.c      **** 
  15:.\main.c      **** typedef union _tagRS485_PACKET {
  16:.\main.c      **** 	struct {
  17:.\main.c      **** 		unsigned char bStatus;
  18:.\main.c      **** 		unsigned char bCheckSum;
  19:.\main.c      **** 		unsigned short wData[2];
  20:.\main.c      **** 	} _pak;
  21:.\main.c      **** 	unsigned char _byte[RS485_PACKET_LENGTH];
  22:.\main.c      **** } PACKET;
  23:.\main.c      **** 
  24:.\main.c      **** void rs485_Start(void);
  25:.\main.c      **** void rs485_isr(void);
  26:.\main.c      **** char rs485_CheckPacket(char, PACKET*);
  27:.\main.c      **** char CheckValid(PACKET *);
ARM GAS  C:\Users\RIEKOH~1\AppData\Local\Temp\ccmda2Tf.s 			page 2


  28:.\main.c      **** void Servo_Start(void);
  29:.\main.c      **** void Terminal_Count_ISR(void);
  30:.\main.c      **** unsigned int FormatValueAilR(unsigned short);
  31:.\main.c      **** int CenterStatus(void);
  32:.\main.c      **** 
  33:.\main.c      **** #define	PACKET_ENDIANCHANGE(x)	{\
  34:.\main.c      **** 	char temp; \
  35:.\main.c      **** 	temp = x->_byte[2]; \
  36:.\main.c      **** 	x->_byte[2] = x->_byte[3]; \
  37:.\main.c      **** 	x->_byte[3] = temp; \
  38:.\main.c      **** 	temp = x->_byte[4]; \
  39:.\main.c      **** 	x->_byte[4] = x->_byte[5]; \
  40:.\main.c      **** 	x->_byte[5] = temp; \
  41:.\main.c      **** 	}
  42:.\main.c      **** 
  43:.\main.c      **** #define PACKET_CLEAR(x) {\
  44:.\main.c      ****     x->_byte[0] = 0; \
  45:.\main.c      ****     x->_byte[1] = 0; \
  46:.\main.c      ****     x->_byte[2] = 0; \
  47:.\main.c      ****     x->_byte[3] = 0; \
  48:.\main.c      ****     x->_byte[4] = 0; \
  49:.\main.c      ****     x->_byte[5] = 0; \
  50:.\main.c      ****     }
  51:.\main.c      **** 
  52:.\main.c      **** //Global variable here.
  53:.\main.c      **** 
  54:.\main.c      **** unsigned int aileronR,aileronR_buffer,aileronR_before;
  55:.\main.c      **** PACKET pak;
  56:.\main.c      **** 
  57:.\main.c      **** void main(){ 
  31              		.loc 1 57 0
  32              		.cfi_startproc
  33              		@ args = 0, pretend = 0, frame = 0
  34              		@ frame_needed = 1, uses_anonymous_args = 0
  35 0000 80B5     		push	{r7, lr}
  36              	.LCFI0:
  37              		.cfi_def_cfa_offset 8
  38              		.cfi_offset 7, -8
  39              		.cfi_offset 14, -4
  40 0002 00AF     		add	r7, sp, #0
  41              	.LCFI1:
  42              		.cfi_def_cfa_register 7
  58:.\main.c      ****     rs485_Start();   
  43              		.loc 1 58 0
  44 0004 FFF7FEFF 		bl	rs485_Start
  59:.\main.c      ****     Servo_Start();
  45              		.loc 1 59 0
  46 0008 FFF7FEFF 		bl	Servo_Start
  60:.\main.c      ****     CyGlobalIntEnable;  // Uncomment this line to enable global interrupts. 
  47              		.loc 1 60 0
  48              	@ 60 ".\main.c" 1
  49 000c 62B6     		CPSIE   i
  50              	@ 0 "" 2
  51              		.thumb
  52 000e 00E0     		b	.L4
  53              	.L5:
  61:.\main.c      **** 	while(1) {
ARM GAS  C:\Users\RIEKOH~1\AppData\Local\Temp\ccmda2Tf.s 			page 3


  62:.\main.c      **** 		if(rs485_CheckPacket(0x3C, &pak)==0) {
  63:.\main.c      **** //            LED_2_Write(1);
  64:.\main.c      **** //            LED_1_Write(0);
  65:.\main.c      ****             if(CheckValid(&pak)==1) {
  66:.\main.c      ****                 aileronR_buffer = pak._pak.wData[0];
  67:.\main.c      **** //                PWM_1_WriteCompare1(FormatValueAilR(aileronR_buffer));
  68:.\main.c      ****                 LED_2_Write(1);
  69:.\main.c      ****                 LED_1_Write(0);
  70:.\main.c      ****             } else {
  71:.\main.c      ****                 LED_2_Write(0);
  72:.\main.c      ****                 LED_1_Write(1);
  73:.\main.c      ****             }
  74:.\main.c      ****         } else {
  75:.\main.c      **** //            LED_2_Write(1);
  76:.\main.c      **** //            LED_1_Write(1);
  77:.\main.c      ****         } 
  78:.\main.c      **** 	}
  54              		.loc 1 78 0
  55 0010 00BF     		nop
  56              	.L4:
  62:.\main.c      **** 		if(rs485_CheckPacket(0x3C, &pak)==0) {
  57              		.loc 1 62 0
  58 0012 4FF03C00 		mov	r0, #60
  59 0016 40F20001 		movw	r1, #:lower16:pak
  60 001a C0F20001 		movt	r1, #:upper16:pak
  61 001e FFF7FEFF 		bl	rs485_CheckPacket
  62 0022 0346     		mov	r3, r0
  63 0024 002B     		cmp	r3, #0
  64 0026 F3D1     		bne	.L5
  65:.\main.c      ****             if(CheckValid(&pak)==1) {
  65              		.loc 1 65 0
  66 0028 40F20000 		movw	r0, #:lower16:pak
  67 002c C0F20000 		movt	r0, #:upper16:pak
  68 0030 FFF7FEFF 		bl	CheckValid
  69 0034 0346     		mov	r3, r0
  70 0036 012B     		cmp	r3, #1
  71 0038 13D1     		bne	.L3
  66:.\main.c      ****                 aileronR_buffer = pak._pak.wData[0];
  72              		.loc 1 66 0
  73 003a 40F20003 		movw	r3, #:lower16:pak
  74 003e C0F20003 		movt	r3, #:upper16:pak
  75 0042 5B88     		ldrh	r3, [r3, #2]
  76 0044 1A46     		mov	r2, r3
  77 0046 40F20003 		movw	r3, #:lower16:aileronR_buffer
  78 004a C0F20003 		movt	r3, #:upper16:aileronR_buffer
  79 004e 1A60     		str	r2, [r3, #0]
  68:.\main.c      ****                 LED_2_Write(1);
  80              		.loc 1 68 0
  81 0050 4FF00100 		mov	r0, #1
  82 0054 FFF7FEFF 		bl	LED_2_Write
  69:.\main.c      ****                 LED_1_Write(0);
  83              		.loc 1 69 0
  84 0058 4FF00000 		mov	r0, #0
  85 005c FFF7FEFF 		bl	LED_1_Write
  86              		.loc 1 78 0
  87 0060 D6E7     		b	.L5
  88              	.L3:
ARM GAS  C:\Users\RIEKOH~1\AppData\Local\Temp\ccmda2Tf.s 			page 4


  71:.\main.c      ****                 LED_2_Write(0);
  89              		.loc 1 71 0
  90 0062 4FF00000 		mov	r0, #0
  91 0066 FFF7FEFF 		bl	LED_2_Write
  72:.\main.c      ****                 LED_1_Write(1);
  92              		.loc 1 72 0
  93 006a 4FF00100 		mov	r0, #1
  94 006e FFF7FEFF 		bl	LED_1_Write
  95              		.loc 1 78 0
  96 0072 CDE7     		b	.L5
  97              		.cfi_endproc
  98              	.LFE56:
  99              		.size	main, .-main
 100              		.section	.text.Timer_Set,"ax",%progbits
 101              		.align	2
 102              		.global	Timer_Set
 103              		.thumb
 104              		.thumb_func
 105              		.type	Timer_Set, %function
 106              	Timer_Set:
 107              	.LFB57:
  79:.\main.c      ****     return;
  80:.\main.c      **** }
  81:.\main.c      **** 
  82:.\main.c      **** void Timer_Set(unsigned int ms){
 108              		.loc 1 82 0
 109              		.cfi_startproc
 110              		@ args = 0, pretend = 0, frame = 8
 111              		@ frame_needed = 1, uses_anonymous_args = 0
 112 0000 80B5     		push	{r7, lr}
 113              	.LCFI2:
 114              		.cfi_def_cfa_offset 8
 115              		.cfi_offset 7, -8
 116              		.cfi_offset 14, -4
 117 0002 82B0     		sub	sp, sp, #8
 118              	.LCFI3:
 119              		.cfi_def_cfa_offset 16
 120 0004 00AF     		add	r7, sp, #0
 121              	.LCFI4:
 122              		.cfi_def_cfa_register 7
 123 0006 7860     		str	r0, [r7, #4]
  83:.\main.c      **** 	Timer_WriteCounter(ms);
 124              		.loc 1 83 0
 125 0008 7B68     		ldr	r3, [r7, #4]
 126 000a 9BB2     		uxth	r3, r3
 127 000c 1846     		mov	r0, r3
 128 000e FFF7FEFF 		bl	Timer_WriteCounter
  84:.\main.c      **** 	return;
 129              		.loc 1 84 0
 130 0012 00BF     		nop
  85:.\main.c      **** }
 131              		.loc 1 85 0
 132 0014 07F10807 		add	r7, r7, #8
 133 0018 BD46     		mov	sp, r7
 134 001a 80BD     		pop	{r7, pc}
 135              		.cfi_endproc
 136              	.LFE57:
ARM GAS  C:\Users\RIEKOH~1\AppData\Local\Temp\ccmda2Tf.s 			page 5


 137              		.size	Timer_Set, .-Timer_Set
 138              		.section	.text.Timer_Delayus,"ax",%progbits
 139              		.align	2
 140              		.global	Timer_Delayus
 141              		.thumb
 142              		.thumb_func
 143              		.type	Timer_Delayus, %function
 144              	Timer_Delayus:
 145              	.LFB58:
  86:.\main.c      **** 
  87:.\main.c      **** void Timer_Delayus(unsigned int us){
 146              		.loc 1 87 0
 147              		.cfi_startproc
 148              		@ args = 0, pretend = 0, frame = 8
 149              		@ frame_needed = 1, uses_anonymous_args = 0
 150 0000 80B5     		push	{r7, lr}
 151              	.LCFI5:
 152              		.cfi_def_cfa_offset 8
 153              		.cfi_offset 7, -8
 154              		.cfi_offset 14, -4
 155 0002 82B0     		sub	sp, sp, #8
 156              	.LCFI6:
 157              		.cfi_def_cfa_offset 16
 158 0004 00AF     		add	r7, sp, #0
 159              	.LCFI7:
 160              		.cfi_def_cfa_register 7
 161 0006 7860     		str	r0, [r7, #4]
  88:.\main.c      **** 	Timer_Set(us + 50);
 162              		.loc 1 88 0
 163 0008 7B68     		ldr	r3, [r7, #4]
 164 000a 03F13203 		add	r3, r3, #50
 165 000e 1846     		mov	r0, r3
 166 0010 FFF7FEFF 		bl	Timer_Set
  89:.\main.c      **** 	while(Timer_ReadCounter() > 50) {}
 167              		.loc 1 89 0
 168 0014 00BF     		nop
 169              	.L9:
 170              		.loc 1 89 0 is_stmt 0 discriminator 1
 171 0016 FFF7FEFF 		bl	Timer_ReadCounter
 172 001a 0346     		mov	r3, r0
 173 001c 322B     		cmp	r3, #50
 174 001e FAD8     		bhi	.L9
  90:.\main.c      **** 	return;
 175              		.loc 1 90 0 is_stmt 1
 176 0020 00BF     		nop
  91:.\main.c      **** }
 177              		.loc 1 91 0
 178 0022 07F10807 		add	r7, r7, #8
 179 0026 BD46     		mov	sp, r7
 180 0028 80BD     		pop	{r7, pc}
 181              		.cfi_endproc
 182              	.LFE58:
 183              		.size	Timer_Delayus, .-Timer_Delayus
 184 002a 00BF     		.section	.text.rs485_Start,"ax",%progbits
 185              		.align	2
 186              		.global	rs485_Start
 187              		.thumb
ARM GAS  C:\Users\RIEKOH~1\AppData\Local\Temp\ccmda2Tf.s 			page 6


 188              		.thumb_func
 189              		.type	rs485_Start, %function
 190              	rs485_Start:
 191              	.LFB59:
  92:.\main.c      **** 
  93:.\main.c      **** void rs485_Start(void){
 192              		.loc 1 93 0
 193              		.cfi_startproc
 194              		@ args = 0, pretend = 0, frame = 0
 195              		@ frame_needed = 1, uses_anonymous_args = 0
 196 0000 80B5     		push	{r7, lr}
 197              	.LCFI8:
 198              		.cfi_def_cfa_offset 8
 199              		.cfi_offset 7, -8
 200              		.cfi_offset 14, -4
 201 0002 00AF     		add	r7, sp, #0
 202              	.LCFI9:
 203              		.cfi_def_cfa_register 7
  94:.\main.c      **** 	UART_Start();
 204              		.loc 1 94 0
 205 0004 FFF7FEFF 		bl	UART_Start
  95:.\main.c      **** 	Timer_Start();
 206              		.loc 1 95 0
 207 0008 FFF7FEFF 		bl	Timer_Start
  96:.\main.c      **** 	return;
 208              		.loc 1 96 0
 209 000c 00BF     		nop
  97:.\main.c      **** }
 210              		.loc 1 97 0
 211 000e 80BD     		pop	{r7, pc}
 212              		.cfi_endproc
 213              	.LFE59:
 214              		.size	rs485_Start, .-rs485_Start
 215              		.section	.text.rs485_CheckPacket,"ax",%progbits
 216              		.align	2
 217              		.global	rs485_CheckPacket
 218              		.thumb
 219              		.thumb_func
 220              		.type	rs485_CheckPacket, %function
 221              	rs485_CheckPacket:
 222              	.LFB60:
  98:.\main.c      **** 
  99:.\main.c      **** /*
 100:.\main.c      ****  * rs485_CheckPacket
 101:.\main.c      ****  * 複数アドレス対応版 ビット3-6が一致で応答
 102:.\main.c      ****  * addr : device address (7bit unsigned)
 103:.\main.c      ****  * pak : pointer to PACKET structure
 104:.\main.c      ****  */
 105:.\main.c      **** char rs485_CheckPacket(
 106:.\main.c      **** 	char addr,
 107:.\main.c      **** 	PACKET *pak)
 108:.\main.c      **** {
 223              		.loc 1 108 0
 224              		.cfi_startproc
 225              		@ args = 0, pretend = 0, frame = 16
 226              		@ frame_needed = 1, uses_anonymous_args = 0
 227 0000 90B5     		push	{r4, r7, lr}
ARM GAS  C:\Users\RIEKOH~1\AppData\Local\Temp\ccmda2Tf.s 			page 7


 228              	.LCFI10:
 229              		.cfi_def_cfa_offset 12
 230              		.cfi_offset 4, -12
 231              		.cfi_offset 7, -8
 232              		.cfi_offset 14, -4
 233 0002 85B0     		sub	sp, sp, #20
 234              	.LCFI11:
 235              		.cfi_def_cfa_offset 32
 236 0004 00AF     		add	r7, sp, #0
 237              	.LCFI12:
 238              		.cfi_def_cfa_register 7
 239 0006 0346     		mov	r3, r0
 240 0008 3960     		str	r1, [r7, #0]
 241 000a FB71     		strb	r3, [r7, #7]
 109:.\main.c      **** 	char rcv;
 110:.\main.c      **** 	unsigned char i;
 111:.\main.c      **** 	
 112:.\main.c      **** 	if((UART_ReadRxStatus() & UART_RX_STS_FIFO_NOTEMPTY) == 0)
 242              		.loc 1 112 0
 243 000c FFF7FEFF 		bl	UART_ReadRxStatus
 244 0010 0346     		mov	r3, r0
 245 0012 03F02003 		and	r3, r3, #32
 246 0016 002B     		cmp	r3, #0
 247 0018 06D1     		bne	.L14
 113:.\main.c      **** 	{
 114:.\main.c      **** //        LED_1_Write(1);
 115:.\main.c      **** 		READ();
 248              		.loc 1 115 0
 249 001a 4FF00000 		mov	r0, #0
 250 001e FFF7FEFF 		bl	DE_Write
 116:.\main.c      **** 		return 1;
 251              		.loc 1 116 0
 252 0022 4FF00103 		mov	r3, #1
 253 0026 CCE0     		b	.L15
 254              	.L14:
 117:.\main.c      **** 	}
 118:.\main.c      **** //	LED_1_Write(1);
 119:.\main.c      **** 	PACKET_CLEAR(pak);
 255              		.loc 1 119 0
 256 0028 3B68     		ldr	r3, [r7, #0]
 257 002a 4FF00002 		mov	r2, #0
 258 002e 1A70     		strb	r2, [r3, #0]
 259 0030 3B68     		ldr	r3, [r7, #0]
 260 0032 4FF00002 		mov	r2, #0
 261 0036 5A70     		strb	r2, [r3, #1]
 262 0038 3B68     		ldr	r3, [r7, #0]
 263 003a 4FF00002 		mov	r2, #0
 264 003e 9A70     		strb	r2, [r3, #2]
 265 0040 3B68     		ldr	r3, [r7, #0]
 266 0042 4FF00002 		mov	r2, #0
 267 0046 DA70     		strb	r2, [r3, #3]
 268 0048 3B68     		ldr	r3, [r7, #0]
 269 004a 4FF00002 		mov	r2, #0
 270 004e 1A71     		strb	r2, [r3, #4]
 271 0050 3B68     		ldr	r3, [r7, #0]
 272 0052 4FF00002 		mov	r2, #0
 273 0056 5A71     		strb	r2, [r3, #5]
ARM GAS  C:\Users\RIEKOH~1\AppData\Local\Temp\ccmda2Tf.s 			page 8


 120:.\main.c      **** 	rcv = UART_ReadRxData();
 274              		.loc 1 120 0
 275 0058 FFF7FEFF 		bl	UART_ReadRxData
 276 005c 0346     		mov	r3, r0
 277 005e BB73     		strb	r3, [r7, #14]
 121:.\main.c      **** 	UART_ClearRxBuffer();
 278              		.loc 1 121 0
 279 0060 FFF7FEFF 		bl	UART_ClearRxBuffer
 122:.\main.c      **** 	if(addr != (rcv & 0x7f)){
 280              		.loc 1 122 0
 281 0064 FA79     		ldrb	r2, [r7, #7]	@ zero_extendqisi2
 282 0066 BB7B     		ldrb	r3, [r7, #14]	@ zero_extendqisi2
 283 0068 03F07F03 		and	r3, r3, #127
 284 006c 9A42     		cmp	r2, r3
 285 006e 22D0     		beq	.L16
 123:.\main.c      **** 		Timer_Set(200);
 286              		.loc 1 123 0
 287 0070 4FF0C800 		mov	r0, #200
 288 0074 FFF7FEFF 		bl	Timer_Set
 124:.\main.c      **** 		READ();
 289              		.loc 1 124 0
 290 0078 4FF00000 		mov	r0, #0
 291 007c FFF7FEFF 		bl	DE_Write
 125:.\main.c      **** 		while(Timer_ReadCounter() > 49){
 292              		.loc 1 125 0
 293 0080 0FE0     		b	.L17
 294              	.L18:
 126:.\main.c      **** 			if((UART_ReadRxStatus() & UART_RX_STS_FIFO_NOTEMPTY) != 0){
 295              		.loc 1 126 0
 296 0082 FFF7FEFF 		bl	UART_ReadRxStatus
 297 0086 0346     		mov	r3, r0
 298 0088 03F02003 		and	r3, r3, #32
 299 008c 002B     		cmp	r3, #0
 300 008e 08D0     		beq	.L17
 127:.\main.c      **** 				Timer_Delayus(900);
 301              		.loc 1 127 0
 302 0090 4FF46170 		mov	r0, #900
 303 0094 FFF7FEFF 		bl	Timer_Delayus
 128:.\main.c      **** 				UART_ClearRxBuffer();
 304              		.loc 1 128 0
 305 0098 FFF7FEFF 		bl	UART_ClearRxBuffer
 129:.\main.c      ****                 return 1;
 306              		.loc 1 129 0
 307 009c 4FF00103 		mov	r3, #1
 308 00a0 8FE0     		b	.L15
 309              	.L17:
 125:.\main.c      **** 		while(Timer_ReadCounter() > 49){
 310              		.loc 1 125 0 discriminator 1
 311 00a2 FFF7FEFF 		bl	Timer_ReadCounter
 312 00a6 0346     		mov	r3, r0
 313 00a8 312B     		cmp	r3, #49
 314 00aa EAD8     		bhi	.L18
 130:.\main.c      **** 			}
 131:.\main.c      **** 		}
 132:.\main.c      **** 		UART_ClearRxBuffer();
 315              		.loc 1 132 0
 316 00ac FFF7FEFF 		bl	UART_ClearRxBuffer
ARM GAS  C:\Users\RIEKOH~1\AppData\Local\Temp\ccmda2Tf.s 			page 9


 133:.\main.c      **** 		return 1;
 317              		.loc 1 133 0
 318 00b0 4FF00103 		mov	r3, #1
 319 00b4 85E0     		b	.L15
 320              	.L16:
 134:.\main.c      **** 	}
 135:.\main.c      **** 	
 136:.\main.c      **** //  LED_1_Write(0);
 137:.\main.c      **** 	WRITE();
 321              		.loc 1 137 0
 322 00b6 4FF00100 		mov	r0, #1
 323 00ba FFF7FEFF 		bl	DE_Write
 138:.\main.c      **** 	UART_PutChar(addr);
 324              		.loc 1 138 0
 325 00be FB79     		ldrb	r3, [r7, #7]	@ zero_extendqisi2
 326 00c0 1846     		mov	r0, r3
 327 00c2 FFF7FEFF 		bl	UART_PutChar
 139:.\main.c      **** 	while(!(UART_ReadTxStatus() & UART_TX_STS_COMPLETE)) {}
 328              		.loc 1 139 0
 329 00c6 00BF     		nop
 330              	.L19:
 331              		.loc 1 139 0 is_stmt 0 discriminator 1
 332 00c8 FFF7FEFF 		bl	UART_ReadTxStatus
 333 00cc 0346     		mov	r3, r0
 334 00ce 03F00103 		and	r3, r3, #1
 335 00d2 002B     		cmp	r3, #0
 336 00d4 F8D0     		beq	.L19
 140:.\main.c      **** 	UART_ClearRxBuffer();
 337              		.loc 1 140 0 is_stmt 1
 338 00d6 FFF7FEFF 		bl	UART_ClearRxBuffer
 141:.\main.c      **** 	
 142:.\main.c      **** 	if(rcv & 0x80){
 339              		.loc 1 142 0
 340 00da BB7B     		ldrb	r3, [r7, #14]	@ zero_extendqisi2
 341 00dc 5BB2     		sxtb	r3, r3
 342 00de 002B     		cmp	r3, #0
 343 00e0 2FDA     		bge	.L20
 344              	.LBB2:
 143:.\main.c      **** 		// send data to master
 144:.\main.c      **** 		PACKET_ENDIANCHANGE(pak);
 345              		.loc 1 144 0
 346 00e2 3B68     		ldr	r3, [r7, #0]
 347 00e4 9B78     		ldrb	r3, [r3, #2]
 348 00e6 7B73     		strb	r3, [r7, #13]
 349 00e8 3B68     		ldr	r3, [r7, #0]
 350 00ea DA78     		ldrb	r2, [r3, #3]	@ zero_extendqisi2
 351 00ec 3B68     		ldr	r3, [r7, #0]
 352 00ee 9A70     		strb	r2, [r3, #2]
 353 00f0 3B68     		ldr	r3, [r7, #0]
 354 00f2 7A7B     		ldrb	r2, [r7, #13]
 355 00f4 DA70     		strb	r2, [r3, #3]
 356 00f6 3B68     		ldr	r3, [r7, #0]
 357 00f8 1B79     		ldrb	r3, [r3, #4]
 358 00fa 7B73     		strb	r3, [r7, #13]
 359 00fc 3B68     		ldr	r3, [r7, #0]
 360 00fe 5A79     		ldrb	r2, [r3, #5]	@ zero_extendqisi2
 361 0100 3B68     		ldr	r3, [r7, #0]
ARM GAS  C:\Users\RIEKOH~1\AppData\Local\Temp\ccmda2Tf.s 			page 10


 362 0102 1A71     		strb	r2, [r3, #4]
 363 0104 3B68     		ldr	r3, [r7, #0]
 364 0106 7A7B     		ldrb	r2, [r7, #13]
 365 0108 5A71     		strb	r2, [r3, #5]
 366              	.LBE2:
 145:.\main.c      **** 		for(i = 0; i < 6; i++){
 367              		.loc 1 145 0
 368 010a 4FF00003 		mov	r3, #0
 369 010e FB73     		strb	r3, [r7, #15]
 370 0110 13E0     		b	.L21
 371              	.L23:
 146:.\main.c      **** 			UART_PutChar(pak->_byte[i]);
 372              		.loc 1 146 0
 373 0112 FB7B     		ldrb	r3, [r7, #15]	@ zero_extendqisi2
 374 0114 3A68     		ldr	r2, [r7, #0]
 375 0116 D35C     		ldrb	r3, [r2, r3]	@ zero_extendqisi2
 376 0118 1846     		mov	r0, r3
 377 011a FFF7FEFF 		bl	UART_PutChar
 147:.\main.c      **** 			while(!(UART_ReadTxStatus() & UART_TX_STS_COMPLETE)) {}
 378              		.loc 1 147 0
 379 011e 00BF     		nop
 380              	.L22:
 381              		.loc 1 147 0 is_stmt 0 discriminator 1
 382 0120 FFF7FEFF 		bl	UART_ReadTxStatus
 383 0124 0346     		mov	r3, r0
 384 0126 03F00103 		and	r3, r3, #1
 385 012a 002B     		cmp	r3, #0
 386 012c F8D0     		beq	.L22
 148:.\main.c      **** 			UART_ClearRxBuffer();
 387              		.loc 1 148 0 is_stmt 1
 388 012e FFF7FEFF 		bl	UART_ClearRxBuffer
 145:.\main.c      **** 		for(i = 0; i < 6; i++){
 389              		.loc 1 145 0
 390 0132 FB7B     		ldrb	r3, [r7, #15]
 391 0134 03F10103 		add	r3, r3, #1
 392 0138 FB73     		strb	r3, [r7, #15]
 393              	.L21:
 145:.\main.c      **** 		for(i = 0; i < 6; i++){
 394              		.loc 1 145 0 is_stmt 0 discriminator 1
 395 013a FB7B     		ldrb	r3, [r7, #15]	@ zero_extendqisi2
 396 013c 052B     		cmp	r3, #5
 397 013e E8D9     		bls	.L23
 145:.\main.c      **** 		for(i = 0; i < 6; i++){
 398              		.loc 1 145 0
 399 0140 27E0     		b	.L24
 400              	.L20:
 149:.\main.c      **** 		}
 150:.\main.c      **** 	}
 151:.\main.c      **** 	else{
 152:.\main.c      **** 		// receive data from master
 153:.\main.c      **** 		READ();
 401              		.loc 1 153 0 is_stmt 1
 402 0142 4FF00000 		mov	r0, #0
 403 0146 FFF7FEFF 		bl	DE_Write
 154:.\main.c      **** 		Timer_Set(1010);
 404              		.loc 1 154 0
 405 014a 40F2F230 		movw	r0, #1010
ARM GAS  C:\Users\RIEKOH~1\AppData\Local\Temp\ccmda2Tf.s 			page 11


 406 014e FFF7FEFF 		bl	Timer_Set
 155:.\main.c      **** 		i = 0;
 407              		.loc 1 155 0
 408 0152 4FF00003 		mov	r3, #0
 409 0156 FB73     		strb	r3, [r7, #15]
 156:.\main.c      **** 		while((i < 6) && (Timer_ReadCounter() > 10)){
 410              		.loc 1 156 0
 411 0158 13E0     		b	.L25
 412              	.L26:
 157:.\main.c      **** 			if(UART_ReadRxStatus() & UART_RX_STS_FIFO_NOTEMPTY){
 413              		.loc 1 157 0
 414 015a FFF7FEFF 		bl	UART_ReadRxStatus
 415 015e 0346     		mov	r3, r0
 416 0160 03F02003 		and	r3, r3, #32
 417 0164 002B     		cmp	r3, #0
 418 0166 0CD0     		beq	.L25
 158:.\main.c      **** 				pak->_byte[i++] = UART_ReadRxData();
 419              		.loc 1 158 0
 420 0168 FC7B     		ldrb	r4, [r7, #15]	@ zero_extendqisi2
 421 016a FFF7FEFF 		bl	UART_ReadRxData
 422 016e 0346     		mov	r3, r0
 423 0170 1A46     		mov	r2, r3
 424 0172 3B68     		ldr	r3, [r7, #0]
 425 0174 1A55     		strb	r2, [r3, r4]
 426 0176 FB7B     		ldrb	r3, [r7, #15]
 427 0178 03F10103 		add	r3, r3, #1
 428 017c FB73     		strb	r3, [r7, #15]
 159:.\main.c      **** 				UART_ClearRxBuffer();
 429              		.loc 1 159 0
 430 017e FFF7FEFF 		bl	UART_ClearRxBuffer
 431              	.L25:
 156:.\main.c      **** 		while((i < 6) && (Timer_ReadCounter() > 10)){
 432              		.loc 1 156 0 discriminator 1
 433 0182 FB7B     		ldrb	r3, [r7, #15]	@ zero_extendqisi2
 434 0184 052B     		cmp	r3, #5
 435 0186 04D8     		bhi	.L24
 156:.\main.c      **** 		while((i < 6) && (Timer_ReadCounter() > 10)){
 436              		.loc 1 156 0 is_stmt 0 discriminator 2
 437 0188 FFF7FEFF 		bl	Timer_ReadCounter
 438 018c 0346     		mov	r3, r0
 439 018e 0A2B     		cmp	r3, #10
 440 0190 E3D8     		bhi	.L26
 441              	.L24:
 160:.\main.c      **** 			}
 161:.\main.c      **** 		}
 162:.\main.c      **** 		//PACKET_ENDIANCHANGE(pak);
 163:.\main.c      **** 	}
 164:.\main.c      **** 	WRITE();
 442              		.loc 1 164 0 is_stmt 1
 443 0192 4FF00100 		mov	r0, #1
 444 0196 FFF7FEFF 		bl	DE_Write
 165:.\main.c      **** 	UART_PutChar(addr);
 445              		.loc 1 165 0
 446 019a FB79     		ldrb	r3, [r7, #7]	@ zero_extendqisi2
 447 019c 1846     		mov	r0, r3
 448 019e FFF7FEFF 		bl	UART_PutChar
 166:.\main.c      **** 	while(!(UART_ReadTxStatus() & UART_TX_STS_COMPLETE)) {}
ARM GAS  C:\Users\RIEKOH~1\AppData\Local\Temp\ccmda2Tf.s 			page 12


 449              		.loc 1 166 0
 450 01a2 00BF     		nop
 451              	.L27:
 452              		.loc 1 166 0 is_stmt 0 discriminator 1
 453 01a4 FFF7FEFF 		bl	UART_ReadTxStatus
 454 01a8 0346     		mov	r3, r0
 455 01aa 03F00103 		and	r3, r3, #1
 456 01ae 002B     		cmp	r3, #0
 457 01b0 F8D0     		beq	.L27
 167:.\main.c      **** 	UART_ClearRxBuffer();
 458              		.loc 1 167 0 is_stmt 1
 459 01b2 FFF7FEFF 		bl	UART_ClearRxBuffer
 168:.\main.c      **** 	READ();
 460              		.loc 1 168 0
 461 01b6 4FF00000 		mov	r0, #0
 462 01ba FFF7FEFF 		bl	DE_Write
 169:.\main.c      ****     return(0);
 463              		.loc 1 169 0
 464 01be 4FF00003 		mov	r3, #0
 465              	.L15:
 170:.\main.c      **** //	return((rcv & 0x80) ? 1 : 0);
 171:.\main.c      **** }
 466              		.loc 1 171 0
 467 01c2 1846     		mov	r0, r3
 468 01c4 07F11407 		add	r7, r7, #20
 469 01c8 BD46     		mov	sp, r7
 470 01ca 90BD     		pop	{r4, r7, pc}
 471              		.cfi_endproc
 472              	.LFE60:
 473              		.size	rs485_CheckPacket, .-rs485_CheckPacket
 474              		.section	.text.CheckValid,"ax",%progbits
 475              		.align	2
 476              		.global	CheckValid
 477              		.thumb
 478              		.thumb_func
 479              		.type	CheckValid, %function
 480              	CheckValid:
 481              	.LFB61:
 172:.\main.c      **** 
 173:.\main.c      **** char CheckValid(PACKET *pak){
 482              		.loc 1 173 0
 483              		.cfi_startproc
 484              		@ args = 0, pretend = 0, frame = 16
 485              		@ frame_needed = 1, uses_anonymous_args = 0
 486              		@ link register save eliminated.
 487 0000 80B4     		push	{r7}
 488              	.LCFI13:
 489              		.cfi_def_cfa_offset 4
 490              		.cfi_offset 7, -4
 491 0002 85B0     		sub	sp, sp, #20
 492              	.LCFI14:
 493              		.cfi_def_cfa_offset 24
 494 0004 00AF     		add	r7, sp, #0
 495              	.LCFI15:
 496              		.cfi_def_cfa_register 7
 497 0006 7860     		str	r0, [r7, #4]
 174:.\main.c      ****     unsigned char sum = 0;
ARM GAS  C:\Users\RIEKOH~1\AppData\Local\Temp\ccmda2Tf.s 			page 13


 498              		.loc 1 174 0
 499 0008 4FF00003 		mov	r3, #0
 500 000c FB73     		strb	r3, [r7, #15]
 175:.\main.c      ****     int i;
 176:.\main.c      ****     
 177:.\main.c      ****     for(i = 0; i < 4; i++){
 501              		.loc 1 177 0
 502 000e 4FF00003 		mov	r3, #0
 503 0012 BB60     		str	r3, [r7, #8]
 504 0014 0BE0     		b	.L29
 505              	.L30:
 178:.\main.c      ****         sum += pak->_byte[i+2];    
 506              		.loc 1 178 0 discriminator 2
 507 0016 BB68     		ldr	r3, [r7, #8]
 508 0018 03F10203 		add	r3, r3, #2
 509 001c 7A68     		ldr	r2, [r7, #4]
 510 001e D25C     		ldrb	r2, [r2, r3]	@ zero_extendqisi2
 511 0020 FB7B     		ldrb	r3, [r7, #15]
 512 0022 D318     		adds	r3, r2, r3
 513 0024 FB73     		strb	r3, [r7, #15]
 177:.\main.c      ****     for(i = 0; i < 4; i++){
 514              		.loc 1 177 0 discriminator 2
 515 0026 BB68     		ldr	r3, [r7, #8]
 516 0028 03F10103 		add	r3, r3, #1
 517 002c BB60     		str	r3, [r7, #8]
 518              	.L29:
 177:.\main.c      ****     for(i = 0; i < 4; i++){
 519              		.loc 1 177 0 is_stmt 0 discriminator 1
 520 002e BB68     		ldr	r3, [r7, #8]
 521 0030 032B     		cmp	r3, #3
 522 0032 F0DD     		ble	.L30
 179:.\main.c      ****     }
 180:.\main.c      ****     if((~sum & 0xff) == pak->_pak.bCheckSum) {
 523              		.loc 1 180 0 is_stmt 1
 524 0034 FB7B     		ldrb	r3, [r7, #15]	@ zero_extendqisi2
 525 0036 6FEA0303 		mvn	r3, r3
 526 003a DAB2     		uxtb	r2, r3
 527 003c 7B68     		ldr	r3, [r7, #4]
 528 003e 5B78     		ldrb	r3, [r3, #1]	@ zero_extendqisi2
 529 0040 9A42     		cmp	r2, r3
 530 0042 02D1     		bne	.L31
 181:.\main.c      ****         return 1;
 531              		.loc 1 181 0
 532 0044 4FF00103 		mov	r3, #1
 533 0048 01E0     		b	.L32
 534              	.L31:
 182:.\main.c      ****     } else {
 183:.\main.c      ****         return 0;
 535              		.loc 1 183 0
 536 004a 4FF00003 		mov	r3, #0
 537              	.L32:
 184:.\main.c      ****     }
 185:.\main.c      **** }
 538              		.loc 1 185 0
 539 004e 1846     		mov	r0, r3
 540 0050 07F11407 		add	r7, r7, #20
 541 0054 BD46     		mov	sp, r7
ARM GAS  C:\Users\RIEKOH~1\AppData\Local\Temp\ccmda2Tf.s 			page 14


 542 0056 80BC     		pop	{r7}
 543 0058 7047     		bx	lr
 544              		.cfi_endproc
 545              	.LFE61:
 546              		.size	CheckValid, .-CheckValid
 547 005a 00BF     		.section	.text.Servo_Start,"ax",%progbits
 548              		.align	2
 549              		.global	Servo_Start
 550              		.thumb
 551              		.thumb_func
 552              		.type	Servo_Start, %function
 553              	Servo_Start:
 554              	.LFB62:
 186:.\main.c      **** 
 187:.\main.c      **** void Servo_Start(void){
 555              		.loc 1 187 0
 556              		.cfi_startproc
 557              		@ args = 0, pretend = 0, frame = 0
 558              		@ frame_needed = 1, uses_anonymous_args = 0
 559 0000 80B5     		push	{r7, lr}
 560              	.LCFI16:
 561              		.cfi_def_cfa_offset 8
 562              		.cfi_offset 7, -8
 563              		.cfi_offset 14, -4
 564 0002 00AF     		add	r7, sp, #0
 565              	.LCFI17:
 566              		.cfi_def_cfa_register 7
 188:.\main.c      ****     PWM_1_Start();
 567              		.loc 1 188 0
 568 0004 FFF7FEFF 		bl	PWM_1_Start
 189:.\main.c      **** 	aileronR_buffer = 1500;
 569              		.loc 1 189 0
 570 0008 40F20003 		movw	r3, #:lower16:aileronR_buffer
 571 000c C0F20003 		movt	r3, #:upper16:aileronR_buffer
 572 0010 40F2DC52 		movw	r2, #1500
 573 0014 1A60     		str	r2, [r3, #0]
 190:.\main.c      ****     isr_tc_StartEx(Terminal_Count_ISR);
 574              		.loc 1 190 0
 575 0016 40F20000 		movw	r0, #:lower16:Terminal_Count_ISR
 576 001a C0F20000 		movt	r0, #:upper16:Terminal_Count_ISR
 577 001e FFF7FEFF 		bl	isr_tc_StartEx
 191:.\main.c      ****     return;
 578              		.loc 1 191 0
 579 0022 00BF     		nop
 192:.\main.c      **** }
 580              		.loc 1 192 0
 581 0024 80BD     		pop	{r7, pc}
 582              		.cfi_endproc
 583              	.LFE62:
 584              		.size	Servo_Start, .-Servo_Start
 585              		.global	__aeabi_i2d
 586              		.global	__aeabi_dmul
 587              		.global	__aeabi_dsub
 588              		.global	__aeabi_d2uiz
 589 0026 00BF     		.section	.text.FormatValueAilR,"ax",%progbits
 590              		.align	2
 591              		.global	FormatValueAilR
ARM GAS  C:\Users\RIEKOH~1\AppData\Local\Temp\ccmda2Tf.s 			page 15


 592              		.thumb
 593              		.thumb_func
 594              		.type	FormatValueAilR, %function
 595              	FormatValueAilR:
 596              	.LFB63:
 193:.\main.c      **** 
 194:.\main.c      **** unsigned int FormatValueAilR(unsigned short raw){
 597              		.loc 1 194 0
 598              		.cfi_startproc
 599              		@ args = 0, pretend = 0, frame = 8
 600              		@ frame_needed = 1, uses_anonymous_args = 0
 601 0000 B0B5     		push	{r4, r5, r7, lr}
 602              	.LCFI18:
 603              		.cfi_def_cfa_offset 16
 604              		.cfi_offset 4, -16
 605              		.cfi_offset 5, -12
 606              		.cfi_offset 7, -8
 607              		.cfi_offset 14, -4
 608 0002 82B0     		sub	sp, sp, #8
 609              	.LCFI19:
 610              		.cfi_def_cfa_offset 24
 611 0004 00AF     		add	r7, sp, #0
 612              	.LCFI20:
 613              		.cfi_def_cfa_register 7
 614 0006 0346     		mov	r3, r0
 615 0008 FB80     		strh	r3, [r7, #6]	@ movhi
 195:.\main.c      **** 	if((raw >= 1500)&&(raw < 2000)){
 616              		.loc 1 195 0
 617 000a FA88     		ldrh	r2, [r7, #6]
 618 000c 40F2DB53 		movw	r3, #1499
 619 0010 9A42     		cmp	r2, r3
 620 0012 2BD9     		bls	.L36
 621              		.loc 1 195 0 is_stmt 0 discriminator 1
 622 0014 FA88     		ldrh	r2, [r7, #6]
 623 0016 40F2CF73 		movw	r3, #1999
 624 001a 9A42     		cmp	r2, r3
 625 001c 26D8     		bhi	.L36
 196:.\main.c      **** 		return(1900 + CenterStatus() - (raw - 1500)*0.7);	
 626              		.loc 1 196 0 is_stmt 1
 627 001e FFF7FEFF 		bl	CenterStatus
 628 0022 0346     		mov	r3, r0
 629 0024 03F26C73 		addw	r3, r3, #1900
 630 0028 1846     		mov	r0, r3
 631 002a FFF7FEFF 		bl	__aeabi_i2d
 632 002e 0446     		mov	r4, r0
 633 0030 0D46     		mov	r5, r1
 634 0032 FB88     		ldrh	r3, [r7, #6]
 635 0034 A3F2DC53 		subw	r3, r3, #1500
 636 0038 1846     		mov	r0, r3
 637 003a FFF7FEFF 		bl	__aeabi_i2d
 638 003e 0246     		mov	r2, r0
 639 0040 0B46     		mov	r3, r1
 640 0042 1046     		mov	r0, r2
 641 0044 1946     		mov	r1, r3
 642 0046 26A3     		adr	r3, .L39
 643 0048 D3E90023 		ldrd	r2, [r3]
 644 004c FFF7FEFF 		bl	__aeabi_dmul
ARM GAS  C:\Users\RIEKOH~1\AppData\Local\Temp\ccmda2Tf.s 			page 16


 645 0050 0246     		mov	r2, r0
 646 0052 0B46     		mov	r3, r1
 647 0054 2046     		mov	r0, r4
 648 0056 2946     		mov	r1, r5
 649 0058 FFF7FEFF 		bl	__aeabi_dsub
 650 005c 0246     		mov	r2, r0
 651 005e 0B46     		mov	r3, r1
 652 0060 1046     		mov	r0, r2
 653 0062 1946     		mov	r1, r3
 654 0064 FFF7FEFF 		bl	__aeabi_d2uiz
 655 0068 0346     		mov	r3, r0
 656 006a 32E0     		b	.L37
 657              	.L36:
 197:.\main.c      **** 	}else if((raw < 1500)&&(raw > 1000)){
 658              		.loc 1 197 0
 659 006c FA88     		ldrh	r2, [r7, #6]
 660 006e 40F2DB53 		movw	r3, #1499
 661 0072 9A42     		cmp	r2, r3
 662 0074 2AD8     		bhi	.L38
 663              		.loc 1 197 0 is_stmt 0 discriminator 1
 664 0076 FB88     		ldrh	r3, [r7, #6]
 665 0078 B3F57A7F 		cmp	r3, #1000
 666 007c 26D9     		bls	.L38
 198:.\main.c      **** 		return(1900 + CenterStatus() - (raw - 1500)*0.65);	
 667              		.loc 1 198 0 is_stmt 1
 668 007e FFF7FEFF 		bl	CenterStatus
 669 0082 0346     		mov	r3, r0
 670 0084 03F26C73 		addw	r3, r3, #1900
 671 0088 1846     		mov	r0, r3
 672 008a FFF7FEFF 		bl	__aeabi_i2d
 673 008e 0446     		mov	r4, r0
 674 0090 0D46     		mov	r5, r1
 675 0092 FB88     		ldrh	r3, [r7, #6]
 676 0094 A3F2DC53 		subw	r3, r3, #1500
 677 0098 1846     		mov	r0, r3
 678 009a FFF7FEFF 		bl	__aeabi_i2d
 679 009e 0246     		mov	r2, r0
 680 00a0 0B46     		mov	r3, r1
 681 00a2 1046     		mov	r0, r2
 682 00a4 1946     		mov	r1, r3
 683 00a6 10A3     		adr	r3, .L39+8
 684 00a8 D3E90023 		ldrd	r2, [r3]
 685 00ac FFF7FEFF 		bl	__aeabi_dmul
 686 00b0 0246     		mov	r2, r0
 687 00b2 0B46     		mov	r3, r1
 688 00b4 2046     		mov	r0, r4
 689 00b6 2946     		mov	r1, r5
 690 00b8 FFF7FEFF 		bl	__aeabi_dsub
 691 00bc 0246     		mov	r2, r0
 692 00be 0B46     		mov	r3, r1
 693 00c0 1046     		mov	r0, r2
 694 00c2 1946     		mov	r1, r3
 695 00c4 FFF7FEFF 		bl	__aeabi_d2uiz
 696 00c8 0346     		mov	r3, r0
 697 00ca 02E0     		b	.L37
 698              	.L38:
 199:.\main.c      **** 	}else {
ARM GAS  C:\Users\RIEKOH~1\AppData\Local\Temp\ccmda2Tf.s 			page 17


 200:.\main.c      **** 		return PWM_1_ReadCompare1();
 699              		.loc 1 200 0
 700 00cc FFF7FEFF 		bl	PWM_1_ReadCompare1
 701 00d0 0346     		mov	r3, r0
 702              	.L37:
 201:.\main.c      **** 	}
 202:.\main.c      **** }
 703              		.loc 1 202 0
 704 00d2 1846     		mov	r0, r3
 705 00d4 07F10807 		add	r7, r7, #8
 706 00d8 BD46     		mov	sp, r7
 707 00da B0BD     		pop	{r4, r5, r7, pc}
 708              	.L40:
 709 00dc AFF30080 		.align	3
 710              	.L39:
 711 00e0 66666666 		.word	1717986918
 712 00e4 6666E63F 		.word	1072064102
 713 00e8 CDCCCCCC 		.word	-858993459
 714 00ec CCCCE43F 		.word	1071959244
 715              		.cfi_endproc
 716              	.LFE63:
 717              		.size	FormatValueAilR, .-FormatValueAilR
 718              		.section	.text.CenterStatus,"ax",%progbits
 719              		.align	2
 720              		.global	CenterStatus
 721              		.thumb
 722              		.thumb_func
 723              		.type	CenterStatus, %function
 724              	CenterStatus:
 725              	.LFB64:
 203:.\main.c      **** 
 204:.\main.c      **** int CenterStatus(void){
 726              		.loc 1 204 0
 727              		.cfi_startproc
 728              		@ args = 0, pretend = 0, frame = 16
 729              		@ frame_needed = 1, uses_anonymous_args = 0
 730 0000 80B5     		push	{r7, lr}
 731              	.LCFI21:
 732              		.cfi_def_cfa_offset 8
 733              		.cfi_offset 7, -8
 734              		.cfi_offset 14, -4
 735 0002 84B0     		sub	sp, sp, #16
 736              	.LCFI22:
 737              		.cfi_def_cfa_offset 24
 738 0004 00AF     		add	r7, sp, #0
 739              	.LCFI23:
 740              		.cfi_def_cfa_register 7
 205:.\main.c      **** 	int Trim ,dTrim = 20;
 741              		.loc 1 205 0
 742 0006 4FF01403 		mov	r3, #20
 743 000a BB60     		str	r3, [r7, #8]
 206:.\main.c      **** 	int sw = (~ Status_Reg_Read()) & 0x0F ;
 744              		.loc 1 206 0
 745 000c FFF7FEFF 		bl	Status_Reg_Read
 746 0010 0346     		mov	r3, r0
 747 0012 6FEA0303 		mvn	r3, r3
 748 0016 03F00F03 		and	r3, r3, #15
ARM GAS  C:\Users\RIEKOH~1\AppData\Local\Temp\ccmda2Tf.s 			page 18


 749 001a 7B60     		str	r3, [r7, #4]
 207:.\main.c      **** 	switch(sw){
 750              		.loc 1 207 0
 751 001c 7B68     		ldr	r3, [r7, #4]
 752 001e 0F2B     		cmp	r3, #15
 753 0020 00F29480 		bhi	.L42
 754 0024 01A2     		adr	r2, .L59
 755 0026 52F823F0 		ldr	pc, [r2, r3, lsl #2]
 756 002a 00BF     		.align	2
 757              	.L59:
 758 002c 6D000000 		.word	.L43+1
 759 0030 7F000000 		.word	.L44+1
 760 0034 8D000000 		.word	.L45+1
 761 0038 9F000000 		.word	.L46+1
 762 003c B3000000 		.word	.L47+1
 763 0040 C5000000 		.word	.L48+1
 764 0044 D3000000 		.word	.L49+1
 765 0048 E5000000 		.word	.L50+1
 766 004c EF000000 		.word	.L51+1
 767 0050 F7000000 		.word	.L52+1
 768 0054 FD000000 		.word	.L53+1
 769 0058 07010000 		.word	.L54+1
 770 005c 15010000 		.word	.L55+1
 771 0060 1F010000 		.word	.L56+1
 772 0064 2D010000 		.word	.L57+1
 773 0068 3F010000 		.word	.L58+1
 774              	.L43:
 208:.\main.c      **** 		case 0x00 :
 209:.\main.c      **** 			Trim = -8*dTrim;
 775              		.loc 1 209 0
 776 006c BA68     		ldr	r2, [r7, #8]
 777 006e 1346     		mov	r3, r2
 778 0070 4FEA4373 		lsl	r3, r3, #29
 779 0074 9B1A     		subs	r3, r3, r2
 780 0076 4FEAC303 		lsl	r3, r3, #3
 781 007a FB60     		str	r3, [r7, #12]
 210:.\main.c      **** 			break;	
 782              		.loc 1 210 0
 783 007c 66E0     		b	.L42
 784              	.L44:
 211:.\main.c      **** 		case 0x01 :
 212:.\main.c      **** 			Trim = -7*dTrim;
 785              		.loc 1 212 0
 786 007e BB68     		ldr	r3, [r7, #8]
 787 0080 1A46     		mov	r2, r3
 788 0082 4FEAC303 		lsl	r3, r3, #3
 789 0086 D31A     		subs	r3, r2, r3
 790 0088 FB60     		str	r3, [r7, #12]
 213:.\main.c      **** 			break;
 791              		.loc 1 213 0
 792 008a 5FE0     		b	.L42
 793              	.L45:
 214:.\main.c      **** 		case 0x02 :
 215:.\main.c      **** 			Trim = -6*dTrim;
 794              		.loc 1 215 0
 795 008c BA68     		ldr	r2, [r7, #8]
 796 008e 1346     		mov	r3, r2
ARM GAS  C:\Users\RIEKOH~1\AppData\Local\Temp\ccmda2Tf.s 			page 19


 797 0090 4FEA8202 		lsl	r2, r2, #2
 798 0094 9B1A     		subs	r3, r3, r2
 799 0096 4FEA4303 		lsl	r3, r3, #1
 800 009a FB60     		str	r3, [r7, #12]
 216:.\main.c      **** 			break;
 801              		.loc 1 216 0
 802 009c 56E0     		b	.L42
 803              	.L46:
 217:.\main.c      **** 		case 0x03 :
 218:.\main.c      **** 			Trim = -5*dTrim;
 804              		.loc 1 218 0
 805 009e BA68     		ldr	r2, [r7, #8]
 806 00a0 1346     		mov	r3, r2
 807 00a2 4FEA8373 		lsl	r3, r3, #30
 808 00a6 9B1A     		subs	r3, r3, r2
 809 00a8 4FEA8303 		lsl	r3, r3, #2
 810 00ac 9B1A     		subs	r3, r3, r2
 811 00ae FB60     		str	r3, [r7, #12]
 219:.\main.c      **** 			break;
 812              		.loc 1 219 0
 813 00b0 4CE0     		b	.L42
 814              	.L47:
 220:.\main.c      **** 		case 0x04 :
 221:.\main.c      **** 			Trim = -4*dTrim;
 815              		.loc 1 221 0
 816 00b2 BA68     		ldr	r2, [r7, #8]
 817 00b4 1346     		mov	r3, r2
 818 00b6 4FEA8373 		lsl	r3, r3, #30
 819 00ba 9B1A     		subs	r3, r3, r2
 820 00bc 4FEA8303 		lsl	r3, r3, #2
 821 00c0 FB60     		str	r3, [r7, #12]
 222:.\main.c      **** 			break;
 822              		.loc 1 222 0
 823 00c2 43E0     		b	.L42
 824              	.L48:
 223:.\main.c      **** 		case 0x05 :
 224:.\main.c      **** 			Trim = -3*dTrim;
 825              		.loc 1 224 0
 826 00c4 BB68     		ldr	r3, [r7, #8]
 827 00c6 1A46     		mov	r2, r3
 828 00c8 4FEA8303 		lsl	r3, r3, #2
 829 00cc D31A     		subs	r3, r2, r3
 830 00ce FB60     		str	r3, [r7, #12]
 225:.\main.c      **** 			break;
 831              		.loc 1 225 0
 832 00d0 3CE0     		b	.L42
 833              	.L49:
 226:.\main.c      **** 		case 0x06 :
 227:.\main.c      **** 			Trim = -2*dTrim;
 834              		.loc 1 227 0
 835 00d2 BA68     		ldr	r2, [r7, #8]
 836 00d4 1346     		mov	r3, r2
 837 00d6 4FEAC373 		lsl	r3, r3, #31
 838 00da 9B1A     		subs	r3, r3, r2
 839 00dc 4FEA4303 		lsl	r3, r3, #1
 840 00e0 FB60     		str	r3, [r7, #12]
 228:.\main.c      **** 			break;
ARM GAS  C:\Users\RIEKOH~1\AppData\Local\Temp\ccmda2Tf.s 			page 20


 841              		.loc 1 228 0
 842 00e2 33E0     		b	.L42
 843              	.L50:
 229:.\main.c      **** 		case 0x07 :
 230:.\main.c      **** 			Trim = -1*dTrim;
 844              		.loc 1 230 0
 845 00e4 BB68     		ldr	r3, [r7, #8]
 846 00e6 C3F10003 		rsb	r3, r3, #0
 847 00ea FB60     		str	r3, [r7, #12]
 231:.\main.c      **** 			break;
 848              		.loc 1 231 0
 849 00ec 2EE0     		b	.L42
 850              	.L51:
 232:.\main.c      **** 		case 0x08 :
 233:.\main.c      **** 			Trim = 0*dTrim;
 851              		.loc 1 233 0
 852 00ee 4FF00003 		mov	r3, #0
 853 00f2 FB60     		str	r3, [r7, #12]
 234:.\main.c      **** 			break;
 854              		.loc 1 234 0
 855 00f4 2AE0     		b	.L42
 856              	.L52:
 235:.\main.c      **** 		case 0x09 :
 236:.\main.c      **** 			Trim = 1*dTrim;
 857              		.loc 1 236 0
 858 00f6 BB68     		ldr	r3, [r7, #8]
 859 00f8 FB60     		str	r3, [r7, #12]
 237:.\main.c      **** 			break;
 860              		.loc 1 237 0
 861 00fa 27E0     		b	.L42
 862              	.L53:
 238:.\main.c      **** 		case 0x0A :
 239:.\main.c      **** 			Trim = 2*dTrim;
 863              		.loc 1 239 0
 864 00fc BB68     		ldr	r3, [r7, #8]
 865 00fe 4FEA4303 		lsl	r3, r3, #1
 866 0102 FB60     		str	r3, [r7, #12]
 240:.\main.c      **** 			break;
 867              		.loc 1 240 0
 868 0104 22E0     		b	.L42
 869              	.L54:
 241:.\main.c      **** 		case 0x0B :
 242:.\main.c      **** 			Trim = 3*dTrim;
 870              		.loc 1 242 0
 871 0106 BA68     		ldr	r2, [r7, #8]
 872 0108 1346     		mov	r3, r2
 873 010a 4FEA4303 		lsl	r3, r3, #1
 874 010e 9B18     		adds	r3, r3, r2
 875 0110 FB60     		str	r3, [r7, #12]
 243:.\main.c      **** 			break;
 876              		.loc 1 243 0
 877 0112 1BE0     		b	.L42
 878              	.L55:
 244:.\main.c      **** 		case 0x0C :
 245:.\main.c      **** 			Trim = 4*dTrim;
 879              		.loc 1 245 0
 880 0114 BB68     		ldr	r3, [r7, #8]
ARM GAS  C:\Users\RIEKOH~1\AppData\Local\Temp\ccmda2Tf.s 			page 21


 881 0116 4FEA8303 		lsl	r3, r3, #2
 882 011a FB60     		str	r3, [r7, #12]
 246:.\main.c      **** 			break;
 883              		.loc 1 246 0
 884 011c 16E0     		b	.L42
 885              	.L56:
 247:.\main.c      **** 		case 0x0D :
 248:.\main.c      **** 			Trim = 5*dTrim;
 886              		.loc 1 248 0
 887 011e BA68     		ldr	r2, [r7, #8]
 888 0120 1346     		mov	r3, r2
 889 0122 4FEA8303 		lsl	r3, r3, #2
 890 0126 9B18     		adds	r3, r3, r2
 891 0128 FB60     		str	r3, [r7, #12]
 249:.\main.c      **** 			break;
 892              		.loc 1 249 0
 893 012a 0FE0     		b	.L42
 894              	.L57:
 250:.\main.c      **** 		case 0x0E :
 251:.\main.c      **** 			Trim = 6*dTrim;
 895              		.loc 1 251 0
 896 012c BA68     		ldr	r2, [r7, #8]
 897 012e 1346     		mov	r3, r2
 898 0130 4FEA4303 		lsl	r3, r3, #1
 899 0134 9B18     		adds	r3, r3, r2
 900 0136 4FEA4303 		lsl	r3, r3, #1
 901 013a FB60     		str	r3, [r7, #12]
 252:.\main.c      **** 			break;
 902              		.loc 1 252 0
 903 013c 06E0     		b	.L42
 904              	.L58:
 253:.\main.c      **** 		case 0x0F :
 254:.\main.c      **** 			Trim = 7*dTrim;
 905              		.loc 1 254 0
 906 013e BA68     		ldr	r2, [r7, #8]
 907 0140 1346     		mov	r3, r2
 908 0142 4FEAC303 		lsl	r3, r3, #3
 909 0146 9B1A     		subs	r3, r3, r2
 910 0148 FB60     		str	r3, [r7, #12]
 255:.\main.c      **** 			break;
 911              		.loc 1 255 0
 912 014a 00BF     		nop
 913              	.L42:
 256:.\main.c      **** 	}
 257:.\main.c      **** 	return(Trim);
 914              		.loc 1 257 0
 915 014c FB68     		ldr	r3, [r7, #12]
 258:.\main.c      **** }
 916              		.loc 1 258 0
 917 014e 1846     		mov	r0, r3
 918 0150 07F11007 		add	r7, r7, #16
 919 0154 BD46     		mov	sp, r7
 920 0156 80BD     		pop	{r7, pc}
 921              		.cfi_endproc
 922              	.LFE64:
 923              		.size	CenterStatus, .-CenterStatus
 924              		.section	.text.Terminal_Count_ISR,"ax",%progbits
ARM GAS  C:\Users\RIEKOH~1\AppData\Local\Temp\ccmda2Tf.s 			page 22


 925              		.align	2
 926              		.global	Terminal_Count_ISR
 927              		.thumb
 928              		.thumb_func
 929              		.type	Terminal_Count_ISR, %function
 930              	Terminal_Count_ISR:
 931              	.LFB65:
 259:.\main.c      **** 
 260:.\main.c      **** CY_ISR(Terminal_Count_ISR) {
 932              		.loc 1 260 0
 933              		.cfi_startproc
 934              		@ args = 0, pretend = 0, frame = 0
 935              		@ frame_needed = 1, uses_anonymous_args = 0
 936 0000 80B5     		push	{r7, lr}
 937              	.LCFI24:
 938              		.cfi_def_cfa_offset 8
 939              		.cfi_offset 7, -8
 940              		.cfi_offset 14, -4
 941 0002 00AF     		add	r7, sp, #0
 942              	.LCFI25:
 943              		.cfi_def_cfa_register 7
 261:.\main.c      ****     PWM_1_WriteCompare1(FormatValueAilR(aileronR_buffer));
 944              		.loc 1 261 0
 945 0004 40F20003 		movw	r3, #:lower16:aileronR_buffer
 946 0008 C0F20003 		movt	r3, #:upper16:aileronR_buffer
 947 000c 1B68     		ldr	r3, [r3, #0]
 948 000e 9BB2     		uxth	r3, r3
 949 0010 1846     		mov	r0, r3
 950 0012 FFF7FEFF 		bl	FormatValueAilR
 951 0016 0346     		mov	r3, r0
 952 0018 9BB2     		uxth	r3, r3
 953 001a 1846     		mov	r0, r3
 954 001c FFF7FEFF 		bl	PWM_1_WriteCompare1
 262:.\main.c      **** //    PWM_1_WriteCompare1(aileronR_buffer);
 263:.\main.c      ****     PWM_1_ReadStatusRegister();
 955              		.loc 1 263 0
 956 0020 FFF7FEFF 		bl	PWM_1_ReadStatusRegister
 264:.\main.c      **** 	return;
 957              		.loc 1 264 0
 958 0024 00BF     		nop
 265:.\main.c      **** }
 959              		.loc 1 265 0
 960 0026 80BD     		pop	{r7, pc}
 961              		.cfi_endproc
 962              	.LFE65:
 963              		.size	Terminal_Count_ISR, .-Terminal_Count_ISR
 964              		.text
 965              	.Letext0:
 966              		.file 2 "c:\\program files\\cypress\\psoc creator\\3.0\\psoc creator\\import\\gnu_cs\\arm\\4.7.3\\
 967              		.file 3 "./Generated_Source/PSoC5/cytypes.h"
 968              		.file 4 "./Generated_Source/PSoC5/core_cm3.h"
 969              		.section	.debug_info,"",%progbits
 970              	.Ldebug_info0:
 971 0000 51030000 		.4byte	0x351
 972 0004 0200     		.2byte	0x2
 973 0006 00000000 		.4byte	.Ldebug_abbrev0
 974 000a 04       		.byte	0x4
ARM GAS  C:\Users\RIEKOH~1\AppData\Local\Temp\ccmda2Tf.s 			page 23


 975 000b 01       		.uleb128 0x1
 976 000c 05000000 		.4byte	.LASF38
 977 0010 01       		.byte	0x1
 978 0011 88000000 		.4byte	.LASF39
 979 0015 07020000 		.4byte	.LASF40
 980 0019 00000000 		.4byte	.Ldebug_ranges0+0
 981 001d 00000000 		.4byte	0
 982 0021 00000000 		.4byte	0
 983 0025 00000000 		.4byte	.Ldebug_line0
 984 0029 02       		.uleb128 0x2
 985 002a 01       		.byte	0x1
 986 002b 06       		.byte	0x6
 987 002c 47010000 		.4byte	.LASF0
 988 0030 02       		.uleb128 0x2
 989 0031 01       		.byte	0x1
 990 0032 08       		.byte	0x8
 991 0033 A4000000 		.4byte	.LASF1
 992 0037 02       		.uleb128 0x2
 993 0038 02       		.byte	0x2
 994 0039 05       		.byte	0x5
 995 003a 04010000 		.4byte	.LASF2
 996 003e 02       		.uleb128 0x2
 997 003f 02       		.byte	0x2
 998 0040 07       		.byte	0x7
 999 0041 59000000 		.4byte	.LASF3
 1000 0045 03       		.uleb128 0x3
 1001 0046 53010000 		.4byte	.LASF9
 1002 004a 02       		.byte	0x2
 1003 004b 4F       		.byte	0x4f
 1004 004c 50000000 		.4byte	0x50
 1005 0050 02       		.uleb128 0x2
 1006 0051 04       		.byte	0x4
 1007 0052 05       		.byte	0x5
 1008 0053 D0010000 		.4byte	.LASF4
 1009 0057 02       		.uleb128 0x2
 1010 0058 04       		.byte	0x4
 1011 0059 07       		.byte	0x7
 1012 005a BC000000 		.4byte	.LASF5
 1013 005e 02       		.uleb128 0x2
 1014 005f 08       		.byte	0x8
 1015 0060 05       		.byte	0x5
 1016 0061 64010000 		.4byte	.LASF6
 1017 0065 02       		.uleb128 0x2
 1018 0066 08       		.byte	0x8
 1019 0067 07       		.byte	0x7
 1020 0068 27010000 		.4byte	.LASF7
 1021 006c 04       		.uleb128 0x4
 1022 006d 04       		.byte	0x4
 1023 006e 05       		.byte	0x5
 1024 006f 696E7400 		.ascii	"int\000"
 1025 0073 02       		.uleb128 0x2
 1026 0074 04       		.byte	0x4
 1027 0075 07       		.byte	0x7
 1028 0076 13010000 		.4byte	.LASF8
 1029 007a 03       		.uleb128 0x3
 1030 007b A6010000 		.4byte	.LASF10
 1031 007f 03       		.byte	0x3
ARM GAS  C:\Users\RIEKOH~1\AppData\Local\Temp\ccmda2Tf.s 			page 24


 1032 0080 5B       		.byte	0x5b
 1033 0081 30000000 		.4byte	0x30
 1034 0085 02       		.uleb128 0x2
 1035 0086 04       		.byte	0x4
 1036 0087 04       		.byte	0x4
 1037 0088 91000000 		.4byte	.LASF11
 1038 008c 02       		.uleb128 0x2
 1039 008d 08       		.byte	0x8
 1040 008e 04       		.byte	0x4
 1041 008f E5000000 		.4byte	.LASF12
 1042 0093 02       		.uleb128 0x2
 1043 0094 01       		.byte	0x1
 1044 0095 08       		.byte	0x8
 1045 0096 83010000 		.4byte	.LASF13
 1046 009a 02       		.uleb128 0x2
 1047 009b 04       		.byte	0x4
 1048 009c 07       		.byte	0x7
 1049 009d 5B010000 		.4byte	.LASF14
 1050 00a1 05       		.uleb128 0x5
 1051 00a2 06       		.byte	0x6
 1052 00a3 01       		.byte	0x1
 1053 00a4 10       		.byte	0x10
 1054 00a5 D4000000 		.4byte	0xd4
 1055 00a9 06       		.uleb128 0x6
 1056 00aa AC010000 		.4byte	.LASF15
 1057 00ae 01       		.byte	0x1
 1058 00af 11       		.byte	0x11
 1059 00b0 30000000 		.4byte	0x30
 1060 00b4 02       		.byte	0x2
 1061 00b5 23       		.byte	0x23
 1062 00b6 00       		.uleb128 0
 1063 00b7 06       		.uleb128 0x6
 1064 00b8 B2000000 		.4byte	.LASF16
 1065 00bc 01       		.byte	0x1
 1066 00bd 12       		.byte	0x12
 1067 00be 30000000 		.4byte	0x30
 1068 00c2 02       		.byte	0x2
 1069 00c3 23       		.byte	0x23
 1070 00c4 01       		.uleb128 0x1
 1071 00c5 06       		.uleb128 0x6
 1072 00c6 A0010000 		.4byte	.LASF17
 1073 00ca 01       		.byte	0x1
 1074 00cb 13       		.byte	0x13
 1075 00cc D4000000 		.4byte	0xd4
 1076 00d0 02       		.byte	0x2
 1077 00d1 23       		.byte	0x23
 1078 00d2 02       		.uleb128 0x2
 1079 00d3 00       		.byte	0
 1080 00d4 07       		.uleb128 0x7
 1081 00d5 3E000000 		.4byte	0x3e
 1082 00d9 E4000000 		.4byte	0xe4
 1083 00dd 08       		.uleb128 0x8
 1084 00de 9A000000 		.4byte	0x9a
 1085 00e2 01       		.byte	0x1
 1086 00e3 00       		.byte	0
 1087 00e4 09       		.uleb128 0x9
 1088 00e5 72010000 		.4byte	.LASF41
ARM GAS  C:\Users\RIEKOH~1\AppData\Local\Temp\ccmda2Tf.s 			page 25


 1089 00e9 06       		.byte	0x6
 1090 00ea 01       		.byte	0x1
 1091 00eb 0F       		.byte	0xf
 1092 00ec 07010000 		.4byte	0x107
 1093 00f0 0A       		.uleb128 0xa
 1094 00f1 EC000000 		.4byte	.LASF18
 1095 00f5 01       		.byte	0x1
 1096 00f6 14       		.byte	0x14
 1097 00f7 A1000000 		.4byte	0xa1
 1098 00fb 0A       		.uleb128 0xa
 1099 00fc 9A010000 		.4byte	.LASF19
 1100 0100 01       		.byte	0x1
 1101 0101 15       		.byte	0x15
 1102 0102 07010000 		.4byte	0x107
 1103 0106 00       		.byte	0
 1104 0107 07       		.uleb128 0x7
 1105 0108 30000000 		.4byte	0x30
 1106 010c 17010000 		.4byte	0x117
 1107 0110 08       		.uleb128 0x8
 1108 0111 9A000000 		.4byte	0x9a
 1109 0115 05       		.byte	0x5
 1110 0116 00       		.byte	0
 1111 0117 03       		.uleb128 0x3
 1112 0118 20010000 		.4byte	.LASF20
 1113 011c 01       		.byte	0x1
 1114 011d 16       		.byte	0x16
 1115 011e E4000000 		.4byte	0xe4
 1116 0122 0B       		.uleb128 0xb
 1117 0123 01       		.byte	0x1
 1118 0124 0E010000 		.4byte	.LASF42
 1119 0128 01       		.byte	0x1
 1120 0129 39       		.byte	0x39
 1121 012a 00000000 		.4byte	.LFB56
 1122 012e 74000000 		.4byte	.LFE56
 1123 0132 00000000 		.4byte	.LLST0
 1124 0136 01       		.byte	0x1
 1125 0137 0C       		.uleb128 0xc
 1126 0138 01       		.byte	0x1
 1127 0139 FD010000 		.4byte	.LASF21
 1128 013d 01       		.byte	0x1
 1129 013e 52       		.byte	0x52
 1130 013f 01       		.byte	0x1
 1131 0140 00000000 		.4byte	.LFB57
 1132 0144 1C000000 		.4byte	.LFE57
 1133 0148 2C000000 		.4byte	.LLST1
 1134 014c 01       		.byte	0x1
 1135 014d 5F010000 		.4byte	0x15f
 1136 0151 0D       		.uleb128 0xd
 1137 0152 6D7300   		.ascii	"ms\000"
 1138 0155 01       		.byte	0x1
 1139 0156 52       		.byte	0x52
 1140 0157 73000000 		.4byte	0x73
 1141 015b 02       		.byte	0x2
 1142 015c 91       		.byte	0x91
 1143 015d 74       		.sleb128 -12
 1144 015e 00       		.byte	0
 1145 015f 0C       		.uleb128 0xc
ARM GAS  C:\Users\RIEKOH~1\AppData\Local\Temp\ccmda2Tf.s 			page 26


 1146 0160 01       		.byte	0x1
 1147 0161 DF010000 		.4byte	.LASF22
 1148 0165 01       		.byte	0x1
 1149 0166 57       		.byte	0x57
 1150 0167 01       		.byte	0x1
 1151 0168 00000000 		.4byte	.LFB58
 1152 016c 2A000000 		.4byte	.LFE58
 1153 0170 64000000 		.4byte	.LLST2
 1154 0174 01       		.byte	0x1
 1155 0175 87010000 		.4byte	0x187
 1156 0179 0D       		.uleb128 0xd
 1157 017a 757300   		.ascii	"us\000"
 1158 017d 01       		.byte	0x1
 1159 017e 57       		.byte	0x57
 1160 017f 73000000 		.4byte	0x73
 1161 0183 02       		.byte	0x2
 1162 0184 91       		.byte	0x91
 1163 0185 74       		.sleb128 -12
 1164 0186 00       		.byte	0
 1165 0187 0E       		.uleb128 0xe
 1166 0188 01       		.byte	0x1
 1167 0189 7C000000 		.4byte	.LASF27
 1168 018d 01       		.byte	0x1
 1169 018e 5D       		.byte	0x5d
 1170 018f 01       		.byte	0x1
 1171 0190 00000000 		.4byte	.LFB59
 1172 0194 10000000 		.4byte	.LFE59
 1173 0198 9C000000 		.4byte	.LLST3
 1174 019c 01       		.byte	0x1
 1175 019d 0F       		.uleb128 0xf
 1176 019e 01       		.byte	0x1
 1177 019f 88010000 		.4byte	.LASF25
 1178 01a3 01       		.byte	0x1
 1179 01a4 69       		.byte	0x69
 1180 01a5 01       		.byte	0x1
 1181 01a6 93000000 		.4byte	0x93
 1182 01aa 00000000 		.4byte	.LFB60
 1183 01ae CC010000 		.4byte	.LFE60
 1184 01b2 C8000000 		.4byte	.LLST4
 1185 01b6 01       		.byte	0x1
 1186 01b7 0A020000 		.4byte	0x20a
 1187 01bb 10       		.uleb128 0x10
 1188 01bc D3000000 		.4byte	.LASF23
 1189 01c0 01       		.byte	0x1
 1190 01c1 6A       		.byte	0x6a
 1191 01c2 93000000 		.4byte	0x93
 1192 01c6 02       		.byte	0x2
 1193 01c7 91       		.byte	0x91
 1194 01c8 67       		.sleb128 -25
 1195 01c9 0D       		.uleb128 0xd
 1196 01ca 70616B00 		.ascii	"pak\000"
 1197 01ce 01       		.byte	0x1
 1198 01cf 6B       		.byte	0x6b
 1199 01d0 0A020000 		.4byte	0x20a
 1200 01d4 02       		.byte	0x2
 1201 01d5 91       		.byte	0x91
 1202 01d6 60       		.sleb128 -32
ARM GAS  C:\Users\RIEKOH~1\AppData\Local\Temp\ccmda2Tf.s 			page 27


 1203 01d7 11       		.uleb128 0x11
 1204 01d8 72637600 		.ascii	"rcv\000"
 1205 01dc 01       		.byte	0x1
 1206 01dd 6D       		.byte	0x6d
 1207 01de 93000000 		.4byte	0x93
 1208 01e2 02       		.byte	0x2
 1209 01e3 91       		.byte	0x91
 1210 01e4 6E       		.sleb128 -18
 1211 01e5 11       		.uleb128 0x11
 1212 01e6 6900     		.ascii	"i\000"
 1213 01e8 01       		.byte	0x1
 1214 01e9 6E       		.byte	0x6e
 1215 01ea 30000000 		.4byte	0x30
 1216 01ee 02       		.byte	0x2
 1217 01ef 91       		.byte	0x91
 1218 01f0 6F       		.sleb128 -17
 1219 01f1 12       		.uleb128 0x12
 1220 01f2 E2000000 		.4byte	.LBB2
 1221 01f6 0A010000 		.4byte	.LBE2
 1222 01fa 13       		.uleb128 0x13
 1223 01fb CE000000 		.4byte	.LASF24
 1224 01ff 01       		.byte	0x1
 1225 0200 90       		.byte	0x90
 1226 0201 93000000 		.4byte	0x93
 1227 0205 02       		.byte	0x2
 1228 0206 91       		.byte	0x91
 1229 0207 6D       		.sleb128 -19
 1230 0208 00       		.byte	0
 1231 0209 00       		.byte	0
 1232 020a 14       		.uleb128 0x14
 1233 020b 04       		.byte	0x4
 1234 020c 17010000 		.4byte	0x117
 1235 0210 15       		.uleb128 0x15
 1236 0211 01       		.byte	0x1
 1237 0212 4E000000 		.4byte	.LASF26
 1238 0216 01       		.byte	0x1
 1239 0217 AD       		.byte	0xad
 1240 0218 01       		.byte	0x1
 1241 0219 93000000 		.4byte	0x93
 1242 021d 00000000 		.4byte	.LFB61
 1243 0221 5A000000 		.4byte	.LFE61
 1244 0225 00010000 		.4byte	.LLST5
 1245 0229 01       		.byte	0x1
 1246 022a 57020000 		.4byte	0x257
 1247 022e 0D       		.uleb128 0xd
 1248 022f 70616B00 		.ascii	"pak\000"
 1249 0233 01       		.byte	0x1
 1250 0234 AD       		.byte	0xad
 1251 0235 0A020000 		.4byte	0x20a
 1252 0239 02       		.byte	0x2
 1253 023a 91       		.byte	0x91
 1254 023b 6C       		.sleb128 -20
 1255 023c 11       		.uleb128 0x11
 1256 023d 73756D00 		.ascii	"sum\000"
 1257 0241 01       		.byte	0x1
 1258 0242 AE       		.byte	0xae
 1259 0243 30000000 		.4byte	0x30
ARM GAS  C:\Users\RIEKOH~1\AppData\Local\Temp\ccmda2Tf.s 			page 28


 1260 0247 02       		.byte	0x2
 1261 0248 91       		.byte	0x91
 1262 0249 77       		.sleb128 -9
 1263 024a 11       		.uleb128 0x11
 1264 024b 6900     		.ascii	"i\000"
 1265 024d 01       		.byte	0x1
 1266 024e AF       		.byte	0xaf
 1267 024f 6C000000 		.4byte	0x6c
 1268 0253 02       		.byte	0x2
 1269 0254 91       		.byte	0x91
 1270 0255 70       		.sleb128 -16
 1271 0256 00       		.byte	0
 1272 0257 0E       		.uleb128 0xe
 1273 0258 01       		.byte	0x1
 1274 0259 C4010000 		.4byte	.LASF28
 1275 025d 01       		.byte	0x1
 1276 025e BB       		.byte	0xbb
 1277 025f 01       		.byte	0x1
 1278 0260 00000000 		.4byte	.LFB62
 1279 0264 26000000 		.4byte	.LFE62
 1280 0268 38010000 		.4byte	.LLST6
 1281 026c 01       		.byte	0x1
 1282 026d 0F       		.uleb128 0xf
 1283 026e 01       		.byte	0x1
 1284 026f ED010000 		.4byte	.LASF29
 1285 0273 01       		.byte	0x1
 1286 0274 C2       		.byte	0xc2
 1287 0275 01       		.byte	0x1
 1288 0276 73000000 		.4byte	0x73
 1289 027a 00000000 		.4byte	.LFB63
 1290 027e F0000000 		.4byte	.LFE63
 1291 0282 64010000 		.4byte	.LLST7
 1292 0286 01       		.byte	0x1
 1293 0287 9A020000 		.4byte	0x29a
 1294 028b 0D       		.uleb128 0xd
 1295 028c 72617700 		.ascii	"raw\000"
 1296 0290 01       		.byte	0x1
 1297 0291 C2       		.byte	0xc2
 1298 0292 3E000000 		.4byte	0x3e
 1299 0296 02       		.byte	0x2
 1300 0297 91       		.byte	0x91
 1301 0298 6E       		.sleb128 -18
 1302 0299 00       		.byte	0
 1303 029a 0F       		.uleb128 0xf
 1304 029b 01       		.byte	0x1
 1305 029c 97000000 		.4byte	.LASF30
 1306 02a0 01       		.byte	0x1
 1307 02a1 CC       		.byte	0xcc
 1308 02a2 01       		.byte	0x1
 1309 02a3 6C000000 		.4byte	0x6c
 1310 02a7 00000000 		.4byte	.LFB64
 1311 02ab 58010000 		.4byte	.LFE64
 1312 02af 9C010000 		.4byte	.LLST8
 1313 02b3 01       		.byte	0x1
 1314 02b4 E2020000 		.4byte	0x2e2
 1315 02b8 13       		.uleb128 0x13
 1316 02b9 00000000 		.4byte	.LASF31
ARM GAS  C:\Users\RIEKOH~1\AppData\Local\Temp\ccmda2Tf.s 			page 29


 1317 02bd 01       		.byte	0x1
 1318 02be CD       		.byte	0xcd
 1319 02bf 6C000000 		.4byte	0x6c
 1320 02c3 02       		.byte	0x2
 1321 02c4 91       		.byte	0x91
 1322 02c5 74       		.sleb128 -12
 1323 02c6 13       		.uleb128 0x13
 1324 02c7 D9010000 		.4byte	.LASF32
 1325 02cb 01       		.byte	0x1
 1326 02cc CD       		.byte	0xcd
 1327 02cd 6C000000 		.4byte	0x6c
 1328 02d1 02       		.byte	0x2
 1329 02d2 91       		.byte	0x91
 1330 02d3 70       		.sleb128 -16
 1331 02d4 11       		.uleb128 0x11
 1332 02d5 737700   		.ascii	"sw\000"
 1333 02d8 01       		.byte	0x1
 1334 02d9 CE       		.byte	0xce
 1335 02da 6C000000 		.4byte	0x6c
 1336 02de 02       		.byte	0x2
 1337 02df 91       		.byte	0x91
 1338 02e0 6C       		.sleb128 -20
 1339 02e1 00       		.byte	0
 1340 02e2 16       		.uleb128 0x16
 1341 02e3 01       		.byte	0x1
 1342 02e4 F1000000 		.4byte	.LASF33
 1343 02e8 01       		.byte	0x1
 1344 02e9 0401     		.2byte	0x104
 1345 02eb 01       		.byte	0x1
 1346 02ec 00000000 		.4byte	.LFB65
 1347 02f0 28000000 		.4byte	.LFE65
 1348 02f4 D4010000 		.4byte	.LLST9
 1349 02f8 01       		.byte	0x1
 1350 02f9 17       		.uleb128 0x17
 1351 02fa D8000000 		.4byte	.LASF34
 1352 02fe 04       		.byte	0x4
 1353 02ff 1606     		.2byte	0x616
 1354 0301 07030000 		.4byte	0x307
 1355 0305 01       		.byte	0x1
 1356 0306 01       		.byte	0x1
 1357 0307 18       		.uleb128 0x18
 1358 0308 45000000 		.4byte	0x45
 1359 030c 19       		.uleb128 0x19
 1360 030d 3E010000 		.4byte	.LASF35
 1361 0311 01       		.byte	0x1
 1362 0312 36       		.byte	0x36
 1363 0313 73000000 		.4byte	0x73
 1364 0317 01       		.byte	0x1
 1365 0318 05       		.byte	0x5
 1366 0319 03       		.byte	0x3
 1367 031a 00000000 		.4byte	aileronR
 1368 031e 19       		.uleb128 0x19
 1369 031f 6C000000 		.4byte	.LASF36
 1370 0323 01       		.byte	0x1
 1371 0324 36       		.byte	0x36
 1372 0325 73000000 		.4byte	0x73
 1373 0329 01       		.byte	0x1
ARM GAS  C:\Users\RIEKOH~1\AppData\Local\Temp\ccmda2Tf.s 			page 30


 1374 032a 05       		.byte	0x5
 1375 032b 03       		.byte	0x3
 1376 032c 00000000 		.4byte	aileronR_buffer
 1377 0330 19       		.uleb128 0x19
 1378 0331 B4010000 		.4byte	.LASF37
 1379 0335 01       		.byte	0x1
 1380 0336 36       		.byte	0x36
 1381 0337 73000000 		.4byte	0x73
 1382 033b 01       		.byte	0x1
 1383 033c 05       		.byte	0x5
 1384 033d 03       		.byte	0x3
 1385 033e 00000000 		.4byte	aileronR_before
 1386 0342 1A       		.uleb128 0x1a
 1387 0343 70616B00 		.ascii	"pak\000"
 1388 0347 01       		.byte	0x1
 1389 0348 37       		.byte	0x37
 1390 0349 17010000 		.4byte	0x117
 1391 034d 01       		.byte	0x1
 1392 034e 05       		.byte	0x5
 1393 034f 03       		.byte	0x3
 1394 0350 00000000 		.4byte	pak
 1395 0354 00       		.byte	0
 1396              		.section	.debug_abbrev,"",%progbits
 1397              	.Ldebug_abbrev0:
 1398 0000 01       		.uleb128 0x1
 1399 0001 11       		.uleb128 0x11
 1400 0002 01       		.byte	0x1
 1401 0003 25       		.uleb128 0x25
 1402 0004 0E       		.uleb128 0xe
 1403 0005 13       		.uleb128 0x13
 1404 0006 0B       		.uleb128 0xb
 1405 0007 03       		.uleb128 0x3
 1406 0008 0E       		.uleb128 0xe
 1407 0009 1B       		.uleb128 0x1b
 1408 000a 0E       		.uleb128 0xe
 1409 000b 55       		.uleb128 0x55
 1410 000c 06       		.uleb128 0x6
 1411 000d 11       		.uleb128 0x11
 1412 000e 01       		.uleb128 0x1
 1413 000f 52       		.uleb128 0x52
 1414 0010 01       		.uleb128 0x1
 1415 0011 10       		.uleb128 0x10
 1416 0012 06       		.uleb128 0x6
 1417 0013 00       		.byte	0
 1418 0014 00       		.byte	0
 1419 0015 02       		.uleb128 0x2
 1420 0016 24       		.uleb128 0x24
 1421 0017 00       		.byte	0
 1422 0018 0B       		.uleb128 0xb
 1423 0019 0B       		.uleb128 0xb
 1424 001a 3E       		.uleb128 0x3e
 1425 001b 0B       		.uleb128 0xb
 1426 001c 03       		.uleb128 0x3
 1427 001d 0E       		.uleb128 0xe
 1428 001e 00       		.byte	0
 1429 001f 00       		.byte	0
 1430 0020 03       		.uleb128 0x3
ARM GAS  C:\Users\RIEKOH~1\AppData\Local\Temp\ccmda2Tf.s 			page 31


 1431 0021 16       		.uleb128 0x16
 1432 0022 00       		.byte	0
 1433 0023 03       		.uleb128 0x3
 1434 0024 0E       		.uleb128 0xe
 1435 0025 3A       		.uleb128 0x3a
 1436 0026 0B       		.uleb128 0xb
 1437 0027 3B       		.uleb128 0x3b
 1438 0028 0B       		.uleb128 0xb
 1439 0029 49       		.uleb128 0x49
 1440 002a 13       		.uleb128 0x13
 1441 002b 00       		.byte	0
 1442 002c 00       		.byte	0
 1443 002d 04       		.uleb128 0x4
 1444 002e 24       		.uleb128 0x24
 1445 002f 00       		.byte	0
 1446 0030 0B       		.uleb128 0xb
 1447 0031 0B       		.uleb128 0xb
 1448 0032 3E       		.uleb128 0x3e
 1449 0033 0B       		.uleb128 0xb
 1450 0034 03       		.uleb128 0x3
 1451 0035 08       		.uleb128 0x8
 1452 0036 00       		.byte	0
 1453 0037 00       		.byte	0
 1454 0038 05       		.uleb128 0x5
 1455 0039 13       		.uleb128 0x13
 1456 003a 01       		.byte	0x1
 1457 003b 0B       		.uleb128 0xb
 1458 003c 0B       		.uleb128 0xb
 1459 003d 3A       		.uleb128 0x3a
 1460 003e 0B       		.uleb128 0xb
 1461 003f 3B       		.uleb128 0x3b
 1462 0040 0B       		.uleb128 0xb
 1463 0041 01       		.uleb128 0x1
 1464 0042 13       		.uleb128 0x13
 1465 0043 00       		.byte	0
 1466 0044 00       		.byte	0
 1467 0045 06       		.uleb128 0x6
 1468 0046 0D       		.uleb128 0xd
 1469 0047 00       		.byte	0
 1470 0048 03       		.uleb128 0x3
 1471 0049 0E       		.uleb128 0xe
 1472 004a 3A       		.uleb128 0x3a
 1473 004b 0B       		.uleb128 0xb
 1474 004c 3B       		.uleb128 0x3b
 1475 004d 0B       		.uleb128 0xb
 1476 004e 49       		.uleb128 0x49
 1477 004f 13       		.uleb128 0x13
 1478 0050 38       		.uleb128 0x38
 1479 0051 0A       		.uleb128 0xa
 1480 0052 00       		.byte	0
 1481 0053 00       		.byte	0
 1482 0054 07       		.uleb128 0x7
 1483 0055 01       		.uleb128 0x1
 1484 0056 01       		.byte	0x1
 1485 0057 49       		.uleb128 0x49
 1486 0058 13       		.uleb128 0x13
 1487 0059 01       		.uleb128 0x1
ARM GAS  C:\Users\RIEKOH~1\AppData\Local\Temp\ccmda2Tf.s 			page 32


 1488 005a 13       		.uleb128 0x13
 1489 005b 00       		.byte	0
 1490 005c 00       		.byte	0
 1491 005d 08       		.uleb128 0x8
 1492 005e 21       		.uleb128 0x21
 1493 005f 00       		.byte	0
 1494 0060 49       		.uleb128 0x49
 1495 0061 13       		.uleb128 0x13
 1496 0062 2F       		.uleb128 0x2f
 1497 0063 0B       		.uleb128 0xb
 1498 0064 00       		.byte	0
 1499 0065 00       		.byte	0
 1500 0066 09       		.uleb128 0x9
 1501 0067 17       		.uleb128 0x17
 1502 0068 01       		.byte	0x1
 1503 0069 03       		.uleb128 0x3
 1504 006a 0E       		.uleb128 0xe
 1505 006b 0B       		.uleb128 0xb
 1506 006c 0B       		.uleb128 0xb
 1507 006d 3A       		.uleb128 0x3a
 1508 006e 0B       		.uleb128 0xb
 1509 006f 3B       		.uleb128 0x3b
 1510 0070 0B       		.uleb128 0xb
 1511 0071 01       		.uleb128 0x1
 1512 0072 13       		.uleb128 0x13
 1513 0073 00       		.byte	0
 1514 0074 00       		.byte	0
 1515 0075 0A       		.uleb128 0xa
 1516 0076 0D       		.uleb128 0xd
 1517 0077 00       		.byte	0
 1518 0078 03       		.uleb128 0x3
 1519 0079 0E       		.uleb128 0xe
 1520 007a 3A       		.uleb128 0x3a
 1521 007b 0B       		.uleb128 0xb
 1522 007c 3B       		.uleb128 0x3b
 1523 007d 0B       		.uleb128 0xb
 1524 007e 49       		.uleb128 0x49
 1525 007f 13       		.uleb128 0x13
 1526 0080 00       		.byte	0
 1527 0081 00       		.byte	0
 1528 0082 0B       		.uleb128 0xb
 1529 0083 2E       		.uleb128 0x2e
 1530 0084 00       		.byte	0
 1531 0085 3F       		.uleb128 0x3f
 1532 0086 0C       		.uleb128 0xc
 1533 0087 03       		.uleb128 0x3
 1534 0088 0E       		.uleb128 0xe
 1535 0089 3A       		.uleb128 0x3a
 1536 008a 0B       		.uleb128 0xb
 1537 008b 3B       		.uleb128 0x3b
 1538 008c 0B       		.uleb128 0xb
 1539 008d 11       		.uleb128 0x11
 1540 008e 01       		.uleb128 0x1
 1541 008f 12       		.uleb128 0x12
 1542 0090 01       		.uleb128 0x1
 1543 0091 40       		.uleb128 0x40
 1544 0092 06       		.uleb128 0x6
ARM GAS  C:\Users\RIEKOH~1\AppData\Local\Temp\ccmda2Tf.s 			page 33


 1545 0093 9642     		.uleb128 0x2116
 1546 0095 0C       		.uleb128 0xc
 1547 0096 00       		.byte	0
 1548 0097 00       		.byte	0
 1549 0098 0C       		.uleb128 0xc
 1550 0099 2E       		.uleb128 0x2e
 1551 009a 01       		.byte	0x1
 1552 009b 3F       		.uleb128 0x3f
 1553 009c 0C       		.uleb128 0xc
 1554 009d 03       		.uleb128 0x3
 1555 009e 0E       		.uleb128 0xe
 1556 009f 3A       		.uleb128 0x3a
 1557 00a0 0B       		.uleb128 0xb
 1558 00a1 3B       		.uleb128 0x3b
 1559 00a2 0B       		.uleb128 0xb
 1560 00a3 27       		.uleb128 0x27
 1561 00a4 0C       		.uleb128 0xc
 1562 00a5 11       		.uleb128 0x11
 1563 00a6 01       		.uleb128 0x1
 1564 00a7 12       		.uleb128 0x12
 1565 00a8 01       		.uleb128 0x1
 1566 00a9 40       		.uleb128 0x40
 1567 00aa 06       		.uleb128 0x6
 1568 00ab 9642     		.uleb128 0x2116
 1569 00ad 0C       		.uleb128 0xc
 1570 00ae 01       		.uleb128 0x1
 1571 00af 13       		.uleb128 0x13
 1572 00b0 00       		.byte	0
 1573 00b1 00       		.byte	0
 1574 00b2 0D       		.uleb128 0xd
 1575 00b3 05       		.uleb128 0x5
 1576 00b4 00       		.byte	0
 1577 00b5 03       		.uleb128 0x3
 1578 00b6 08       		.uleb128 0x8
 1579 00b7 3A       		.uleb128 0x3a
 1580 00b8 0B       		.uleb128 0xb
 1581 00b9 3B       		.uleb128 0x3b
 1582 00ba 0B       		.uleb128 0xb
 1583 00bb 49       		.uleb128 0x49
 1584 00bc 13       		.uleb128 0x13
 1585 00bd 02       		.uleb128 0x2
 1586 00be 0A       		.uleb128 0xa
 1587 00bf 00       		.byte	0
 1588 00c0 00       		.byte	0
 1589 00c1 0E       		.uleb128 0xe
 1590 00c2 2E       		.uleb128 0x2e
 1591 00c3 00       		.byte	0
 1592 00c4 3F       		.uleb128 0x3f
 1593 00c5 0C       		.uleb128 0xc
 1594 00c6 03       		.uleb128 0x3
 1595 00c7 0E       		.uleb128 0xe
 1596 00c8 3A       		.uleb128 0x3a
 1597 00c9 0B       		.uleb128 0xb
 1598 00ca 3B       		.uleb128 0x3b
 1599 00cb 0B       		.uleb128 0xb
 1600 00cc 27       		.uleb128 0x27
 1601 00cd 0C       		.uleb128 0xc
ARM GAS  C:\Users\RIEKOH~1\AppData\Local\Temp\ccmda2Tf.s 			page 34


 1602 00ce 11       		.uleb128 0x11
 1603 00cf 01       		.uleb128 0x1
 1604 00d0 12       		.uleb128 0x12
 1605 00d1 01       		.uleb128 0x1
 1606 00d2 40       		.uleb128 0x40
 1607 00d3 06       		.uleb128 0x6
 1608 00d4 9642     		.uleb128 0x2116
 1609 00d6 0C       		.uleb128 0xc
 1610 00d7 00       		.byte	0
 1611 00d8 00       		.byte	0
 1612 00d9 0F       		.uleb128 0xf
 1613 00da 2E       		.uleb128 0x2e
 1614 00db 01       		.byte	0x1
 1615 00dc 3F       		.uleb128 0x3f
 1616 00dd 0C       		.uleb128 0xc
 1617 00de 03       		.uleb128 0x3
 1618 00df 0E       		.uleb128 0xe
 1619 00e0 3A       		.uleb128 0x3a
 1620 00e1 0B       		.uleb128 0xb
 1621 00e2 3B       		.uleb128 0x3b
 1622 00e3 0B       		.uleb128 0xb
 1623 00e4 27       		.uleb128 0x27
 1624 00e5 0C       		.uleb128 0xc
 1625 00e6 49       		.uleb128 0x49
 1626 00e7 13       		.uleb128 0x13
 1627 00e8 11       		.uleb128 0x11
 1628 00e9 01       		.uleb128 0x1
 1629 00ea 12       		.uleb128 0x12
 1630 00eb 01       		.uleb128 0x1
 1631 00ec 40       		.uleb128 0x40
 1632 00ed 06       		.uleb128 0x6
 1633 00ee 9642     		.uleb128 0x2116
 1634 00f0 0C       		.uleb128 0xc
 1635 00f1 01       		.uleb128 0x1
 1636 00f2 13       		.uleb128 0x13
 1637 00f3 00       		.byte	0
 1638 00f4 00       		.byte	0
 1639 00f5 10       		.uleb128 0x10
 1640 00f6 05       		.uleb128 0x5
 1641 00f7 00       		.byte	0
 1642 00f8 03       		.uleb128 0x3
 1643 00f9 0E       		.uleb128 0xe
 1644 00fa 3A       		.uleb128 0x3a
 1645 00fb 0B       		.uleb128 0xb
 1646 00fc 3B       		.uleb128 0x3b
 1647 00fd 0B       		.uleb128 0xb
 1648 00fe 49       		.uleb128 0x49
 1649 00ff 13       		.uleb128 0x13
 1650 0100 02       		.uleb128 0x2
 1651 0101 0A       		.uleb128 0xa
 1652 0102 00       		.byte	0
 1653 0103 00       		.byte	0
 1654 0104 11       		.uleb128 0x11
 1655 0105 34       		.uleb128 0x34
 1656 0106 00       		.byte	0
 1657 0107 03       		.uleb128 0x3
 1658 0108 08       		.uleb128 0x8
ARM GAS  C:\Users\RIEKOH~1\AppData\Local\Temp\ccmda2Tf.s 			page 35


 1659 0109 3A       		.uleb128 0x3a
 1660 010a 0B       		.uleb128 0xb
 1661 010b 3B       		.uleb128 0x3b
 1662 010c 0B       		.uleb128 0xb
 1663 010d 49       		.uleb128 0x49
 1664 010e 13       		.uleb128 0x13
 1665 010f 02       		.uleb128 0x2
 1666 0110 0A       		.uleb128 0xa
 1667 0111 00       		.byte	0
 1668 0112 00       		.byte	0
 1669 0113 12       		.uleb128 0x12
 1670 0114 0B       		.uleb128 0xb
 1671 0115 01       		.byte	0x1
 1672 0116 11       		.uleb128 0x11
 1673 0117 01       		.uleb128 0x1
 1674 0118 12       		.uleb128 0x12
 1675 0119 01       		.uleb128 0x1
 1676 011a 00       		.byte	0
 1677 011b 00       		.byte	0
 1678 011c 13       		.uleb128 0x13
 1679 011d 34       		.uleb128 0x34
 1680 011e 00       		.byte	0
 1681 011f 03       		.uleb128 0x3
 1682 0120 0E       		.uleb128 0xe
 1683 0121 3A       		.uleb128 0x3a
 1684 0122 0B       		.uleb128 0xb
 1685 0123 3B       		.uleb128 0x3b
 1686 0124 0B       		.uleb128 0xb
 1687 0125 49       		.uleb128 0x49
 1688 0126 13       		.uleb128 0x13
 1689 0127 02       		.uleb128 0x2
 1690 0128 0A       		.uleb128 0xa
 1691 0129 00       		.byte	0
 1692 012a 00       		.byte	0
 1693 012b 14       		.uleb128 0x14
 1694 012c 0F       		.uleb128 0xf
 1695 012d 00       		.byte	0
 1696 012e 0B       		.uleb128 0xb
 1697 012f 0B       		.uleb128 0xb
 1698 0130 49       		.uleb128 0x49
 1699 0131 13       		.uleb128 0x13
 1700 0132 00       		.byte	0
 1701 0133 00       		.byte	0
 1702 0134 15       		.uleb128 0x15
 1703 0135 2E       		.uleb128 0x2e
 1704 0136 01       		.byte	0x1
 1705 0137 3F       		.uleb128 0x3f
 1706 0138 0C       		.uleb128 0xc
 1707 0139 03       		.uleb128 0x3
 1708 013a 0E       		.uleb128 0xe
 1709 013b 3A       		.uleb128 0x3a
 1710 013c 0B       		.uleb128 0xb
 1711 013d 3B       		.uleb128 0x3b
 1712 013e 0B       		.uleb128 0xb
 1713 013f 27       		.uleb128 0x27
 1714 0140 0C       		.uleb128 0xc
 1715 0141 49       		.uleb128 0x49
ARM GAS  C:\Users\RIEKOH~1\AppData\Local\Temp\ccmda2Tf.s 			page 36


 1716 0142 13       		.uleb128 0x13
 1717 0143 11       		.uleb128 0x11
 1718 0144 01       		.uleb128 0x1
 1719 0145 12       		.uleb128 0x12
 1720 0146 01       		.uleb128 0x1
 1721 0147 40       		.uleb128 0x40
 1722 0148 06       		.uleb128 0x6
 1723 0149 9742     		.uleb128 0x2117
 1724 014b 0C       		.uleb128 0xc
 1725 014c 01       		.uleb128 0x1
 1726 014d 13       		.uleb128 0x13
 1727 014e 00       		.byte	0
 1728 014f 00       		.byte	0
 1729 0150 16       		.uleb128 0x16
 1730 0151 2E       		.uleb128 0x2e
 1731 0152 00       		.byte	0
 1732 0153 3F       		.uleb128 0x3f
 1733 0154 0C       		.uleb128 0xc
 1734 0155 03       		.uleb128 0x3
 1735 0156 0E       		.uleb128 0xe
 1736 0157 3A       		.uleb128 0x3a
 1737 0158 0B       		.uleb128 0xb
 1738 0159 3B       		.uleb128 0x3b
 1739 015a 05       		.uleb128 0x5
 1740 015b 27       		.uleb128 0x27
 1741 015c 0C       		.uleb128 0xc
 1742 015d 11       		.uleb128 0x11
 1743 015e 01       		.uleb128 0x1
 1744 015f 12       		.uleb128 0x12
 1745 0160 01       		.uleb128 0x1
 1746 0161 40       		.uleb128 0x40
 1747 0162 06       		.uleb128 0x6
 1748 0163 9642     		.uleb128 0x2116
 1749 0165 0C       		.uleb128 0xc
 1750 0166 00       		.byte	0
 1751 0167 00       		.byte	0
 1752 0168 17       		.uleb128 0x17
 1753 0169 34       		.uleb128 0x34
 1754 016a 00       		.byte	0
 1755 016b 03       		.uleb128 0x3
 1756 016c 0E       		.uleb128 0xe
 1757 016d 3A       		.uleb128 0x3a
 1758 016e 0B       		.uleb128 0xb
 1759 016f 3B       		.uleb128 0x3b
 1760 0170 05       		.uleb128 0x5
 1761 0171 49       		.uleb128 0x49
 1762 0172 13       		.uleb128 0x13
 1763 0173 3F       		.uleb128 0x3f
 1764 0174 0C       		.uleb128 0xc
 1765 0175 3C       		.uleb128 0x3c
 1766 0176 0C       		.uleb128 0xc
 1767 0177 00       		.byte	0
 1768 0178 00       		.byte	0
 1769 0179 18       		.uleb128 0x18
 1770 017a 35       		.uleb128 0x35
 1771 017b 00       		.byte	0
 1772 017c 49       		.uleb128 0x49
ARM GAS  C:\Users\RIEKOH~1\AppData\Local\Temp\ccmda2Tf.s 			page 37


 1773 017d 13       		.uleb128 0x13
 1774 017e 00       		.byte	0
 1775 017f 00       		.byte	0
 1776 0180 19       		.uleb128 0x19
 1777 0181 34       		.uleb128 0x34
 1778 0182 00       		.byte	0
 1779 0183 03       		.uleb128 0x3
 1780 0184 0E       		.uleb128 0xe
 1781 0185 3A       		.uleb128 0x3a
 1782 0186 0B       		.uleb128 0xb
 1783 0187 3B       		.uleb128 0x3b
 1784 0188 0B       		.uleb128 0xb
 1785 0189 49       		.uleb128 0x49
 1786 018a 13       		.uleb128 0x13
 1787 018b 3F       		.uleb128 0x3f
 1788 018c 0C       		.uleb128 0xc
 1789 018d 02       		.uleb128 0x2
 1790 018e 0A       		.uleb128 0xa
 1791 018f 00       		.byte	0
 1792 0190 00       		.byte	0
 1793 0191 1A       		.uleb128 0x1a
 1794 0192 34       		.uleb128 0x34
 1795 0193 00       		.byte	0
 1796 0194 03       		.uleb128 0x3
 1797 0195 08       		.uleb128 0x8
 1798 0196 3A       		.uleb128 0x3a
 1799 0197 0B       		.uleb128 0xb
 1800 0198 3B       		.uleb128 0x3b
 1801 0199 0B       		.uleb128 0xb
 1802 019a 49       		.uleb128 0x49
 1803 019b 13       		.uleb128 0x13
 1804 019c 3F       		.uleb128 0x3f
 1805 019d 0C       		.uleb128 0xc
 1806 019e 02       		.uleb128 0x2
 1807 019f 0A       		.uleb128 0xa
 1808 01a0 00       		.byte	0
 1809 01a1 00       		.byte	0
 1810 01a2 00       		.byte	0
 1811              		.section	.debug_loc,"",%progbits
 1812              	.Ldebug_loc0:
 1813              	.LLST0:
 1814 0000 00000000 		.4byte	.LFB56
 1815 0004 02000000 		.4byte	.LCFI0
 1816 0008 0200     		.2byte	0x2
 1817 000a 7D       		.byte	0x7d
 1818 000b 00       		.sleb128 0
 1819 000c 02000000 		.4byte	.LCFI0
 1820 0010 04000000 		.4byte	.LCFI1
 1821 0014 0200     		.2byte	0x2
 1822 0016 7D       		.byte	0x7d
 1823 0017 08       		.sleb128 8
 1824 0018 04000000 		.4byte	.LCFI1
 1825 001c 74000000 		.4byte	.LFE56
 1826 0020 0200     		.2byte	0x2
 1827 0022 77       		.byte	0x77
 1828 0023 08       		.sleb128 8
 1829 0024 00000000 		.4byte	0
ARM GAS  C:\Users\RIEKOH~1\AppData\Local\Temp\ccmda2Tf.s 			page 38


 1830 0028 00000000 		.4byte	0
 1831              	.LLST1:
 1832 002c 00000000 		.4byte	.LFB57
 1833 0030 02000000 		.4byte	.LCFI2
 1834 0034 0200     		.2byte	0x2
 1835 0036 7D       		.byte	0x7d
 1836 0037 00       		.sleb128 0
 1837 0038 02000000 		.4byte	.LCFI2
 1838 003c 04000000 		.4byte	.LCFI3
 1839 0040 0200     		.2byte	0x2
 1840 0042 7D       		.byte	0x7d
 1841 0043 08       		.sleb128 8
 1842 0044 04000000 		.4byte	.LCFI3
 1843 0048 06000000 		.4byte	.LCFI4
 1844 004c 0200     		.2byte	0x2
 1845 004e 7D       		.byte	0x7d
 1846 004f 10       		.sleb128 16
 1847 0050 06000000 		.4byte	.LCFI4
 1848 0054 1C000000 		.4byte	.LFE57
 1849 0058 0200     		.2byte	0x2
 1850 005a 77       		.byte	0x77
 1851 005b 10       		.sleb128 16
 1852 005c 00000000 		.4byte	0
 1853 0060 00000000 		.4byte	0
 1854              	.LLST2:
 1855 0064 00000000 		.4byte	.LFB58
 1856 0068 02000000 		.4byte	.LCFI5
 1857 006c 0200     		.2byte	0x2
 1858 006e 7D       		.byte	0x7d
 1859 006f 00       		.sleb128 0
 1860 0070 02000000 		.4byte	.LCFI5
 1861 0074 04000000 		.4byte	.LCFI6
 1862 0078 0200     		.2byte	0x2
 1863 007a 7D       		.byte	0x7d
 1864 007b 08       		.sleb128 8
 1865 007c 04000000 		.4byte	.LCFI6
 1866 0080 06000000 		.4byte	.LCFI7
 1867 0084 0200     		.2byte	0x2
 1868 0086 7D       		.byte	0x7d
 1869 0087 10       		.sleb128 16
 1870 0088 06000000 		.4byte	.LCFI7
 1871 008c 2A000000 		.4byte	.LFE58
 1872 0090 0200     		.2byte	0x2
 1873 0092 77       		.byte	0x77
 1874 0093 10       		.sleb128 16
 1875 0094 00000000 		.4byte	0
 1876 0098 00000000 		.4byte	0
 1877              	.LLST3:
 1878 009c 00000000 		.4byte	.LFB59
 1879 00a0 02000000 		.4byte	.LCFI8
 1880 00a4 0200     		.2byte	0x2
 1881 00a6 7D       		.byte	0x7d
 1882 00a7 00       		.sleb128 0
 1883 00a8 02000000 		.4byte	.LCFI8
 1884 00ac 04000000 		.4byte	.LCFI9
 1885 00b0 0200     		.2byte	0x2
 1886 00b2 7D       		.byte	0x7d
ARM GAS  C:\Users\RIEKOH~1\AppData\Local\Temp\ccmda2Tf.s 			page 39


 1887 00b3 08       		.sleb128 8
 1888 00b4 04000000 		.4byte	.LCFI9
 1889 00b8 10000000 		.4byte	.LFE59
 1890 00bc 0200     		.2byte	0x2
 1891 00be 77       		.byte	0x77
 1892 00bf 08       		.sleb128 8
 1893 00c0 00000000 		.4byte	0
 1894 00c4 00000000 		.4byte	0
 1895              	.LLST4:
 1896 00c8 00000000 		.4byte	.LFB60
 1897 00cc 02000000 		.4byte	.LCFI10
 1898 00d0 0200     		.2byte	0x2
 1899 00d2 7D       		.byte	0x7d
 1900 00d3 00       		.sleb128 0
 1901 00d4 02000000 		.4byte	.LCFI10
 1902 00d8 04000000 		.4byte	.LCFI11
 1903 00dc 0200     		.2byte	0x2
 1904 00de 7D       		.byte	0x7d
 1905 00df 0C       		.sleb128 12
 1906 00e0 04000000 		.4byte	.LCFI11
 1907 00e4 06000000 		.4byte	.LCFI12
 1908 00e8 0200     		.2byte	0x2
 1909 00ea 7D       		.byte	0x7d
 1910 00eb 20       		.sleb128 32
 1911 00ec 06000000 		.4byte	.LCFI12
 1912 00f0 CC010000 		.4byte	.LFE60
 1913 00f4 0200     		.2byte	0x2
 1914 00f6 77       		.byte	0x77
 1915 00f7 20       		.sleb128 32
 1916 00f8 00000000 		.4byte	0
 1917 00fc 00000000 		.4byte	0
 1918              	.LLST5:
 1919 0100 00000000 		.4byte	.LFB61
 1920 0104 02000000 		.4byte	.LCFI13
 1921 0108 0200     		.2byte	0x2
 1922 010a 7D       		.byte	0x7d
 1923 010b 00       		.sleb128 0
 1924 010c 02000000 		.4byte	.LCFI13
 1925 0110 04000000 		.4byte	.LCFI14
 1926 0114 0200     		.2byte	0x2
 1927 0116 7D       		.byte	0x7d
 1928 0117 04       		.sleb128 4
 1929 0118 04000000 		.4byte	.LCFI14
 1930 011c 06000000 		.4byte	.LCFI15
 1931 0120 0200     		.2byte	0x2
 1932 0122 7D       		.byte	0x7d
 1933 0123 18       		.sleb128 24
 1934 0124 06000000 		.4byte	.LCFI15
 1935 0128 5A000000 		.4byte	.LFE61
 1936 012c 0200     		.2byte	0x2
 1937 012e 77       		.byte	0x77
 1938 012f 18       		.sleb128 24
 1939 0130 00000000 		.4byte	0
 1940 0134 00000000 		.4byte	0
 1941              	.LLST6:
 1942 0138 00000000 		.4byte	.LFB62
 1943 013c 02000000 		.4byte	.LCFI16
ARM GAS  C:\Users\RIEKOH~1\AppData\Local\Temp\ccmda2Tf.s 			page 40


 1944 0140 0200     		.2byte	0x2
 1945 0142 7D       		.byte	0x7d
 1946 0143 00       		.sleb128 0
 1947 0144 02000000 		.4byte	.LCFI16
 1948 0148 04000000 		.4byte	.LCFI17
 1949 014c 0200     		.2byte	0x2
 1950 014e 7D       		.byte	0x7d
 1951 014f 08       		.sleb128 8
 1952 0150 04000000 		.4byte	.LCFI17
 1953 0154 26000000 		.4byte	.LFE62
 1954 0158 0200     		.2byte	0x2
 1955 015a 77       		.byte	0x77
 1956 015b 08       		.sleb128 8
 1957 015c 00000000 		.4byte	0
 1958 0160 00000000 		.4byte	0
 1959              	.LLST7:
 1960 0164 00000000 		.4byte	.LFB63
 1961 0168 02000000 		.4byte	.LCFI18
 1962 016c 0200     		.2byte	0x2
 1963 016e 7D       		.byte	0x7d
 1964 016f 00       		.sleb128 0
 1965 0170 02000000 		.4byte	.LCFI18
 1966 0174 04000000 		.4byte	.LCFI19
 1967 0178 0200     		.2byte	0x2
 1968 017a 7D       		.byte	0x7d
 1969 017b 10       		.sleb128 16
 1970 017c 04000000 		.4byte	.LCFI19
 1971 0180 06000000 		.4byte	.LCFI20
 1972 0184 0200     		.2byte	0x2
 1973 0186 7D       		.byte	0x7d
 1974 0187 18       		.sleb128 24
 1975 0188 06000000 		.4byte	.LCFI20
 1976 018c F0000000 		.4byte	.LFE63
 1977 0190 0200     		.2byte	0x2
 1978 0192 77       		.byte	0x77
 1979 0193 18       		.sleb128 24
 1980 0194 00000000 		.4byte	0
 1981 0198 00000000 		.4byte	0
 1982              	.LLST8:
 1983 019c 00000000 		.4byte	.LFB64
 1984 01a0 02000000 		.4byte	.LCFI21
 1985 01a4 0200     		.2byte	0x2
 1986 01a6 7D       		.byte	0x7d
 1987 01a7 00       		.sleb128 0
 1988 01a8 02000000 		.4byte	.LCFI21
 1989 01ac 04000000 		.4byte	.LCFI22
 1990 01b0 0200     		.2byte	0x2
 1991 01b2 7D       		.byte	0x7d
 1992 01b3 08       		.sleb128 8
 1993 01b4 04000000 		.4byte	.LCFI22
 1994 01b8 06000000 		.4byte	.LCFI23
 1995 01bc 0200     		.2byte	0x2
 1996 01be 7D       		.byte	0x7d
 1997 01bf 18       		.sleb128 24
 1998 01c0 06000000 		.4byte	.LCFI23
 1999 01c4 58010000 		.4byte	.LFE64
 2000 01c8 0200     		.2byte	0x2
ARM GAS  C:\Users\RIEKOH~1\AppData\Local\Temp\ccmda2Tf.s 			page 41


 2001 01ca 77       		.byte	0x77
 2002 01cb 18       		.sleb128 24
 2003 01cc 00000000 		.4byte	0
 2004 01d0 00000000 		.4byte	0
 2005              	.LLST9:
 2006 01d4 00000000 		.4byte	.LFB65
 2007 01d8 02000000 		.4byte	.LCFI24
 2008 01dc 0200     		.2byte	0x2
 2009 01de 7D       		.byte	0x7d
 2010 01df 00       		.sleb128 0
 2011 01e0 02000000 		.4byte	.LCFI24
 2012 01e4 04000000 		.4byte	.LCFI25
 2013 01e8 0200     		.2byte	0x2
 2014 01ea 7D       		.byte	0x7d
 2015 01eb 08       		.sleb128 8
 2016 01ec 04000000 		.4byte	.LCFI25
 2017 01f0 28000000 		.4byte	.LFE65
 2018 01f4 0200     		.2byte	0x2
 2019 01f6 77       		.byte	0x77
 2020 01f7 08       		.sleb128 8
 2021 01f8 00000000 		.4byte	0
 2022 01fc 00000000 		.4byte	0
 2023              		.section	.debug_aranges,"",%progbits
 2024 0000 64000000 		.4byte	0x64
 2025 0004 0200     		.2byte	0x2
 2026 0006 00000000 		.4byte	.Ldebug_info0
 2027 000a 04       		.byte	0x4
 2028 000b 00       		.byte	0
 2029 000c 0000     		.2byte	0
 2030 000e 0000     		.2byte	0
 2031 0010 00000000 		.4byte	.LFB56
 2032 0014 74000000 		.4byte	.LFE56-.LFB56
 2033 0018 00000000 		.4byte	.LFB57
 2034 001c 1C000000 		.4byte	.LFE57-.LFB57
 2035 0020 00000000 		.4byte	.LFB58
 2036 0024 2A000000 		.4byte	.LFE58-.LFB58
 2037 0028 00000000 		.4byte	.LFB59
 2038 002c 10000000 		.4byte	.LFE59-.LFB59
 2039 0030 00000000 		.4byte	.LFB60
 2040 0034 CC010000 		.4byte	.LFE60-.LFB60
 2041 0038 00000000 		.4byte	.LFB61
 2042 003c 5A000000 		.4byte	.LFE61-.LFB61
 2043 0040 00000000 		.4byte	.LFB62
 2044 0044 26000000 		.4byte	.LFE62-.LFB62
 2045 0048 00000000 		.4byte	.LFB63
 2046 004c F0000000 		.4byte	.LFE63-.LFB63
 2047 0050 00000000 		.4byte	.LFB64
 2048 0054 58010000 		.4byte	.LFE64-.LFB64
 2049 0058 00000000 		.4byte	.LFB65
 2050 005c 28000000 		.4byte	.LFE65-.LFB65
 2051 0060 00000000 		.4byte	0
 2052 0064 00000000 		.4byte	0
 2053              		.section	.debug_ranges,"",%progbits
 2054              	.Ldebug_ranges0:
 2055 0000 00000000 		.4byte	.LFB56
 2056 0004 74000000 		.4byte	.LFE56
 2057 0008 00000000 		.4byte	.LFB57
ARM GAS  C:\Users\RIEKOH~1\AppData\Local\Temp\ccmda2Tf.s 			page 42


 2058 000c 1C000000 		.4byte	.LFE57
 2059 0010 00000000 		.4byte	.LFB58
 2060 0014 2A000000 		.4byte	.LFE58
 2061 0018 00000000 		.4byte	.LFB59
 2062 001c 10000000 		.4byte	.LFE59
 2063 0020 00000000 		.4byte	.LFB60
 2064 0024 CC010000 		.4byte	.LFE60
 2065 0028 00000000 		.4byte	.LFB61
 2066 002c 5A000000 		.4byte	.LFE61
 2067 0030 00000000 		.4byte	.LFB62
 2068 0034 26000000 		.4byte	.LFE62
 2069 0038 00000000 		.4byte	.LFB63
 2070 003c F0000000 		.4byte	.LFE63
 2071 0040 00000000 		.4byte	.LFB64
 2072 0044 58010000 		.4byte	.LFE64
 2073 0048 00000000 		.4byte	.LFB65
 2074 004c 28000000 		.4byte	.LFE65
 2075 0050 00000000 		.4byte	0
 2076 0054 00000000 		.4byte	0
 2077              		.section	.debug_line,"",%progbits
 2078              	.Ldebug_line0:
 2079 0000 77020000 		.section	.debug_str,"MS",%progbits,1
 2079      0200F300 
 2079      00000201 
 2079      FB0E0D00 
 2079      01010101 
 2080              	.LASF31:
 2081 0000 5472696D 		.ascii	"Trim\000"
 2081      00
 2082              	.LASF38:
 2083 0005 474E5520 		.ascii	"GNU C 4.7.3 20130312 (release) [ARM/embedded-4_7-br"
 2083      4320342E 
 2083      372E3320 
 2083      32303133 
 2083      30333132 
 2084 0038 616E6368 		.ascii	"anch revision 196615]\000"
 2084      20726576 
 2084      6973696F 
 2084      6E203139 
 2084      36363135 
 2085              	.LASF26:
 2086 004e 43686563 		.ascii	"CheckValid\000"
 2086      6B56616C 
 2086      696400
 2087              	.LASF3:
 2088 0059 73686F72 		.ascii	"short unsigned int\000"
 2088      7420756E 
 2088      7369676E 
 2088      65642069 
 2088      6E7400
 2089              	.LASF36:
 2090 006c 61696C65 		.ascii	"aileronR_buffer\000"
 2090      726F6E52 
 2090      5F627566 
 2090      66657200 
 2091              	.LASF27:
 2092 007c 72733438 		.ascii	"rs485_Start\000"
ARM GAS  C:\Users\RIEKOH~1\AppData\Local\Temp\ccmda2Tf.s 			page 43


 2092      355F5374 
 2092      61727400 
 2093              	.LASF39:
 2094 0088 2E5C6D61 		.ascii	".\\main.c\000"
 2094      696E2E63 
 2094      00
 2095              	.LASF11:
 2096 0091 666C6F61 		.ascii	"float\000"
 2096      7400
 2097              	.LASF30:
 2098 0097 43656E74 		.ascii	"CenterStatus\000"
 2098      65725374 
 2098      61747573 
 2098      00
 2099              	.LASF1:
 2100 00a4 756E7369 		.ascii	"unsigned char\000"
 2100      676E6564 
 2100      20636861 
 2100      7200
 2101              	.LASF16:
 2102 00b2 62436865 		.ascii	"bCheckSum\000"
 2102      636B5375 
 2102      6D00
 2103              	.LASF5:
 2104 00bc 6C6F6E67 		.ascii	"long unsigned int\000"
 2104      20756E73 
 2104      69676E65 
 2104      6420696E 
 2104      7400
 2105              	.LASF24:
 2106 00ce 74656D70 		.ascii	"temp\000"
 2106      00
 2107              	.LASF23:
 2108 00d3 61646472 		.ascii	"addr\000"
 2108      00
 2109              	.LASF34:
 2110 00d8 49544D5F 		.ascii	"ITM_RxBuffer\000"
 2110      52784275 
 2110      66666572 
 2110      00
 2111              	.LASF12:
 2112 00e5 646F7562 		.ascii	"double\000"
 2112      6C6500
 2113              	.LASF18:
 2114 00ec 5F70616B 		.ascii	"_pak\000"
 2114      00
 2115              	.LASF33:
 2116 00f1 5465726D 		.ascii	"Terminal_Count_ISR\000"
 2116      696E616C 
 2116      5F436F75 
 2116      6E745F49 
 2116      535200
 2117              	.LASF2:
 2118 0104 73686F72 		.ascii	"short int\000"
 2118      7420696E 
 2118      7400
 2119              	.LASF42:
ARM GAS  C:\Users\RIEKOH~1\AppData\Local\Temp\ccmda2Tf.s 			page 44


 2120 010e 6D61696E 		.ascii	"main\000"
 2120      00
 2121              	.LASF8:
 2122 0113 756E7369 		.ascii	"unsigned int\000"
 2122      676E6564 
 2122      20696E74 
 2122      00
 2123              	.LASF20:
 2124 0120 5041434B 		.ascii	"PACKET\000"
 2124      455400
 2125              	.LASF7:
 2126 0127 6C6F6E67 		.ascii	"long long unsigned int\000"
 2126      206C6F6E 
 2126      6720756E 
 2126      7369676E 
 2126      65642069 
 2127              	.LASF35:
 2128 013e 61696C65 		.ascii	"aileronR\000"
 2128      726F6E52 
 2128      00
 2129              	.LASF0:
 2130 0147 7369676E 		.ascii	"signed char\000"
 2130      65642063 
 2130      68617200 
 2131              	.LASF9:
 2132 0153 696E7433 		.ascii	"int32_t\000"
 2132      325F7400 
 2133              	.LASF14:
 2134 015b 73697A65 		.ascii	"sizetype\000"
 2134      74797065 
 2134      00
 2135              	.LASF6:
 2136 0164 6C6F6E67 		.ascii	"long long int\000"
 2136      206C6F6E 
 2136      6720696E 
 2136      7400
 2137              	.LASF41:
 2138 0172 5F746167 		.ascii	"_tagRS485_PACKET\000"
 2138      52533438 
 2138      355F5041 
 2138      434B4554 
 2138      00
 2139              	.LASF13:
 2140 0183 63686172 		.ascii	"char\000"
 2140      00
 2141              	.LASF25:
 2142 0188 72733438 		.ascii	"rs485_CheckPacket\000"
 2142      355F4368 
 2142      65636B50 
 2142      61636B65 
 2142      7400
 2143              	.LASF19:
 2144 019a 5F627974 		.ascii	"_byte\000"
 2144      6500
 2145              	.LASF17:
 2146 01a0 77446174 		.ascii	"wData\000"
 2146      6100
ARM GAS  C:\Users\RIEKOH~1\AppData\Local\Temp\ccmda2Tf.s 			page 45


 2147              	.LASF10:
 2148 01a6 75696E74 		.ascii	"uint8\000"
 2148      3800
 2149              	.LASF15:
 2150 01ac 62537461 		.ascii	"bStatus\000"
 2150      74757300 
 2151              	.LASF37:
 2152 01b4 61696C65 		.ascii	"aileronR_before\000"
 2152      726F6E52 
 2152      5F626566 
 2152      6F726500 
 2153              	.LASF28:
 2154 01c4 53657276 		.ascii	"Servo_Start\000"
 2154      6F5F5374 
 2154      61727400 
 2155              	.LASF4:
 2156 01d0 6C6F6E67 		.ascii	"long int\000"
 2156      20696E74 
 2156      00
 2157              	.LASF32:
 2158 01d9 64547269 		.ascii	"dTrim\000"
 2158      6D00
 2159              	.LASF22:
 2160 01df 54696D65 		.ascii	"Timer_Delayus\000"
 2160      725F4465 
 2160      6C617975 
 2160      7300
 2161              	.LASF29:
 2162 01ed 466F726D 		.ascii	"FormatValueAilR\000"
 2162      61745661 
 2162      6C756541 
 2162      696C5200 
 2163              	.LASF21:
 2164 01fd 54696D65 		.ascii	"Timer_Set\000"
 2164      725F5365 
 2164      7400
 2165              	.LASF40:
 2166 0207 433A5C55 		.ascii	"C:\\Users\\Rieko Hirota\\Documents\\F-tec\\program\\"
 2166      73657273 
 2166      5C526965 
 2166      6B6F2048 
 2166      69726F74 
 2167 0235 73657276 		.ascii	"servo_7_6\\ailR_true.cydsn\000"
 2167      6F5F375F 
 2167      365C6169 
 2167      6C525F74 
 2167      7275652E 
 2168              		.ident	"GCC: (GNU Tools for ARM Embedded Processors) 4.7.3 20130312 (release) [ARM/embedded-4_7-br
