ARM GAS  C:\Users\Kenichi\AppData\Local\Temp\ccYekJ5f.s 			page 1


   1              		.syntax unified
   2              		.cpu cortex-m3
   3              		.fpu softvfp
   4              		.eabi_attribute 20, 1
   5              		.eabi_attribute 21, 1
   6              		.eabi_attribute 23, 3
   7              		.eabi_attribute 24, 1
   8              		.eabi_attribute 25, 1
   9              		.eabi_attribute 26, 1
  10              		.eabi_attribute 30, 6
  11              		.eabi_attribute 34, 1
  12              		.eabi_attribute 18, 4
  13              		.thumb
  14              		.file	"cyutils.c"
  15              		.text
  16              	.Ltext0:
  17              		.cfi_sections	.debug_frame
  18              		.section	.text.CySetReg24,"ax",%progbits
  19              		.align	2
  20              		.global	CySetReg24
  21              		.thumb
  22              		.thumb_func
  23              		.type	CySetReg24, %function
  24              	CySetReg24:
  25              	.LFB0:
  26              		.file 1 ".\\Generated_Source\\PSoC5\\cyutils.c"
   1:.\Generated_Source\PSoC5/cyutils.c **** /*******************************************************************************
   2:.\Generated_Source\PSoC5/cyutils.c **** * FILENAME: cyutils.c
   3:.\Generated_Source\PSoC5/cyutils.c **** * Version 4.0
   4:.\Generated_Source\PSoC5/cyutils.c **** *
   5:.\Generated_Source\PSoC5/cyutils.c **** *  Description:
   6:.\Generated_Source\PSoC5/cyutils.c **** *   CyUtils provides function to handle 24-bit value writes.
   7:.\Generated_Source\PSoC5/cyutils.c **** *
   8:.\Generated_Source\PSoC5/cyutils.c **** ********************************************************************************
   9:.\Generated_Source\PSoC5/cyutils.c **** * Copyright 2008-2013, Cypress Semiconductor Corporation.  All rights reserved.
  10:.\Generated_Source\PSoC5/cyutils.c **** * You may use this file only in accordance with the license, terms, conditions,
  11:.\Generated_Source\PSoC5/cyutils.c **** * disclaimers, and limitations in the end user license agreement accompanying
  12:.\Generated_Source\PSoC5/cyutils.c **** * the software package with which this file was provided.
  13:.\Generated_Source\PSoC5/cyutils.c **** *******************************************************************************/
  14:.\Generated_Source\PSoC5/cyutils.c **** 
  15:.\Generated_Source\PSoC5/cyutils.c **** #include "cytypes.h"
  16:.\Generated_Source\PSoC5/cyutils.c **** 
  17:.\Generated_Source\PSoC5/cyutils.c **** #if (!CY_PSOC3)
  18:.\Generated_Source\PSoC5/cyutils.c **** 
  19:.\Generated_Source\PSoC5/cyutils.c ****     /***************************************************************************
  20:.\Generated_Source\PSoC5/cyutils.c ****     * Function Name: CySetReg24
  21:.\Generated_Source\PSoC5/cyutils.c ****     ****************************************************************************
  22:.\Generated_Source\PSoC5/cyutils.c ****     *
  23:.\Generated_Source\PSoC5/cyutils.c ****     * Summary:
  24:.\Generated_Source\PSoC5/cyutils.c ****     *  Writes the 24-bit value to the specified register.
  25:.\Generated_Source\PSoC5/cyutils.c ****     *
  26:.\Generated_Source\PSoC5/cyutils.c ****     * Parameters:
  27:.\Generated_Source\PSoC5/cyutils.c ****     *  addr : adress where data must be written
  28:.\Generated_Source\PSoC5/cyutils.c ****     *  value: data that must be written
  29:.\Generated_Source\PSoC5/cyutils.c ****     *
  30:.\Generated_Source\PSoC5/cyutils.c ****     * Return:
  31:.\Generated_Source\PSoC5/cyutils.c ****     *  None
ARM GAS  C:\Users\Kenichi\AppData\Local\Temp\ccYekJ5f.s 			page 2


  32:.\Generated_Source\PSoC5/cyutils.c ****     *
  33:.\Generated_Source\PSoC5/cyutils.c ****     * Reentrant:
  34:.\Generated_Source\PSoC5/cyutils.c ****     *  No
  35:.\Generated_Source\PSoC5/cyutils.c ****     *
  36:.\Generated_Source\PSoC5/cyutils.c ****     ***************************************************************************/
  37:.\Generated_Source\PSoC5/cyutils.c ****     void CySetReg24(uint32 volatile * addr, uint32 value)
  38:.\Generated_Source\PSoC5/cyutils.c ****     {
  27              		.loc 1 38 0
  28              		.cfi_startproc
  29              		@ args = 0, pretend = 0, frame = 16
  30              		@ frame_needed = 1, uses_anonymous_args = 0
  31              		@ link register save eliminated.
  32 0000 80B4     		push	{r7}
  33              	.LCFI0:
  34              		.cfi_def_cfa_offset 4
  35              		.cfi_offset 7, -4
  36 0002 85B0     		sub	sp, sp, #20
  37              	.LCFI1:
  38              		.cfi_def_cfa_offset 24
  39 0004 00AF     		add	r7, sp, #0
  40              	.LCFI2:
  41              		.cfi_def_cfa_register 7
  42 0006 7860     		str	r0, [r7, #4]
  43 0008 3960     		str	r1, [r7, #0]
  39:.\Generated_Source\PSoC5/cyutils.c ****         uint8 volatile *tmpAddr;
  40:.\Generated_Source\PSoC5/cyutils.c **** 
  41:.\Generated_Source\PSoC5/cyutils.c ****         tmpAddr = (uint8 volatile *) addr;
  44              		.loc 1 41 0
  45 000a 7B68     		ldr	r3, [r7, #4]
  46 000c FB60     		str	r3, [r7, #12]
  42:.\Generated_Source\PSoC5/cyutils.c **** 
  43:.\Generated_Source\PSoC5/cyutils.c ****         tmpAddr[0u] = (uint8) value;
  47              		.loc 1 43 0
  48 000e 3B68     		ldr	r3, [r7, #0]
  49 0010 DAB2     		uxtb	r2, r3
  50 0012 FB68     		ldr	r3, [r7, #12]
  51 0014 1A70     		strb	r2, [r3, #0]
  44:.\Generated_Source\PSoC5/cyutils.c ****         tmpAddr[1u] = (uint8) (value >> 8u);
  52              		.loc 1 44 0
  53 0016 FB68     		ldr	r3, [r7, #12]
  54 0018 03F10103 		add	r3, r3, #1
  55 001c 3A68     		ldr	r2, [r7, #0]
  56 001e 4FEA1222 		lsr	r2, r2, #8
  57 0022 D2B2     		uxtb	r2, r2
  58 0024 1A70     		strb	r2, [r3, #0]
  45:.\Generated_Source\PSoC5/cyutils.c ****         tmpAddr[2u] = (uint8) (value >> 16u);
  59              		.loc 1 45 0
  60 0026 FB68     		ldr	r3, [r7, #12]
  61 0028 03F10203 		add	r3, r3, #2
  62 002c 3A68     		ldr	r2, [r7, #0]
  63 002e 4FEA1242 		lsr	r2, r2, #16
  64 0032 D2B2     		uxtb	r2, r2
  65 0034 1A70     		strb	r2, [r3, #0]
  46:.\Generated_Source\PSoC5/cyutils.c ****     }
  66              		.loc 1 46 0
  67 0036 07F11407 		add	r7, r7, #20
  68 003a BD46     		mov	sp, r7
ARM GAS  C:\Users\Kenichi\AppData\Local\Temp\ccYekJ5f.s 			page 3


  69 003c 80BC     		pop	{r7}
  70 003e 7047     		bx	lr
  71              		.cfi_endproc
  72              	.LFE0:
  73              		.size	CySetReg24, .-CySetReg24
  74              		.text
  75              	.Letext0:
  76              		.file 2 ".\\Generated_Source\\PSoC5\\cytypes.h"
  77              		.section	.debug_info,"",%progbits
  78              	.Ldebug_info0:
  79 0000 F2000000 		.4byte	0xf2
  80 0004 0200     		.2byte	0x2
  81 0006 00000000 		.4byte	.Ldebug_abbrev0
  82 000a 04       		.byte	0x4
  83 000b 01       		.uleb128 0x1
  84 000c 10010000 		.4byte	.LASF16
  85 0010 01       		.byte	0x1
  86 0011 47000000 		.4byte	.LASF17
  87 0015 00000000 		.4byte	.LASF18
  88 0019 00000000 		.4byte	.Ldebug_ranges0+0
  89 001d 00000000 		.4byte	0
  90 0021 00000000 		.4byte	0
  91 0025 00000000 		.4byte	.Ldebug_line0
  92 0029 02       		.uleb128 0x2
  93 002a 01       		.byte	0x1
  94 002b 06       		.byte	0x6
  95 002c 62010000 		.4byte	.LASF0
  96 0030 02       		.uleb128 0x2
  97 0031 01       		.byte	0x1
  98 0032 08       		.byte	0x8
  99 0033 80000000 		.4byte	.LASF1
 100 0037 02       		.uleb128 0x2
 101 0038 02       		.byte	0x2
 102 0039 05       		.byte	0x5
 103 003a 00010000 		.4byte	.LASF2
 104 003e 02       		.uleb128 0x2
 105 003f 02       		.byte	0x2
 106 0040 07       		.byte	0x7
 107 0041 A8000000 		.4byte	.LASF3
 108 0045 02       		.uleb128 0x2
 109 0046 04       		.byte	0x4
 110 0047 05       		.byte	0x5
 111 0048 59010000 		.4byte	.LASF4
 112 004c 02       		.uleb128 0x2
 113 004d 04       		.byte	0x4
 114 004e 07       		.byte	0x7
 115 004f 96000000 		.4byte	.LASF5
 116 0053 02       		.uleb128 0x2
 117 0054 08       		.byte	0x8
 118 0055 05       		.byte	0x5
 119 0056 ED000000 		.4byte	.LASF6
 120 005a 02       		.uleb128 0x2
 121 005b 08       		.byte	0x8
 122 005c 07       		.byte	0x7
 123 005d D6000000 		.4byte	.LASF7
 124 0061 03       		.uleb128 0x3
 125 0062 04       		.byte	0x4
ARM GAS  C:\Users\Kenichi\AppData\Local\Temp\ccYekJ5f.s 			page 4


 126 0063 05       		.byte	0x5
 127 0064 696E7400 		.ascii	"int\000"
 128 0068 02       		.uleb128 0x2
 129 0069 04       		.byte	0x4
 130 006a 07       		.byte	0x7
 131 006b C9000000 		.4byte	.LASF8
 132 006f 04       		.uleb128 0x4
 133 0070 0A010000 		.4byte	.LASF9
 134 0074 02       		.byte	0x2
 135 0075 5B       		.byte	0x5b
 136 0076 30000000 		.4byte	0x30
 137 007a 04       		.uleb128 0x4
 138 007b C2000000 		.4byte	.LASF10
 139 007f 02       		.byte	0x2
 140 0080 5D       		.byte	0x5d
 141 0081 4C000000 		.4byte	0x4c
 142 0085 02       		.uleb128 0x2
 143 0086 04       		.byte	0x4
 144 0087 04       		.byte	0x4
 145 0088 7A000000 		.4byte	.LASF11
 146 008c 02       		.uleb128 0x2
 147 008d 08       		.byte	0x8
 148 008e 04       		.byte	0x4
 149 008f BB000000 		.4byte	.LASF12
 150 0093 02       		.uleb128 0x2
 151 0094 01       		.byte	0x1
 152 0095 08       		.byte	0x8
 153 0096 FB000000 		.4byte	.LASF13
 154 009a 05       		.uleb128 0x5
 155 009b 6F000000 		.4byte	0x6f
 156 009f 05       		.uleb128 0x5
 157 00a0 7A000000 		.4byte	0x7a
 158 00a4 06       		.uleb128 0x6
 159 00a5 01       		.byte	0x1
 160 00a6 6A000000 		.4byte	.LASF19
 161 00aa 01       		.byte	0x1
 162 00ab 25       		.byte	0x25
 163 00ac 01       		.byte	0x1
 164 00ad 00000000 		.4byte	.LFB0
 165 00b1 40000000 		.4byte	.LFE0
 166 00b5 00000000 		.4byte	.LLST0
 167 00b9 01       		.byte	0x1
 168 00ba E9000000 		.4byte	0xe9
 169 00be 07       		.uleb128 0x7
 170 00bf 75000000 		.4byte	.LASF14
 171 00c3 01       		.byte	0x1
 172 00c4 25       		.byte	0x25
 173 00c5 E9000000 		.4byte	0xe9
 174 00c9 02       		.byte	0x2
 175 00ca 91       		.byte	0x91
 176 00cb 6C       		.sleb128 -20
 177 00cc 07       		.uleb128 0x7
 178 00cd 41000000 		.4byte	.LASF15
 179 00d1 01       		.byte	0x1
 180 00d2 25       		.byte	0x25
 181 00d3 7A000000 		.4byte	0x7a
 182 00d7 02       		.byte	0x2
ARM GAS  C:\Users\Kenichi\AppData\Local\Temp\ccYekJ5f.s 			page 5


 183 00d8 91       		.byte	0x91
 184 00d9 68       		.sleb128 -24
 185 00da 08       		.uleb128 0x8
 186 00db 8E000000 		.4byte	.LASF20
 187 00df 01       		.byte	0x1
 188 00e0 27       		.byte	0x27
 189 00e1 EF000000 		.4byte	0xef
 190 00e5 02       		.byte	0x2
 191 00e6 91       		.byte	0x91
 192 00e7 74       		.sleb128 -12
 193 00e8 00       		.byte	0
 194 00e9 09       		.uleb128 0x9
 195 00ea 04       		.byte	0x4
 196 00eb 9F000000 		.4byte	0x9f
 197 00ef 09       		.uleb128 0x9
 198 00f0 04       		.byte	0x4
 199 00f1 9A000000 		.4byte	0x9a
 200 00f5 00       		.byte	0
 201              		.section	.debug_abbrev,"",%progbits
 202              	.Ldebug_abbrev0:
 203 0000 01       		.uleb128 0x1
 204 0001 11       		.uleb128 0x11
 205 0002 01       		.byte	0x1
 206 0003 25       		.uleb128 0x25
 207 0004 0E       		.uleb128 0xe
 208 0005 13       		.uleb128 0x13
 209 0006 0B       		.uleb128 0xb
 210 0007 03       		.uleb128 0x3
 211 0008 0E       		.uleb128 0xe
 212 0009 1B       		.uleb128 0x1b
 213 000a 0E       		.uleb128 0xe
 214 000b 55       		.uleb128 0x55
 215 000c 06       		.uleb128 0x6
 216 000d 11       		.uleb128 0x11
 217 000e 01       		.uleb128 0x1
 218 000f 52       		.uleb128 0x52
 219 0010 01       		.uleb128 0x1
 220 0011 10       		.uleb128 0x10
 221 0012 06       		.uleb128 0x6
 222 0013 00       		.byte	0
 223 0014 00       		.byte	0
 224 0015 02       		.uleb128 0x2
 225 0016 24       		.uleb128 0x24
 226 0017 00       		.byte	0
 227 0018 0B       		.uleb128 0xb
 228 0019 0B       		.uleb128 0xb
 229 001a 3E       		.uleb128 0x3e
 230 001b 0B       		.uleb128 0xb
 231 001c 03       		.uleb128 0x3
 232 001d 0E       		.uleb128 0xe
 233 001e 00       		.byte	0
 234 001f 00       		.byte	0
 235 0020 03       		.uleb128 0x3
 236 0021 24       		.uleb128 0x24
 237 0022 00       		.byte	0
 238 0023 0B       		.uleb128 0xb
 239 0024 0B       		.uleb128 0xb
ARM GAS  C:\Users\Kenichi\AppData\Local\Temp\ccYekJ5f.s 			page 6


 240 0025 3E       		.uleb128 0x3e
 241 0026 0B       		.uleb128 0xb
 242 0027 03       		.uleb128 0x3
 243 0028 08       		.uleb128 0x8
 244 0029 00       		.byte	0
 245 002a 00       		.byte	0
 246 002b 04       		.uleb128 0x4
 247 002c 16       		.uleb128 0x16
 248 002d 00       		.byte	0
 249 002e 03       		.uleb128 0x3
 250 002f 0E       		.uleb128 0xe
 251 0030 3A       		.uleb128 0x3a
 252 0031 0B       		.uleb128 0xb
 253 0032 3B       		.uleb128 0x3b
 254 0033 0B       		.uleb128 0xb
 255 0034 49       		.uleb128 0x49
 256 0035 13       		.uleb128 0x13
 257 0036 00       		.byte	0
 258 0037 00       		.byte	0
 259 0038 05       		.uleb128 0x5
 260 0039 35       		.uleb128 0x35
 261 003a 00       		.byte	0
 262 003b 49       		.uleb128 0x49
 263 003c 13       		.uleb128 0x13
 264 003d 00       		.byte	0
 265 003e 00       		.byte	0
 266 003f 06       		.uleb128 0x6
 267 0040 2E       		.uleb128 0x2e
 268 0041 01       		.byte	0x1
 269 0042 3F       		.uleb128 0x3f
 270 0043 0C       		.uleb128 0xc
 271 0044 03       		.uleb128 0x3
 272 0045 0E       		.uleb128 0xe
 273 0046 3A       		.uleb128 0x3a
 274 0047 0B       		.uleb128 0xb
 275 0048 3B       		.uleb128 0x3b
 276 0049 0B       		.uleb128 0xb
 277 004a 27       		.uleb128 0x27
 278 004b 0C       		.uleb128 0xc
 279 004c 11       		.uleb128 0x11
 280 004d 01       		.uleb128 0x1
 281 004e 12       		.uleb128 0x12
 282 004f 01       		.uleb128 0x1
 283 0050 40       		.uleb128 0x40
 284 0051 06       		.uleb128 0x6
 285 0052 9742     		.uleb128 0x2117
 286 0054 0C       		.uleb128 0xc
 287 0055 01       		.uleb128 0x1
 288 0056 13       		.uleb128 0x13
 289 0057 00       		.byte	0
 290 0058 00       		.byte	0
 291 0059 07       		.uleb128 0x7
 292 005a 05       		.uleb128 0x5
 293 005b 00       		.byte	0
 294 005c 03       		.uleb128 0x3
 295 005d 0E       		.uleb128 0xe
 296 005e 3A       		.uleb128 0x3a
ARM GAS  C:\Users\Kenichi\AppData\Local\Temp\ccYekJ5f.s 			page 7


 297 005f 0B       		.uleb128 0xb
 298 0060 3B       		.uleb128 0x3b
 299 0061 0B       		.uleb128 0xb
 300 0062 49       		.uleb128 0x49
 301 0063 13       		.uleb128 0x13
 302 0064 02       		.uleb128 0x2
 303 0065 0A       		.uleb128 0xa
 304 0066 00       		.byte	0
 305 0067 00       		.byte	0
 306 0068 08       		.uleb128 0x8
 307 0069 34       		.uleb128 0x34
 308 006a 00       		.byte	0
 309 006b 03       		.uleb128 0x3
 310 006c 0E       		.uleb128 0xe
 311 006d 3A       		.uleb128 0x3a
 312 006e 0B       		.uleb128 0xb
 313 006f 3B       		.uleb128 0x3b
 314 0070 0B       		.uleb128 0xb
 315 0071 49       		.uleb128 0x49
 316 0072 13       		.uleb128 0x13
 317 0073 02       		.uleb128 0x2
 318 0074 0A       		.uleb128 0xa
 319 0075 00       		.byte	0
 320 0076 00       		.byte	0
 321 0077 09       		.uleb128 0x9
 322 0078 0F       		.uleb128 0xf
 323 0079 00       		.byte	0
 324 007a 0B       		.uleb128 0xb
 325 007b 0B       		.uleb128 0xb
 326 007c 49       		.uleb128 0x49
 327 007d 13       		.uleb128 0x13
 328 007e 00       		.byte	0
 329 007f 00       		.byte	0
 330 0080 00       		.byte	0
 331              		.section	.debug_loc,"",%progbits
 332              	.Ldebug_loc0:
 333              	.LLST0:
 334 0000 00000000 		.4byte	.LFB0
 335 0004 02000000 		.4byte	.LCFI0
 336 0008 0200     		.2byte	0x2
 337 000a 7D       		.byte	0x7d
 338 000b 00       		.sleb128 0
 339 000c 02000000 		.4byte	.LCFI0
 340 0010 04000000 		.4byte	.LCFI1
 341 0014 0200     		.2byte	0x2
 342 0016 7D       		.byte	0x7d
 343 0017 04       		.sleb128 4
 344 0018 04000000 		.4byte	.LCFI1
 345 001c 06000000 		.4byte	.LCFI2
 346 0020 0200     		.2byte	0x2
 347 0022 7D       		.byte	0x7d
 348 0023 18       		.sleb128 24
 349 0024 06000000 		.4byte	.LCFI2
 350 0028 40000000 		.4byte	.LFE0
 351 002c 0200     		.2byte	0x2
 352 002e 77       		.byte	0x77
 353 002f 18       		.sleb128 24
ARM GAS  C:\Users\Kenichi\AppData\Local\Temp\ccYekJ5f.s 			page 8


 354 0030 00000000 		.4byte	0
 355 0034 00000000 		.4byte	0
 356              		.section	.debug_aranges,"",%progbits
 357 0000 1C000000 		.4byte	0x1c
 358 0004 0200     		.2byte	0x2
 359 0006 00000000 		.4byte	.Ldebug_info0
 360 000a 04       		.byte	0x4
 361 000b 00       		.byte	0
 362 000c 0000     		.2byte	0
 363 000e 0000     		.2byte	0
 364 0010 00000000 		.4byte	.LFB0
 365 0014 40000000 		.4byte	.LFE0-.LFB0
 366 0018 00000000 		.4byte	0
 367 001c 00000000 		.4byte	0
 368              		.section	.debug_ranges,"",%progbits
 369              	.Ldebug_ranges0:
 370 0000 00000000 		.4byte	.LFB0
 371 0004 40000000 		.4byte	.LFE0
 372 0008 00000000 		.4byte	0
 373 000c 00000000 		.4byte	0
 374              		.section	.debug_line,"",%progbits
 375              	.Ldebug_line0:
 376 0000 60000000 		.section	.debug_str,"MS",%progbits,1
 376      02004600 
 376      00000201 
 376      FB0E0D00 
 376      01010101 
 377              	.LASF18:
 378 0000 433A5C55 		.ascii	"C:\\Users\\Kenichi\\Documents\\PSoC Creator\\servo\\"
 378      73657273 
 378      5C4B656E 
 378      69636869 
 378      5C446F63 
 379 002e 61696C5F 		.ascii	"ail_backback.cydsn\000"
 379      6261636B 
 379      6261636B 
 379      2E637964 
 379      736E00
 380              	.LASF15:
 381 0041 76616C75 		.ascii	"value\000"
 381      6500
 382              	.LASF17:
 383 0047 2E5C4765 		.ascii	".\\Generated_Source\\PSoC5\\cyutils.c\000"
 383      6E657261 
 383      7465645F 
 383      536F7572 
 383      63655C50 
 384              	.LASF19:
 385 006a 43795365 		.ascii	"CySetReg24\000"
 385      74526567 
 385      323400
 386              	.LASF14:
 387 0075 61646472 		.ascii	"addr\000"
 387      00
 388              	.LASF11:
 389 007a 666C6F61 		.ascii	"float\000"
 389      7400
ARM GAS  C:\Users\Kenichi\AppData\Local\Temp\ccYekJ5f.s 			page 9


 390              	.LASF1:
 391 0080 756E7369 		.ascii	"unsigned char\000"
 391      676E6564 
 391      20636861 
 391      7200
 392              	.LASF20:
 393 008e 746D7041 		.ascii	"tmpAddr\000"
 393      64647200 
 394              	.LASF5:
 395 0096 6C6F6E67 		.ascii	"long unsigned int\000"
 395      20756E73 
 395      69676E65 
 395      6420696E 
 395      7400
 396              	.LASF3:
 397 00a8 73686F72 		.ascii	"short unsigned int\000"
 397      7420756E 
 397      7369676E 
 397      65642069 
 397      6E7400
 398              	.LASF12:
 399 00bb 646F7562 		.ascii	"double\000"
 399      6C6500
 400              	.LASF10:
 401 00c2 75696E74 		.ascii	"uint32\000"
 401      333200
 402              	.LASF8:
 403 00c9 756E7369 		.ascii	"unsigned int\000"
 403      676E6564 
 403      20696E74 
 403      00
 404              	.LASF7:
 405 00d6 6C6F6E67 		.ascii	"long long unsigned int\000"
 405      206C6F6E 
 405      6720756E 
 405      7369676E 
 405      65642069 
 406              	.LASF6:
 407 00ed 6C6F6E67 		.ascii	"long long int\000"
 407      206C6F6E 
 407      6720696E 
 407      7400
 408              	.LASF13:
 409 00fb 63686172 		.ascii	"char\000"
 409      00
 410              	.LASF2:
 411 0100 73686F72 		.ascii	"short int\000"
 411      7420696E 
 411      7400
 412              	.LASF9:
 413 010a 75696E74 		.ascii	"uint8\000"
 413      3800
 414              	.LASF16:
 415 0110 474E5520 		.ascii	"GNU C 4.7.3 20130312 (release) [ARM/embedded-4_7-br"
 415      4320342E 
 415      372E3320 
 415      32303133 
ARM GAS  C:\Users\Kenichi\AppData\Local\Temp\ccYekJ5f.s 			page 10


 415      30333132 
 416 0143 616E6368 		.ascii	"anch revision 196615]\000"
 416      20726576 
 416      6973696F 
 416      6E203139 
 416      36363135 
 417              	.LASF4:
 418 0159 6C6F6E67 		.ascii	"long int\000"
 418      20696E74 
 418      00
 419              	.LASF0:
 420 0162 7369676E 		.ascii	"signed char\000"
 420      65642063 
 420      68617200 
 421              		.ident	"GCC: (GNU Tools for ARM Embedded Processors) 4.7.3 20130312 (release) [ARM/embedded-4_7-br
