ARM GAS  C:\Users\Kenichi\AppData\Local\Temp\ccO3omSv.s 			page 1


   1              		.syntax unified
   2              		.cpu cortex-m3
   3              		.fpu softvfp
   4              		.eabi_attribute 20, 1
   5              		.eabi_attribute 21, 1
   6              		.eabi_attribute 23, 3
   7              		.eabi_attribute 24, 1
   8              		.eabi_attribute 25, 1
   9              		.eabi_attribute 26, 1
  10              		.eabi_attribute 30, 6
  11              		.eabi_attribute 34, 1
  12              		.eabi_attribute 18, 4
  13              		.thumb
  14              		.file	"LED_3.c"
  15              		.text
  16              	.Ltext0:
  17              		.cfi_sections	.debug_frame
  18              		.section	.text.LED_3_Write,"ax",%progbits
  19              		.align	2
  20              		.global	LED_3_Write
  21              		.thumb
  22              		.thumb_func
  23              		.type	LED_3_Write, %function
  24              	LED_3_Write:
  25              	.LFB0:
  26              		.file 1 ".\\Generated_Source\\PSoC5\\LED_3.c"
   1:.\Generated_Source\PSoC5/LED_3.c **** /*******************************************************************************
   2:.\Generated_Source\PSoC5/LED_3.c **** * File Name: LED_3.c  
   3:.\Generated_Source\PSoC5/LED_3.c **** * Version 1.90
   4:.\Generated_Source\PSoC5/LED_3.c **** *
   5:.\Generated_Source\PSoC5/LED_3.c **** * Description:
   6:.\Generated_Source\PSoC5/LED_3.c **** *  This file contains API to enable firmware control of a Pins component.
   7:.\Generated_Source\PSoC5/LED_3.c **** *
   8:.\Generated_Source\PSoC5/LED_3.c **** * Note:
   9:.\Generated_Source\PSoC5/LED_3.c **** *
  10:.\Generated_Source\PSoC5/LED_3.c **** ********************************************************************************
  11:.\Generated_Source\PSoC5/LED_3.c **** * Copyright 2008-2012, Cypress Semiconductor Corporation.  All rights reserved.
  12:.\Generated_Source\PSoC5/LED_3.c **** * You may use this file only in accordance with the license, terms, conditions, 
  13:.\Generated_Source\PSoC5/LED_3.c **** * disclaimers, and limitations in the end user license agreement accompanying 
  14:.\Generated_Source\PSoC5/LED_3.c **** * the software package with which this file was provided.
  15:.\Generated_Source\PSoC5/LED_3.c **** *******************************************************************************/
  16:.\Generated_Source\PSoC5/LED_3.c **** 
  17:.\Generated_Source\PSoC5/LED_3.c **** #include "cytypes.h"
  18:.\Generated_Source\PSoC5/LED_3.c **** #include "LED_3.h"
  19:.\Generated_Source\PSoC5/LED_3.c **** 
  20:.\Generated_Source\PSoC5/LED_3.c **** /* APIs are not generated for P15[7:6] on PSoC 5 */
  21:.\Generated_Source\PSoC5/LED_3.c **** #if !(CY_PSOC5A &&\
  22:.\Generated_Source\PSoC5/LED_3.c **** 	 LED_3__PORT == 15 && ((LED_3__MASK & 0xC0) != 0))
  23:.\Generated_Source\PSoC5/LED_3.c **** 
  24:.\Generated_Source\PSoC5/LED_3.c **** 
  25:.\Generated_Source\PSoC5/LED_3.c **** /*******************************************************************************
  26:.\Generated_Source\PSoC5/LED_3.c **** * Function Name: LED_3_Write
  27:.\Generated_Source\PSoC5/LED_3.c **** ********************************************************************************
  28:.\Generated_Source\PSoC5/LED_3.c **** *
  29:.\Generated_Source\PSoC5/LED_3.c **** * Summary:
  30:.\Generated_Source\PSoC5/LED_3.c **** *  Assign a new value to the digital port's data output register.  
  31:.\Generated_Source\PSoC5/LED_3.c **** *
ARM GAS  C:\Users\Kenichi\AppData\Local\Temp\ccO3omSv.s 			page 2


  32:.\Generated_Source\PSoC5/LED_3.c **** * Parameters:  
  33:.\Generated_Source\PSoC5/LED_3.c **** *  prtValue:  The value to be assigned to the Digital Port. 
  34:.\Generated_Source\PSoC5/LED_3.c **** *
  35:.\Generated_Source\PSoC5/LED_3.c **** * Return: 
  36:.\Generated_Source\PSoC5/LED_3.c **** *  None
  37:.\Generated_Source\PSoC5/LED_3.c **** *  
  38:.\Generated_Source\PSoC5/LED_3.c **** *******************************************************************************/
  39:.\Generated_Source\PSoC5/LED_3.c **** void LED_3_Write(uint8 value) 
  40:.\Generated_Source\PSoC5/LED_3.c **** {
  27              		.loc 1 40 0
  28              		.cfi_startproc
  29              		@ args = 0, pretend = 0, frame = 16
  30              		@ frame_needed = 1, uses_anonymous_args = 0
  31              		@ link register save eliminated.
  32 0000 80B4     		push	{r7}
  33              	.LCFI0:
  34              		.cfi_def_cfa_offset 4
  35              		.cfi_offset 7, -4
  36 0002 85B0     		sub	sp, sp, #20
  37              	.LCFI1:
  38              		.cfi_def_cfa_offset 24
  39 0004 00AF     		add	r7, sp, #0
  40              	.LCFI2:
  41              		.cfi_def_cfa_register 7
  42 0006 0346     		mov	r3, r0
  43 0008 FB71     		strb	r3, [r7, #7]
  41:.\Generated_Source\PSoC5/LED_3.c ****     uint8 staticBits = (LED_3_DR & (uint8)(~LED_3_MASK));
  44              		.loc 1 41 0
  45 000a 45F22013 		movw	r3, #20768
  46 000e C4F20003 		movt	r3, 16384
  47 0012 1B78     		ldrb	r3, [r3, #0]
  48 0014 DBB2     		uxtb	r3, r3
  49 0016 23F00403 		bic	r3, r3, #4
  50 001a FB73     		strb	r3, [r7, #15]
  42:.\Generated_Source\PSoC5/LED_3.c ****     LED_3_DR = staticBits | ((uint8)(value << LED_3_SHIFT) & LED_3_MASK);
  51              		.loc 1 42 0
  52 001c 45F22013 		movw	r3, #20768
  53 0020 C4F20003 		movt	r3, 16384
  54 0024 FA79     		ldrb	r2, [r7, #7]
  55 0026 4FEA8202 		lsl	r2, r2, #2
  56 002a D2B2     		uxtb	r2, r2
  57 002c 02F00402 		and	r2, r2, #4
  58 0030 D1B2     		uxtb	r1, r2
  59 0032 FA7B     		ldrb	r2, [r7, #15]
  60 0034 0A43     		orrs	r2, r2, r1
  61 0036 D2B2     		uxtb	r2, r2
  62 0038 1A70     		strb	r2, [r3, #0]
  43:.\Generated_Source\PSoC5/LED_3.c **** }
  63              		.loc 1 43 0
  64 003a 07F11407 		add	r7, r7, #20
  65 003e BD46     		mov	sp, r7
  66 0040 80BC     		pop	{r7}
  67 0042 7047     		bx	lr
  68              		.cfi_endproc
  69              	.LFE0:
  70              		.size	LED_3_Write, .-LED_3_Write
  71              		.section	.text.LED_3_SetDriveMode,"ax",%progbits
ARM GAS  C:\Users\Kenichi\AppData\Local\Temp\ccO3omSv.s 			page 3


  72              		.align	2
  73              		.global	LED_3_SetDriveMode
  74              		.thumb
  75              		.thumb_func
  76              		.type	LED_3_SetDriveMode, %function
  77              	LED_3_SetDriveMode:
  78              	.LFB1:
  44:.\Generated_Source\PSoC5/LED_3.c **** 
  45:.\Generated_Source\PSoC5/LED_3.c **** 
  46:.\Generated_Source\PSoC5/LED_3.c **** /*******************************************************************************
  47:.\Generated_Source\PSoC5/LED_3.c **** * Function Name: LED_3_SetDriveMode
  48:.\Generated_Source\PSoC5/LED_3.c **** ********************************************************************************
  49:.\Generated_Source\PSoC5/LED_3.c **** *
  50:.\Generated_Source\PSoC5/LED_3.c **** * Summary:
  51:.\Generated_Source\PSoC5/LED_3.c **** *  Change the drive mode on the pins of the port.
  52:.\Generated_Source\PSoC5/LED_3.c **** * 
  53:.\Generated_Source\PSoC5/LED_3.c **** * Parameters:  
  54:.\Generated_Source\PSoC5/LED_3.c **** *  mode:  Change the pins to this drive mode.
  55:.\Generated_Source\PSoC5/LED_3.c **** *
  56:.\Generated_Source\PSoC5/LED_3.c **** * Return: 
  57:.\Generated_Source\PSoC5/LED_3.c **** *  None
  58:.\Generated_Source\PSoC5/LED_3.c **** *
  59:.\Generated_Source\PSoC5/LED_3.c **** *******************************************************************************/
  60:.\Generated_Source\PSoC5/LED_3.c **** void LED_3_SetDriveMode(uint8 mode) 
  61:.\Generated_Source\PSoC5/LED_3.c **** {
  79              		.loc 1 61 0
  80              		.cfi_startproc
  81              		@ args = 0, pretend = 0, frame = 8
  82              		@ frame_needed = 1, uses_anonymous_args = 0
  83              		@ link register save eliminated.
  84 0000 80B4     		push	{r7}
  85              	.LCFI3:
  86              		.cfi_def_cfa_offset 4
  87              		.cfi_offset 7, -4
  88 0002 83B0     		sub	sp, sp, #12
  89              	.LCFI4:
  90              		.cfi_def_cfa_offset 16
  91 0004 00AF     		add	r7, sp, #0
  92              	.LCFI5:
  93              		.cfi_def_cfa_register 7
  94 0006 0346     		mov	r3, r0
  95 0008 FB71     		strb	r3, [r7, #7]
  62:.\Generated_Source\PSoC5/LED_3.c **** 	CyPins_SetPinDriveMode(LED_3_0, mode);
  96              		.loc 1 62 0
  97 000a 45F21203 		movw	r3, #20498
  98 000e C4F20003 		movt	r3, 16384
  99 0012 45F21202 		movw	r2, #20498
 100 0016 C4F20002 		movt	r2, 16384
 101 001a 1278     		ldrb	r2, [r2, #0]
 102 001c D2B2     		uxtb	r2, r2
 103 001e D2B2     		uxtb	r2, r2
 104 0020 22F00E02 		bic	r2, r2, #14
 105 0024 D1B2     		uxtb	r1, r2
 106 0026 FA79     		ldrb	r2, [r7, #7]	@ zero_extendqisi2
 107 0028 02F00E02 		and	r2, r2, #14
 108 002c D2B2     		uxtb	r2, r2
 109 002e 0A43     		orrs	r2, r2, r1
ARM GAS  C:\Users\Kenichi\AppData\Local\Temp\ccO3omSv.s 			page 4


 110 0030 D2B2     		uxtb	r2, r2
 111 0032 D2B2     		uxtb	r2, r2
 112 0034 1A70     		strb	r2, [r3, #0]
  63:.\Generated_Source\PSoC5/LED_3.c **** }
 113              		.loc 1 63 0
 114 0036 07F10C07 		add	r7, r7, #12
 115 003a BD46     		mov	sp, r7
 116 003c 80BC     		pop	{r7}
 117 003e 7047     		bx	lr
 118              		.cfi_endproc
 119              	.LFE1:
 120              		.size	LED_3_SetDriveMode, .-LED_3_SetDriveMode
 121              		.section	.text.LED_3_Read,"ax",%progbits
 122              		.align	2
 123              		.global	LED_3_Read
 124              		.thumb
 125              		.thumb_func
 126              		.type	LED_3_Read, %function
 127              	LED_3_Read:
 128              	.LFB2:
  64:.\Generated_Source\PSoC5/LED_3.c **** 
  65:.\Generated_Source\PSoC5/LED_3.c **** 
  66:.\Generated_Source\PSoC5/LED_3.c **** /*******************************************************************************
  67:.\Generated_Source\PSoC5/LED_3.c **** * Function Name: LED_3_Read
  68:.\Generated_Source\PSoC5/LED_3.c **** ********************************************************************************
  69:.\Generated_Source\PSoC5/LED_3.c **** *
  70:.\Generated_Source\PSoC5/LED_3.c **** * Summary:
  71:.\Generated_Source\PSoC5/LED_3.c **** *  Read the current value on the pins of the Digital Port in right justified 
  72:.\Generated_Source\PSoC5/LED_3.c **** *  form.
  73:.\Generated_Source\PSoC5/LED_3.c **** *
  74:.\Generated_Source\PSoC5/LED_3.c **** * Parameters:  
  75:.\Generated_Source\PSoC5/LED_3.c **** *  None
  76:.\Generated_Source\PSoC5/LED_3.c **** *
  77:.\Generated_Source\PSoC5/LED_3.c **** * Return: 
  78:.\Generated_Source\PSoC5/LED_3.c **** *  Returns the current value of the Digital Port as a right justified number
  79:.\Generated_Source\PSoC5/LED_3.c **** *  
  80:.\Generated_Source\PSoC5/LED_3.c **** * Note:
  81:.\Generated_Source\PSoC5/LED_3.c **** *  Macro LED_3_ReadPS calls this function. 
  82:.\Generated_Source\PSoC5/LED_3.c **** *  
  83:.\Generated_Source\PSoC5/LED_3.c **** *******************************************************************************/
  84:.\Generated_Source\PSoC5/LED_3.c **** uint8 LED_3_Read(void) 
  85:.\Generated_Source\PSoC5/LED_3.c **** {
 129              		.loc 1 85 0
 130              		.cfi_startproc
 131              		@ args = 0, pretend = 0, frame = 0
 132              		@ frame_needed = 1, uses_anonymous_args = 0
 133              		@ link register save eliminated.
 134 0000 80B4     		push	{r7}
 135              	.LCFI6:
 136              		.cfi_def_cfa_offset 4
 137              		.cfi_offset 7, -4
 138 0002 00AF     		add	r7, sp, #0
 139              	.LCFI7:
 140              		.cfi_def_cfa_register 7
  86:.\Generated_Source\PSoC5/LED_3.c ****     return (LED_3_PS & LED_3_MASK) >> LED_3_SHIFT;
 141              		.loc 1 86 0
 142 0004 45F22113 		movw	r3, #20769
ARM GAS  C:\Users\Kenichi\AppData\Local\Temp\ccO3omSv.s 			page 5


 143 0008 C4F20003 		movt	r3, 16384
 144 000c 1B78     		ldrb	r3, [r3, #0]
 145 000e DBB2     		uxtb	r3, r3
 146 0010 03F00403 		and	r3, r3, #4
 147 0014 4FEA9303 		lsr	r3, r3, #2
 148 0018 DBB2     		uxtb	r3, r3
  87:.\Generated_Source\PSoC5/LED_3.c **** }
 149              		.loc 1 87 0
 150 001a 1846     		mov	r0, r3
 151 001c BD46     		mov	sp, r7
 152 001e 80BC     		pop	{r7}
 153 0020 7047     		bx	lr
 154              		.cfi_endproc
 155              	.LFE2:
 156              		.size	LED_3_Read, .-LED_3_Read
 157 0022 00BF     		.section	.text.LED_3_ReadDataReg,"ax",%progbits
 158              		.align	2
 159              		.global	LED_3_ReadDataReg
 160              		.thumb
 161              		.thumb_func
 162              		.type	LED_3_ReadDataReg, %function
 163              	LED_3_ReadDataReg:
 164              	.LFB3:
  88:.\Generated_Source\PSoC5/LED_3.c **** 
  89:.\Generated_Source\PSoC5/LED_3.c **** 
  90:.\Generated_Source\PSoC5/LED_3.c **** /*******************************************************************************
  91:.\Generated_Source\PSoC5/LED_3.c **** * Function Name: LED_3_ReadDataReg
  92:.\Generated_Source\PSoC5/LED_3.c **** ********************************************************************************
  93:.\Generated_Source\PSoC5/LED_3.c **** *
  94:.\Generated_Source\PSoC5/LED_3.c **** * Summary:
  95:.\Generated_Source\PSoC5/LED_3.c **** *  Read the current value assigned to a Digital Port's data output register
  96:.\Generated_Source\PSoC5/LED_3.c **** *
  97:.\Generated_Source\PSoC5/LED_3.c **** * Parameters:  
  98:.\Generated_Source\PSoC5/LED_3.c **** *  None 
  99:.\Generated_Source\PSoC5/LED_3.c **** *
 100:.\Generated_Source\PSoC5/LED_3.c **** * Return: 
 101:.\Generated_Source\PSoC5/LED_3.c **** *  Returns the current value assigned to the Digital Port's data output register
 102:.\Generated_Source\PSoC5/LED_3.c **** *  
 103:.\Generated_Source\PSoC5/LED_3.c **** *******************************************************************************/
 104:.\Generated_Source\PSoC5/LED_3.c **** uint8 LED_3_ReadDataReg(void) 
 105:.\Generated_Source\PSoC5/LED_3.c **** {
 165              		.loc 1 105 0
 166              		.cfi_startproc
 167              		@ args = 0, pretend = 0, frame = 0
 168              		@ frame_needed = 1, uses_anonymous_args = 0
 169              		@ link register save eliminated.
 170 0000 80B4     		push	{r7}
 171              	.LCFI8:
 172              		.cfi_def_cfa_offset 4
 173              		.cfi_offset 7, -4
 174 0002 00AF     		add	r7, sp, #0
 175              	.LCFI9:
 176              		.cfi_def_cfa_register 7
 106:.\Generated_Source\PSoC5/LED_3.c ****     return (LED_3_DR & LED_3_MASK) >> LED_3_SHIFT;
 177              		.loc 1 106 0
 178 0004 45F22013 		movw	r3, #20768
 179 0008 C4F20003 		movt	r3, 16384
ARM GAS  C:\Users\Kenichi\AppData\Local\Temp\ccO3omSv.s 			page 6


 180 000c 1B78     		ldrb	r3, [r3, #0]
 181 000e DBB2     		uxtb	r3, r3
 182 0010 03F00403 		and	r3, r3, #4
 183 0014 4FEA9303 		lsr	r3, r3, #2
 184 0018 DBB2     		uxtb	r3, r3
 107:.\Generated_Source\PSoC5/LED_3.c **** }
 185              		.loc 1 107 0
 186 001a 1846     		mov	r0, r3
 187 001c BD46     		mov	sp, r7
 188 001e 80BC     		pop	{r7}
 189 0020 7047     		bx	lr
 190              		.cfi_endproc
 191              	.LFE3:
 192              		.size	LED_3_ReadDataReg, .-LED_3_ReadDataReg
 193 0022 00BF     		.text
 194              	.Letext0:
 195              		.file 2 ".\\Generated_Source\\PSoC5\\cytypes.h"
 196              		.section	.debug_info,"",%progbits
 197              	.Ldebug_info0:
 198 0000 30010000 		.4byte	0x130
 199 0004 0200     		.2byte	0x2
 200 0006 00000000 		.4byte	.Ldebug_abbrev0
 201 000a 04       		.byte	0x4
 202 000b 01       		.uleb128 0x1
 203 000c 35010000 		.4byte	.LASF20
 204 0010 01       		.byte	0x1
 205 0011 F1000000 		.4byte	.LASF21
 206 0015 00000000 		.4byte	.LASF22
 207 0019 00000000 		.4byte	.Ldebug_ranges0+0
 208 001d 00000000 		.4byte	0
 209 0021 00000000 		.4byte	0
 210 0025 00000000 		.4byte	.Ldebug_line0
 211 0029 02       		.uleb128 0x2
 212 002a 01       		.byte	0x1
 213 002b 06       		.byte	0x6
 214 002c 92010000 		.4byte	.LASF0
 215 0030 02       		.uleb128 0x2
 216 0031 01       		.byte	0x1
 217 0032 08       		.byte	0x8
 218 0033 76000000 		.4byte	.LASF1
 219 0037 02       		.uleb128 0x2
 220 0038 02       		.byte	0x2
 221 0039 05       		.byte	0x5
 222 003a 25010000 		.4byte	.LASF2
 223 003e 02       		.uleb128 0x2
 224 003f 02       		.byte	0x2
 225 0040 07       		.byte	0x7
 226 0041 9B000000 		.4byte	.LASF3
 227 0045 02       		.uleb128 0x2
 228 0046 04       		.byte	0x4
 229 0047 05       		.byte	0x5
 230 0048 7E010000 		.4byte	.LASF4
 231 004c 02       		.uleb128 0x2
 232 004d 04       		.byte	0x4
 233 004e 07       		.byte	0x7
 234 004f 89000000 		.4byte	.LASF5
 235 0053 02       		.uleb128 0x2
ARM GAS  C:\Users\Kenichi\AppData\Local\Temp\ccO3omSv.s 			page 7


 236 0054 08       		.byte	0x8
 237 0055 05       		.byte	0x5
 238 0056 12010000 		.4byte	.LASF6
 239 005a 02       		.uleb128 0x2
 240 005b 08       		.byte	0x8
 241 005c 07       		.byte	0x7
 242 005d D5000000 		.4byte	.LASF7
 243 0061 03       		.uleb128 0x3
 244 0062 04       		.byte	0x4
 245 0063 05       		.byte	0x5
 246 0064 696E7400 		.ascii	"int\000"
 247 0068 02       		.uleb128 0x2
 248 0069 04       		.byte	0x4
 249 006a 07       		.byte	0x7
 250 006b C8000000 		.4byte	.LASF8
 251 006f 04       		.uleb128 0x4
 252 0070 2F010000 		.4byte	.LASF12
 253 0074 02       		.byte	0x2
 254 0075 5B       		.byte	0x5b
 255 0076 30000000 		.4byte	0x30
 256 007a 02       		.uleb128 0x2
 257 007b 04       		.byte	0x4
 258 007c 04       		.byte	0x4
 259 007d 70000000 		.4byte	.LASF9
 260 0081 02       		.uleb128 0x2
 261 0082 08       		.byte	0x8
 262 0083 04       		.byte	0x4
 263 0084 AE000000 		.4byte	.LASF10
 264 0088 02       		.uleb128 0x2
 265 0089 01       		.byte	0x1
 266 008a 08       		.byte	0x8
 267 008b 20010000 		.4byte	.LASF11
 268 008f 04       		.uleb128 0x4
 269 0090 84000000 		.4byte	.LASF13
 270 0094 02       		.byte	0x2
 271 0095 F0       		.byte	0xf0
 272 0096 9A000000 		.4byte	0x9a
 273 009a 05       		.uleb128 0x5
 274 009b 6F000000 		.4byte	0x6f
 275 009f 06       		.uleb128 0x6
 276 00a0 01       		.byte	0x1
 277 00a1 59000000 		.4byte	.LASF14
 278 00a5 01       		.byte	0x1
 279 00a6 27       		.byte	0x27
 280 00a7 01       		.byte	0x1
 281 00a8 00000000 		.4byte	.LFB0
 282 00ac 44000000 		.4byte	.LFE0
 283 00b0 00000000 		.4byte	.LLST0
 284 00b4 01       		.byte	0x1
 285 00b5 D6000000 		.4byte	0xd6
 286 00b9 07       		.uleb128 0x7
 287 00ba 53000000 		.4byte	.LASF16
 288 00be 01       		.byte	0x1
 289 00bf 27       		.byte	0x27
 290 00c0 6F000000 		.4byte	0x6f
 291 00c4 02       		.byte	0x2
 292 00c5 91       		.byte	0x91
ARM GAS  C:\Users\Kenichi\AppData\Local\Temp\ccO3omSv.s 			page 8


 293 00c6 6F       		.sleb128 -17
 294 00c7 08       		.uleb128 0x8
 295 00c8 65000000 		.4byte	.LASF23
 296 00cc 01       		.byte	0x1
 297 00cd 29       		.byte	0x29
 298 00ce 6F000000 		.4byte	0x6f
 299 00d2 02       		.byte	0x2
 300 00d3 91       		.byte	0x91
 301 00d4 77       		.sleb128 -9
 302 00d5 00       		.byte	0
 303 00d6 06       		.uleb128 0x6
 304 00d7 01       		.byte	0x1
 305 00d8 B5000000 		.4byte	.LASF15
 306 00dc 01       		.byte	0x1
 307 00dd 3C       		.byte	0x3c
 308 00de 01       		.byte	0x1
 309 00df 00000000 		.4byte	.LFB1
 310 00e3 40000000 		.4byte	.LFE1
 311 00e7 38000000 		.4byte	.LLST1
 312 00eb 01       		.byte	0x1
 313 00ec FF000000 		.4byte	0xff
 314 00f0 07       		.uleb128 0x7
 315 00f1 EC000000 		.4byte	.LASF17
 316 00f5 01       		.byte	0x1
 317 00f6 3C       		.byte	0x3c
 318 00f7 6F000000 		.4byte	0x6f
 319 00fb 02       		.byte	0x2
 320 00fc 91       		.byte	0x91
 321 00fd 77       		.sleb128 -9
 322 00fe 00       		.byte	0
 323 00ff 09       		.uleb128 0x9
 324 0100 01       		.byte	0x1
 325 0101 87010000 		.4byte	.LASF18
 326 0105 01       		.byte	0x1
 327 0106 54       		.byte	0x54
 328 0107 01       		.byte	0x1
 329 0108 6F000000 		.4byte	0x6f
 330 010c 00000000 		.4byte	.LFB2
 331 0110 22000000 		.4byte	.LFE2
 332 0114 70000000 		.4byte	.LLST2
 333 0118 01       		.byte	0x1
 334 0119 09       		.uleb128 0x9
 335 011a 01       		.byte	0x1
 336 011b 41000000 		.4byte	.LASF19
 337 011f 01       		.byte	0x1
 338 0120 68       		.byte	0x68
 339 0121 01       		.byte	0x1
 340 0122 6F000000 		.4byte	0x6f
 341 0126 00000000 		.4byte	.LFB3
 342 012a 22000000 		.4byte	.LFE3
 343 012e 9C000000 		.4byte	.LLST3
 344 0132 01       		.byte	0x1
 345 0133 00       		.byte	0
 346              		.section	.debug_abbrev,"",%progbits
 347              	.Ldebug_abbrev0:
 348 0000 01       		.uleb128 0x1
 349 0001 11       		.uleb128 0x11
ARM GAS  C:\Users\Kenichi\AppData\Local\Temp\ccO3omSv.s 			page 9


 350 0002 01       		.byte	0x1
 351 0003 25       		.uleb128 0x25
 352 0004 0E       		.uleb128 0xe
 353 0005 13       		.uleb128 0x13
 354 0006 0B       		.uleb128 0xb
 355 0007 03       		.uleb128 0x3
 356 0008 0E       		.uleb128 0xe
 357 0009 1B       		.uleb128 0x1b
 358 000a 0E       		.uleb128 0xe
 359 000b 55       		.uleb128 0x55
 360 000c 06       		.uleb128 0x6
 361 000d 11       		.uleb128 0x11
 362 000e 01       		.uleb128 0x1
 363 000f 52       		.uleb128 0x52
 364 0010 01       		.uleb128 0x1
 365 0011 10       		.uleb128 0x10
 366 0012 06       		.uleb128 0x6
 367 0013 00       		.byte	0
 368 0014 00       		.byte	0
 369 0015 02       		.uleb128 0x2
 370 0016 24       		.uleb128 0x24
 371 0017 00       		.byte	0
 372 0018 0B       		.uleb128 0xb
 373 0019 0B       		.uleb128 0xb
 374 001a 3E       		.uleb128 0x3e
 375 001b 0B       		.uleb128 0xb
 376 001c 03       		.uleb128 0x3
 377 001d 0E       		.uleb128 0xe
 378 001e 00       		.byte	0
 379 001f 00       		.byte	0
 380 0020 03       		.uleb128 0x3
 381 0021 24       		.uleb128 0x24
 382 0022 00       		.byte	0
 383 0023 0B       		.uleb128 0xb
 384 0024 0B       		.uleb128 0xb
 385 0025 3E       		.uleb128 0x3e
 386 0026 0B       		.uleb128 0xb
 387 0027 03       		.uleb128 0x3
 388 0028 08       		.uleb128 0x8
 389 0029 00       		.byte	0
 390 002a 00       		.byte	0
 391 002b 04       		.uleb128 0x4
 392 002c 16       		.uleb128 0x16
 393 002d 00       		.byte	0
 394 002e 03       		.uleb128 0x3
 395 002f 0E       		.uleb128 0xe
 396 0030 3A       		.uleb128 0x3a
 397 0031 0B       		.uleb128 0xb
 398 0032 3B       		.uleb128 0x3b
 399 0033 0B       		.uleb128 0xb
 400 0034 49       		.uleb128 0x49
 401 0035 13       		.uleb128 0x13
 402 0036 00       		.byte	0
 403 0037 00       		.byte	0
 404 0038 05       		.uleb128 0x5
 405 0039 35       		.uleb128 0x35
 406 003a 00       		.byte	0
ARM GAS  C:\Users\Kenichi\AppData\Local\Temp\ccO3omSv.s 			page 10


 407 003b 49       		.uleb128 0x49
 408 003c 13       		.uleb128 0x13
 409 003d 00       		.byte	0
 410 003e 00       		.byte	0
 411 003f 06       		.uleb128 0x6
 412 0040 2E       		.uleb128 0x2e
 413 0041 01       		.byte	0x1
 414 0042 3F       		.uleb128 0x3f
 415 0043 0C       		.uleb128 0xc
 416 0044 03       		.uleb128 0x3
 417 0045 0E       		.uleb128 0xe
 418 0046 3A       		.uleb128 0x3a
 419 0047 0B       		.uleb128 0xb
 420 0048 3B       		.uleb128 0x3b
 421 0049 0B       		.uleb128 0xb
 422 004a 27       		.uleb128 0x27
 423 004b 0C       		.uleb128 0xc
 424 004c 11       		.uleb128 0x11
 425 004d 01       		.uleb128 0x1
 426 004e 12       		.uleb128 0x12
 427 004f 01       		.uleb128 0x1
 428 0050 40       		.uleb128 0x40
 429 0051 06       		.uleb128 0x6
 430 0052 9742     		.uleb128 0x2117
 431 0054 0C       		.uleb128 0xc
 432 0055 01       		.uleb128 0x1
 433 0056 13       		.uleb128 0x13
 434 0057 00       		.byte	0
 435 0058 00       		.byte	0
 436 0059 07       		.uleb128 0x7
 437 005a 05       		.uleb128 0x5
 438 005b 00       		.byte	0
 439 005c 03       		.uleb128 0x3
 440 005d 0E       		.uleb128 0xe
 441 005e 3A       		.uleb128 0x3a
 442 005f 0B       		.uleb128 0xb
 443 0060 3B       		.uleb128 0x3b
 444 0061 0B       		.uleb128 0xb
 445 0062 49       		.uleb128 0x49
 446 0063 13       		.uleb128 0x13
 447 0064 02       		.uleb128 0x2
 448 0065 0A       		.uleb128 0xa
 449 0066 00       		.byte	0
 450 0067 00       		.byte	0
 451 0068 08       		.uleb128 0x8
 452 0069 34       		.uleb128 0x34
 453 006a 00       		.byte	0
 454 006b 03       		.uleb128 0x3
 455 006c 0E       		.uleb128 0xe
 456 006d 3A       		.uleb128 0x3a
 457 006e 0B       		.uleb128 0xb
 458 006f 3B       		.uleb128 0x3b
 459 0070 0B       		.uleb128 0xb
 460 0071 49       		.uleb128 0x49
 461 0072 13       		.uleb128 0x13
 462 0073 02       		.uleb128 0x2
 463 0074 0A       		.uleb128 0xa
ARM GAS  C:\Users\Kenichi\AppData\Local\Temp\ccO3omSv.s 			page 11


 464 0075 00       		.byte	0
 465 0076 00       		.byte	0
 466 0077 09       		.uleb128 0x9
 467 0078 2E       		.uleb128 0x2e
 468 0079 00       		.byte	0
 469 007a 3F       		.uleb128 0x3f
 470 007b 0C       		.uleb128 0xc
 471 007c 03       		.uleb128 0x3
 472 007d 0E       		.uleb128 0xe
 473 007e 3A       		.uleb128 0x3a
 474 007f 0B       		.uleb128 0xb
 475 0080 3B       		.uleb128 0x3b
 476 0081 0B       		.uleb128 0xb
 477 0082 27       		.uleb128 0x27
 478 0083 0C       		.uleb128 0xc
 479 0084 49       		.uleb128 0x49
 480 0085 13       		.uleb128 0x13
 481 0086 11       		.uleb128 0x11
 482 0087 01       		.uleb128 0x1
 483 0088 12       		.uleb128 0x12
 484 0089 01       		.uleb128 0x1
 485 008a 40       		.uleb128 0x40
 486 008b 06       		.uleb128 0x6
 487 008c 9742     		.uleb128 0x2117
 488 008e 0C       		.uleb128 0xc
 489 008f 00       		.byte	0
 490 0090 00       		.byte	0
 491 0091 00       		.byte	0
 492              		.section	.debug_loc,"",%progbits
 493              	.Ldebug_loc0:
 494              	.LLST0:
 495 0000 00000000 		.4byte	.LFB0
 496 0004 02000000 		.4byte	.LCFI0
 497 0008 0200     		.2byte	0x2
 498 000a 7D       		.byte	0x7d
 499 000b 00       		.sleb128 0
 500 000c 02000000 		.4byte	.LCFI0
 501 0010 04000000 		.4byte	.LCFI1
 502 0014 0200     		.2byte	0x2
 503 0016 7D       		.byte	0x7d
 504 0017 04       		.sleb128 4
 505 0018 04000000 		.4byte	.LCFI1
 506 001c 06000000 		.4byte	.LCFI2
 507 0020 0200     		.2byte	0x2
 508 0022 7D       		.byte	0x7d
 509 0023 18       		.sleb128 24
 510 0024 06000000 		.4byte	.LCFI2
 511 0028 44000000 		.4byte	.LFE0
 512 002c 0200     		.2byte	0x2
 513 002e 77       		.byte	0x77
 514 002f 18       		.sleb128 24
 515 0030 00000000 		.4byte	0
 516 0034 00000000 		.4byte	0
 517              	.LLST1:
 518 0038 00000000 		.4byte	.LFB1
 519 003c 02000000 		.4byte	.LCFI3
 520 0040 0200     		.2byte	0x2
ARM GAS  C:\Users\Kenichi\AppData\Local\Temp\ccO3omSv.s 			page 12


 521 0042 7D       		.byte	0x7d
 522 0043 00       		.sleb128 0
 523 0044 02000000 		.4byte	.LCFI3
 524 0048 04000000 		.4byte	.LCFI4
 525 004c 0200     		.2byte	0x2
 526 004e 7D       		.byte	0x7d
 527 004f 04       		.sleb128 4
 528 0050 04000000 		.4byte	.LCFI4
 529 0054 06000000 		.4byte	.LCFI5
 530 0058 0200     		.2byte	0x2
 531 005a 7D       		.byte	0x7d
 532 005b 10       		.sleb128 16
 533 005c 06000000 		.4byte	.LCFI5
 534 0060 40000000 		.4byte	.LFE1
 535 0064 0200     		.2byte	0x2
 536 0066 77       		.byte	0x77
 537 0067 10       		.sleb128 16
 538 0068 00000000 		.4byte	0
 539 006c 00000000 		.4byte	0
 540              	.LLST2:
 541 0070 00000000 		.4byte	.LFB2
 542 0074 02000000 		.4byte	.LCFI6
 543 0078 0200     		.2byte	0x2
 544 007a 7D       		.byte	0x7d
 545 007b 00       		.sleb128 0
 546 007c 02000000 		.4byte	.LCFI6
 547 0080 04000000 		.4byte	.LCFI7
 548 0084 0200     		.2byte	0x2
 549 0086 7D       		.byte	0x7d
 550 0087 04       		.sleb128 4
 551 0088 04000000 		.4byte	.LCFI7
 552 008c 22000000 		.4byte	.LFE2
 553 0090 0200     		.2byte	0x2
 554 0092 77       		.byte	0x77
 555 0093 04       		.sleb128 4
 556 0094 00000000 		.4byte	0
 557 0098 00000000 		.4byte	0
 558              	.LLST3:
 559 009c 00000000 		.4byte	.LFB3
 560 00a0 02000000 		.4byte	.LCFI8
 561 00a4 0200     		.2byte	0x2
 562 00a6 7D       		.byte	0x7d
 563 00a7 00       		.sleb128 0
 564 00a8 02000000 		.4byte	.LCFI8
 565 00ac 04000000 		.4byte	.LCFI9
 566 00b0 0200     		.2byte	0x2
 567 00b2 7D       		.byte	0x7d
 568 00b3 04       		.sleb128 4
 569 00b4 04000000 		.4byte	.LCFI9
 570 00b8 22000000 		.4byte	.LFE3
 571 00bc 0200     		.2byte	0x2
 572 00be 77       		.byte	0x77
 573 00bf 04       		.sleb128 4
 574 00c0 00000000 		.4byte	0
 575 00c4 00000000 		.4byte	0
 576              		.section	.debug_aranges,"",%progbits
 577 0000 34000000 		.4byte	0x34
ARM GAS  C:\Users\Kenichi\AppData\Local\Temp\ccO3omSv.s 			page 13


 578 0004 0200     		.2byte	0x2
 579 0006 00000000 		.4byte	.Ldebug_info0
 580 000a 04       		.byte	0x4
 581 000b 00       		.byte	0
 582 000c 0000     		.2byte	0
 583 000e 0000     		.2byte	0
 584 0010 00000000 		.4byte	.LFB0
 585 0014 44000000 		.4byte	.LFE0-.LFB0
 586 0018 00000000 		.4byte	.LFB1
 587 001c 40000000 		.4byte	.LFE1-.LFB1
 588 0020 00000000 		.4byte	.LFB2
 589 0024 22000000 		.4byte	.LFE2-.LFB2
 590 0028 00000000 		.4byte	.LFB3
 591 002c 22000000 		.4byte	.LFE3-.LFB3
 592 0030 00000000 		.4byte	0
 593 0034 00000000 		.4byte	0
 594              		.section	.debug_ranges,"",%progbits
 595              	.Ldebug_ranges0:
 596 0000 00000000 		.4byte	.LFB0
 597 0004 44000000 		.4byte	.LFE0
 598 0008 00000000 		.4byte	.LFB1
 599 000c 40000000 		.4byte	.LFE1
 600 0010 00000000 		.4byte	.LFB2
 601 0014 22000000 		.4byte	.LFE2
 602 0018 00000000 		.4byte	.LFB3
 603 001c 22000000 		.4byte	.LFE3
 604 0020 00000000 		.4byte	0
 605 0024 00000000 		.4byte	0
 606              		.section	.debug_line,"",%progbits
 607              	.Ldebug_line0:
 608 0000 92000000 		.section	.debug_str,"MS",%progbits,1
 608      02004400 
 608      00000201 
 608      FB0E0D00 
 608      01010101 
 609              	.LASF22:
 610 0000 433A5C55 		.ascii	"C:\\Users\\Kenichi\\Documents\\PSoC Creator\\servo\\"
 610      73657273 
 610      5C4B656E 
 610      69636869 
 610      5C446F63 
 611 002e 61696C5F 		.ascii	"ail_backback.cydsn\000"
 611      6261636B 
 611      6261636B 
 611      2E637964 
 611      736E00
 612              	.LASF19:
 613 0041 4C45445F 		.ascii	"LED_3_ReadDataReg\000"
 613      335F5265 
 613      61644461 
 613      74615265 
 613      6700
 614              	.LASF16:
 615 0053 76616C75 		.ascii	"value\000"
 615      6500
 616              	.LASF14:
 617 0059 4C45445F 		.ascii	"LED_3_Write\000"
ARM GAS  C:\Users\Kenichi\AppData\Local\Temp\ccO3omSv.s 			page 14


 617      335F5772 
 617      69746500 
 618              	.LASF23:
 619 0065 73746174 		.ascii	"staticBits\000"
 619      69634269 
 619      747300
 620              	.LASF9:
 621 0070 666C6F61 		.ascii	"float\000"
 621      7400
 622              	.LASF1:
 623 0076 756E7369 		.ascii	"unsigned char\000"
 623      676E6564 
 623      20636861 
 623      7200
 624              	.LASF13:
 625 0084 72656738 		.ascii	"reg8\000"
 625      00
 626              	.LASF5:
 627 0089 6C6F6E67 		.ascii	"long unsigned int\000"
 627      20756E73 
 627      69676E65 
 627      6420696E 
 627      7400
 628              	.LASF3:
 629 009b 73686F72 		.ascii	"short unsigned int\000"
 629      7420756E 
 629      7369676E 
 629      65642069 
 629      6E7400
 630              	.LASF10:
 631 00ae 646F7562 		.ascii	"double\000"
 631      6C6500
 632              	.LASF15:
 633 00b5 4C45445F 		.ascii	"LED_3_SetDriveMode\000"
 633      335F5365 
 633      74447269 
 633      76654D6F 
 633      646500
 634              	.LASF8:
 635 00c8 756E7369 		.ascii	"unsigned int\000"
 635      676E6564 
 635      20696E74 
 635      00
 636              	.LASF7:
 637 00d5 6C6F6E67 		.ascii	"long long unsigned int\000"
 637      206C6F6E 
 637      6720756E 
 637      7369676E 
 637      65642069 
 638              	.LASF17:
 639 00ec 6D6F6465 		.ascii	"mode\000"
 639      00
 640              	.LASF21:
 641 00f1 2E5C4765 		.ascii	".\\Generated_Source\\PSoC5\\LED_3.c\000"
 641      6E657261 
 641      7465645F 
 641      536F7572 
ARM GAS  C:\Users\Kenichi\AppData\Local\Temp\ccO3omSv.s 			page 15


 641      63655C50 
 642              	.LASF6:
 643 0112 6C6F6E67 		.ascii	"long long int\000"
 643      206C6F6E 
 643      6720696E 
 643      7400
 644              	.LASF11:
 645 0120 63686172 		.ascii	"char\000"
 645      00
 646              	.LASF2:
 647 0125 73686F72 		.ascii	"short int\000"
 647      7420696E 
 647      7400
 648              	.LASF12:
 649 012f 75696E74 		.ascii	"uint8\000"
 649      3800
 650              	.LASF20:
 651 0135 474E5520 		.ascii	"GNU C 4.7.3 20130312 (release) [ARM/embedded-4_7-br"
 651      4320342E 
 651      372E3320 
 651      32303133 
 651      30333132 
 652 0168 616E6368 		.ascii	"anch revision 196615]\000"
 652      20726576 
 652      6973696F 
 652      6E203139 
 652      36363135 
 653              	.LASF4:
 654 017e 6C6F6E67 		.ascii	"long int\000"
 654      20696E74 
 654      00
 655              	.LASF18:
 656 0187 4C45445F 		.ascii	"LED_3_Read\000"
 656      335F5265 
 656      616400
 657              	.LASF0:
 658 0192 7369676E 		.ascii	"signed char\000"
 658      65642063 
 658      68617200 
 659              		.ident	"GCC: (GNU Tools for ARM Embedded Processors) 4.7.3 20130312 (release) [ARM/embedded-4_7-br
