===========Generating Bitstream===========
# IDMUX (count=6)
00000000: 00 00 00 00 00 00
# IOPORT_0 (count=7)
00000006: 00 00 00 00 00 00 00
# IOPINS0_0 (count=16)
0000000d: 00 00 00 00 00 00 00 00 00 00 00 00 00 00 00 00

# IOPORT_1 (count=7)
0000001d: 00 00 00 00 00 00 00
# IOPINS0_1 (count=16)
00000024: 00 00 00 00 00 00 00 00 00 00 00 00 00 00 00 00

# IOPORT_2 (count=7)
00000034: 44 00 00 00 00 00 00
# IOPINS0_2 (count=10)
0000003b: 40 00 00 c7 87 00 44 00 00 00
# IOPINS1_2 + 0x0000000B (count=5)
00000045: 00 00 00 00 00
# IOPORT_3 (count=7)
0000004a: 00 00 00 00 3c 00 00
# IOPINS0_3 (count=10)
00000051: 3c 00 00 3c 00 00 00 00 00 00
# IOPINS1_3 + 0x0000000B (count=5)
0000005b: 00 00 00 00 00
# IOPORT_4 (count=7)
00000060: 00 00 00 00 00 00 00
# IOPINS0_4 (count=16)
00000067: 00 00 00 00 00 00 00 00 00 00 00 00 00 00 00 00

# IOPORT_5 (count=7)
00000077: 00 00 00 00 00 00 00
# IOPINS0_5 (count=16)
0000007e: 00 00 00 00 00 00 00 00 00 00 00 00 00 00 00 00

# IOPORT_6 (count=7)
0000008e: 00 00 00 00 00 00 00
# IOPINS0_6 (count=16)
00000095: 00 00 00 00 00 00 00 00 00 00 00 00 00 00 00 00

# IOPORT_7 (count=6)
000000a5: 00 01 00 00 20 00
# IOPINS0_7 (count=10)
000000ab: 01 00 20 11 10 00 01 00 00 00
# IOPINS1_7 + 0x0000000B (count=5)
000000b5: 00 00 00 00 00
# IOPORT_8 (count=7)
000000ba: 00 00 00 00 00 00 00
# IOPINS0_8 (count=16)
000000c1: 00 00 00 00 00 00 00 00 00 00 00 00 00 00 00 00

# IDMUX_IRQ (count=8)
000000d1: 0f 00 00 00 00 00 00 00
# CYDEV_CLKDIST_DCFG0_CFG0 (count=3)
000000d9: 01 00 18
# CYDEV_CLKDIST_DCFG1_CFG0 (count=3)
000000dc: 17 00 18
# CYDEV_CLKDIST_DCFG2_CFG0 (count=3)
000000df: 17 00 18
# CYDEV_SLOWCLK_ILO_CR0 (count=1)
000000e2: 02
# CYDEV_CLKDIST_CR (count=1)
000000e3: 08
# CYDEV_FASTCLK_IMO_CR (count=1)
000000e4: 03
# CYDEV_FASTCLK_PLL_P (count=2)
000000e5: 08 00
# CYDEV_FASTCLK_PLL_CFG0 (count=2)
000000e7: 51 12
# CYDEV_CLKDIST_MSTR0 (count=2)
000000e9: 00 01
# CYDEV_CLKDIST_MSTR0 (count=1)
000000eb: 07
# CYDEV_CLKDIST_BCFG0 (count=1)
000000ec: 00
# CYDEV_CLKDIST_BCFG2 (count=1)
000000ed: 48
# CYDEV_CLKDIST_MSTR0 (count=1)
000000ee: 00
# CYDEV_CLKDIST_LD (count=1)
000000ef: 02
# CYDEV_PM_ACT_CFG2 (count=1)
000000f0: 07
# UDB_1_5_0_CONFIG (count=128)
000000f1: 00 00 00 00 00 00 00 00 00 00 00 00 00 00 00 00
00000101: 00 00 00 00 00 00 00 00 00 00 00 00 00 00 00 00
00000111: 00 00 00 00 00 00 00 00 00 00 00 00 00 00 00 00
00000121: 00 00 00 00 00 00 00 00 00 00 00 00 00 00 00 00
00000131: 00 00 00 00 00 00 00 00 00 00 00 00 00 00 00 00
00000141: 00 00 00 00 00 00 00 00 00 00 00 00 00 00 00 00
00000151: 00 00 00 00 00 00 00 00 00 00 00 00 00 00 00 00
00000161: 00 00 00 00 00 00 00 00 00 00 00 00 00 00 00 00

# UDB_1_5_1_CONFIG (count=128)
00000171: 00 00 00 00 00 00 00 00 00 00 00 00 00 00 00 00
00000181: 00 00 00 00 00 00 00 00 00 00 00 00 00 00 00 00
00000191: 00 00 00 00 00 00 00 00 00 00 00 00 00 00 00 00
000001a1: 00 00 00 00 00 00 00 00 00 00 00 00 00 00 00 00
000001b1: 00 00 00 00 00 00 00 00 00 00 00 00 00 00 00 00
000001c1: 00 00 00 00 00 00 00 00 00 00 00 00 00 00 00 00
000001d1: 00 00 00 00 00 00 00 00 00 00 00 00 00 00 00 00
000001e1: 00 00 00 00 00 00 00 00 00 00 00 00 00 00 00 00

# UDB_1_4_1_CONFIG (count=128)
000001f1: 00 00 00 00 00 00 00 00 00 00 00 00 00 00 00 00
00000201: 00 00 00 00 00 00 00 00 00 00 00 00 00 00 00 00
00000211: 00 00 00 00 00 00 00 00 00 00 00 00 00 00 00 00
00000221: 00 00 00 00 00 00 00 00 00 00 00 00 00 00 00 00
00000231: 00 00 00 00 00 00 00 00 00 00 00 00 00 00 00 00
00000241: 00 00 00 00 00 00 00 00 00 00 00 00 00 00 00 00
00000251: 00 00 00 00 00 00 00 00 00 00 00 00 00 00 00 00
00000261: 00 00 00 00 00 00 00 00 00 00 00 00 00 00 00 00

# UDB_1_4_0_CONFIG (count=128)
00000271: 00 00 00 00 00 00 00 00 00 00 00 00 00 00 00 00
00000281: 00 00 00 00 00 00 00 00 00 00 00 00 00 00 00 00
00000291: 00 00 00 00 00 00 00 00 00 00 00 00 00 00 00 00
000002a1: 00 00 00 00 00 00 00 00 00 00 00 00 00 00 00 00
000002b1: 00 00 00 00 00 00 00 00 00 00 00 00 00 00 00 00
000002c1: 00 00 00 00 00 00 00 00 00 00 00 00 00 00 00 00
000002d1: 00 00 00 00 00 00 00 00 00 00 00 00 00 00 00 00
000002e1: 00 00 00 00 00 00 00 00 00 00 00 00 00 00 00 00

# UDB_1_3_0_CONFIG (count=128)
000002f1: 00 00 00 00 00 00 00 00 00 00 00 00 00 00 00 00
00000301: 00 00 00 00 00 00 00 00 00 00 00 00 00 00 00 00
00000311: 00 00 00 00 00 00 00 00 00 00 00 00 00 00 00 00
00000321: 00 00 00 00 00 00 00 00 00 00 00 00 00 00 00 00
00000331: 00 00 00 00 00 00 00 00 00 00 00 00 00 00 00 00
00000341: 00 00 00 00 00 00 00 00 00 00 00 00 00 00 00 00
00000351: 00 00 00 00 00 00 00 00 00 00 00 00 00 00 00 00
00000361: 00 00 00 00 00 00 00 00 00 00 00 00 00 00 00 00

# UDB_1_3_1_CONFIG (count=128)
00000371: 00 00 00 00 00 00 00 00 00 00 00 00 00 00 00 00
00000381: 00 00 00 00 00 00 00 00 00 00 00 00 00 00 00 00
00000391: 00 00 00 00 00 00 00 00 00 00 00 00 00 00 00 00
000003a1: 00 00 00 00 00 00 00 00 00 00 00 00 00 00 00 00
000003b1: 00 00 00 00 00 00 00 00 00 00 00 00 00 00 00 00
000003c1: 00 00 00 00 00 00 00 00 00 00 00 00 00 00 00 00
000003d1: 00 00 00 00 00 00 00 00 00 00 00 00 00 00 00 00
000003e1: 00 00 00 00 00 00 00 00 00 00 00 00 00 00 00 00

# UDB_1_2_1_CONFIG (count=128)
000003f1: 00 00 00 00 00 00 00 00 00 00 00 00 00 00 00 00
00000401: 00 00 00 00 00 00 00 00 00 00 00 00 00 00 00 00
00000411: 00 00 00 00 00 00 00 00 00 00 00 00 00 00 00 00
00000421: 00 00 00 00 00 00 00 00 00 00 00 00 00 00 00 00
00000431: 00 00 00 00 00 00 00 00 00 00 00 00 00 00 00 00
00000441: 00 00 00 00 00 00 00 00 00 00 00 00 00 00 00 00
00000451: 00 00 00 00 00 00 00 00 00 00 00 00 00 00 00 00
00000461: 00 00 00 00 00 00 00 00 00 00 00 00 00 00 00 00

# UDB_1_2_0_CONFIG (count=128)
00000471: 00 00 00 00 00 00 00 00 00 00 00 00 00 00 00 00
00000481: 00 00 00 00 00 00 00 00 00 00 00 00 00 00 00 00
00000491: 00 00 00 00 00 00 00 00 00 00 00 00 00 00 00 00
000004a1: 00 00 00 00 00 00 00 00 00 00 00 00 00 00 00 00
000004b1: 00 00 00 00 00 00 00 00 00 00 00 00 00 00 00 00
000004c1: 00 00 00 00 00 00 00 00 00 00 00 00 00 00 00 00
000004d1: 00 00 00 00 00 00 00 00 00 00 00 00 00 00 00 00
000004e1: 00 00 00 00 00 00 00 00 00 00 00 00 00 00 00 00

# UDB_0_2_1_CONFIG (count=128)
000004f1: 00 00 00 00 00 08 00 00 00 00 00 00 00 00 00 00
00000501: 00 18 00 02 00 00 00 1e 00 02 00 0c 00 00 02 00
00000511: 00 00 00 00 00 01 00 00 00 00 00 00 00 02 03 14
00000521: 00 0e 02 1c 01 01 00 00 00 00 00 0a 00 00 00 00
00000531: 20 06 00 00 00 00 00 00 00 ff ff ff 00 a0 00 04
00000541: 18 00 80 00 00 00 00 00 04 04 04 04 21 11 00 01
00000551: 40 00 c0 00 40 40 c0 00 c0 00 c0 00 c0 00 c0 00
00000561: 00 00 00 00 00 00 00 00 00 00 00 00 00 00 00 00

# UDB_0_2_0_CONFIG (count=128)
00000571: 08 00 00 00 00 00 00 00 00 00 00 00 00 00 00 00
00000581: 00 00 00 00 02 00 00 00 00 00 00 00 00 00 00 00
00000591: 00 00 0c 00 00 00 03 00 00 00 00 00 00 00 00 00
000005a1: 04 00 01 00 02 00 08 00 00 00 00 00 00 00 00 00
000005b1: 20 06 00 00 00 d5 01 02 17 ff ff ff 00 af 0f 04
000005c1: 18 00 00 00 27 00 04 00 04 00 04 04 01 11 00 01
000005d1: 40 00 c0 00 40 40 c0 00 c0 00 c0 00 c0 00 c0 00
000005e1: 00 00 00 00 00 00 00 00 00 00 00 00 00 00 00 00

# UDB_0_3_0_CONFIG (count=128)
000005f1: 00 00 00 00 03 00 04 01 00 00 00 00 03 00 0c 00
00000601: 00 00 00 00 03 00 04 01 00 01 00 00 10 00 00 00
00000611: 09 00 00 01 00 00 0e 00 00 00 00 00 00 01 00 00
00000621: 00 00 00 00 10 00 0f 01 00 00 80 00 00 00 10 40
00000631: 51 02 00 00 00 eb 00 0c 13 ff ff ff 00 00 f0 44
00000641: 0c 00 00 00 01 00 00 00 04 04 04 04 02 22 00 01
00000651: 00 00 00 00 00 00 c0 00 00 00 40 02 00 00 00 00
00000661: 00 00 00 00 00 00 00 00 00 00 00 00 00 00 00 00

# UDB_0_3_1_CONFIG (count=128)
00000671: 00 01 00 00 14 08 00 00 00 08 00 00 10 00 0c 00
00000681: 00 08 03 00 00 00 00 02 00 03 10 00 00 00 00 00
00000691: 00 00 00 00 09 04 10 00 0c 00 11 00 1c 03 02 00
000006a1: 1f 04 00 03 00 00 00 08 00 08 00 20 00 00 00 05
000006b1: 02 00 00 00 00 00 10 05 18 ff 07 ff 40 20 f0 05
000006c1: 08 00 00 00 00 00 00 00 04 04 04 00 22 02 00 01
000006d1: 40 a8 40 20 00 00 00 00 00 00 00 00 00 00 00 00
000006e1: 00 00 00 00 00 00 00 00 00 00 00 00 00 00 00 00

# UDB_0_4_1_CONFIG (count=128)
000006f1: 00 00 00 00 00 02 00 00 00 06 00 00 00 0e 00 01
00000701: 01 00 00 01 00 0e 00 01 00 0f 00 00 00 04 00 00
00000711: 02 09 00 06 00 00 00 00 00 00 00 00 00 00 00 00
00000721: 00 00 00 08 01 00 02 07 02 00 00 80 00 00 50 04
00000731: 00 00 00 00 00 00 00 00 00 00 00 00 00 00 00 00
00000741: 00 00 00 00 00 00 02 11 04 04 00 04 21 20 00 01
00000751: 00 00 00 00 00 00 00 00 00 00 00 00 00 00 00 00
00000761: 00 00 00 00 00 00 00 00 00 00 00 00 00 00 00 00

# UDB_0_4_0_CONFIG (count=128)
00000771: 01 02 02 01 1c 00 00 00 08 01 00 06 10 00 00 00
00000781: 00 00 04 00 02 00 01 00 03 04 00 01 04 00 18 00
00000791: 18 00 04 00 1c 07 00 00 03 07 00 00 18 00 00 00
000007a1: 00 00 03 07 1c 00 00 00 00 00 00 00 00 00 00 00
000007b1: 00 00 00 00 00 00 00 00 00 00 00 00 00 00 00 00
000007c1: 00 00 00 00 00 00 00 00 04 04 00 00 22 00 00 01
000007d1: 00 00 00 00 00 00 00 00 00 00 00 00 00 00 00 00
000007e1: 00 00 00 00 00 00 00 00 00 00 00 00 00 00 00 00

# UDB_0_5_0_CONFIG (count=128)
000007f1: 05 00 80 00 30 08 00 00 10 18 00 00 00 07 00 18
00000801: 00 00 0f 03 0a 1c 80 02 30 1f 0f 00 0f 00 30 04
00000811: 20 1c 00 01 3f 04 00 20 0f 00 40 00 3c 10 03 00
00000821: 03 00 00 1f c0 00 3c 20 00 00 80 08 00 00 10 00
00000831: 00 00 00 00 00 00 00 00 00 00 00 00 00 00 00 00
00000841: 00 00 00 00 00 00 00 00 04 04 00 00 22 00 00 01
00000851: 00 00 00 00 00 00 00 00 00 00 00 00 00 00 00 00
00000861: 00 00 00 00 00 00 00 00 00 00 00 00 00 00 00 00

# UDB_0_5_1_CONFIG (count=128)
00000871: 00 00 00 00 00 00 00 01 00 00 00 00 00 00 00 00
00000881: 00 00 01 00 00 00 00 00 01 00 00 01 00 00 00 00
00000891: 00 00 00 02 00 00 00 00 00 00 01 02 01 00 00 00
000008a1: 00 00 00 02 00 00 01 01 80 00 00 00 00 00 00 44
000008b1: 14 03 02 00 06 0c 00 0e 11 ff ff ff 62 a0 f0 41
000008c1: 0c 00 00 00 18 00 04 00 04 04 04 04 02 22 00 01
000008d1: 00 00 00 00 00 00 40 02 00 10 30 10 00 10 10 12
000008e1: 00 00 00 00 00 00 00 00 00 00 00 00 00 00 00 00

# UDB_1_0_0_CONFIG (count=128)
000008f1: 00 00 01 00 00 00 00 00 00 00 00 00 00 00 00 00
00000901: 00 00 00 00 00 00 00 00 00 00 00 00 00 00 01 00
00000911: 00 00 00 00 00 00 00 00 00 00 00 00 00 00 00 00
00000921: 00 00 00 00 00 00 01 00 00 00 00 00 00 00 40 00
00000931: 51 00 00 00 00 00 00 00 00 ff ff ff 00 00 00 01
00000941: 18 00 00 00 01 00 00 00 04 00 04 04 00 22 00 01
00000951: 40 00 40 00 40 40 80 00 80 00 80 00 80 00 80 00
00000961: 00 00 00 00 00 00 00 00 00 00 00 00 00 00 00 00

# UDB_1_0_1_CONFIG (count=128)
00000971: 00 00 00 00 00 00 00 00 00 00 00 00 00 00 00 00
00000981: 00 00 00 00 00 00 00 00 00 00 00 00 00 00 00 00
00000991: 00 00 00 00 00 00 00 00 00 00 00 00 00 00 00 00
000009a1: 00 00 00 00 00 00 00 00 00 00 00 00 00 00 00 00
000009b1: 41 00 00 00 00 ec 02 00 07 ff ff ff 00 83 03 01
000009c1: 18 00 80 00 00 00 00 00 00 00 04 04 00 22 00 01
000009d1: 40 00 40 00 40 40 80 00 80 00 80 00 80 00 80 00
000009e1: 00 00 00 00 00 00 00 00 00 00 00 00 00 00 00 00

# UDB_1_1_1_CONFIG (count=128)
000009f1: 00 00 00 00 00 00 00 00 00 00 00 00 00 00 00 00
00000a01: 00 00 00 00 00 00 00 00 00 00 00 00 00 00 00 00
00000a11: 00 00 00 00 00 00 00 00 00 00 00 00 00 00 00 00
00000a21: 00 00 00 00 00 00 00 00 00 00 00 00 00 00 00 00
00000a31: 00 00 00 00 00 00 00 00 00 00 00 00 00 00 00 00
00000a41: 00 00 00 00 00 00 00 00 00 00 00 00 00 00 00 00
00000a51: 00 00 00 00 00 00 00 00 00 00 00 00 00 00 00 00
00000a61: 00 00 00 00 00 00 00 00 00 00 00 00 00 00 00 00

# UDB_1_1_0_CONFIG (count=128)
00000a71: 00 00 00 00 00 00 00 00 00 00 00 00 00 00 00 00
00000a81: 00 00 00 00 00 00 00 00 00 00 00 00 00 00 00 00
00000a91: 00 00 00 00 00 00 00 00 00 00 00 00 00 00 00 00
00000aa1: 00 00 00 00 00 00 00 00 00 00 00 00 00 00 00 00
00000ab1: 00 00 00 00 00 00 00 00 00 00 00 00 00 00 00 00
00000ac1: 00 00 00 00 00 00 00 00 00 00 00 00 00 00 00 00
00000ad1: 00 00 00 00 00 00 00 00 00 00 00 00 00 00 00 00
00000ae1: 00 00 00 00 00 00 00 00 00 00 00 00 00 00 00 00

# UDB_0_1_1_CONFIG (count=128)
00000af1: 00 00 00 00 00 00 00 00 00 00 00 00 00 00 00 00
00000b01: 00 00 00 00 00 00 00 00 00 00 00 00 00 00 00 00
00000b11: 00 00 00 00 00 00 00 00 00 00 00 00 00 00 00 00
00000b21: 00 00 00 00 00 00 00 00 00 00 00 00 00 00 00 00
00000b31: 00 00 00 00 00 00 00 00 00 00 00 00 00 00 00 00
00000b41: 00 00 00 00 00 00 00 00 00 00 00 00 00 00 00 00
00000b51: 00 00 00 00 00 00 00 00 00 00 00 00 00 00 00 00
00000b61: 00 00 00 00 00 00 00 00 00 00 00 00 00 00 00 00

# UDB_0_1_0_CONFIG (count=128)
00000b71: 00 00 00 00 00 00 00 00 00 00 00 00 00 00 00 00
00000b81: 00 00 00 00 00 00 00 00 00 00 00 00 00 00 00 00
00000b91: 00 00 00 00 00 00 00 00 00 00 00 00 00 00 00 00
00000ba1: 00 00 00 00 00 00 00 00 00 00 00 00 00 00 00 00
00000bb1: 00 00 00 00 00 00 00 00 00 00 00 00 00 00 00 00
00000bc1: 00 00 00 00 00 00 00 00 00 00 00 00 00 00 00 00
00000bd1: 00 00 00 00 00 00 00 00 00 00 00 00 00 00 00 00
00000be1: 00 00 00 00 00 00 00 00 00 00 00 00 00 00 00 00

# UDB_0_0_0_CONFIG (count=128)
00000bf1: 00 00 00 00 00 00 00 00 00 00 00 00 00 00 00 00
00000c01: 00 00 00 00 00 00 00 00 00 00 00 00 00 00 00 00
00000c11: 00 00 00 00 00 00 00 00 00 00 00 00 00 00 00 00
00000c21: 00 00 00 00 00 00 00 00 00 00 00 00 00 00 00 00
00000c31: 00 00 00 00 00 00 00 00 00 00 00 00 00 00 00 00
00000c41: 00 00 00 00 00 00 00 00 00 00 00 00 00 00 00 00
00000c51: 00 00 00 00 00 00 00 00 00 00 00 00 00 00 00 00
00000c61: 00 00 00 00 00 00 00 00 00 00 00 00 00 00 00 00

# UDB_0_0_1_CONFIG (count=128)
00000c71: 00 00 00 00 00 00 00 00 00 00 00 00 00 00 00 00
00000c81: 00 00 00 00 00 00 00 00 00 00 00 00 00 00 00 00
00000c91: 00 00 00 00 00 00 00 00 00 00 00 00 00 00 00 00
00000ca1: 00 00 00 00 00 00 00 00 00 00 00 00 00 00 00 00
00000cb1: 00 00 00 00 00 00 00 00 00 00 00 00 00 00 00 00
00000cc1: 00 00 00 00 00 00 00 00 00 00 00 00 00 00 00 00
00000cd1: 00 00 00 00 00 00 00 00 00 00 00 00 00 00 00 00
00000ce1: 00 00 00 00 00 00 00 00 00 00 00 00 00 00 00 00

# UWRK_B0_WRK_DP_BITS (count=64)
00000cf1: 00 00 00 00 00 00 00 00 00 00 00 00 00 00 00 00
00000d01: 00 00 00 00 00 00 00 00 00 00 00 00 00 00 00 00
00000d11: 00 00 00 00 00 00 00 00 00 00 00 00 00 00 00 00
00000d21: 00 00 00 00 00 00 00 00 00 00 00 00 00 00 00 00

# UWRK_B0_WRK_STATCTL_BITS + 0x00000070 (count=32)
00000d31: 00 00 00 00 00 00 00 00 00 00 00 00 00 00 00 00
00000d41: 00 00 00 00 00 00 00 00 00 2f 0f 00 72 00 00 38

# UWRK_B1_WRK_DP_BITS (count=64)
00000d51: 00 00 00 00 00 00 00 00 00 00 00 00 00 00 00 00
00000d61: 00 00 00 00 00 00 00 00 00 00 00 00 00 00 00 00
00000d71: 00 00 00 00 00 00 00 00 00 00 00 00 00 00 00 00
00000d81: 00 00 00 00 00 00 00 00 00 00 00 00 00 00 00 00

# UWRK_B1_WRK_STATCTL_BITS + 0x00000070 (count=32)
00000d91: 00 00 00 00 00 00 00 00 00 00 00 00 00 00 00 00
00000da1: 00 00 00 00 0d 00 00 00 00 00 00 00 00 00 00 00

# UCFG_BCTL1 (count=16)
00000db1: 04 00 00 00 00 00 00 00 00 00 04 00 00 00 00 00

# UCFG_BCTL0 (count=16)
00000dc1: 06 00 00 00 00 00 00 00 00 00 00 00 06 00 06 00

# DSISWITCH_0_0 (count=128)
00000dd1: 00 00 00 00 00 00 00 00 00 00 00 00 00 00 00 00
00000de1: 00 00 00 00 00 00 00 00 00 00 00 00 00 00 00 00
00000df1: 00 00 00 00 00 00 00 00 00 00 00 00 00 00 00 00
00000e01: 00 00 00 00 00 00 00 00 00 00 00 00 00 00 00 00
00000e11: 00 00 00 00 00 00 00 00 00 00 00 00 00 00 00 00
00000e21: 00 00 00 00 00 00 00 00 00 00 00 00 00 00 00 00
00000e31: 00 00 00 00 00 00 00 00 00 00 00 00 00 00 00 00
00000e41: 00 00 00 00 00 00 00 00 00 00 00 00 00 00 00 00

# DSI0_0_HV_ROUTING + 0x00000080 (count=128)
00000e51: 00 00 00 00 00 00 00 00 00 00 00 00 00 00 00 00
00000e61: 00 00 00 00 00 00 00 00 00 00 00 00 00 00 00 00
00000e71: 00 00 00 00 00 00 00 00 00 00 00 00 00 00 00 00
00000e81: 00 00 00 00 00 00 00 00 00 00 00 00 00 00 00 00
00000e91: 00 00 00 00 00 00 00 00 00 00 00 00 00 00 00 00
00000ea1: 00 00 00 00 00 00 00 00 00 00 00 00 00 00 00 00
00000eb1: 00 00 00 00 00 00 00 00 00 00 00 00 00 00 00 00
00000ec1: 00 00 00 00 00 00 00 00 00 00 00 00 00 00 00 00

# DSISWITCH_0_1 (count=128)
00000ed1: 00 00 00 00 00 00 00 00 00 00 00 00 00 00 00 00
00000ee1: 00 00 00 00 00 00 00 00 00 00 00 00 00 00 00 00
00000ef1: 00 00 00 00 00 00 00 00 00 00 00 00 00 00 00 00
00000f01: 00 00 00 00 00 00 00 00 00 00 00 00 00 00 00 00
00000f11: 00 00 00 00 00 00 00 00 00 00 00 00 00 00 00 00
00000f21: 00 00 00 00 00 00 00 00 00 00 00 00 00 00 00 00
00000f31: 00 00 00 00 00 00 00 00 00 00 00 00 00 00 00 00
00000f41: 00 00 00 00 00 00 00 00 00 00 00 00 00 00 00 00

# DSI0_1_HV_ROUTING + 0x00000080 (count=128)
00000f51: 00 00 00 00 00 00 00 00 00 00 00 00 00 00 00 00
00000f61: 00 00 00 00 00 00 00 00 00 00 00 00 00 00 00 00
00000f71: 00 00 00 00 00 00 00 00 00 00 00 00 00 00 00 00
00000f81: 00 00 00 00 00 00 00 00 00 00 00 00 00 00 00 00
00000f91: 00 00 00 00 00 00 00 00 00 00 00 00 00 00 00 00
00000fa1: 00 00 00 00 00 00 00 00 00 00 00 00 00 00 00 00
00000fb1: 00 00 00 00 00 00 00 00 00 00 00 00 00 00 00 00
00000fc1: 00 00 00 00 00 00 00 00 00 00 00 00 00 00 00 00

# DSISWITCH_0_2 (count=128)
00000fd1: 00 00 00 00 00 00 00 00 00 00 00 00 00 00 00 00
00000fe1: 00 00 00 00 00 00 00 00 00 00 00 00 00 00 00 00
00000ff1: 00 00 00 00 00 00 00 00 00 00 00 00 00 00 00 00
00001001: 00 00 00 00 00 00 00 00 00 00 00 00 00 00 00 00
00001011: 00 00 00 00 00 00 00 00 00 00 00 00 00 00 00 00
00001021: 00 00 00 00 00 00 00 00 00 00 00 00 00 00 00 00
00001031: 00 00 00 00 00 00 00 00 00 00 00 00 00 00 00 00
00001041: 00 00 00 00 00 00 00 00 00 00 00 00 00 00 00 00

# DSI0_2_HV_ROUTING + 0x00000080 (count=128)
00001051: 00 00 00 00 00 00 00 00 20 00 00 00 00 00 00 00
00001061: 00 00 00 00 00 00 00 00 00 00 00 00 00 00 00 00
00001071: 00 00 00 00 20 00 00 00 00 00 00 00 00 00 00 00
00001081: 00 00 00 00 00 00 00 00 00 00 00 00 00 00 00 00
00001091: 00 00 00 00 00 00 00 00 00 00 00 00 00 00 00 00
000010a1: 00 00 00 00 00 00 00 00 00 00 00 00 00 00 00 00
000010b1: 00 00 00 00 04 00 00 00 00 00 00 00 00 00 00 00
000010c1: 00 00 00 00 00 00 00 00 00 00 00 00 00 00 00 00

# DSISWITCH_0_3 (count=128)
000010d1: 00 00 00 00 00 00 00 00 00 00 00 00 00 00 00 00
000010e1: 00 00 00 00 00 00 00 00 00 00 00 00 00 00 00 00
000010f1: 00 00 00 00 00 00 00 00 00 00 00 00 00 00 00 00
00001101: 00 00 00 00 00 00 00 00 00 00 00 00 00 00 00 00
00001111: 00 00 00 00 00 00 00 00 00 00 00 00 00 00 00 00
00001121: 00 00 00 00 00 00 00 00 00 00 00 00 00 00 00 00
00001131: 00 00 00 00 00 00 00 00 00 00 00 00 00 00 00 00
00001141: 00 00 00 00 00 00 00 00 00 00 00 00 00 00 00 00

# DSI0_3_HV_ROUTING + 0x00000080 (count=128)
00001151: 00 00 00 00 00 00 00 00 00 00 00 00 00 00 00 00
00001161: 00 00 00 00 00 00 00 00 00 00 00 00 00 00 00 00
00001171: 00 00 00 00 20 00 00 00 00 02 00 00 00 00 00 00
00001181: 00 00 00 00 00 00 00 00 00 00 00 00 00 00 00 00
00001191: 00 00 00 00 00 00 00 00 00 00 00 00 00 00 00 00
000011a1: 00 00 00 00 00 00 00 00 00 00 00 00 00 00 00 00
000011b1: 00 00 00 00 00 00 00 00 00 00 00 00 00 00 00 00
000011c1: 00 00 00 00 00 00 00 00 00 00 00 00 00 00 00 00

# DSISWITCH_0_4 (count=128)
000011d1: 00 00 00 00 00 00 00 00 00 00 00 00 00 00 00 00
000011e1: 00 00 00 00 00 00 00 00 00 00 00 00 00 00 00 00
000011f1: 00 00 00 00 00 00 00 00 00 00 00 00 00 00 00 00
00001201: 00 00 00 00 00 00 00 00 00 00 00 00 00 00 00 00
00001211: 00 00 00 00 00 00 00 00 00 00 00 00 00 00 00 00
00001221: 00 00 00 00 20 00 00 00 00 00 00 00 00 02 00 00
00001231: 00 00 00 00 00 00 00 00 00 00 00 00 00 00 00 00
00001241: 00 00 00 00 00 00 00 00 00 00 00 00 00 00 00 00

# DSI0_4_HV_ROUTING + 0x00000080 (count=128)
00001251: 00 00 00 00 00 00 00 00 00 00 00 00 00 00 00 00
00001261: 00 00 00 00 00 00 00 00 00 00 00 00 00 00 00 00
00001271: 00 00 00 00 00 00 00 00 00 00 00 00 00 00 00 00
00001281: 40 00 00 00 00 00 00 00 00 00 00 00 00 00 00 00
00001291: 00 00 00 00 00 00 00 00 00 00 00 00 00 00 00 00
000012a1: 00 00 00 00 02 00 01 00 00 00 00 00 00 00 00 00
000012b1: 00 00 00 00 00 00 00 00 00 00 01 00 00 00 00 00
000012c1: 00 00 00 00 00 00 00 00 00 00 00 00 00 00 00 00

# DSISWITCH_0_5 (count=128)
000012d1: 00 00 00 00 00 00 00 00 00 00 00 00 00 00 00 00
000012e1: 00 00 00 00 40 00 00 00 00 00 00 00 00 00 00 00
000012f1: 00 00 00 00 00 00 00 00 00 00 00 00 00 00 00 00
00001301: 00 00 00 00 00 00 00 00 00 00 00 00 00 00 00 00
00001311: 00 00 00 00 00 00 00 00 00 00 00 00 00 00 00 00
00001321: 00 00 00 00 00 00 00 00 00 00 00 00 00 00 00 00
00001331: 00 00 00 00 00 00 00 00 00 00 00 00 00 00 00 00
00001341: 00 00 00 00 00 00 00 00 00 00 00 00 00 00 00 00

# DSI0_5_HV_ROUTING + 0x00000080 (count=128)
00001351: 00 00 00 00 00 00 00 00 00 00 00 00 00 00 00 00
00001361: 00 00 00 00 00 00 00 00 00 00 00 00 00 00 00 00
00001371: 00 00 00 00 00 00 00 00 00 00 00 00 00 00 00 00
00001381: 00 00 00 00 00 00 00 00 00 00 00 00 00 00 00 00
00001391: 00 00 00 00 04 00 00 00 00 00 00 00 00 00 00 00
000013a1: 00 00 00 00 00 00 00 00 00 00 00 00 00 00 00 00
000013b1: 00 00 00 00 00 00 00 00 00 00 00 00 00 00 00 00
000013c1: 00 00 00 00 00 00 00 00 00 00 00 00 00 00 00 00

# UDBSWITCH_0_0 (count=128)
000013d1: 00 00 00 00 00 00 00 00 00 00 00 00 00 00 00 00
000013e1: 00 00 00 00 00 00 00 00 00 00 00 00 00 00 00 00
000013f1: 00 00 00 00 00 00 00 00 00 00 00 00 00 00 00 00
00001401: 00 00 00 00 00 00 00 00 00 00 00 00 00 00 00 00
00001411: 00 00 00 00 00 00 00 00 00 00 00 00 00 00 00 00
00001421: 00 00 00 00 00 00 00 00 00 00 00 00 00 00 00 00
00001431: 00 00 00 00 00 00 00 00 00 00 00 00 00 00 00 00
00001441: 00 00 00 00 00 00 00 00 00 00 00 00 00 00 00 00

# UDB_1_0_HV_ROUTING + 0x00000080 (count=128)
00001451: 00 00 00 00 00 00 00 00 00 00 00 00 00 00 00 00
00001461: 00 00 00 00 00 00 00 00 00 00 00 00 00 00 00 00
00001471: 00 00 00 00 00 00 00 00 00 00 00 00 00 00 00 00
00001481: 00 00 00 00 00 00 00 00 00 00 00 00 00 00 00 00
00001491: 00 00 00 00 00 00 00 00 00 00 00 00 00 00 00 00
000014a1: 00 00 00 00 00 00 00 00 00 00 00 00 00 00 00 00
000014b1: 00 00 00 00 00 00 00 00 00 00 00 00 00 00 00 00
000014c1: 00 00 00 00 00 00 00 00 00 00 00 00 00 00 00 00

# UDBSWITCH_1_0 (count=128)
000014d1: 02 00 00 00 00 00 00 00 00 80 00 00 00 00 00 00
000014e1: 00 00 00 00 00 00 00 00 00 40 00 00 00 00 00 00
000014f1: 00 00 00 00 00 00 00 00 00 00 00 00 00 00 00 00
00001501: 00 00 00 00 00 00 00 00 00 00 00 00 00 00 00 00
00001511: 00 80 00 00 00 80 40 00 01 00 00 00 00 0a 00 00
00001521: 00 00 00 00 00 80 00 00 00 4a 00 00 08 20 81 00
00001531: 00 00 00 00 00 00 00 00 00 00 00 00 00 00 00 00
00001541: 00 00 00 00 01 00 40 00 00 00 00 00 00 00 00 00

# UDB_2_0_HV_ROUTING + 0x00000080 (count=128)
00001551: 00 20 00 00 00 00 41 00 08 00 00 00 00 00 00 00
00001561: 00 00 00 00 00 00 00 00 00 00 00 00 00 00 00 00
00001571: 00 00 00 00 00 00 00 00 00 00 00 00 00 00 00 00
00001581: 00 00 00 00 00 00 00 00 00 00 00 00 00 00 00 00
00001591: 08 00 01 00 00 00 00 00 00 00 00 00 00 00 00 00
000015a1: 98 00 08 00 00 00 fb 00 00 00 00 00 00 00 00 00
000015b1: 80 00 00 00 00 00 00 00 00 00 00 00 00 00 00 00
000015c1: 00 00 00 00 00 00 00 00 00 00 00 00 00 00 00 00

# UDBSWITCH_0_1 (count=128)
000015d1: 00 00 00 00 00 00 00 00 00 00 00 00 00 00 00 00
000015e1: 00 00 00 00 00 00 00 00 00 00 00 00 00 00 00 00
000015f1: 00 00 00 00 00 00 00 00 00 00 00 00 00 00 00 00
00001601: 00 00 00 00 00 00 00 00 00 00 00 00 00 00 00 00
00001611: 00 00 00 00 00 00 00 00 00 00 00 00 00 00 00 00
00001621: 00 00 00 00 00 00 00 00 00 00 00 00 00 00 00 00
00001631: 00 00 00 00 00 00 00 00 00 00 00 00 00 00 00 00
00001641: 00 00 00 00 00 00 00 00 00 00 00 00 00 00 00 00

# UDB_1_1_HV_ROUTING + 0x00000080 (count=128)
00001651: 00 00 00 00 00 00 00 00 00 00 00 00 00 00 00 00
00001661: 00 00 00 00 00 00 00 00 00 00 00 00 00 00 00 00
00001671: 00 00 00 00 00 00 00 00 00 00 00 00 00 00 00 00
00001681: 00 00 00 00 00 00 00 00 00 00 00 00 00 00 00 00
00001691: 00 00 00 00 00 00 00 00 00 00 00 00 00 00 00 00
000016a1: 00 00 00 00 00 00 00 00 00 00 00 00 00 00 00 00
000016b1: 00 00 00 00 00 00 00 00 00 00 00 00 00 00 00 00
000016c1: 00 00 00 00 00 00 00 00 00 00 00 00 00 00 00 00

# UDBSWITCH_1_1 (count=128)
000016d1: 00 00 00 00 00 00 00 00 00 00 00 00 00 00 00 00
000016e1: 00 00 00 00 00 00 00 00 00 00 00 00 00 00 00 00
000016f1: 00 00 00 00 00 00 00 00 00 00 00 00 00 00 00 00
00001701: 00 00 00 00 00 00 00 00 00 00 00 00 00 00 00 00
00001711: 00 00 00 00 00 00 00 00 00 00 00 00 00 00 00 00
00001721: 00 00 00 00 00 00 00 00 00 00 00 00 00 00 00 00
00001731: 00 00 00 00 00 00 00 00 00 00 00 00 00 00 00 00
00001741: 00 00 00 00 00 00 00 00 00 00 00 00 00 00 00 00

# UDB_2_1_HV_ROUTING + 0x00000080 (count=128)
00001751: 00 00 00 00 00 00 00 00 00 00 00 00 00 00 00 00
00001761: 00 00 00 00 00 00 00 00 00 00 00 00 00 00 00 00
00001771: 00 00 00 00 00 00 00 00 00 00 00 00 00 00 00 00
00001781: 00 00 00 00 00 00 00 00 00 00 00 00 00 00 00 00
00001791: 00 00 00 00 00 00 00 00 00 00 00 00 00 00 00 00
000017a1: 00 00 00 00 00 00 00 00 00 00 00 00 00 00 00 00
000017b1: 00 00 00 00 00 00 00 00 00 00 00 00 00 00 00 00
000017c1: 00 00 00 00 00 00 00 00 00 00 00 00 00 00 00 00

# UDBSWITCH_0_2 (count=128)
000017d1: 00 02 00 00 00 00 00 00 00 00 10 00 00 40 00 00
000017e1: a0 00 00 00 00 00 00 40 00 52 10 00 00 20 00 08
000017f1: 00 00 00 00 00 01 01 18 00 00 00 00 00 80 00 20
00001801: 00 00 00 00 00 00 01 18 00 00 00 00 00 00 00 08
00001811: 00 20 00 00 00 20 00 00 20 01 08 00 00 00 0c 00
00001821: 80 40 08 00 00 00 00 00 00 51 08 00 00 00 00 00
00001831: 04 02 00 40 00 00 00 00 00 00 00 00 00 00 00 00
00001841: 00 00 00 00 00 00 00 40 00 00 00 00 00 00 00 00

# UDB_1_2_HV_ROUTING + 0x00000080 (count=128)
00001851: 00 00 00 08 00 00 00 40 00 02 00 00 00 00 00 00
00001861: 04 00 00 00 00 00 00 00 00 80 00 00 00 00 00 18
00001871: 00 00 00 24 00 01 00 00 00 00 00 00 00 00 00 00
00001881: 00 00 00 00 00 00 00 00 00 00 00 00 00 00 00 00
00001891: 08 00 84 00 8c 00 00 00 00 00 50 00 e0 00 40 00
000018a1: 24 00 24 00 00 00 0f 00 05 00 00 00 00 00 00 00
000018b1: 00 00 00 00 00 00 00 00 00 00 00 00 00 00 00 00
000018c1: 00 00 00 00 00 00 00 00 00 00 00 00 00 00 00 00

# UDBSWITCH_1_2 (count=128)
000018d1: 00 00 00 00 00 00 00 00 00 00 00 00 00 00 00 00
000018e1: 00 00 00 00 00 00 00 00 00 00 00 00 00 00 00 00
000018f1: 00 00 00 00 00 00 00 00 00 00 00 00 00 00 00 00
00001901: 00 00 00 00 00 00 00 00 00 00 00 00 00 00 00 00
00001911: 00 00 00 00 00 00 00 00 00 00 00 00 00 00 00 00
00001921: 00 00 00 00 00 00 00 00 00 00 00 00 00 00 00 00
00001931: 00 00 00 00 00 00 00 00 00 00 00 00 00 00 00 00
00001941: 00 00 00 00 00 00 00 00 00 00 00 00 00 00 00 00

# UDB_2_2_HV_ROUTING + 0x00000080 (count=128)
00001951: 00 00 00 00 00 00 00 00 00 00 00 00 00 00 00 00
00001961: 00 00 00 00 00 00 00 00 00 00 00 00 00 00 00 00
00001971: 00 00 00 00 00 00 00 00 00 00 00 00 00 00 00 00
00001981: 00 00 00 00 00 00 00 00 00 00 00 00 00 00 00 00
00001991: 00 00 00 00 00 00 00 00 00 00 00 00 00 00 00 00
000019a1: 00 00 00 00 00 00 00 00 00 00 00 00 00 00 00 00
000019b1: 00 00 00 00 00 00 03 00 00 00 00 00 00 00 00 00
000019c1: 00 00 00 00 00 00 00 00 00 00 00 00 00 00 00 00

# UDBSWITCH_0_3 (count=128)
000019d1: 00 80 00 10 00 88 00 00 00 08 20 02 00 01 40 08
000019e1: 00 02 00 08 00 00 02 18 00 80 08 00 00 00 40 00
000019f1: 00 00 40 00 00 00 10 62 00 80 02 00 00 80 00 20
00001a01: 04 00 00 10 04 00 00 19 08 00 00 00 00 02 16 00
00001a11: 00 00 00 50 00 00 00 20 00 89 00 02 00 00 00 00
00001a21: 04 08 00 00 00 00 00 24 00 01 a8 00 00 00 00 00
00001a31: 00 00 00 00 00 00 00 00 00 00 00 00 00 00 00 00
00001a41: 00 00 00 00 00 00 00 00 00 00 00 00 00 00 00 00

# UDB_1_3_HV_ROUTING + 0x00000080 (count=128)
00001a51: 00 00 00 00 00 00 00 00 00 00 00 00 00 00 00 00
00001a61: 04 00 14 00 00 02 00 00 00 00 00 01 00 00 00 02
00001a71: 00 00 00 00 00 00 10 00 00 00 00 80 00 00 00 00
00001a81: 00 00 12 00 00 00 00 00 00 00 00 00 00 00 00 00
00001a91: a5 00 55 00 ec 00 00 00 00 00 59 00 e6 00 e2 00
00001aa1: 2c 00 08 00 00 00 0f 00 00 00 00 00 00 00 00 00
00001ab1: 00 00 00 00 00 00 00 00 00 00 00 00 04 00 00 00
00001ac1: 00 00 00 00 00 00 00 00 00 00 00 00 00 00 00 00

# UDBSWITCH_1_3 (count=128)
00001ad1: 00 00 00 00 00 00 00 00 00 00 00 00 00 00 00 00
00001ae1: 00 00 00 00 00 00 00 00 00 00 00 00 00 00 00 00
00001af1: 00 00 00 00 00 00 00 00 00 00 00 00 00 00 00 00
00001b01: 00 00 00 00 00 00 00 00 00 00 00 00 00 00 00 00
00001b11: 00 00 00 00 00 00 00 00 00 00 00 00 00 00 00 00
00001b21: 00 00 00 00 00 00 00 00 00 00 00 00 00 00 00 00
00001b31: 00 00 00 00 00 00 00 00 00 00 00 00 00 00 00 00
00001b41: 00 00 00 00 00 00 00 00 00 00 00 00 00 00 00 00

# UDB_2_3_HV_ROUTING + 0x00000080 (count=128)
00001b51: 00 00 00 00 00 00 00 00 00 00 00 00 00 00 00 00
00001b61: 00 00 00 00 00 00 00 00 00 00 00 00 00 00 00 00
00001b71: 00 00 00 00 00 00 00 00 00 00 00 00 00 00 00 00
00001b81: 00 00 00 00 00 00 00 00 00 00 00 00 00 00 00 00
00001b91: 00 00 00 00 00 00 00 00 00 00 00 00 00 00 00 00
00001ba1: 00 00 00 00 00 00 00 00 00 00 00 00 00 00 00 00
00001bb1: 00 00 00 00 00 00 00 00 00 00 00 00 00 00 00 00
00001bc1: 00 00 00 00 00 00 00 00 00 00 00 00 00 00 00 00

# UDBSWITCH_0_4 (count=128)
00001bd1: 02 80 24 00 00 00 00 00 01 00 25 00 00 00 80 00
00001be1: 00 10 82 08 00 02 00 00 00 10 20 00 04 00 80 80
00001bf1: 00 00 00 10 00 40 80 20 00 00 00 28 00 00 01 00
00001c01: 00 00 10 00 11 80 38 0a 00 00 02 10 00 80 28 80
00001c11: 00 00 00 00 00 00 00 00 00 00 00 00 00 00 00 00
00001c21: 00 00 00 00 00 00 00 00 00 00 00 00 00 00 00 20
00001c31: 00 00 00 00 00 00 00 00 00 00 00 00 00 10 14 29
00001c41: 00 00 00 00 00 80 3c 00 00 00 00 00 00 00 00 00

# UDB_1_4_HV_ROUTING + 0x00000080 (count=128)
00001c51: 00 00 00 00 00 00 00 00 00 00 00 00 00 00 00 00
00001c61: 00 00 01 00 00 00 20 10 00 00 02 00 11 90 14 02
00001c71: 01 00 08 00 00 40 00 40 00 00 00 00 00 00 00 00
00001c81: 21 00 02 00 00 04 20 00 00 00 00 00 00 00 00 00
00001c91: 0f 00 1f 00 1f 00 00 00 00 00 86 00 f4 00 75 00
00001ca1: 00 00 00 00 00 00 20 00 00 00 00 00 00 00 00 00
00001cb1: 00 00 00 00 00 00 00 00 00 00 00 00 00 00 00 00
00001cc1: 00 00 00 00 00 00 00 00 00 00 00 00 00 00 00 00

# UDBSWITCH_1_4 (count=128)
00001cd1: 00 00 00 00 00 00 00 00 00 00 00 00 00 00 00 00
00001ce1: 00 00 00 00 00 00 00 00 00 00 00 00 00 00 00 00
00001cf1: 00 00 00 00 00 00 00 00 00 00 00 00 00 00 00 00
00001d01: 00 00 00 00 00 00 00 00 00 00 00 00 00 00 00 00
00001d11: 00 00 00 00 00 00 00 00 00 00 00 00 00 00 00 00
00001d21: 00 00 00 00 00 00 00 00 00 00 00 00 00 00 00 00
00001d31: 00 00 00 00 00 00 00 00 00 00 00 00 00 00 00 00
00001d41: 00 00 00 00 00 00 00 00 00 00 00 00 00 00 00 00

# UDB_2_4_HV_ROUTING + 0x00000080 (count=128)
00001d51: 00 00 00 00 00 00 00 00 00 00 00 00 00 00 00 00
00001d61: 00 00 00 00 00 00 00 00 00 00 00 00 00 00 00 00
00001d71: 00 00 00 00 00 00 00 00 00 00 00 00 00 00 00 00
00001d81: 00 00 00 00 00 00 00 00 00 00 00 00 00 00 00 00
00001d91: 00 00 00 00 00 00 00 00 00 00 00 00 00 00 00 00
00001da1: 00 00 00 00 00 00 00 00 00 00 00 00 00 00 00 00
00001db1: 00 00 00 00 00 00 00 00 00 00 00 00 00 00 00 00
00001dc1: 00 00 00 00 00 00 00 00 00 00 00 00 00 00 00 00

# UDBSWITCH_0_5 (count=128)
00001dd1: 02 00 14 00 00 00 00 00 01 00 29 00 10 00 00 80
00001de1: 10 80 40 10 00 00 00 60 00 02 01 10 00 00 00 80
00001df1: 00 00 4c 20 00 04 40 00 20 80 40 40 00 00 00 88
00001e01: 11 00 48 00 00 50 40 10 00 80 14 00 00 00 00 04
00001e11: 00 40 01 40 10 00 00 52 00 00 00 00 00 00 00 24
00001e21: 00 00 00 00 00 00 00 08 00 00 00 00 00 02 00 00
00001e31: 00 00 00 00 00 40 20 80 00 00 00 00 00 00 00 00
00001e41: 00 00 00 00 00 00 00 00 00 00 00 00 00 00 00 00

# UDB_1_5_HV_ROUTING + 0x00000080 (count=128)
00001e51: 00 00 00 00 00 00 00 40 00 00 00 00 00 00 00 00
00001e61: 00 00 00 00 00 00 00 00 00 00 00 00 00 00 00 00
00001e71: 00 00 00 00 00 00 00 00 00 00 00 00 00 00 00 00
00001e81: 00 00 00 00 00 00 00 00 00 00 00 00 00 00 00 00
00001e91: 0e 00 5f 00 cf 00 00 00 00 00 ab 00 2f 00 4e 00
00001ea1: f0 00 20 00 00 00 80 00 b0 00 00 00 00 00 00 00
00001eb1: 00 00 00 00 00 00 00 00 00 00 00 00 00 00 00 00
00001ec1: 00 00 00 00 00 00 00 00 00 00 00 00 00 00 00 00

# UDBSWITCH_1_5 (count=128)
00001ed1: 00 00 00 00 00 00 00 00 00 00 00 00 00 00 00 00
00001ee1: 00 00 00 00 00 00 00 00 00 00 00 00 00 00 00 00
00001ef1: 00 00 00 00 00 00 00 00 00 00 00 00 00 00 00 00
00001f01: 00 00 00 00 00 00 00 00 00 00 00 00 00 00 00 00
00001f11: 00 00 00 00 00 00 00 00 00 00 00 00 00 00 00 00
00001f21: 00 00 00 00 00 00 00 00 00 00 00 00 00 00 00 00
00001f31: 00 00 00 00 00 00 00 00 00 00 00 00 00 00 00 00
00001f41: 00 00 00 00 00 00 00 00 00 00 00 00 00 00 00 00

# UDB_2_5_HV_ROUTING + 0x00000080 (count=128)
00001f51: 00 00 00 00 00 00 00 00 00 00 00 00 00 00 00 00
00001f61: 00 00 00 00 00 00 00 00 00 00 00 00 00 00 00 00
00001f71: 00 00 00 00 00 00 00 00 00 00 00 00 00 00 00 00
00001f81: 00 00 00 00 00 00 00 00 00 00 00 00 00 00 00 00
00001f91: 00 00 00 00 00 00 00 00 00 00 00 00 00 00 00 00
00001fa1: 00 00 00 00 00 00 00 00 00 00 00 00 00 00 00 00
00001fb1: 00 00 08 00 00 00 00 00 00 00 00 00 00 00 00 00
00001fc1: 00 00 00 00 00 00 00 00 00 00 00 00 00 00 00 00

# DSISWITCH_1_0 (count=128)
00001fd1: 00 00 08 00 00 40 00 00 02 00 00 00 00 00 00 40
00001fe1: 00 00 00 00 00 00 00 00 00 00 00 00 00 00 00 00
00001ff1: 00 00 00 00 00 00 00 00 00 00 00 00 00 00 00 00
00002001: 00 00 00 00 00 00 00 00 00 00 00 00 00 00 00 00
00002011: 00 00 00 00 00 00 00 00 00 00 00 00 00 00 00 00
00002021: 00 00 00 00 00 00 00 00 00 00 00 00 00 00 00 00
00002031: 00 00 00 00 00 00 00 00 00 00 00 00 00 00 00 00
00002041: 00 00 00 00 00 00 00 00 00 00 00 00 00 00 00 00

# DSI3_0_HV_ROUTING + 0x00000080 (count=128)
00002051: 02 00 00 00 00 00 08 40 00 40 00 00 00 00 00 00
00002061: 00 00 00 00 00 00 00 00 00 00 00 00 00 00 00 00
00002071: 00 00 00 00 00 00 00 00 00 00 00 00 00 00 00 00
00002081: 00 00 00 00 00 00 00 00 00 00 00 00 00 00 00 00
00002091: c0 00 30 00 00 00 00 00 00 00 00 00 00 00 00 00
000020a1: 00 00 00 00 00 00 00 00 00 00 00 00 00 00 00 00
000020b1: 10 00 00 00 c0 00 00 00 00 00 00 00 00 00 00 00
000020c1: 00 00 00 00 00 00 00 00 00 00 00 00 00 00 00 00

# DSISWITCH_1_1 (count=128)
000020d1: 00 00 00 00 00 00 00 00 00 00 00 00 00 00 00 00
000020e1: 00 00 00 00 00 00 00 00 00 00 00 00 00 00 00 00
000020f1: 00 00 00 00 00 00 00 00 00 00 00 00 00 00 00 00
00002101: 00 00 00 00 00 00 00 00 00 00 00 00 00 00 00 00
00002111: 00 00 00 00 00 00 00 00 00 00 00 00 00 00 00 00
00002121: 00 00 00 00 00 00 00 00 00 00 00 00 00 00 00 00
00002131: 00 00 00 00 00 00 00 00 00 00 00 00 00 00 00 00
00002141: 00 00 00 00 00 00 00 00 00 00 00 00 00 00 00 00

# DSI3_1_HV_ROUTING + 0x00000080 (count=128)
00002151: 00 00 00 00 00 00 00 00 00 00 00 00 00 00 00 00
00002161: 00 00 00 00 00 00 00 00 00 00 00 00 00 00 00 00
00002171: 00 00 00 00 00 00 00 00 00 00 00 00 00 00 00 00
00002181: 00 00 00 00 00 00 00 00 00 00 00 00 00 00 00 00
00002191: 00 00 00 00 00 00 00 00 00 00 00 00 00 00 00 00
000021a1: 00 00 00 00 00 00 00 00 00 00 00 00 00 00 00 00
000021b1: 00 00 00 00 00 00 00 00 00 00 00 00 00 00 00 00
000021c1: 00 00 00 00 00 00 00 00 00 00 00 00 00 00 00 00

# DSISWITCH_1_2 (count=128)
000021d1: 00 00 00 00 00 00 00 00 00 00 00 00 00 00 00 00
000021e1: 00 00 00 00 00 00 00 00 00 00 00 00 00 00 00 00
000021f1: 00 00 00 00 00 00 00 00 00 00 00 00 00 00 00 00
00002201: 00 00 00 00 00 00 00 00 00 00 00 00 00 00 00 00
00002211: 00 00 00 00 00 00 00 00 00 00 00 00 00 00 00 00
00002221: 00 00 00 00 00 00 00 00 00 00 00 00 00 00 00 00
00002231: 00 00 00 00 00 00 00 00 00 00 00 00 00 00 00 00
00002241: 00 00 00 00 00 00 00 00 00 00 00 00 00 00 00 00

# DSI3_2_HV_ROUTING + 0x00000080 (count=128)
00002251: 00 00 00 08 00 00 20 00 00 00 00 00 00 00 00 00
00002261: 00 00 00 00 00 00 00 00 00 00 00 00 00 00 00 00
00002271: 00 00 00 00 00 00 20 08 00 00 00 00 00 00 00 00
00002281: 00 00 00 00 00 00 00 00 00 00 00 00 00 00 00 00
00002291: 00 00 00 00 00 00 00 00 00 00 00 00 00 00 00 00
000022a1: 00 00 00 00 00 00 00 00 00 00 00 00 00 00 00 00
000022b1: 00 00 00 00 00 00 c0 00 00 00 00 00 00 00 00 00
000022c1: 00 00 00 00 00 00 00 00 00 00 00 00 00 00 00 00

# DSISWITCH_1_3 (count=128)
000022d1: 00 00 00 00 00 00 00 00 00 00 00 00 00 00 00 00
000022e1: 00 00 00 00 00 00 00 00 00 00 00 00 00 00 00 00
000022f1: 00 00 00 00 00 00 00 00 00 00 00 00 00 00 00 00
00002301: 00 00 00 00 00 00 00 00 00 00 00 00 00 00 00 00
00002311: 00 00 00 00 00 00 00 00 00 00 00 00 00 00 00 00
00002321: 00 00 00 08 00 00 00 00 00 00 00 00 00 00 00 00
00002331: 00 00 00 00 00 00 00 00 00 00 00 00 00 00 00 00
00002341: 00 00 00 00 00 00 00 00 00 00 00 00 00 00 00 00

# DSI3_3_HV_ROUTING + 0x00000080 (count=128)
00002351: 00 00 00 00 00 00 00 00 00 00 00 00 00 00 00 00
00002361: 00 00 00 00 00 00 00 00 00 00 00 00 00 00 00 00
00002371: 00 00 00 00 00 00 20 00 00 00 00 00 00 00 00 00
00002381: 00 00 00 00 00 00 00 00 00 00 00 00 00 00 00 00
00002391: 00 00 00 00 00 00 00 00 00 00 00 00 00 00 00 00
000023a1: 00 00 00 00 20 00 00 00 00 00 00 00 00 00 00 00
000023b1: 00 00 00 00 00 00 00 00 00 00 00 00 00 00 00 00
000023c1: 00 00 00 00 00 00 00 00 00 00 00 00 00 00 00 00

# DSISWITCH_1_4 (count=128)
000023d1: 00 00 00 00 00 00 00 00 00 00 00 00 00 00 00 00
000023e1: 00 00 00 00 00 00 00 00 00 00 00 00 00 00 00 00
000023f1: 00 00 00 00 00 00 00 00 00 00 00 00 00 00 00 00
00002401: 00 00 00 00 00 00 00 00 00 00 00 00 00 00 00 00
00002411: 00 00 00 00 00 00 00 00 00 00 00 00 00 00 00 00
00002421: 00 00 00 00 00 00 00 00 00 00 00 00 00 00 00 00
00002431: 00 00 00 00 00 00 00 00 00 00 00 00 00 00 00 00
00002441: 00 00 00 00 00 00 00 00 00 00 00 00 00 00 00 00

# DSI3_4_HV_ROUTING + 0x00000080 (count=128)
00002451: 00 00 00 00 00 00 00 00 00 00 00 00 00 00 00 00
00002461: 00 00 00 00 00 00 00 00 00 00 00 00 00 00 00 00
00002471: 00 00 00 00 00 00 20 00 00 00 00 00 00 00 00 00
00002481: 00 00 00 00 00 00 00 00 00 00 00 00 00 00 00 00
00002491: 00 00 00 00 00 00 00 00 00 00 00 00 00 00 00 00
000024a1: 00 00 00 00 00 00 00 00 00 00 00 00 00 00 00 00
000024b1: 00 00 00 00 00 00 00 00 00 00 00 00 00 00 00 00
000024c1: 00 00 00 00 00 00 00 00 00 00 00 00 00 00 00 00

# DSISWITCH_1_5 (count=128)
000024d1: 00 00 00 00 00 00 00 00 00 00 00 00 00 00 00 00
000024e1: 00 00 00 00 00 00 00 00 00 00 00 00 00 00 00 00
000024f1: 00 00 00 00 00 00 00 00 00 00 00 00 00 00 00 00
00002501: 00 00 20 00 00 80 00 00 00 00 00 00 00 00 00 00
00002511: 00 00 00 00 00 00 00 00 00 00 00 00 00 00 00 00
00002521: 00 00 00 00 00 00 00 00 00 00 00 00 00 00 00 00
00002531: 00 00 00 00 00 00 00 00 00 00 00 00 00 00 00 00
00002541: 00 00 00 00 00 00 00 00 00 00 00 00 00 00 00 00

# DSI3_5_HV_ROUTING + 0x00000080 (count=128)
00002551: 00 00 00 00 00 80 00 00 00 00 00 00 00 00 00 00
00002561: 00 00 00 00 00 00 00 00 00 00 00 00 00 00 00 00
00002571: 00 00 00 00 00 00 00 00 00 00 00 00 00 00 00 00
00002581: 00 00 00 00 00 00 00 00 00 00 00 00 00 00 00 00
00002591: 00 00 00 00 00 00 00 00 00 00 00 00 30 00 00 00
000025a1: 00 00 00 00 00 00 00 00 00 00 00 00 00 00 00 00
000025b1: 00 00 10 00 00 00 00 00 00 00 00 00 00 00 00 00
000025c1: 00 00 00 00 00 00 00 00 00 00 00 00 00 00 00 00

